UNITSIZE,X_NW_GB_C2_50,X_NW_EN _G3_50,X_AM_GB_C2_50,X_AM_EN _G3_50,X_NW_GB_0_50,B_NW_GB_C1_50,B_NW_GB_C2_50,B_NW_GB_Z1_50,B_NW_GB_Z2_50,B_NW_GB_GZ_50,B_NW_GB_YG_50,B_NW_GB_C1_50,B_NW_GB_C2_50,B_NW_GB_Z1_50,B_NW_GB_Z2_50,B_NW_GB_GZ_50,B_NW_GB_YG_50,B_NW_EN _G3_50,B_NW_EN _G4_50,B_NW_EN _M5_50,B_NW_EN _M6_50,B_NW_EN _F7_50,B_NW_EN _F8_50,B_NW_EN _F9_50,B_NW_EN _G3_50,B_NW_EN _G4_50,B_NW_EN _M5_50,B_NW_EN _M6_50,B_NW_EN _F7_50,B_NW_EN _F8_50,B_NW_EN _F9_50,B_NW_EN _GF7_50,B_NW_EN _GF8_50,B_NW_EN _GF9_50,B_NW_GB_0_50,P_NW_GB_C1_50,P_NW_GB_C2_50,P_NW_EN _G3_50,P_NW_EN _G4_50,P_AM_GB_C2_50,P_AM_EN _G3_50,P_NW_GB_0_50
0608,,,,,,,,,,,,,,,,,,,,,,,,,,,,,,,,,,,,,,,,,,
0609,,,,,,,,,,,,,,,,,,,,,,,,,,,,,,,,,,,,,,,,,,
0711,,,,,,,,,,,,,,,,,,,,,,,,,,,,,,,,,,,,,,,,,,
0811,,,,,,,,,,,,,,,,,,,,,,,,,,,,,,,,,,,,,,,,,,
0912,,,,,,,,,,,,,,,,,,,,,,,,,,,,,,,,,,,,,,,,,,
0913,,,,,,,,,,,,,,,,,,,,,,,,,,,,,,,,,,,,,,,,,,
0914,,,,,,,,,,,,,,,,,,,,,,,,,,,,,,,,,,,,,,,,,,
1015,,,,,,,,,,,,,,,,,,,,,,,,,,,,,,,,,,,,,,,,,,
1117,,,,,,,,,,,,,,,,,,,,,,,,,,,,,,,,,,,,,,,,,,
1317,,,,,,,,,,,,,,,,,,,,,,,,,,,,,,,,,,,,,,,,,,
1418,,,,,,,,,,,,,,,,,,,,,,,,,,,,,,,,,,,,,,,,,,
1420,,,,,,,,,,,,,,,,,,,,,,,,,,,,,,,,,,,,,,,,,,
1621,,,,,,,,,,,,,,,,,,,,,,,,,,,,,,,,,,,,,,,,,,
1822,,,,,,,,,,,,,,,,,,,,,,,,,,,,,,,,,,,,,,,,,,
1825,,,,,,,,,,,,,,,,,,,,,,,,,,,,,,,,,,,,,,,,,,
2025,,,,,,,,,,,,,,,,,,,,,,,,,,,,,,,,,,,,,,,,,,
2125,,,,,,,,,,,,,,,,,,,,,,,,,,,,,,,,,,,,,,,,,,
2226,,,,,,,,,,,,,,,,,,,,,,,,,,,,,,,,,,,,,,,,,,
2328,,,,,,,,,,,,,,,,,,,,,,,,,,,,,,,,,,,,,,,,,,
2330,,,,,,,,,,,,,,,,,,,,,,,,,,,,,,,,,,,,,,,,,,
2333,,,,,,,,,,,,,,,,,,,,,,,,,,,,,,,,,,,,,,,,,,
2532,,,,,,,,,,,,,,,,,,,,,,,,,,,,,,,,,,,,,,,,,,
2832,,,,,,,,,,,,,,,,,,,,,,,,,,,,,,,,,,,,,,,,,,
3132,,,,,,,,,,,,,,,,,,,,,,,,,,,,,,,,,,,,,,,,,,
3438,,,,,,,,,,,,,,,,,,,,,,,,,,,,,,,,,,,,,,,,,,
3841,,,,,,,,,,,,,,,,,,,,,,,,,,,,,,,,,,,,,,,,,,
4444,,,,,,,,,,,,,,,,,,,,,,,,,,,,,,,,,,,,,,,,,,
4750,,,,,,,,,,,,,,,,,,,,,,,,,,,,,,,,,,,,,,,,,,