2019.4.19 修正启动柜价格调用错误，更新codedatabase数据库及DLL
2019.4.22 修正了高效过滤段H10,H12,H14,C效率价格生成，更新更新codedatabase数据库
2019.4.30 修正了价格引擎，新增加39XT正压门带检修灯选项及价格
          更新了数据库及引擎，增加机组包装方式X选项
2019.5.24 修正了价格引擎，新回排风段新增加39XT正压门选项
2019.6.21 更新CQ箱体段价格
2019.7.16 新增GE WE3及变频电机计算
2019.7.29 更新价格引擎，针对标准的W2,W4机组，参照老版本有个系数
2019.10.23 更新价格引擎，增加了西门子电机价格，修正了39CQ底面板价格计算错误，不锈钢板利用率，增加了机组价格系数，增加了运算过程LOG文件输出
2019.11.19 版本更新为2.0，新增加2435，2635，2735型号，并修正了原始价格库，采购件大部分采用SAP相同料号，风机采用VC采购价格
2019.11.29 修正了在计算价格中频繁提示出错的BUG.
2020.1.3 内嵌SAP VC包装计算逻辑
2020.3.10 codedatabase中NQFILTER格式不对，导致过滤器计算有错
2020.3.22 原价格引擎计算新回排时出错。
2020.3.26 补全部分西门子变频电机价格。
2020.3.31 2435,2635,2735机组选择铜盘管时无法计算价格。
2020.4.1 补充KRUGER FDA,BDB 1000风机价格
2020.4.3 混合段及或者出风段选择法兰时，价格有误，更新数据库BOM数据。
2020.4.8 数据表格中，39CQ1015-1420机组价格系数有误，调整为正常值1，39CQ1825系数从1.01调整为1
         选择侧抽过滤8M段长时价格有误
         过滤段选择压差计时，计算价格有误
2020.4.15 3438蒸汽盘管价格右向价格缺失
2020.4.20 更新1400风机价格
2020.5.13 更新1600风机价格
2020.5.26 增加西门子/ABB异电压价格， 增加毅科部分转轮价格。
2020.5.29 增加遗漏的观察窗价格，增加3个孔及以上底座计算逻辑,增加CQ2M中间框条价格
2020.6.19 综合过滤段选择G1铝网过滤时解码有误。
2020.6.23 增加2435/2635/2735干蒸加湿电磁阀模拟量价格。
2020.8.4 codedatabase中PBFILTER数据有误，导致PM2.5价格计算有误
2020.10.15 调整4分管7排/5排翅片利用率
2020.11.24 添加了遗漏的部分一级微穿孔消音器价格，包含型号:0608,0609,1015,2832,3132,3438,3841,4444,4750,2735
           添加了遗漏的部分二级微穿孔消音器价格，包含型号:0608,0609,0711,0811,0912,0913,0914,1418,1420,1621
                                                          2125,2226,2328,2330,2333,2532,2832,3132,3438,3841
                                                          4444,4750,2435,2635
2020.12.8 增加Kruger风机ADA系列部分价格
2021.1.18 增加备用过滤器价格计算
2021.1.25 增加16X24,24X20 H14高效过滤器价格,原价格缺失,导致无法计算价格
