FANTYPE,MOTORBASENO,CODE,INNERWIDTH,ABB,WOLONG,DONGYUAN,GE,PTABB,PTWOLONG,PTDONGYUAN,PTGE,SIZE
39CQ0608,Y80,160,790,831,809,864,812,798,776,770,776,70
39CQ0608,Y90S,160,790,842,847,909,852,834,806,821,806,70
39CQ0608,Y90L,160,790,867,872,934,872,834,828,846,828,70
39CQ0608,Y80,180,790,809,787,842,790,766,744,738,744,70
39CQ0608,Y90S,180,790,820,825,887,830,802,774,789,774,70
39CQ0608,Y90L,180,790,845,850,912,850,802,796,814,796,70
39CQ0609,Y80,180,890,801,779,834,782,758,736,730,736,70
39CQ0609,Y90S,180,890,812,817,879,822,794,766,781,766,70
39CQ0609,Y90L,180,890,837,842,904,842,794,788,806,788,70
39CQ0609,Y100L,180,890,877,867,908,897,818,838,829,838,70
39CQ0609,Y80,200,890,837,815,871,818,794,772,766,772,70
39CQ0609,Y90S,200,890,848,853,915,858,830,802,818,802,70
39CQ0609,Y90L,200,890,873,878,940,878,830,824,843,824,70
39CQ0609,Y100L,200,890,913,903,944,933,854,874,865,874,70
39CQ0609,Y112M,200,890,918,912,948,953,876,890,886,890,70
39CQ0711,Y80,200,1090,937,915,971,918,894,872,866,872,70
39CQ0711,Y90S,200,1090,948,953,1015,958,930,902,918,902,70
39CQ0711,Y90L,200,1090,973,978,1040,978,930,924,943,924,70
39CQ0711,Y100L,200,1090,1013,1003,1044,1033,954,974,965,974,70
39CQ0711,Y112M,200,1090,1018,1012,1048,1053,976,990,986,990,70
39CQ0711,Y80,225,1090,885,863,919,866,842,820,814,820,70
39CQ0711,Y90S,225,1090,896,901,963,906,868,840,856,840,70
39CQ0711,Y90L,225,1090,921,926,988,926,868,862,881,862,70
39CQ0711,Y100L,225,1090,961,951,992,981,892,912,903,912,70
39CQ0711,Y112M,225,1090,966,960,996,1001,914,928,924,928,70
39CQ0811,Y80,225,1090,885,863,919,866,842,820,814,820,70
39CQ0811,Y90S,225,1090,896,901,963,906,868,840,856,840,70
39CQ0811,Y90L,225,1090,921,926,988,926,868,862,881,862,70
39CQ0811,Y100L,225,1090,961,951,992,981,892,912,903,912,70
39CQ0811,Y112M,225,1090,966,960,996,1001,914,928,924,928,70
39CQ0811,Y80,250,1090,930,908,964,911,887,865,859,865,70
39CQ0811,Y90S,250,1090,941,946,1008,951,913,885,901,885,70
39CQ0811,Y90L,250,1090,966,971,1033,971,913,907,926,907,70
39CQ0811,Y100L,250,1090,1006,996,1037,1026,937,957,948,957,70
39CQ0811,Y112M,250,1090,1011,1005,1041,1046,959,973,969,973,70
39CQ0811,Y132S,250,1090,1056,1051,1113,1046,1089,1010,1022,1010,110
39CQ0811,Y132M,250,1090,1096,1091,1151,1086,1089,1047,1060,1047,110
39CQ0912,Y80,250,1190,980,958,1014,961,937,915,909,915,110
39CQ0912,Y90S,250,1190,991,996,1058,1001,963,935,951,935,110
39CQ0912,Y90L,250,1190,1016,1021,1083,1021,963,957,976,957,110
39CQ0912,Y100L,250,1190,1056,1046,1087,1076,987,1007,998,1007,110
39CQ0912,Y112M,250,1190,1061,1055,1091,1096,1009,1023,1019,1023,110
39CQ0912,Y132S,250,1190,1106,1101,1163,1096,1139,1060,1072,1060,110
39CQ0912,Y132M,250,1190,1146,1141,1201,1136,1139,1097,1110,1097,110
39CQ0912,Y80,280,1190,1014,992,1048,995,971,949,943,949,110
39CQ0912,Y90S,280,1190,1025,1030,1092,1035,1007,979,995,979,110
39CQ0912,Y90L,280,1190,1050,1055,1117,1055,1007,1001,1020,1001,110
39CQ0912,Y100L,280,1190,1090,1080,1121,1110,1031,1051,1042,1051,110
39CQ0912,Y112M,280,1190,1095,1089,1125,1130,1053,1067,1063,1067,110
39CQ0912,Y132S,280,1190,1140,1135,1197,1130,1183,1104,1116,1104,110
39CQ0912,Y132M,280,1190,1180,1175,1235,1170,1183,1141,1154,1141,110
39CQ0913,Y80,280,1290,1064,1042,1098,1045,1021,999,993,999,110
39CQ0913,Y90S,280,1290,1075,1080,1142,1085,1057,1029,1045,1029,110
39CQ0913,Y90L,280,1290,1100,1105,1167,1105,1057,1051,1070,1051,110
39CQ0913,Y100L,280,1290,1140,1130,1171,1160,1081,1101,1092,1101,110
39CQ0913,Y112M,280,1290,1145,1139,1175,1180,1103,1117,1113,1117,110
39CQ0913,Y132S,280,1290,1190,1185,1247,1180,1233,1154,1166,1154,110
39CQ0913,Y132M,280,1290,1230,1225,1285,1220,1233,1191,1204,1191,110
39CQ0913,Y80,315,1290,1076,1054,1110,1057,1033,1011,1005,1011,110
39CQ0913,Y90S,315,1290,1087,1092,1154,1097,1069,1041,1057,1041,110
39CQ0913,Y90L,315,1290,1112,1117,1179,1117,1069,1063,1082,1063,110
39CQ0913,Y100L,315,1290,1152,1142,1183,1172,1093,1113,1104,1113,110
39CQ0913,Y112M,315,1290,1157,1151,1187,1192,1115,1129,1125,1129,110
39CQ0913,Y132S,315,1290,1202,1197,1259,1192,1245,1166,1178,1166,110
39CQ0913,Y132M,315,1290,1242,1237,1297,1232,1245,1203,1216,1203,110
39CQ0914,Y80,315,1390,1076,1054,1110,1057,1033,1011,1005,1011,110
39CQ0914,Y90S,315,1390,1087,1092,1154,1097,1069,1041,1057,1041,110
39CQ0914,Y90L,315,1390,1112,1117,1179,1117,1069,1063,1082,1063,110
39CQ0914,Y100L,315,1390,1152,1142,1183,1172,1093,1113,1104,1113,110
39CQ0914,Y112M,315,1390,1157,1151,1187,1192,1115,1129,1125,1129,110
39CQ0914,Y132S,315,1390,1202,1197,1259,1192,1245,1166,1178,1166,110
39CQ0914,Y132M,315,1390,1242,1237,1297,1232,1245,1203,1216,1203,110
39CQ0914,Y80,355,1390,1161,1139,1194,1142,1118,1096,1090,1096,110
39CQ0914,Y90S,355,1390,1172,1177,1239,1182,1144,1116,1131,1116,110
39CQ0914,Y90L,355,1390,1197,1202,1264,1202,1144,1138,1156,1138,110
39CQ0914,Y100L,355,1390,1237,1227,1268,1257,1158,1178,1169,1178,110
39CQ0914,Y112M,355,1390,1242,1236,1271,1277,1180,1194,1189,1194,110
39CQ0914,Y132S,355,1390,1287,1282,1344,1277,1305,1226,1238,1226,110
39CQ0914,Y132M,355,1390,1327,1322,1382,1317,1305,1263,1276,1263,110
39CQ1015,Y80,355,1490,1161,1139,1194,1142,1118,1096,1090,1096,110
39CQ1015,Y90S,355,1490,1172,1177,1239,1182,1144,1116,1131,1116,110
39CQ1015,Y90L,355,1490,1197,1202,1264,1202,1144,1138,1156,1138,110
39CQ1015,Y100L,355,1490,1237,1227,1268,1257,1158,1178,1169,1178,110
39CQ1015,Y112M,355,1490,1242,1236,1271,1277,1180,1194,1189,1194,110
39CQ1015,Y132S,355,1490,1287,1282,1344,1277,1305,1226,1238,1226,110
39CQ1015,Y132M,355,1490,1327,1322,1382,1317,1305,1263,1276,1263,110
39CQ1015,Y80,400,1490,1262,1240,1296,1243,1219,1197,1191,1197,110
39CQ1015,Y90S,400,1490,1273,1278,1340,1283,1245,1217,1233,1217,110
39CQ1015,Y90L,400,1490,1298,1303,1365,1303,1245,1239,1258,1239,110
39CQ1015,Y100L,400,1490,1338,1328,1369,1358,1259,1279,1270,1279,110
39CQ1015,Y112M,400,1490,1343,1337,1373,1378,1281,1295,1291,1295,110
39CQ1015,Y132S,400,1490,1388,1383,1445,1378,1406,1327,1339,1327,110
39CQ1015,Y132M,400,1490,1428,1423,1483,1418,1406,1364,1377,1364,110
39CQ1015,Y160M,400,1490,1508,1471,1541,1483,1457,1463,1481,1463,110
39CQ1015,Y160L,400,1490,1553,1526,1585,1528,1457,1507,1525,1507,110
39CQ1117,Y80,400,1690,1262,1240,1296,1243,1219,1197,1191,1197,110
39CQ1117,Y90S,400,1690,1273,1278,1340,1283,1245,1217,1233,1217,110
39CQ1117,Y90L,400,1690,1298,1303,1365,1303,1245,1239,1258,1239,110
39CQ1117,Y100L,400,1690,1338,1328,1369,1358,1259,1279,1270,1279,110
39CQ1117,Y112M,400,1690,1343,1337,1373,1378,1281,1295,1291,1295,110
39CQ1117,Y132S,400,1690,1388,1383,1445,1378,1406,1327,1339,1327,110
39CQ1117,Y132M,400,1690,1428,1423,1483,1418,1406,1364,1377,1364,110
39CQ1117,Y160M,400,1690,1508,1471,1541,1483,1457,1463,1481,1463,110
39CQ1117,Y160L,400,1690,1553,1526,1585,1528,1457,1507,1525,1507,110
39CQ1117,Y80,450,1690,1348,1326,1382,1329,1305,1283,1277,1283,110
39CQ1117,Y90S,450,1690,1359,1364,1426,1369,1331,1303,1319,1303,110
39CQ1117,Y90L,450,1690,1384,1389,1451,1389,1331,1325,1344,1325,110
39CQ1117,Y100L,450,1690,1424,1414,1455,1444,1345,1365,1356,1365,110
39CQ1117,Y112M,450,1690,1429,1423,1459,1464,1367,1381,1377,1381,110
39CQ1117,Y132S,450,1690,1474,1469,1531,1464,1487,1408,1420,1408,110
39CQ1117,Y132M,450,1690,1514,1509,1569,1504,1487,1445,1458,1445,110
39CQ1117,Y160M,450,1690,1594,1557,1627,1569,1538,1544,1562,1544,110
39CQ1117,Y160L,450,1690,1639,1612,1671,1614,1538,1588,1606,1588,110
39CQ1317,Y80,400,1690,1262,1240,1296,1243,1219,1197,1191,1197,110
39CQ1317,Y90S,400,1690,1273,1278,1340,1283,1245,1217,1233,1217,110
39CQ1317,Y90L,400,1690,1298,1303,1365,1303,1245,1239,1258,1239,110
39CQ1317,Y100L,400,1690,1338,1328,1369,1358,1259,1279,1270,1279,110
39CQ1317,Y112M,400,1690,1343,1337,1373,1378,1281,1295,1291,1295,110
39CQ1317,Y132S,400,1690,1388,1383,1445,1378,1406,1327,1339,1327,110
39CQ1317,Y132M,400,1690,1428,1423,1483,1418,1406,1364,1377,1364,110
39CQ1317,Y160M,400,1690,1508,1471,1541,1483,1457,1463,1481,1463,110
39CQ1317,Y160L,400,1690,1553,1526,1585,1528,1457,1507,1525,1507,110
39CQ1317,Y80,450,1690,1348,1326,1382,1329,1305,1283,1277,1283,110
39CQ1317,Y90S,450,1690,1359,1364,1426,1369,1331,1303,1319,1303,110
39CQ1317,Y90L,450,1690,1384,1389,1451,1389,1331,1325,1344,1325,110
39CQ1317,Y100L,450,1690,1424,1414,1455,1444,1345,1365,1356,1365,110
39CQ1317,Y112M,450,1690,1429,1423,1459,1464,1367,1381,1377,1381,110
39CQ1317,Y132S,450,1690,1474,1469,1531,1464,1487,1408,1420,1408,110
39CQ1317,Y132M,450,1690,1514,1509,1569,1504,1487,1445,1458,1445,110
39CQ1317,Y160M,450,1690,1594,1557,1627,1569,1538,1544,1562,1544,110
39CQ1317,Y160L,450,1690,1639,1612,1671,1614,1538,1588,1606,1588,110
39CQ1418,Y80,450,1790,1348,1326,1382,1329,1305,1283,1277,1283,110
39CQ1418,Y90S,450,1790,1359,1364,1426,1369,1331,1303,1319,1303,110
39CQ1418,Y90L,450,1790,1384,1389,1451,1389,1331,1325,1344,1325,110
39CQ1418,Y100L,450,1790,1424,1414,1455,1444,1345,1365,1356,1365,110
39CQ1418,Y112M,450,1790,1429,1423,1459,1464,1367,1381,1377,1381,110
39CQ1418,Y132S,450,1790,1474,1469,1531,1464,1487,1408,1420,1408,110
39CQ1418,Y132M,450,1790,1514,1509,1569,1504,1487,1445,1458,1445,110
39CQ1418,Y160M,450,1790,1594,1557,1627,1569,1538,1544,1562,1544,110
39CQ1418,Y160L,450,1790,1639,1612,1671,1614,1538,1588,1606,1588,110
39CQ1418,Y80,500,1790,1443,1421,1476,1424,1400,1378,1372,1378,110
39CQ1418,Y90S,500,1790,1454,1459,1521,1464,1426,1398,1413,1398,110
39CQ1418,Y90L,500,1790,1479,1484,1546,1484,1426,1420,1438,1420,110
39CQ1418,Y100L,500,1790,1519,1509,1550,1539,1450,1470,1461,1470,110
39CQ1418,Y112M,500,1790,1524,1518,1553,1559,1472,1486,1481,1486,110
39CQ1418,Y132S,500,1790,1569,1564,1626,1559,1602,1523,1535,1523,110
39CQ1418,Y132M,500,1790,1609,1604,1664,1599,1602,1560,1573,1560,110
39CQ1418,Y160M,500,1790,1689,1652,1722,1664,1653,1659,1677,1659,110
39CQ1418,Y160L,500,1790,1734,1707,1766,1709,1653,1703,1721,1703,110
39CQ1420,Y80,500,1990,1443,1421,1476,1424,1400,1378,1372,1378,110
39CQ1420,Y90S,500,1990,1454,1459,1521,1464,1426,1398,1413,1398,110
39CQ1420,Y90L,500,1990,1479,1484,1546,1484,1426,1420,1438,1420,110
39CQ1420,Y100L,500,1990,1519,1509,1550,1539,1450,1470,1461,1470,110
39CQ1420,Y112M,500,1990,1524,1518,1553,1559,1472,1486,1481,1486,110
39CQ1420,Y132S,500,1990,1569,1564,1626,1559,1602,1523,1535,1523,110
39CQ1420,Y132M,500,1990,1609,1604,1664,1599,1602,1560,1573,1560,110
39CQ1420,Y160M,500,1990,1689,1652,1722,1664,1653,1659,1677,1659,110
39CQ1420,Y160L,500,1990,1734,1707,1766,1709,1653,1703,1721,1703,110
39CQ1420,Y80,560,1990,1597,1575,1630,1578,1554,1532,1526,1532,110
39CQ1420,Y90S,560,1990,1608,1613,1675,1618,1580,1552,1567,1552,110
39CQ1420,Y90L,560,1990,1633,1638,1700,1638,1580,1574,1592,1574,110
39CQ1420,Y100L,560,1990,1673,1663,1704,1693,1594,1614,1605,1614,110
39CQ1420,Y112M,560,1990,1678,1672,1707,1713,1616,1630,1625,1630,110
39CQ1420,Y132S,560,1990,1723,1718,1780,1713,1736,1657,1669,1657,110
39CQ1420,Y132M,560,1990,1763,1758,1818,1753,1736,1694,1707,1694,110
39CQ1420,Y160M,560,1990,1843,1806,1876,1818,1787,1793,1811,1793,110
39CQ1420,Y160L,560,1990,1888,1861,1920,1863,1787,1837,1855,1837,110
39CQ1420,Y180M,560,1990,1908,1883,1954,1928,1884,1858,1875,1858,110
39CQ1420,Y180L,560,1990,1948,1923,1992,1963,1884,1896,1913,1896,110
39CQ1621,Y80,560,2090,1597,1575,1630,1578,1554,1532,1526,1532,110
39CQ1621,Y90S,560,2090,1608,1613,1675,1618,1580,1552,1567,1552,110
39CQ1621,Y90L,560,2090,1633,1638,1700,1638,1580,1574,1592,1574,110
39CQ1621,Y100L,560,2090,1673,1663,1704,1693,1594,1614,1605,1614,110
39CQ1621,Y112M,560,2090,1678,1672,1707,1713,1616,1630,1625,1630,110
39CQ1621,Y132S,560,2090,1723,1718,1780,1713,1736,1657,1669,1657,110
39CQ1621,Y132M,560,2090,1763,1758,1818,1753,1736,1694,1707,1694,110
39CQ1621,Y160M,560,2090,1843,1806,1876,1818,1787,1793,1811,1793,110
39CQ1621,Y160L,560,2090,1888,1861,1920,1863,1787,1837,1855,1837,110
39CQ1621,Y180M,560,2090,1908,1883,1954,1928,1884,1858,1875,1858,110
39CQ1621,Y180L,560,2090,1948,1923,1992,1963,1884,1896,1913,1896,110
39CQ1621,Y80,630,2090,1728,1706,1761,1709,1685,1663,1657,1663,110
39CQ1621,Y90S,630,2090,1739,1744,1806,1749,1711,1683,1698,1683,110
39CQ1621,Y90L,630,2090,1764,1769,1831,1769,1711,1705,1723,1705,110
39CQ1621,Y100L,630,2090,1804,1794,1835,1824,1725,1745,1736,1745,110
39CQ1621,Y112M,630,2090,1809,1803,1838,1844,1747,1761,1756,1761,110
39CQ1621,Y132S,630,2090,1854,1849,1911,1844,1867,1788,1800,1788,110
39CQ1621,Y132M,630,2090,1894,1889,1949,1884,1867,1825,1838,1825,110
39CQ1621,Y160M,630,2090,1974,1937,2007,1949,1918,1924,1942,1924,110
39CQ1621,Y160L,630,2090,2019,1992,2051,1994,1918,1968,1986,1968,110
39CQ1621,Y180M,630,2090,2039,2014,2085,2059,2015,1989,2006,1989,110
39CQ1621,Y180L,630,2090,2079,2054,2123,2094,2015,2027,2044,2027,110
39CQ1621,Y200L,630,2090,2139,2130,2174,2144,2060,2130,2104,2130,110
39CQ1822,Y80,560,2190,1597,1575,1630,1578,1554,1532,1526,1532,110
39CQ1822,Y90S,560,2190,1608,1613,1675,1618,1580,1552,1567,1552,110
39CQ1822,Y90L,560,2190,1633,1638,1700,1638,1580,1574,1592,1574,110
39CQ1822,Y100L,560,2190,1673,1663,1704,1693,1594,1614,1605,1614,110
39CQ1822,Y112M,560,2190,1678,1672,1707,1713,1616,1630,1625,1630,110
39CQ1822,Y132S,560,2190,1723,1718,1780,1713,1736,1657,1669,1657,110
39CQ1822,Y132M,560,2190,1763,1758,1818,1753,1736,1694,1707,1694,110
39CQ1822,Y160M,560,2190,1843,1806,1876,1818,1787,1793,1811,1793,110
39CQ1822,Y160L,560,2190,1888,1861,1920,1863,1787,1837,1855,1837,110
39CQ1822,Y180M,560,2190,1908,1883,1954,1928,1884,1858,1875,1858,110
39CQ1822,Y180L,560,2190,1948,1923,1992,1963,1884,1896,1913,1896,110
39CQ1822,Y80,630,2190,1717,1695,1751,1698,1674,1652,1646,1652,110
39CQ1822,Y90S,630,2190,1728,1733,1795,1738,1700,1672,1688,1672,110
39CQ1822,Y90L,630,2190,1753,1758,1820,1758,1700,1694,1713,1694,110
39CQ1822,Y100L,630,2190,1793,1783,1824,1813,1714,1734,1725,1734,110
39CQ1822,Y112M,630,2190,1798,1792,1828,1833,1736,1750,1746,1750,110
39CQ1822,Y132S,630,2190,1843,1838,1900,1833,1856,1777,1789,1777,110
39CQ1822,Y132M,630,2190,1883,1878,1938,1873,1856,1814,1827,1814,110
39CQ1822,Y160M,630,2190,1963,1926,1996,1938,1907,1913,1931,1913,110
39CQ1822,Y160L,630,2190,2008,1981,2040,1983,1907,1957,1975,1957,110
39CQ1822,Y180M,630,2190,2028,2003,2074,2048,2004,1978,1995,1978,110
39CQ1822,Y180L,630,2190,2068,2043,2112,2083,2004,2016,2033,2016,110
39CQ1822,Y200L,630,2190,2128,2119,2163,2133,2049,2119,2093,2119,110
39CQ1825,Y80,630,2490,1717,1695,1751,1698,1674,1652,1646,1652,110
39CQ1825,Y90S,630,2490,1728,1733,1795,1738,1700,1672,1688,1672,110
39CQ1825,Y90L,630,2490,1753,1758,1820,1758,1700,1694,1713,1694,110
39CQ1825,Y100L,630,2490,1793,1783,1824,1813,1714,1734,1725,1734,110
39CQ1825,Y112M,630,2490,1798,1792,1828,1833,1736,1750,1746,1750,110
39CQ1825,Y132S,630,2490,1843,1838,1900,1833,1856,1777,1789,1777,110
39CQ1825,Y132M,630,2490,1883,1878,1938,1873,1856,1814,1827,1814,110
39CQ1825,Y160M,630,2490,1963,1926,1996,1938,1907,1913,1931,1913,110
39CQ1825,Y160L,630,2490,2008,1981,2040,1983,1907,1957,1975,1957,110
39CQ1825,Y180M,630,2490,2028,2003,2074,2048,2004,1978,1995,1978,110
39CQ1825,Y180L,630,2490,2068,2043,2112,2083,2004,2016,2033,2016,110
39CQ1825,Y200L,630,2490,2128,2119,2163,2133,2049,2119,2093,2119,110
39CQ1825,Y80,710,2490,1873,1851,1907,1854,1830,1808,1802,1808,110
39CQ1825,Y90S,710,2490,1884,1889,1951,1894,1856,1828,1844,1828,110
39CQ1825,Y90L,710,2490,1909,1914,1976,1914,1856,1850,1869,1850,110
39CQ1825,Y100L,710,2490,1949,1939,1980,1969,1870,1890,1881,1890,110
39CQ1825,Y112M,710,2490,1954,1948,1984,1989,1892,1906,1902,1906,110
39CQ1825,Y132S,710,2490,1999,1994,2056,1989,2002,1923,1935,1923,110
39CQ1825,Y132M,710,2490,2039,2034,2094,2029,2002,1960,1973,1960,110
39CQ1825,Y160M,710,2490,2119,2082,2152,2094,2043,2049,2067,2049,110
39CQ1825,Y160L,710,2490,2164,2137,2196,2139,2043,2093,2111,2093,110
39CQ1825,Y180M,710,2490,2184,2159,2230,2204,2140,2114,2131,2114,110
39CQ1825,Y180L,710,2490,2224,2199,2268,2239,2140,2152,2169,2152,110
39CQ1825,Y200L,710,2490,2284,2275,2319,2289,2185,2255,2229,2255,110
39CQ2025,Y80,630,2490,1685,1663,1718,1666,1642,1620,1614,1620,110
39CQ2025,Y90S,630,2490,1696,1701,1763,1706,1668,1640,1655,1640,110
39CQ2025,Y90L,630,2490,1721,1726,1788,1726,1668,1662,1680,1662,110
39CQ2025,Y100L,630,2490,1761,1751,1792,1781,1682,1702,1693,1702,110
39CQ2025,Y112M,630,2490,1766,1760,1795,1801,1704,1718,1713,1718,110
39CQ2025,Y132S,630,2490,1811,1806,1868,1801,1824,1745,1757,1745,110
39CQ2025,Y132M,630,2490,1851,1846,1906,1841,1824,1782,1795,1782,110
39CQ2025,Y160M,630,2490,1931,1894,1964,1906,1875,1881,1899,1881,110
39CQ2025,Y160L,630,2490,1976,1949,2008,1951,1875,1925,1943,1925,110
39CQ2025,Y180M,630,2490,1996,1971,2042,2016,1972,1946,1963,1946,110
39CQ2025,Y180L,630,2490,2036,2011,2080,2051,1972,1984,2001,1984,110
39CQ2025,Y200L,630,2490,2096,2087,2131,2101,2017,2087,2061,2087,110
39CQ2025,Y80,710,2490,1873,1851,1907,1854,1830,1808,1802,1808,110
39CQ2025,Y90S,710,2490,1884,1889,1951,1894,1856,1828,1844,1828,110
39CQ2025,Y90L,710,2490,1909,1914,1976,1914,1856,1850,1869,1850,110
39CQ2025,Y100L,710,2490,1949,1939,1980,1969,1870,1890,1881,1890,110
39CQ2025,Y112M,710,2490,1954,1948,1984,1989,1892,1906,1902,1906,110
39CQ2025,Y132S,710,2490,1999,1994,2056,1989,2002,1923,1935,1923,110
39CQ2025,Y132M,710,2490,2039,2034,2094,2029,2002,1960,1973,1960,110
39CQ2025,Y160M,710,2490,2119,2082,2152,2094,2043,2049,2067,2049,110
39CQ2025,Y160L,710,2490,2164,2137,2196,2139,2043,2093,2111,2093,110
39CQ2025,Y180M,710,2490,2184,2159,2230,2204,2140,2114,2131,2114,110
39CQ2025,Y180L,710,2490,2224,2199,2268,2239,2140,2152,2169,2152,110
39CQ2025,Y200L,710,2490,2284,2275,2319,2289,2185,2255,2229,2255,110
39CQ2025,Y225S,710,2490,2289,2301,2397,2300,2280,2305,2275,2305,110
39CQ2125,Y80,710,2490,1873,1851,1907,1854,1830,1808,1802,1808,110
39CQ2125,Y90S,710,2490,1884,1889,1951,1894,1856,1828,1844,1828,110
39CQ2125,Y90L,710,2490,1909,1914,1976,1914,1856,1850,1869,1850,110
39CQ2125,Y100L,710,2490,1949,1939,1980,1969,1870,1890,1881,1890,110
39CQ2125,Y112M,710,2490,1954,1948,1984,1989,1892,1906,1902,1906,110
39CQ2125,Y132S,710,2490,1999,1994,2056,1989,2002,1923,1935,1923,110
39CQ2125,Y132M,710,2490,2039,2034,2094,2029,2002,1960,1973,1960,110
39CQ2125,Y160M,710,2490,2119,2082,2152,2094,2043,2049,2067,2049,110
39CQ2125,Y160L,710,2490,2164,2137,2196,2139,2043,2093,2111,2093,110
39CQ2125,Y180M,710,2490,2184,2159,2230,2204,2140,2114,2131,2114,110
39CQ2125,Y180L,710,2490,2224,2199,2268,2239,2140,2152,2169,2152,110
39CQ2125,Y200L,710,2490,2284,2275,2319,2289,2185,2255,2229,2255,110
39CQ2125,Y225S,710,2490,2289,2301,2397,2300,2280,2305,2275,2305,110
39CQ2125,Y80,800,2490,2066,2044,2100,2047,2023,2001,1995,2001,110
39CQ2125,Y90S,800,2490,2077,2082,2144,2087,2049,2021,2037,2021,110
39CQ2125,Y90L,800,2490,2102,2107,2169,2107,2049,2043,2062,2043,110
39CQ2125,Y100L,800,2490,2142,2132,2173,2162,2063,2083,2074,2083,110
39CQ2125,Y112M,800,2490,2147,2141,2177,2182,2085,2099,2095,2099,110
39CQ2125,Y132S,800,2490,2192,2187,2249,2182,2195,2116,2128,2116,110
39CQ2125,Y132M,800,2490,2232,2227,2287,2222,2195,2153,2166,2153,110
39CQ2125,Y160M,800,2490,2312,2275,2345,2287,2236,2242,2260,2242,110
39CQ2125,Y160L,800,2490,2357,2330,2389,2332,2236,2286,2304,2286,110
39CQ2125,Y180M,800,2490,2377,2352,2423,2397,2333,2307,2324,2307,110
39CQ2125,Y180L,800,2490,2417,2392,2461,2432,2333,2345,2362,2345,110
39CQ2125,Y200L,800,2490,2477,2468,2512,2482,2378,2448,2422,2448,110
39CQ2125,Y225S,800,2490,2482,2494,2590,2493,2473,2498,2468,2498,110
39CQ2125,Y225M,800,2490,2532,2554,2645,2548,2473,2523,2493,2523,110
39CQ2226,Y80,710,2590,1873,1851,1907,1854,1830,1808,1802,1808,110
39CQ2226,Y90S,710,2590,1884,1889,1951,1894,1856,1828,1844,1828,110
39CQ2226,Y90L,710,2590,1909,1914,1976,1914,1856,1850,1869,1850,110
39CQ2226,Y100L,710,2590,1949,1939,1980,1969,1870,1890,1881,1890,110
39CQ2226,Y112M,710,2590,1954,1948,1984,1989,1892,1906,1902,1906,110
39CQ2226,Y132S,710,2590,1999,1994,2056,1989,2002,1923,1935,1923,110
39CQ2226,Y132M,710,2590,2039,2034,2094,2029,2002,1960,1973,1960,110
39CQ2226,Y160M,710,2590,2119,2082,2152,2094,2043,2049,2067,2049,110
39CQ2226,Y160L,710,2590,2164,2137,2196,2139,2043,2093,2111,2093,110
39CQ2226,Y180M,710,2590,2184,2159,2230,2204,2140,2114,2131,2114,110
39CQ2226,Y180L,710,2590,2224,2199,2268,2239,2140,2152,2169,2152,110
39CQ2226,Y200L,710,2590,2284,2275,2319,2289,2185,2255,2229,2255,110
39CQ2226,Y225S,710,2590,2289,2301,2397,2300,2280,2305,2275,2305,110
39CQ2226,Y80,800,2590,2053,2031,2086,2034,2010,1988,1982,1988,110
39CQ2226,Y90S,800,2590,2064,2069,2131,2074,2036,2008,2023,2008,110
39CQ2226,Y90L,800,2590,2089,2094,2156,2094,2036,2030,2048,2030,110
39CQ2226,Y100L,800,2590,2129,2119,2160,2149,2050,2070,2061,2070,110
39CQ2226,Y112M,800,2590,2134,2128,2163,2169,2072,2086,2081,2086,110
39CQ2226,Y132S,800,2590,2179,2174,2236,2169,2182,2103,2115,2103,110
39CQ2226,Y132M,800,2590,2219,2214,2274,2209,2182,2140,2153,2140,110
39CQ2226,Y160M,800,2590,2299,2262,2332,2274,2223,2229,2247,2229,110
39CQ2226,Y160L,800,2590,2344,2317,2376,2319,2223,2273,2291,2273,110
39CQ2226,Y180M,800,2590,2364,2339,2410,2384,2320,2294,2311,2294,110
39CQ2226,Y180L,800,2590,2404,2379,2448,2419,2320,2332,2349,2332,110
39CQ2226,Y200L,800,2590,2464,2455,2499,2469,2365,2435,2409,2435,110
39CQ2226,Y225S,800,2590,2469,2481,2576,2480,2460,2485,2455,2485,110
39CQ2226,Y225M,800,2590,2519,2541,2631,2535,2460,2510,2480,2510,110
39CQ2226,Y250M,800,2590,2594,2578,2678,2668,2518,2568,2560,2568,110
39CQ2328,Y80,800,2790,2053,2031,2086,2034,2010,1988,1982,1988,110
39CQ2328,Y90S,800,2790,2064,2069,2131,2074,2036,2008,2023,2008,110
39CQ2328,Y90L,800,2790,2089,2094,2156,2094,2036,2030,2048,2030,110
39CQ2328,Y100L,800,2790,2129,2119,2160,2149,2050,2070,2061,2070,110
39CQ2328,Y112M,800,2790,2134,2128,2163,2169,2072,2086,2081,2086,110
39CQ2328,Y132S,800,2790,2179,2174,2236,2169,2182,2103,2115,2103,110
39CQ2328,Y132M,800,2790,2219,2214,2274,2209,2182,2140,2153,2140,110
39CQ2328,Y160M,800,2790,2299,2262,2332,2274,2223,2229,2247,2229,110
39CQ2328,Y160L,800,2790,2344,2317,2376,2319,2223,2273,2291,2273,110
39CQ2328,Y180M,800,2790,2364,2339,2410,2384,2320,2294,2311,2294,110
39CQ2328,Y180L,800,2790,2404,2379,2448,2419,2320,2332,2349,2332,110
39CQ2328,Y200L,800,2790,2464,2455,2499,2469,2365,2435,2409,2435,110
39CQ2328,Y225S,800,2790,2469,2481,2576,2480,2460,2485,2455,2485,110
39CQ2328,Y225M,800,2790,2519,2541,2631,2535,2460,2510,2480,2510,110
39CQ2328,Y250M,800,2790,2594,2578,2678,2668,2518,2568,2560,2568,110
39CQ2328,Y80,900,2790,2234,2212,2268,2215,2191,2169,2163,2169,110
39CQ2328,Y90S,900,2790,2245,2250,2312,2255,2217,2189,2205,2189,110
39CQ2328,Y90L,900,2790,2270,2275,2337,2275,2217,2211,2230,2211,110
39CQ2328,Y100L,900,2790,2310,2300,2341,2330,2231,2251,2242,2251,110
39CQ2328,Y112M,900,2790,2315,2309,2345,2350,2253,2267,2263,2267,110
39CQ2328,Y132S,900,2790,2360,2355,2417,2350,2363,2284,2296,2284,110
39CQ2328,Y132M,900,2790,2400,2395,2455,2390,2363,2321,2334,2321,110
39CQ2328,Y160M,900,2790,2480,2443,2513,2455,2404,2410,2428,2410,110
39CQ2328,Y160L,900,2790,2525,2498,2557,2500,2404,2454,2472,2454,110
39CQ2328,Y180M,900,2790,2545,2520,2591,2565,2501,2475,2492,2475,110
39CQ2328,Y180L,900,2790,2585,2560,2629,2600,2501,2513,2530,2513,110
39CQ2328,Y200L,900,2790,2645,2636,2680,2650,2546,2616,2590,2616,110
39CQ2328,Y225S,900,2790,2650,2662,2758,2661,2641,2666,2636,2666,110
39CQ2328,Y225M,900,2790,2700,2722,2813,2716,2641,2691,2661,2691,110
39CQ2328,Y250M,900,2790,2775,2759,2859,2849,2699,2749,2741,2749,110
39CQ2330,Y80,800,2990,2053,2031,2086,2034,2010,1988,1982,1988,110
39CQ2330,Y90S,800,2990,2064,2069,2131,2074,2036,2008,2023,2008,110
39CQ2330,Y90L,800,2990,2089,2094,2156,2094,2036,2030,2048,2030,110
39CQ2330,Y100L,800,2990,2129,2119,2160,2149,2050,2070,2061,2070,110
39CQ2330,Y112M,800,2990,2134,2128,2163,2169,2072,2086,2081,2086,110
39CQ2330,Y132S,800,2990,2179,2174,2236,2169,2182,2103,2115,2103,110
39CQ2330,Y132M,800,2990,2219,2214,2274,2209,2182,2140,2153,2140,110
39CQ2330,Y160M,800,2990,2299,2262,2332,2274,2223,2229,2247,2229,110
39CQ2330,Y160L,800,2990,2344,2317,2376,2319,2223,2273,2291,2273,110
39CQ2330,Y180M,800,2990,2364,2339,2410,2384,2320,2294,2311,2294,110
39CQ2330,Y180L,800,2990,2404,2379,2448,2419,2320,2332,2349,2332,110
39CQ2330,Y200L,800,2990,2464,2455,2499,2469,2365,2435,2409,2435,110
39CQ2330,Y225S,800,2990,2469,2481,2576,2480,2460,2485,2455,2485,110
39CQ2330,Y225M,800,2990,2519,2541,2631,2535,2460,2510,2480,2510,110
39CQ2330,Y250M,800,2990,2594,2578,2678,2668,2518,2568,2560,2568,110
39CQ2330,Y80,900,2990,2234,2212,2268,2215,2191,2169,2163,2169,110
39CQ2330,Y90S,900,2990,2245,2250,2312,2255,2217,2189,2205,2189,110
39CQ2330,Y90L,900,2990,2270,2275,2337,2275,2217,2211,2230,2211,110
39CQ2330,Y100L,900,2990,2310,2300,2341,2330,2231,2251,2242,2251,110
39CQ2330,Y112M,900,2990,2315,2309,2345,2350,2253,2267,2263,2267,110
39CQ2330,Y132S,900,2990,2360,2355,2417,2350,2363,2284,2296,2284,110
39CQ2330,Y132M,900,2990,2400,2395,2455,2390,2363,2321,2334,2321,110
39CQ2330,Y160M,900,2990,2480,2443,2513,2455,2404,2410,2428,2410,110
39CQ2330,Y160L,900,2990,2525,2498,2557,2500,2404,2454,2472,2454,110
39CQ2330,Y180M,900,2990,2545,2520,2591,2565,2501,2475,2492,2475,110
39CQ2330,Y180L,900,2990,2585,2560,2629,2600,2501,2513,2530,2513,110
39CQ2330,Y200L,900,2990,2645,2636,2680,2650,2546,2616,2590,2616,110
39CQ2330,Y225S,900,2990,2650,2662,2758,2661,2641,2666,2636,2666,110
39CQ2330,Y225M,900,2990,2700,2722,2813,2716,2641,2691,2661,2691,110
39CQ2330,Y250M,900,2990,2775,2759,2859,2849,2699,2749,2741,2749,110
39CQ2330,Y280S,900,2990,2885,2888,2913,2956,2802,2827,2858,2827,110
39CQ2333,Y80,800,3290,2053,2031,2086,2034,2010,1988,1982,1988,110
39CQ2333,Y90S,800,3290,2064,2069,2131,2074,2036,2008,2023,2008,110
39CQ2333,Y90L,800,3290,2089,2094,2156,2094,2036,2030,2048,2030,110
39CQ2333,Y100L,800,3290,2129,2119,2160,2149,2050,2070,2061,2070,110
39CQ2333,Y112M,800,3290,2134,2128,2163,2169,2072,2086,2081,2086,110
39CQ2333,Y132S,800,3290,2179,2174,2236,2169,2182,2103,2115,2103,110
39CQ2333,Y132M,800,3290,2219,2214,2274,2209,2182,2140,2153,2140,110
39CQ2333,Y160M,800,3290,2299,2262,2332,2274,2223,2229,2247,2229,110
39CQ2333,Y160L,800,3290,2344,2317,2376,2319,2223,2273,2291,2273,110
39CQ2333,Y180M,800,3290,2364,2339,2410,2384,2320,2294,2311,2294,110
39CQ2333,Y180L,800,3290,2404,2379,2448,2419,2320,2332,2349,2332,110
39CQ2333,Y200L,800,3290,2464,2455,2499,2469,2365,2435,2409,2435,110
39CQ2333,Y225S,800,3290,2469,2481,2576,2480,2460,2485,2455,2485,110
39CQ2333,Y225M,800,3290,2519,2541,2631,2535,2460,2510,2480,2510,110
39CQ2333,Y250M,800,3290,2594,2578,2678,2668,2518,2568,2560,2568,110
39CQ2333,Y80,900,3290,2234,2212,2268,2215,2191,2169,2163,2169,110
39CQ2333,Y90S,900,3290,2245,2250,2312,2255,2217,2189,2205,2189,110
39CQ2333,Y90L,900,3290,2270,2275,2337,2275,2217,2211,2230,2211,110
39CQ2333,Y100L,900,3290,2310,2300,2341,2330,2231,2251,2242,2251,110
39CQ2333,Y112M,900,3290,2315,2309,2345,2350,2253,2267,2263,2267,110
39CQ2333,Y132S,900,3290,2360,2355,2417,2350,2363,2284,2296,2284,110
39CQ2333,Y132M,900,3290,2400,2395,2455,2390,2363,2321,2334,2321,110
39CQ2333,Y160M,900,3290,2480,2443,2513,2455,2404,2410,2428,2410,110
39CQ2333,Y160L,900,3290,2525,2498,2557,2500,2404,2454,2472,2454,110
39CQ2333,Y180M,900,3290,2545,2520,2591,2565,2501,2475,2492,2475,110
39CQ2333,Y180L,900,3290,2585,2560,2629,2600,2501,2513,2530,2513,110
39CQ2333,Y200L,900,3290,2645,2636,2680,2650,2546,2616,2590,2616,110
39CQ2333,Y225S,900,3290,2650,2662,2758,2661,2641,2666,2636,2666,110
39CQ2333,Y225M,900,3290,2700,2722,2813,2716,2641,2691,2661,2691,110
39CQ2333,Y250M,900,3290,2775,2759,2859,2849,2699,2749,2741,2749,110
39G0608,Y80,160,790,831,809,864,812,798,776,770,776,70
39G0608,Y90S,160,790,842,847,909,852,834,806,821,806,70
39G0608,Y90L,160,790,867,872,934,872,834,828,846,828,70
39G0608,Y80,180,790,809,787,842,790,766,744,738,744,70
39G0608,Y90S,180,790,820,825,887,830,802,774,789,774,70
39G0608,Y90L,180,790,845,850,912,850,802,796,814,796,70
39G0609,Y80,180,890,801,779,834,782,758,736,730,736,70
39G0609,Y90S,180,890,812,817,879,822,794,766,781,766,70
39G0609,Y90L,180,890,837,842,904,842,794,788,806,788,70
39G0609,Y100L,180,890,877,867,908,897,818,838,829,838,70
39G0609,Y80,200,890,837,815,871,818,794,772,766,772,70
39G0609,Y90S,200,890,848,853,915,858,830,802,818,802,70
39G0609,Y90L,200,890,873,878,940,878,830,824,843,824,70
39G0609,Y100L,200,890,913,903,944,933,854,874,865,874,70
39G0609,Y112M,200,890,918,912,948,953,876,890,886,890,70
39G0711,Y80,200,1090,937,915,971,918,894,872,866,872,70
39G0711,Y90S,200,1090,948,953,1015,958,930,902,918,902,70
39G0711,Y90L,200,1090,973,978,1040,978,930,924,943,924,70
39G0711,Y100L,200,1090,1013,1003,1044,1033,954,974,965,974,70
39G0711,Y112M,200,1090,1018,1012,1048,1053,976,990,986,990,70
39G0711,Y80,225,1090,885,863,919,866,842,820,814,820,70
39G0711,Y90S,225,1090,896,901,963,906,868,840,856,840,70
39G0711,Y90L,225,1090,921,926,988,926,868,862,881,862,70
39G0711,Y100L,225,1090,961,951,992,981,892,912,903,912,70
39G0711,Y112M,225,1090,966,960,996,1001,914,928,924,928,70
39G0811,Y80,225,1090,885,863,919,866,842,820,814,820,70
39G0811,Y90S,225,1090,896,901,963,906,868,840,856,840,70
39G0811,Y90L,225,1090,921,926,988,926,868,862,881,862,70
39G0811,Y100L,225,1090,961,951,992,981,892,912,903,912,70
39G0811,Y112M,225,1090,966,960,996,1001,914,928,924,928,70
39G0811,Y80,250,1090,930,908,964,911,887,865,859,865,70
39G0811,Y90S,250,1090,941,946,1008,951,913,885,901,885,70
39G0811,Y90L,250,1090,966,971,1033,971,913,907,926,907,70
39G0811,Y100L,250,1090,1006,996,1037,1026,937,957,948,957,70
39G0811,Y112M,250,1090,1011,1005,1041,1046,959,973,969,973,70
39G0811,Y132S,250,1090,1056,1051,1113,1046,1089,1010,1022,1010,110
39G0811,Y132M,250,1090,1096,1091,1151,1086,1089,1047,1060,1047,110
39G0912,Y80,250,1190,980,958,1014,961,937,915,909,915,110
39G0912,Y90S,250,1190,991,996,1058,1001,963,935,951,935,110
39G0912,Y90L,250,1190,1016,1021,1083,1021,963,957,976,957,110
39G0912,Y100L,250,1190,1056,1046,1087,1076,987,1007,998,1007,110
39G0912,Y112M,250,1190,1061,1055,1091,1096,1009,1023,1019,1023,110
39G0912,Y132S,250,1190,1106,1101,1163,1096,1139,1060,1072,1060,110
39G0912,Y132M,250,1190,1146,1141,1201,1136,1139,1097,1110,1097,110
39G0912,Y80,280,1190,1014,992,1048,995,971,949,943,949,110
39G0912,Y90S,280,1190,1025,1030,1092,1035,1007,979,995,979,110
39G0912,Y90L,280,1190,1050,1055,1117,1055,1007,1001,1020,1001,110
39G0912,Y100L,280,1190,1090,1080,1121,1110,1031,1051,1042,1051,110
39G0912,Y112M,280,1190,1095,1089,1125,1130,1053,1067,1063,1067,110
39G0912,Y132S,280,1190,1140,1135,1197,1130,1183,1104,1116,1104,110
39G0912,Y132M,280,1190,1180,1175,1235,1170,1183,1141,1154,1141,110
39G0913,Y80,280,1290,1064,1042,1098,1045,1021,999,993,999,110
39G0913,Y90S,280,1290,1075,1080,1142,1085,1057,1029,1045,1029,110
39G0913,Y90L,280,1290,1100,1105,1167,1105,1057,1051,1070,1051,110
39G0913,Y100L,280,1290,1140,1130,1171,1160,1081,1101,1092,1101,110
39G0913,Y112M,280,1290,1145,1139,1175,1180,1103,1117,1113,1117,110
39G0913,Y132S,280,1290,1190,1185,1247,1180,1233,1154,1166,1154,110
39G0913,Y132M,280,1290,1230,1225,1285,1220,1233,1191,1204,1191,110
39G0913,Y80,315,1290,1076,1054,1110,1057,1033,1011,1005,1011,110
39G0913,Y90S,315,1290,1087,1092,1154,1097,1069,1041,1057,1041,110
39G0913,Y90L,315,1290,1112,1117,1179,1117,1069,1063,1082,1063,110
39G0913,Y100L,315,1290,1152,1142,1183,1172,1093,1113,1104,1113,110
39G0913,Y112M,315,1290,1157,1151,1187,1192,1115,1129,1125,1129,110
39G0913,Y132S,315,1290,1202,1197,1259,1192,1245,1166,1178,1166,110
39G0913,Y132M,315,1290,1242,1237,1297,1232,1245,1203,1216,1203,110
39G0914,Y80,315,1390,1076,1054,1110,1057,1033,1011,1005,1011,110
39G0914,Y90S,315,1390,1087,1092,1154,1097,1069,1041,1057,1041,110
39G0914,Y90L,315,1390,1112,1117,1179,1117,1069,1063,1082,1063,110
39G0914,Y100L,315,1390,1152,1142,1183,1172,1093,1113,1104,1113,110
39G0914,Y112M,315,1390,1157,1151,1187,1192,1115,1129,1125,1129,110
39G0914,Y132S,315,1390,1202,1197,1259,1192,1245,1166,1178,1166,110
39G0914,Y132M,315,1390,1242,1237,1297,1232,1245,1203,1216,1203,110
39G0914,Y80,355,1390,1161,1139,1194,1142,1118,1096,1090,1096,110
39G0914,Y90S,355,1390,1172,1177,1239,1182,1144,1116,1131,1116,110
39G0914,Y90L,355,1390,1197,1202,1264,1202,1144,1138,1156,1138,110
39G0914,Y100L,355,1390,1237,1227,1268,1257,1158,1178,1169,1178,110
39G0914,Y112M,355,1390,1242,1236,1271,1277,1180,1194,1189,1194,110
39G0914,Y132S,355,1390,1287,1282,1344,1277,1305,1226,1238,1226,110
39G0914,Y132M,355,1390,1327,1322,1382,1317,1305,1263,1276,1263,110
39G1015,Y80,355,1490,1161,1139,1194,1142,1118,1096,1090,1096,110
39G1015,Y90S,355,1490,1172,1177,1239,1182,1144,1116,1131,1116,110
39G1015,Y90L,355,1490,1197,1202,1264,1202,1144,1138,1156,1138,110
39G1015,Y100L,355,1490,1237,1227,1268,1257,1158,1178,1169,1178,110
39G1015,Y112M,355,1490,1242,1236,1271,1277,1180,1194,1189,1194,110
39G1015,Y132S,355,1490,1287,1282,1344,1277,1305,1226,1238,1226,110
39G1015,Y132M,355,1490,1327,1322,1382,1317,1305,1263,1276,1263,110
39G1015,Y80,400,1490,1262,1240,1296,1243,1219,1197,1191,1197,110
39G1015,Y90S,400,1490,1273,1278,1340,1283,1245,1217,1233,1217,110
39G1015,Y90L,400,1490,1298,1303,1365,1303,1245,1239,1258,1239,110
39G1015,Y100L,400,1490,1338,1328,1369,1358,1259,1279,1270,1279,110
39G1015,Y112M,400,1490,1343,1337,1373,1378,1281,1295,1291,1295,110
39G1015,Y132S,400,1490,1388,1383,1445,1378,1406,1327,1339,1327,110
39G1015,Y132M,400,1490,1428,1423,1483,1418,1406,1364,1377,1364,110
39G1015,Y160M,400,1490,1508,1471,1541,1483,1457,1463,1481,1463,110
39G1015,Y160L,400,1490,1553,1526,1585,1528,1457,1507,1525,1507,110
39G1117,Y80,400,1690,1262,1240,1296,1243,1219,1197,1191,1197,110
39G1117,Y90S,400,1690,1273,1278,1340,1283,1245,1217,1233,1217,110
39G1117,Y90L,400,1690,1298,1303,1365,1303,1245,1239,1258,1239,110
39G1117,Y100L,400,1690,1338,1328,1369,1358,1259,1279,1270,1279,110
39G1117,Y112M,400,1690,1343,1337,1373,1378,1281,1295,1291,1295,110
39G1117,Y132S,400,1690,1388,1383,1445,1378,1406,1327,1339,1327,110
39G1117,Y132M,400,1690,1428,1423,1483,1418,1406,1364,1377,1364,110
39G1117,Y160M,400,1690,1508,1471,1541,1483,1457,1463,1481,1463,110
39G1117,Y160L,400,1690,1553,1526,1585,1528,1457,1507,1525,1507,110
39G1117,Y80,450,1690,1348,1326,1382,1329,1305,1283,1277,1283,110
39G1117,Y90S,450,1690,1359,1364,1426,1369,1331,1303,1319,1303,110
39G1117,Y90L,450,1690,1384,1389,1451,1389,1331,1325,1344,1325,110
39G1117,Y100L,450,1690,1424,1414,1455,1444,1345,1365,1356,1365,110
39G1117,Y112M,450,1690,1429,1423,1459,1464,1367,1381,1377,1381,110
39G1117,Y132S,450,1690,1474,1469,1531,1464,1487,1408,1420,1408,110
39G1117,Y132M,450,1690,1514,1509,1569,1504,1487,1445,1458,1445,110
39G1117,Y160M,450,1690,1594,1557,1627,1569,1538,1544,1562,1544,110
39G1117,Y160L,450,1690,1639,1612,1671,1614,1538,1588,1606,1588,110
39G1317,Y80,400,1690,1262,1240,1296,1243,1219,1197,1191,1197,110
39G1317,Y90S,400,1690,1273,1278,1340,1283,1245,1217,1233,1217,110
39G1317,Y90L,400,1690,1298,1303,1365,1303,1245,1239,1258,1239,110
39G1317,Y100L,400,1690,1338,1328,1369,1358,1259,1279,1270,1279,110
39G1317,Y112M,400,1690,1343,1337,1373,1378,1281,1295,1291,1295,110
39G1317,Y132S,400,1690,1388,1383,1445,1378,1406,1327,1339,1327,110
39G1317,Y132M,400,1690,1428,1423,1483,1418,1406,1364,1377,1364,110
39G1317,Y160M,400,1690,1508,1471,1541,1483,1457,1463,1481,1463,110
39G1317,Y160L,400,1690,1553,1526,1585,1528,1457,1507,1525,1507,110
39G1317,Y80,450,1690,1348,1326,1382,1329,1305,1283,1277,1283,110
39G1317,Y90S,450,1690,1359,1364,1426,1369,1331,1303,1319,1303,110
39G1317,Y90L,450,1690,1384,1389,1451,1389,1331,1325,1344,1325,110
39G1317,Y100L,450,1690,1424,1414,1455,1444,1345,1365,1356,1365,110
39G1317,Y112M,450,1690,1429,1423,1459,1464,1367,1381,1377,1381,110
39G1317,Y132S,450,1690,1474,1469,1531,1464,1487,1408,1420,1408,110
39G1317,Y132M,450,1690,1514,1509,1569,1504,1487,1445,1458,1445,110
39G1317,Y160M,450,1690,1594,1557,1627,1569,1538,1544,1562,1544,110
39G1317,Y160L,450,1690,1639,1612,1671,1614,1538,1588,1606,1588,110
39G1418,Y80,450,1790,1348,1326,1382,1329,1305,1283,1277,1283,110
39G1418,Y90S,450,1790,1359,1364,1426,1369,1331,1303,1319,1303,110
39G1418,Y90L,450,1790,1384,1389,1451,1389,1331,1325,1344,1325,110
39G1418,Y100L,450,1790,1424,1414,1455,1444,1345,1365,1356,1365,110
39G1418,Y112M,450,1790,1429,1423,1459,1464,1367,1381,1377,1381,110
39G1418,Y132S,450,1790,1474,1469,1531,1464,1487,1408,1420,1408,110
39G1418,Y132M,450,1790,1514,1509,1569,1504,1487,1445,1458,1445,110
39G1418,Y160M,450,1790,1594,1557,1627,1569,1538,1544,1562,1544,110
39G1418,Y160L,450,1790,1639,1612,1671,1614,1538,1588,1606,1588,110
39G1418,Y80,500,1790,1443,1421,1476,1424,1400,1378,1372,1378,110
39G1418,Y90S,500,1790,1454,1459,1521,1464,1426,1398,1413,1398,110
39G1418,Y90L,500,1790,1479,1484,1546,1484,1426,1420,1438,1420,110
39G1418,Y100L,500,1790,1519,1509,1550,1539,1450,1470,1461,1470,110
39G1418,Y112M,500,1790,1524,1518,1553,1559,1472,1486,1481,1486,110
39G1418,Y132S,500,1790,1569,1564,1626,1559,1602,1523,1535,1523,110
39G1418,Y132M,500,1790,1609,1604,1664,1599,1602,1560,1573,1560,110
39G1418,Y160M,500,1790,1689,1652,1722,1664,1653,1659,1677,1659,110
39G1418,Y160L,500,1790,1734,1707,1766,1709,1653,1703,1721,1703,110
39G1420,Y80,500,1990,1443,1421,1476,1424,1400,1378,1372,1378,110
39G1420,Y90S,500,1990,1454,1459,1521,1464,1426,1398,1413,1398,110
39G1420,Y90L,500,1990,1479,1484,1546,1484,1426,1420,1438,1420,110
39G1420,Y100L,500,1990,1519,1509,1550,1539,1450,1470,1461,1470,110
39G1420,Y112M,500,1990,1524,1518,1553,1559,1472,1486,1481,1486,110
39G1420,Y132S,500,1990,1569,1564,1626,1559,1602,1523,1535,1523,110
39G1420,Y132M,500,1990,1609,1604,1664,1599,1602,1560,1573,1560,110
39G1420,Y160M,500,1990,1689,1652,1722,1664,1653,1659,1677,1659,110
39G1420,Y160L,500,1990,1734,1707,1766,1709,1653,1703,1721,1703,110
39G1420,Y80,560,1990,1597,1575,1630,1578,1554,1532,1526,1532,110
39G1420,Y90S,560,1990,1608,1613,1675,1618,1580,1552,1567,1552,110
39G1420,Y90L,560,1990,1633,1638,1700,1638,1580,1574,1592,1574,110
39G1420,Y100L,560,1990,1673,1663,1704,1693,1594,1614,1605,1614,110
39G1420,Y112M,560,1990,1678,1672,1707,1713,1616,1630,1625,1630,110
39G1420,Y132S,560,1990,1723,1718,1780,1713,1736,1657,1669,1657,110
39G1420,Y132M,560,1990,1763,1758,1818,1753,1736,1694,1707,1694,110
39G1420,Y160M,560,1990,1843,1806,1876,1818,1787,1793,1811,1793,110
39G1420,Y160L,560,1990,1888,1861,1920,1863,1787,1837,1855,1837,110
39G1420,Y180M,560,1990,1908,1883,1954,1928,1884,1858,1875,1858,110
39G1420,Y180L,560,1990,1948,1923,1992,1963,1884,1896,1913,1896,110
39G1621,Y80,560,2090,1597,1575,1630,1578,1554,1532,1526,1532,110
39G1621,Y90S,560,2090,1608,1613,1675,1618,1580,1552,1567,1552,110
39G1621,Y90L,560,2090,1633,1638,1700,1638,1580,1574,1592,1574,110
39G1621,Y100L,560,2090,1673,1663,1704,1693,1594,1614,1605,1614,110
39G1621,Y112M,560,2090,1678,1672,1707,1713,1616,1630,1625,1630,110
39G1621,Y132S,560,2090,1723,1718,1780,1713,1736,1657,1669,1657,110
39G1621,Y132M,560,2090,1763,1758,1818,1753,1736,1694,1707,1694,110
39G1621,Y160M,560,2090,1843,1806,1876,1818,1787,1793,1811,1793,110
39G1621,Y160L,560,2090,1888,1861,1920,1863,1787,1837,1855,1837,110
39G1621,Y180M,560,2090,1908,1883,1954,1928,1884,1858,1875,1858,110
39G1621,Y180L,560,2090,1948,1923,1992,1963,1884,1896,1913,1896,110
39G1621,Y80,630,2090,1728,1706,1761,1709,1685,1663,1657,1663,110
39G1621,Y90S,630,2090,1739,1744,1806,1749,1711,1683,1698,1683,110
39G1621,Y90L,630,2090,1764,1769,1831,1769,1711,1705,1723,1705,110
39G1621,Y100L,630,2090,1804,1794,1835,1824,1725,1745,1736,1745,110
39G1621,Y112M,630,2090,1809,1803,1838,1844,1747,1761,1756,1761,110
39G1621,Y132S,630,2090,1854,1849,1911,1844,1867,1788,1800,1788,110
39G1621,Y132M,630,2090,1894,1889,1949,1884,1867,1825,1838,1825,110
39G1621,Y160M,630,2090,1974,1937,2007,1949,1918,1924,1942,1924,110
39G1621,Y160L,630,2090,2019,1992,2051,1994,1918,1968,1986,1968,110
39G1621,Y180M,630,2090,2039,2014,2085,2059,2015,1989,2006,1989,110
39G1621,Y180L,630,2090,2079,2054,2123,2094,2015,2027,2044,2027,110
39G1621,Y200L,630,2090,2139,2130,2174,2144,2060,2130,2104,2130,110
39G1822,Y80,560,2190,1597,1575,1630,1578,1554,1532,1526,1532,110
39G1822,Y90S,560,2190,1608,1613,1675,1618,1580,1552,1567,1552,110
39G1822,Y90L,560,2190,1633,1638,1700,1638,1580,1574,1592,1574,110
39G1822,Y100L,560,2190,1673,1663,1704,1693,1594,1614,1605,1614,110
39G1822,Y112M,560,2190,1678,1672,1707,1713,1616,1630,1625,1630,110
39G1822,Y132S,560,2190,1723,1718,1780,1713,1736,1657,1669,1657,110
39G1822,Y132M,560,2190,1763,1758,1818,1753,1736,1694,1707,1694,110
39G1822,Y160M,560,2190,1843,1806,1876,1818,1787,1793,1811,1793,110
39G1822,Y160L,560,2190,1888,1861,1920,1863,1787,1837,1855,1837,110
39G1822,Y180M,560,2190,1908,1883,1954,1928,1884,1858,1875,1858,110
39G1822,Y180L,560,2190,1948,1923,1992,1963,1884,1896,1913,1896,110
39G1822,Y80,630,2190,1717,1695,1751,1698,1674,1652,1646,1652,110
39G1822,Y90S,630,2190,1728,1733,1795,1738,1700,1672,1688,1672,110
39G1822,Y90L,630,2190,1753,1758,1820,1758,1700,1694,1713,1694,110
39G1822,Y100L,630,2190,1793,1783,1824,1813,1714,1734,1725,1734,110
39G1822,Y112M,630,2190,1798,1792,1828,1833,1736,1750,1746,1750,110
39G1822,Y132S,630,2190,1843,1838,1900,1833,1856,1777,1789,1777,110
39G1822,Y132M,630,2190,1883,1878,1938,1873,1856,1814,1827,1814,110
39G1822,Y160M,630,2190,1963,1926,1996,1938,1907,1913,1931,1913,110
39G1822,Y160L,630,2190,2008,1981,2040,1983,1907,1957,1975,1957,110
39G1822,Y180M,630,2190,2028,2003,2074,2048,2004,1978,1995,1978,110
39G1822,Y180L,630,2190,2068,2043,2112,2083,2004,2016,2033,2016,110
39G1822,Y200L,630,2190,2128,2119,2163,2133,2049,2119,2093,2119,110
39G1825,Y80,630,2490,1717,1695,1751,1698,1674,1652,1646,1652,110
39G1825,Y90S,630,2490,1728,1733,1795,1738,1700,1672,1688,1672,110
39G1825,Y90L,630,2490,1753,1758,1820,1758,1700,1694,1713,1694,110
39G1825,Y100L,630,2490,1793,1783,1824,1813,1714,1734,1725,1734,110
39G1825,Y112M,630,2490,1798,1792,1828,1833,1736,1750,1746,1750,110
39G1825,Y132S,630,2490,1843,1838,1900,1833,1856,1777,1789,1777,110
39G1825,Y132M,630,2490,1883,1878,1938,1873,1856,1814,1827,1814,110
39G1825,Y160M,630,2490,1963,1926,1996,1938,1907,1913,1931,1913,110
39G1825,Y160L,630,2490,2008,1981,2040,1983,1907,1957,1975,1957,110
39G1825,Y180M,630,2490,2028,2003,2074,2048,2004,1978,1995,1978,110
39G1825,Y180L,630,2490,2068,2043,2112,2083,2004,2016,2033,2016,110
39G1825,Y200L,630,2490,2128,2119,2163,2133,2049,2119,2093,2119,110
39G1825,Y80,710,2490,1873,1851,1907,1854,1830,1808,1802,1808,110
39G1825,Y90S,710,2490,1884,1889,1951,1894,1856,1828,1844,1828,110
39G1825,Y90L,710,2490,1909,1914,1976,1914,1856,1850,1869,1850,110
39G1825,Y100L,710,2490,1949,1939,1980,1969,1870,1890,1881,1890,110
39G1825,Y112M,710,2490,1954,1948,1984,1989,1892,1906,1902,1906,110
39G1825,Y132S,710,2490,1999,1994,2056,1989,2002,1923,1935,1923,110
39G1825,Y132M,710,2490,2039,2034,2094,2029,2002,1960,1973,1960,110
39G1825,Y160M,710,2490,2119,2082,2152,2094,2043,2049,2067,2049,110
39G1825,Y160L,710,2490,2164,2137,2196,2139,2043,2093,2111,2093,110
39G1825,Y180M,710,2490,2184,2159,2230,2204,2140,2114,2131,2114,110
39G1825,Y180L,710,2490,2224,2199,2268,2239,2140,2152,2169,2152,110
39G1825,Y200L,710,2490,2284,2275,2319,2289,2185,2255,2229,2255,110
39G2025,Y80,630,2490,1685,1663,1718,1666,1642,1620,1614,1620,110
39G2025,Y90S,630,2490,1696,1701,1763,1706,1668,1640,1655,1640,110
39G2025,Y90L,630,2490,1721,1726,1788,1726,1668,1662,1680,1662,110
39G2025,Y100L,630,2490,1761,1751,1792,1781,1682,1702,1693,1702,110
39G2025,Y112M,630,2490,1766,1760,1795,1801,1704,1718,1713,1718,110
39G2025,Y132S,630,2490,1811,1806,1868,1801,1824,1745,1757,1745,110
39G2025,Y132M,630,2490,1851,1846,1906,1841,1824,1782,1795,1782,110
39G2025,Y160M,630,2490,1931,1894,1964,1906,1875,1881,1899,1881,110
39G2025,Y160L,630,2490,1976,1949,2008,1951,1875,1925,1943,1925,110
39G2025,Y180M,630,2490,1996,1971,2042,2016,1972,1946,1963,1946,110
39G2025,Y180L,630,2490,2036,2011,2080,2051,1972,1984,2001,1984,110
39G2025,Y200L,630,2490,2096,2087,2131,2101,2017,2087,2061,2087,110
39G2025,Y80,710,2490,1873,1851,1907,1854,1830,1808,1802,1808,110
39G2025,Y90S,710,2490,1884,1889,1951,1894,1856,1828,1844,1828,110
39G2025,Y90L,710,2490,1909,1914,1976,1914,1856,1850,1869,1850,110
39G2025,Y100L,710,2490,1949,1939,1980,1969,1870,1890,1881,1890,110
39G2025,Y112M,710,2490,1954,1948,1984,1989,1892,1906,1902,1906,110
39G2025,Y132S,710,2490,1999,1994,2056,1989,2002,1923,1935,1923,110
39G2025,Y132M,710,2490,2039,2034,2094,2029,2002,1960,1973,1960,110
39G2025,Y160M,710,2490,2119,2082,2152,2094,2043,2049,2067,2049,110
39G2025,Y160L,710,2490,2164,2137,2196,2139,2043,2093,2111,2093,110
39G2025,Y180M,710,2490,2184,2159,2230,2204,2140,2114,2131,2114,110
39G2025,Y180L,710,2490,2224,2199,2268,2239,2140,2152,2169,2152,110
39G2025,Y200L,710,2490,2284,2275,2319,2289,2185,2255,2229,2255,110
39G2025,Y225S,710,2490,2289,2301,2397,2300,2280,2305,2275,2305,110
39G2125,Y80,710,2490,1873,1851,1907,1854,1830,1808,1802,1808,110
39G2125,Y90S,710,2490,1884,1889,1951,1894,1856,1828,1844,1828,110
39G2125,Y90L,710,2490,1909,1914,1976,1914,1856,1850,1869,1850,110
39G2125,Y100L,710,2490,1949,1939,1980,1969,1870,1890,1881,1890,110
39G2125,Y112M,710,2490,1954,1948,1984,1989,1892,1906,1902,1906,110
39G2125,Y132S,710,2490,1999,1994,2056,1989,2002,1923,1935,1923,110
39G2125,Y132M,710,2490,2039,2034,2094,2029,2002,1960,1973,1960,110
39G2125,Y160M,710,2490,2119,2082,2152,2094,2043,2049,2067,2049,110
39G2125,Y160L,710,2490,2164,2137,2196,2139,2043,2093,2111,2093,110
39G2125,Y180M,710,2490,2184,2159,2230,2204,2140,2114,2131,2114,110
39G2125,Y180L,710,2490,2224,2199,2268,2239,2140,2152,2169,2152,110
39G2125,Y200L,710,2490,2284,2275,2319,2289,2185,2255,2229,2255,110
39G2125,Y225S,710,2490,2289,2301,2397,2300,2280,2305,2275,2305,110
39G2125,Y80,800,2490,2066,2044,2100,2047,2023,2001,1995,2001,110
39G2125,Y90S,800,2490,2077,2082,2144,2087,2049,2021,2037,2021,110
39G2125,Y90L,800,2490,2102,2107,2169,2107,2049,2043,2062,2043,110
39G2125,Y100L,800,2490,2142,2132,2173,2162,2063,2083,2074,2083,110
39G2125,Y112M,800,2490,2147,2141,2177,2182,2085,2099,2095,2099,110
39G2125,Y132S,800,2490,2192,2187,2249,2182,2195,2116,2128,2116,110
39G2125,Y132M,800,2490,2232,2227,2287,2222,2195,2153,2166,2153,110
39G2125,Y160M,800,2490,2312,2275,2345,2287,2236,2242,2260,2242,110
39G2125,Y160L,800,2490,2357,2330,2389,2332,2236,2286,2304,2286,110
39G2125,Y180M,800,2490,2377,2352,2423,2397,2333,2307,2324,2307,110
39G2125,Y180L,800,2490,2417,2392,2461,2432,2333,2345,2362,2345,110
39G2125,Y200L,800,2490,2477,2468,2512,2482,2378,2448,2422,2448,110
39G2125,Y225S,800,2490,2482,2494,2590,2493,2473,2498,2468,2498,110
39G2125,Y225M,800,2490,2532,2554,2645,2548,2473,2523,2493,2523,110
39G2226,Y80,710,2590,1873,1851,1907,1854,1830,1808,1802,1808,110
39G2226,Y90S,710,2590,1884,1889,1951,1894,1856,1828,1844,1828,110
39G2226,Y90L,710,2590,1909,1914,1976,1914,1856,1850,1869,1850,110
39G2226,Y100L,710,2590,1949,1939,1980,1969,1870,1890,1881,1890,110
39G2226,Y112M,710,2590,1954,1948,1984,1989,1892,1906,1902,1906,110
39G2226,Y132S,710,2590,1999,1994,2056,1989,2002,1923,1935,1923,110
39G2226,Y132M,710,2590,2039,2034,2094,2029,2002,1960,1973,1960,110
39G2226,Y160M,710,2590,2119,2082,2152,2094,2043,2049,2067,2049,110
39G2226,Y160L,710,2590,2164,2137,2196,2139,2043,2093,2111,2093,110
39G2226,Y180M,710,2590,2184,2159,2230,2204,2140,2114,2131,2114,110
39G2226,Y180L,710,2590,2224,2199,2268,2239,2140,2152,2169,2152,110
39G2226,Y200L,710,2590,2284,2275,2319,2289,2185,2255,2229,2255,110
39G2226,Y225S,710,2590,2289,2301,2397,2300,2280,2305,2275,2305,110
39G2226,Y80,800,2590,2053,2031,2086,2034,2010,1988,1982,1988,110
39G2226,Y90S,800,2590,2064,2069,2131,2074,2036,2008,2023,2008,110
39G2226,Y90L,800,2590,2089,2094,2156,2094,2036,2030,2048,2030,110
39G2226,Y100L,800,2590,2129,2119,2160,2149,2050,2070,2061,2070,110
39G2226,Y112M,800,2590,2134,2128,2163,2169,2072,2086,2081,2086,110
39G2226,Y132S,800,2590,2179,2174,2236,2169,2182,2103,2115,2103,110
39G2226,Y132M,800,2590,2219,2214,2274,2209,2182,2140,2153,2140,110
39G2226,Y160M,800,2590,2299,2262,2332,2274,2223,2229,2247,2229,110
39G2226,Y160L,800,2590,2344,2317,2376,2319,2223,2273,2291,2273,110
39G2226,Y180M,800,2590,2364,2339,2410,2384,2320,2294,2311,2294,110
39G2226,Y180L,800,2590,2404,2379,2448,2419,2320,2332,2349,2332,110
39G2226,Y200L,800,2590,2464,2455,2499,2469,2365,2435,2409,2435,110
39G2226,Y225S,800,2590,2469,2481,2576,2480,2460,2485,2455,2485,110
39G2226,Y225M,800,2590,2519,2541,2631,2535,2460,2510,2480,2510,110
39G2226,Y250M,800,2590,2594,2578,2678,2668,2518,2568,2560,2568,110
39G2328,Y80,800,2790,2053,2031,2086,2034,2010,1988,1982,1988,110
39G2328,Y90S,800,2790,2064,2069,2131,2074,2036,2008,2023,2008,110
39G2328,Y90L,800,2790,2089,2094,2156,2094,2036,2030,2048,2030,110
39G2328,Y100L,800,2790,2129,2119,2160,2149,2050,2070,2061,2070,110
39G2328,Y112M,800,2790,2134,2128,2163,2169,2072,2086,2081,2086,110
39G2328,Y132S,800,2790,2179,2174,2236,2169,2182,2103,2115,2103,110
39G2328,Y132M,800,2790,2219,2214,2274,2209,2182,2140,2153,2140,110
39G2328,Y160M,800,2790,2299,2262,2332,2274,2223,2229,2247,2229,110
39G2328,Y160L,800,2790,2344,2317,2376,2319,2223,2273,2291,2273,110
39G2328,Y180M,800,2790,2364,2339,2410,2384,2320,2294,2311,2294,110
39G2328,Y180L,800,2790,2404,2379,2448,2419,2320,2332,2349,2332,110
39G2328,Y200L,800,2790,2464,2455,2499,2469,2365,2435,2409,2435,110
39G2328,Y225S,800,2790,2469,2481,2576,2480,2460,2485,2455,2485,110
39G2328,Y225M,800,2790,2519,2541,2631,2535,2460,2510,2480,2510,110
39G2328,Y250M,800,2790,2594,2578,2678,2668,2518,2568,2560,2568,110
39G2328,Y80,900,2790,2234,2212,2268,2215,2191,2169,2163,2169,110
39G2328,Y90S,900,2790,2245,2250,2312,2255,2217,2189,2205,2189,110
39G2328,Y90L,900,2790,2270,2275,2337,2275,2217,2211,2230,2211,110
39G2328,Y100L,900,2790,2310,2300,2341,2330,2231,2251,2242,2251,110
39G2328,Y112M,900,2790,2315,2309,2345,2350,2253,2267,2263,2267,110
39G2328,Y132S,900,2790,2360,2355,2417,2350,2363,2284,2296,2284,110
39G2328,Y132M,900,2790,2400,2395,2455,2390,2363,2321,2334,2321,110
39G2328,Y160M,900,2790,2480,2443,2513,2455,2404,2410,2428,2410,110
39G2328,Y160L,900,2790,2525,2498,2557,2500,2404,2454,2472,2454,110
39G2328,Y180M,900,2790,2545,2520,2591,2565,2501,2475,2492,2475,110
39G2328,Y180L,900,2790,2585,2560,2629,2600,2501,2513,2530,2513,110
39G2328,Y200L,900,2790,2645,2636,2680,2650,2546,2616,2590,2616,110
39G2328,Y225S,900,2790,2650,2662,2758,2661,2641,2666,2636,2666,110
39G2328,Y225M,900,2790,2700,2722,2813,2716,2641,2691,2661,2691,110
39G2328,Y250M,900,2790,2775,2759,2859,2849,2699,2749,2741,2749,110
39G2330,Y80,800,2990,2053,2031,2086,2034,2010,1988,1982,1988,110
39G2330,Y90S,800,2990,2064,2069,2131,2074,2036,2008,2023,2008,110
39G2330,Y90L,800,2990,2089,2094,2156,2094,2036,2030,2048,2030,110
39G2330,Y100L,800,2990,2129,2119,2160,2149,2050,2070,2061,2070,110
39G2330,Y112M,800,2990,2134,2128,2163,2169,2072,2086,2081,2086,110
39G2330,Y132S,800,2990,2179,2174,2236,2169,2182,2103,2115,2103,110
39G2330,Y132M,800,2990,2219,2214,2274,2209,2182,2140,2153,2140,110
39G2330,Y160M,800,2990,2299,2262,2332,2274,2223,2229,2247,2229,110
39G2330,Y160L,800,2990,2344,2317,2376,2319,2223,2273,2291,2273,110
39G2330,Y180M,800,2990,2364,2339,2410,2384,2320,2294,2311,2294,110
39G2330,Y180L,800,2990,2404,2379,2448,2419,2320,2332,2349,2332,110
39G2330,Y200L,800,2990,2464,2455,2499,2469,2365,2435,2409,2435,110
39G2330,Y225S,800,2990,2469,2481,2576,2480,2460,2485,2455,2485,110
39G2330,Y225M,800,2990,2519,2541,2631,2535,2460,2510,2480,2510,110
39G2330,Y250M,800,2990,2594,2578,2678,2668,2518,2568,2560,2568,110
39G2330,Y80,900,2990,2234,2212,2268,2215,2191,2169,2163,2169,110
39G2330,Y90S,900,2990,2245,2250,2312,2255,2217,2189,2205,2189,110
39G2330,Y90L,900,2990,2270,2275,2337,2275,2217,2211,2230,2211,110
39G2330,Y100L,900,2990,2310,2300,2341,2330,2231,2251,2242,2251,110
39G2330,Y112M,900,2990,2315,2309,2345,2350,2253,2267,2263,2267,110
39G2330,Y132S,900,2990,2360,2355,2417,2350,2363,2284,2296,2284,110
39G2330,Y132M,900,2990,2400,2395,2455,2390,2363,2321,2334,2321,110
39G2330,Y160M,900,2990,2480,2443,2513,2455,2404,2410,2428,2410,110
39G2330,Y160L,900,2990,2525,2498,2557,2500,2404,2454,2472,2454,110
39G2330,Y180M,900,2990,2545,2520,2591,2565,2501,2475,2492,2475,110
39G2330,Y180L,900,2990,2585,2560,2629,2600,2501,2513,2530,2513,110
39G2330,Y200L,900,2990,2645,2636,2680,2650,2546,2616,2590,2616,110
39G2330,Y225S,900,2990,2650,2662,2758,2661,2641,2666,2636,2666,110
39G2330,Y225M,900,2990,2700,2722,2813,2716,2641,2691,2661,2691,110
39G2330,Y250M,900,2990,2775,2759,2859,2849,2699,2749,2741,2749,110
39G2330,Y280S,900,2990,2885,2888,2913,2956,2802,2827,2858,2827,110
39G2333,Y80,800,3290,2053,2031,2086,2034,2010,1988,1982,1988,110
39G2333,Y90S,800,3290,2064,2069,2131,2074,2036,2008,2023,2008,110
39G2333,Y90L,800,3290,2089,2094,2156,2094,2036,2030,2048,2030,110
39G2333,Y100L,800,3290,2129,2119,2160,2149,2050,2070,2061,2070,110
39G2333,Y112M,800,3290,2134,2128,2163,2169,2072,2086,2081,2086,110
39G2333,Y132S,800,3290,2179,2174,2236,2169,2182,2103,2115,2103,110
39G2333,Y132M,800,3290,2219,2214,2274,2209,2182,2140,2153,2140,110
39G2333,Y160M,800,3290,2299,2262,2332,2274,2223,2229,2247,2229,110
39G2333,Y160L,800,3290,2344,2317,2376,2319,2223,2273,2291,2273,110
39G2333,Y180M,800,3290,2364,2339,2410,2384,2320,2294,2311,2294,110
39G2333,Y180L,800,3290,2404,2379,2448,2419,2320,2332,2349,2332,110
39G2333,Y200L,800,3290,2464,2455,2499,2469,2365,2435,2409,2435,110
39G2333,Y225S,800,3290,2469,2481,2576,2480,2460,2485,2455,2485,110
39G2333,Y225M,800,3290,2519,2541,2631,2535,2460,2510,2480,2510,110
39G2333,Y250M,800,3290,2594,2578,2678,2668,2518,2568,2560,2568,110
39G2333,Y80,900,3290,2234,2212,2268,2215,2191,2169,2163,2169,110
39G2333,Y90S,900,3290,2245,2250,2312,2255,2217,2189,2205,2189,110
39G2333,Y90L,900,3290,2270,2275,2337,2275,2217,2211,2230,2211,110
39G2333,Y100L,900,3290,2310,2300,2341,2330,2231,2251,2242,2251,110
39G2333,Y112M,900,3290,2315,2309,2345,2350,2253,2267,2263,2267,110
39G2333,Y132S,900,3290,2360,2355,2417,2350,2363,2284,2296,2284,110
39G2333,Y132M,900,3290,2400,2395,2455,2390,2363,2321,2334,2321,110
39G2333,Y160M,900,3290,2480,2443,2513,2455,2404,2410,2428,2410,110
39G2333,Y160L,900,3290,2525,2498,2557,2500,2404,2454,2472,2454,110
39G2333,Y180M,900,3290,2545,2520,2591,2565,2501,2475,2492,2475,110
39G2333,Y180L,900,3290,2585,2560,2629,2600,2501,2513,2530,2513,110
39G2333,Y200L,900,3290,2645,2636,2680,2650,2546,2616,2590,2616,110
39G2333,Y225S,900,3290,2650,2662,2758,2661,2641,2666,2636,2666,110
39G2333,Y225M,900,3290,2700,2722,2813,2716,2641,2691,2661,2691,110
39G2333,Y250M,900,3290,2775,2759,2859,2849,2699,2749,2741,2749,110
39XT0608,Y80,160,790,831,809,864,812,798,776,770,776,70
39XT0608,Y90S,160,790,842,847,909,852,834,806,821,806,70
39XT0608,Y90L,160,790,867,872,934,872,834,828,846,828,70
39XT0608,Y80,180,790,809,787,842,790,766,744,738,744,70
39XT0608,Y90S,180,790,820,825,887,830,802,774,789,774,70
39XT0608,Y90L,180,790,845,850,912,850,802,796,814,796,70
39XT0609,Y80,180,890,801,779,834,782,758,736,730,736,70
39XT0609,Y90S,180,890,812,817,879,822,794,766,781,766,70
39XT0609,Y90L,180,890,837,842,904,842,794,788,806,788,70
39XT0609,Y100L,180,890,877,867,908,897,818,838,829,838,70
39XT0609,Y80,200,890,837,815,871,818,794,772,766,772,70
39XT0609,Y90S,200,890,848,853,915,858,830,802,818,802,70
39XT0609,Y90L,200,890,873,878,940,878,830,824,843,824,70
39XT0609,Y100L,200,890,913,903,944,933,854,874,865,874,70
39XT0609,Y112M,200,890,918,912,948,953,876,890,886,890,70
39XT0711,Y80,200,1090,937,915,971,918,894,872,866,872,70
39XT0711,Y90S,200,1090,948,953,1015,958,930,902,918,902,70
39XT0711,Y90L,200,1090,973,978,1040,978,930,924,943,924,70
39XT0711,Y100L,200,1090,1013,1003,1044,1033,954,974,965,974,70
39XT0711,Y112M,200,1090,1018,1012,1048,1053,976,990,986,990,70
39XT0711,Y80,225,1090,885,863,919,866,842,820,814,820,70
39XT0711,Y90S,225,1090,896,901,963,906,868,840,856,840,70
39XT0711,Y90L,225,1090,921,926,988,926,868,862,881,862,70
39XT0711,Y100L,225,1090,961,951,992,981,892,912,903,912,70
39XT0711,Y112M,225,1090,966,960,996,1001,914,928,924,928,70
39XT0811,Y80,225,1090,885,863,919,866,842,820,814,820,70
39XT0811,Y90S,225,1090,896,901,963,906,868,840,856,840,70
39XT0811,Y90L,225,1090,921,926,988,926,868,862,881,862,70
39XT0811,Y100L,225,1090,961,951,992,981,892,912,903,912,70
39XT0811,Y112M,225,1090,966,960,996,1001,914,928,924,928,70
39XT0811,Y80,250,1090,930,908,964,911,887,865,859,865,70
39XT0811,Y90S,250,1090,941,946,1008,951,913,885,901,885,70
39XT0811,Y90L,250,1090,966,971,1033,971,913,907,926,907,70
39XT0811,Y100L,250,1090,1006,996,1037,1026,937,957,948,957,70
39XT0811,Y112M,250,1090,1011,1005,1041,1046,959,973,969,973,70
39XT0811,Y132S,250,1090,1056,1051,1113,1046,1089,1010,1022,1010,110
39XT0811,Y132M,250,1090,1096,1091,1151,1086,1089,1047,1060,1047,110
39XT0912,Y80,250,1190,980,958,1014,961,937,915,909,915,110
39XT0912,Y90S,250,1190,991,996,1058,1001,963,935,951,935,110
39XT0912,Y90L,250,1190,1016,1021,1083,1021,963,957,976,957,110
39XT0912,Y100L,250,1190,1056,1046,1087,1076,987,1007,998,1007,110
39XT0912,Y112M,250,1190,1061,1055,1091,1096,1009,1023,1019,1023,110
39XT0912,Y132S,250,1190,1106,1101,1163,1096,1139,1060,1072,1060,110
39XT0912,Y132M,250,1190,1146,1141,1201,1136,1139,1097,1110,1097,110
39XT0912,Y80,280,1190,1014,992,1048,995,971,949,943,949,110
39XT0912,Y90S,280,1190,1025,1030,1092,1035,1007,979,995,979,110
39XT0912,Y90L,280,1190,1050,1055,1117,1055,1007,1001,1020,1001,110
39XT0912,Y100L,280,1190,1090,1080,1121,1110,1031,1051,1042,1051,110
39XT0912,Y112M,280,1190,1095,1089,1125,1130,1053,1067,1063,1067,110
39XT0912,Y132S,280,1190,1140,1135,1197,1130,1183,1104,1116,1104,110
39XT0912,Y132M,280,1190,1180,1175,1235,1170,1183,1141,1154,1141,110
39XT0913,Y80,280,1290,1064,1042,1098,1045,1021,999,993,999,110
39XT0913,Y90S,280,1290,1075,1080,1142,1085,1057,1029,1045,1029,110
39XT0913,Y90L,280,1290,1100,1105,1167,1105,1057,1051,1070,1051,110
39XT0913,Y100L,280,1290,1140,1130,1171,1160,1081,1101,1092,1101,110
39XT0913,Y112M,280,1290,1145,1139,1175,1180,1103,1117,1113,1117,110
39XT0913,Y132S,280,1290,1190,1185,1247,1180,1233,1154,1166,1154,110
39XT0913,Y132M,280,1290,1230,1225,1285,1220,1233,1191,1204,1191,110
39XT0913,Y80,315,1290,1076,1054,1110,1057,1033,1011,1005,1011,110
39XT0913,Y90S,315,1290,1087,1092,1154,1097,1069,1041,1057,1041,110
39XT0913,Y90L,315,1290,1112,1117,1179,1117,1069,1063,1082,1063,110
39XT0913,Y100L,315,1290,1152,1142,1183,1172,1093,1113,1104,1113,110
39XT0913,Y112M,315,1290,1157,1151,1187,1192,1115,1129,1125,1129,110
39XT0913,Y132S,315,1290,1202,1197,1259,1192,1245,1166,1178,1166,110
39XT0913,Y132M,315,1290,1242,1237,1297,1232,1245,1203,1216,1203,110
39XT0914,Y80,315,1390,1076,1054,1110,1057,1033,1011,1005,1011,110
39XT0914,Y90S,315,1390,1087,1092,1154,1097,1069,1041,1057,1041,110
39XT0914,Y90L,315,1390,1112,1117,1179,1117,1069,1063,1082,1063,110
39XT0914,Y100L,315,1390,1152,1142,1183,1172,1093,1113,1104,1113,110
39XT0914,Y112M,315,1390,1157,1151,1187,1192,1115,1129,1125,1129,110
39XT0914,Y132S,315,1390,1202,1197,1259,1192,1245,1166,1178,1166,110
39XT0914,Y132M,315,1390,1242,1237,1297,1232,1245,1203,1216,1203,110
39XT0914,Y80,355,1390,1161,1139,1194,1142,1118,1096,1090,1096,110
39XT0914,Y90S,355,1390,1172,1177,1239,1182,1144,1116,1131,1116,110
39XT0914,Y90L,355,1390,1197,1202,1264,1202,1144,1138,1156,1138,110
39XT0914,Y100L,355,1390,1237,1227,1268,1257,1158,1178,1169,1178,110
39XT0914,Y112M,355,1390,1242,1236,1271,1277,1180,1194,1189,1194,110
39XT0914,Y132S,355,1390,1287,1282,1344,1277,1305,1226,1238,1226,110
39XT0914,Y132M,355,1390,1327,1322,1382,1317,1305,1263,1276,1263,110
39XT1015,Y80,355,1490,1161,1139,1194,1142,1118,1096,1090,1096,110
39XT1015,Y90S,355,1490,1172,1177,1239,1182,1144,1116,1131,1116,110
39XT1015,Y90L,355,1490,1197,1202,1264,1202,1144,1138,1156,1138,110
39XT1015,Y100L,355,1490,1237,1227,1268,1257,1158,1178,1169,1178,110
39XT1015,Y112M,355,1490,1242,1236,1271,1277,1180,1194,1189,1194,110
39XT1015,Y132S,355,1490,1287,1282,1344,1277,1305,1226,1238,1226,110
39XT1015,Y132M,355,1490,1327,1322,1382,1317,1305,1263,1276,1263,110
39XT1015,Y80,400,1490,1262,1240,1296,1243,1219,1197,1191,1197,110
39XT1015,Y90S,400,1490,1273,1278,1340,1283,1245,1217,1233,1217,110
39XT1015,Y90L,400,1490,1298,1303,1365,1303,1245,1239,1258,1239,110
39XT1015,Y100L,400,1490,1338,1328,1369,1358,1259,1279,1270,1279,110
39XT1015,Y112M,400,1490,1343,1337,1373,1378,1281,1295,1291,1295,110
39XT1015,Y132S,400,1490,1388,1383,1445,1378,1406,1327,1339,1327,110
39XT1015,Y132M,400,1490,1428,1423,1483,1418,1406,1364,1377,1364,110
39XT1015,Y160M,400,1490,1508,1471,1541,1483,1457,1463,1481,1463,110
39XT1015,Y160L,400,1490,1553,1526,1585,1528,1457,1507,1525,1507,110
39XT1117,Y80,400,1690,1262,1240,1296,1243,1219,1197,1191,1197,110
39XT1117,Y90S,400,1690,1273,1278,1340,1283,1245,1217,1233,1217,110
39XT1117,Y90L,400,1690,1298,1303,1365,1303,1245,1239,1258,1239,110
39XT1117,Y100L,400,1690,1338,1328,1369,1358,1259,1279,1270,1279,110
39XT1117,Y112M,400,1690,1343,1337,1373,1378,1281,1295,1291,1295,110
39XT1117,Y132S,400,1690,1388,1383,1445,1378,1406,1327,1339,1327,110
39XT1117,Y132M,400,1690,1428,1423,1483,1418,1406,1364,1377,1364,110
39XT1117,Y160M,400,1690,1508,1471,1541,1483,1457,1463,1481,1463,110
39XT1117,Y160L,400,1690,1553,1526,1585,1528,1457,1507,1525,1507,110
39XT1117,Y80,450,1690,1348,1326,1382,1329,1305,1283,1277,1283,110
39XT1117,Y90S,450,1690,1359,1364,1426,1369,1331,1303,1319,1303,110
39XT1117,Y90L,450,1690,1384,1389,1451,1389,1331,1325,1344,1325,110
39XT1117,Y100L,450,1690,1424,1414,1455,1444,1345,1365,1356,1365,110
39XT1117,Y112M,450,1690,1429,1423,1459,1464,1367,1381,1377,1381,110
39XT1117,Y132S,450,1690,1474,1469,1531,1464,1487,1408,1420,1408,110
39XT1117,Y132M,450,1690,1514,1509,1569,1504,1487,1445,1458,1445,110
39XT1117,Y160M,450,1690,1594,1557,1627,1569,1538,1544,1562,1544,110
39XT1117,Y160L,450,1690,1639,1612,1671,1614,1538,1588,1606,1588,110
39XT1317,Y80,400,1690,1262,1240,1296,1243,1219,1197,1191,1197,110
39XT1317,Y90S,400,1690,1273,1278,1340,1283,1245,1217,1233,1217,110
39XT1317,Y90L,400,1690,1298,1303,1365,1303,1245,1239,1258,1239,110
39XT1317,Y100L,400,1690,1338,1328,1369,1358,1259,1279,1270,1279,110
39XT1317,Y112M,400,1690,1343,1337,1373,1378,1281,1295,1291,1295,110
39XT1317,Y132S,400,1690,1388,1383,1445,1378,1406,1327,1339,1327,110
39XT1317,Y132M,400,1690,1428,1423,1483,1418,1406,1364,1377,1364,110
39XT1317,Y160M,400,1690,1508,1471,1541,1483,1457,1463,1481,1463,110
39XT1317,Y160L,400,1690,1553,1526,1585,1528,1457,1507,1525,1507,110
39XT1317,Y80,450,1690,1348,1326,1382,1329,1305,1283,1277,1283,110
39XT1317,Y90S,450,1690,1359,1364,1426,1369,1331,1303,1319,1303,110
39XT1317,Y90L,450,1690,1384,1389,1451,1389,1331,1325,1344,1325,110
39XT1317,Y100L,450,1690,1424,1414,1455,1444,1345,1365,1356,1365,110
39XT1317,Y112M,450,1690,1429,1423,1459,1464,1367,1381,1377,1381,110
39XT1317,Y132S,450,1690,1474,1469,1531,1464,1487,1408,1420,1408,110
39XT1317,Y132M,450,1690,1514,1509,1569,1504,1487,1445,1458,1445,110
39XT1317,Y160M,450,1690,1594,1557,1627,1569,1538,1544,1562,1544,110
39XT1317,Y160L,450,1690,1639,1612,1671,1614,1538,1588,1606,1588,110
39XT1418,Y80,450,1790,1348,1326,1382,1329,1305,1283,1277,1283,110
39XT1418,Y90S,450,1790,1359,1364,1426,1369,1331,1303,1319,1303,110
39XT1418,Y90L,450,1790,1384,1389,1451,1389,1331,1325,1344,1325,110
39XT1418,Y100L,450,1790,1424,1414,1455,1444,1345,1365,1356,1365,110
39XT1418,Y112M,450,1790,1429,1423,1459,1464,1367,1381,1377,1381,110
39XT1418,Y132S,450,1790,1474,1469,1531,1464,1487,1408,1420,1408,110
39XT1418,Y132M,450,1790,1514,1509,1569,1504,1487,1445,1458,1445,110
39XT1418,Y160M,450,1790,1594,1557,1627,1569,1538,1544,1562,1544,110
39XT1418,Y160L,450,1790,1639,1612,1671,1614,1538,1588,1606,1588,110
39XT1418,Y80,500,1790,1443,1421,1476,1424,1400,1378,1372,1378,110
39XT1418,Y90S,500,1790,1454,1459,1521,1464,1426,1398,1413,1398,110
39XT1418,Y90L,500,1790,1479,1484,1546,1484,1426,1420,1438,1420,110
39XT1418,Y100L,500,1790,1519,1509,1550,1539,1450,1470,1461,1470,110
39XT1418,Y112M,500,1790,1524,1518,1553,1559,1472,1486,1481,1486,110
39XT1418,Y132S,500,1790,1569,1564,1626,1559,1602,1523,1535,1523,110
39XT1418,Y132M,500,1790,1609,1604,1664,1599,1602,1560,1573,1560,110
39XT1418,Y160M,500,1790,1689,1652,1722,1664,1653,1659,1677,1659,110
39XT1418,Y160L,500,1790,1734,1707,1766,1709,1653,1703,1721,1703,110
39XT1420,Y80,500,1990,1443,1421,1476,1424,1400,1378,1372,1378,110
39XT1420,Y90S,500,1990,1454,1459,1521,1464,1426,1398,1413,1398,110
39XT1420,Y90L,500,1990,1479,1484,1546,1484,1426,1420,1438,1420,110
39XT1420,Y100L,500,1990,1519,1509,1550,1539,1450,1470,1461,1470,110
39XT1420,Y112M,500,1990,1524,1518,1553,1559,1472,1486,1481,1486,110
39XT1420,Y132S,500,1990,1569,1564,1626,1559,1602,1523,1535,1523,110
39XT1420,Y132M,500,1990,1609,1604,1664,1599,1602,1560,1573,1560,110
39XT1420,Y160M,500,1990,1689,1652,1722,1664,1653,1659,1677,1659,110
39XT1420,Y160L,500,1990,1734,1707,1766,1709,1653,1703,1721,1703,110
39XT1420,Y80,560,1990,1597,1575,1630,1578,1554,1532,1526,1532,110
39XT1420,Y90S,560,1990,1608,1613,1675,1618,1580,1552,1567,1552,110
39XT1420,Y90L,560,1990,1633,1638,1700,1638,1580,1574,1592,1574,110
39XT1420,Y100L,560,1990,1673,1663,1704,1693,1594,1614,1605,1614,110
39XT1420,Y112M,560,1990,1678,1672,1707,1713,1616,1630,1625,1630,110
39XT1420,Y132S,560,1990,1723,1718,1780,1713,1736,1657,1669,1657,110
39XT1420,Y132M,560,1990,1763,1758,1818,1753,1736,1694,1707,1694,110
39XT1420,Y160M,560,1990,1843,1806,1876,1818,1787,1793,1811,1793,110
39XT1420,Y160L,560,1990,1888,1861,1920,1863,1787,1837,1855,1837,110
39XT1420,Y180M,560,1990,1908,1883,1954,1928,1884,1858,1875,1858,110
39XT1420,Y180L,560,1990,1948,1923,1992,1963,1884,1896,1913,1896,110
39XT1621,Y80,560,2090,1597,1575,1630,1578,1554,1532,1526,1532,110
39XT1621,Y90S,560,2090,1608,1613,1675,1618,1580,1552,1567,1552,110
39XT1621,Y90L,560,2090,1633,1638,1700,1638,1580,1574,1592,1574,110
39XT1621,Y100L,560,2090,1673,1663,1704,1693,1594,1614,1605,1614,110
39XT1621,Y112M,560,2090,1678,1672,1707,1713,1616,1630,1625,1630,110
39XT1621,Y132S,560,2090,1723,1718,1780,1713,1736,1657,1669,1657,110
39XT1621,Y132M,560,2090,1763,1758,1818,1753,1736,1694,1707,1694,110
39XT1621,Y160M,560,2090,1843,1806,1876,1818,1787,1793,1811,1793,110
39XT1621,Y160L,560,2090,1888,1861,1920,1863,1787,1837,1855,1837,110
39XT1621,Y180M,560,2090,1908,1883,1954,1928,1884,1858,1875,1858,110
39XT1621,Y180L,560,2090,1948,1923,1992,1963,1884,1896,1913,1896,110
39XT1621,Y80,630,2090,1728,1706,1761,1709,1685,1663,1657,1663,110
39XT1621,Y90S,630,2090,1739,1744,1806,1749,1711,1683,1698,1683,110
39XT1621,Y90L,630,2090,1764,1769,1831,1769,1711,1705,1723,1705,110
39XT1621,Y100L,630,2090,1804,1794,1835,1824,1725,1745,1736,1745,110
39XT1621,Y112M,630,2090,1809,1803,1838,1844,1747,1761,1756,1761,110
39XT1621,Y132S,630,2090,1854,1849,1911,1844,1867,1788,1800,1788,110
39XT1621,Y132M,630,2090,1894,1889,1949,1884,1867,1825,1838,1825,110
39XT1621,Y160M,630,2090,1974,1937,2007,1949,1918,1924,1942,1924,110
39XT1621,Y160L,630,2090,2019,1992,2051,1994,1918,1968,1986,1968,110
39XT1621,Y180M,630,2090,2039,2014,2085,2059,2015,1989,2006,1989,110
39XT1621,Y180L,630,2090,2079,2054,2123,2094,2015,2027,2044,2027,110
39XT1621,Y200L,630,2090,2139,2130,2174,2144,2060,2130,2104,2130,110
39XT1822,Y80,560,2190,1597,1575,1630,1578,1554,1532,1526,1532,110
39XT1822,Y90S,560,2190,1608,1613,1675,1618,1580,1552,1567,1552,110
39XT1822,Y90L,560,2190,1633,1638,1700,1638,1580,1574,1592,1574,110
39XT1822,Y100L,560,2190,1673,1663,1704,1693,1594,1614,1605,1614,110
39XT1822,Y112M,560,2190,1678,1672,1707,1713,1616,1630,1625,1630,110
39XT1822,Y132S,560,2190,1723,1718,1780,1713,1736,1657,1669,1657,110
39XT1822,Y132M,560,2190,1763,1758,1818,1753,1736,1694,1707,1694,110
39XT1822,Y160M,560,2190,1843,1806,1876,1818,1787,1793,1811,1793,110
39XT1822,Y160L,560,2190,1888,1861,1920,1863,1787,1837,1855,1837,110
39XT1822,Y180M,560,2190,1908,1883,1954,1928,1884,1858,1875,1858,110
39XT1822,Y180L,560,2190,1948,1923,1992,1963,1884,1896,1913,1896,110
39XT1822,Y80,630,2190,1717,1695,1751,1698,1674,1652,1646,1652,110
39XT1822,Y90S,630,2190,1728,1733,1795,1738,1700,1672,1688,1672,110
39XT1822,Y90L,630,2190,1753,1758,1820,1758,1700,1694,1713,1694,110
39XT1822,Y100L,630,2190,1793,1783,1824,1813,1714,1734,1725,1734,110
39XT1822,Y112M,630,2190,1798,1792,1828,1833,1736,1750,1746,1750,110
39XT1822,Y132S,630,2190,1843,1838,1900,1833,1856,1777,1789,1777,110
39XT1822,Y132M,630,2190,1883,1878,1938,1873,1856,1814,1827,1814,110
39XT1822,Y160M,630,2190,1963,1926,1996,1938,1907,1913,1931,1913,110
39XT1822,Y160L,630,2190,2008,1981,2040,1983,1907,1957,1975,1957,110
39XT1822,Y180M,630,2190,2028,2003,2074,2048,2004,1978,1995,1978,110
39XT1822,Y180L,630,2190,2068,2043,2112,2083,2004,2016,2033,2016,110
39XT1822,Y200L,630,2190,2128,2119,2163,2133,2049,2119,2093,2119,110
39XT1825,Y80,630,2490,1717,1695,1751,1698,1674,1652,1646,1652,110
39XT1825,Y90S,630,2490,1728,1733,1795,1738,1700,1672,1688,1672,110
39XT1825,Y90L,630,2490,1753,1758,1820,1758,1700,1694,1713,1694,110
39XT1825,Y100L,630,2490,1793,1783,1824,1813,1714,1734,1725,1734,110
39XT1825,Y112M,630,2490,1798,1792,1828,1833,1736,1750,1746,1750,110
39XT1825,Y132S,630,2490,1843,1838,1900,1833,1856,1777,1789,1777,110
39XT1825,Y132M,630,2490,1883,1878,1938,1873,1856,1814,1827,1814,110
39XT1825,Y160M,630,2490,1963,1926,1996,1938,1907,1913,1931,1913,110
39XT1825,Y160L,630,2490,2008,1981,2040,1983,1907,1957,1975,1957,110
39XT1825,Y180M,630,2490,2028,2003,2074,2048,2004,1978,1995,1978,110
39XT1825,Y180L,630,2490,2068,2043,2112,2083,2004,2016,2033,2016,110
39XT1825,Y200L,630,2490,2128,2119,2163,2133,2049,2119,2093,2119,110
39XT1825,Y80,710,2490,1873,1851,1907,1854,1830,1808,1802,1808,110
39XT1825,Y90S,710,2490,1884,1889,1951,1894,1856,1828,1844,1828,110
39XT1825,Y90L,710,2490,1909,1914,1976,1914,1856,1850,1869,1850,110
39XT1825,Y100L,710,2490,1949,1939,1980,1969,1870,1890,1881,1890,110
39XT1825,Y112M,710,2490,1954,1948,1984,1989,1892,1906,1902,1906,110
39XT1825,Y132S,710,2490,1999,1994,2056,1989,2002,1923,1935,1923,110
39XT1825,Y132M,710,2490,2039,2034,2094,2029,2002,1960,1973,1960,110
39XT1825,Y160M,710,2490,2119,2082,2152,2094,2043,2049,2067,2049,110
39XT1825,Y160L,710,2490,2164,2137,2196,2139,2043,2093,2111,2093,110
39XT1825,Y180M,710,2490,2184,2159,2230,2204,2140,2114,2131,2114,110
39XT1825,Y180L,710,2490,2224,2199,2268,2239,2140,2152,2169,2152,110
39XT1825,Y200L,710,2490,2284,2275,2319,2289,2185,2255,2229,2255,110
39XT2025,Y80,630,2490,1685,1663,1718,1666,1642,1620,1614,1620,110
39XT2025,Y90S,630,2490,1696,1701,1763,1706,1668,1640,1655,1640,110
39XT2025,Y90L,630,2490,1721,1726,1788,1726,1668,1662,1680,1662,110
39XT2025,Y100L,630,2490,1761,1751,1792,1781,1682,1702,1693,1702,110
39XT2025,Y112M,630,2490,1766,1760,1795,1801,1704,1718,1713,1718,110
39XT2025,Y132S,630,2490,1811,1806,1868,1801,1824,1745,1757,1745,110
39XT2025,Y132M,630,2490,1851,1846,1906,1841,1824,1782,1795,1782,110
39XT2025,Y160M,630,2490,1931,1894,1964,1906,1875,1881,1899,1881,110
39XT2025,Y160L,630,2490,1976,1949,2008,1951,1875,1925,1943,1925,110
39XT2025,Y180M,630,2490,1996,1971,2042,2016,1972,1946,1963,1946,110
39XT2025,Y180L,630,2490,2036,2011,2080,2051,1972,1984,2001,1984,110
39XT2025,Y200L,630,2490,2096,2087,2131,2101,2017,2087,2061,2087,110
39XT2025,Y80,710,2490,1873,1851,1907,1854,1830,1808,1802,1808,110
39XT2025,Y90S,710,2490,1884,1889,1951,1894,1856,1828,1844,1828,110
39XT2025,Y90L,710,2490,1909,1914,1976,1914,1856,1850,1869,1850,110
39XT2025,Y100L,710,2490,1949,1939,1980,1969,1870,1890,1881,1890,110
39XT2025,Y112M,710,2490,1954,1948,1984,1989,1892,1906,1902,1906,110
39XT2025,Y132S,710,2490,1999,1994,2056,1989,2002,1923,1935,1923,110
39XT2025,Y132M,710,2490,2039,2034,2094,2029,2002,1960,1973,1960,110
39XT2025,Y160M,710,2490,2119,2082,2152,2094,2043,2049,2067,2049,110
39XT2025,Y160L,710,2490,2164,2137,2196,2139,2043,2093,2111,2093,110
39XT2025,Y180M,710,2490,2184,2159,2230,2204,2140,2114,2131,2114,110
39XT2025,Y180L,710,2490,2224,2199,2268,2239,2140,2152,2169,2152,110
39XT2025,Y200L,710,2490,2284,2275,2319,2289,2185,2255,2229,2255,110
39XT2025,Y225S,710,2490,2289,2301,2397,2300,2280,2305,2275,2305,110
39XT2125,Y80,710,2490,1873,1851,1907,1854,1830,1808,1802,1808,110
39XT2125,Y90S,710,2490,1884,1889,1951,1894,1856,1828,1844,1828,110
39XT2125,Y90L,710,2490,1909,1914,1976,1914,1856,1850,1869,1850,110
39XT2125,Y100L,710,2490,1949,1939,1980,1969,1870,1890,1881,1890,110
39XT2125,Y112M,710,2490,1954,1948,1984,1989,1892,1906,1902,1906,110
39XT2125,Y132S,710,2490,1999,1994,2056,1989,2002,1923,1935,1923,110
39XT2125,Y132M,710,2490,2039,2034,2094,2029,2002,1960,1973,1960,110
39XT2125,Y160M,710,2490,2119,2082,2152,2094,2043,2049,2067,2049,110
39XT2125,Y160L,710,2490,2164,2137,2196,2139,2043,2093,2111,2093,110
39XT2125,Y180M,710,2490,2184,2159,2230,2204,2140,2114,2131,2114,110
39XT2125,Y180L,710,2490,2224,2199,2268,2239,2140,2152,2169,2152,110
39XT2125,Y200L,710,2490,2284,2275,2319,2289,2185,2255,2229,2255,110
39XT2125,Y225S,710,2490,2289,2301,2397,2300,2280,2305,2275,2305,110
39XT2125,Y80,800,2490,2066,2044,2100,2047,2023,2001,1995,2001,110
39XT2125,Y90S,800,2490,2077,2082,2144,2087,2049,2021,2037,2021,110
39XT2125,Y90L,800,2490,2102,2107,2169,2107,2049,2043,2062,2043,110
39XT2125,Y100L,800,2490,2142,2132,2173,2162,2063,2083,2074,2083,110
39XT2125,Y112M,800,2490,2147,2141,2177,2182,2085,2099,2095,2099,110
39XT2125,Y132S,800,2490,2192,2187,2249,2182,2195,2116,2128,2116,110
39XT2125,Y132M,800,2490,2232,2227,2287,2222,2195,2153,2166,2153,110
39XT2125,Y160M,800,2490,2312,2275,2345,2287,2236,2242,2260,2242,110
39XT2125,Y160L,800,2490,2357,2330,2389,2332,2236,2286,2304,2286,110
39XT2125,Y180M,800,2490,2377,2352,2423,2397,2333,2307,2324,2307,110
39XT2125,Y180L,800,2490,2417,2392,2461,2432,2333,2345,2362,2345,110
39XT2125,Y200L,800,2490,2477,2468,2512,2482,2378,2448,2422,2448,110
39XT2125,Y225S,800,2490,2482,2494,2590,2493,2473,2498,2468,2498,110
39XT2125,Y225M,800,2490,2532,2554,2645,2548,2473,2523,2493,2523,110
39XT2226,Y80,710,2590,1873,1851,1907,1854,1830,1808,1802,1808,110
39XT2226,Y90S,710,2590,1884,1889,1951,1894,1856,1828,1844,1828,110
39XT2226,Y90L,710,2590,1909,1914,1976,1914,1856,1850,1869,1850,110
39XT2226,Y100L,710,2590,1949,1939,1980,1969,1870,1890,1881,1890,110
39XT2226,Y112M,710,2590,1954,1948,1984,1989,1892,1906,1902,1906,110
39XT2226,Y132S,710,2590,1999,1994,2056,1989,2002,1923,1935,1923,110
39XT2226,Y132M,710,2590,2039,2034,2094,2029,2002,1960,1973,1960,110
39XT2226,Y160M,710,2590,2119,2082,2152,2094,2043,2049,2067,2049,110
39XT2226,Y160L,710,2590,2164,2137,2196,2139,2043,2093,2111,2093,110
39XT2226,Y180M,710,2590,2184,2159,2230,2204,2140,2114,2131,2114,110
39XT2226,Y180L,710,2590,2224,2199,2268,2239,2140,2152,2169,2152,110
39XT2226,Y200L,710,2590,2284,2275,2319,2289,2185,2255,2229,2255,110
39XT2226,Y225S,710,2590,2289,2301,2397,2300,2280,2305,2275,2305,110
39XT2226,Y80,800,2590,2053,2031,2086,2034,2010,1988,1982,1988,110
39XT2226,Y90S,800,2590,2064,2069,2131,2074,2036,2008,2023,2008,110
39XT2226,Y90L,800,2590,2089,2094,2156,2094,2036,2030,2048,2030,110
39XT2226,Y100L,800,2590,2129,2119,2160,2149,2050,2070,2061,2070,110
39XT2226,Y112M,800,2590,2134,2128,2163,2169,2072,2086,2081,2086,110
39XT2226,Y132S,800,2590,2179,2174,2236,2169,2182,2103,2115,2103,110
39XT2226,Y132M,800,2590,2219,2214,2274,2209,2182,2140,2153,2140,110
39XT2226,Y160M,800,2590,2299,2262,2332,2274,2223,2229,2247,2229,110
39XT2226,Y160L,800,2590,2344,2317,2376,2319,2223,2273,2291,2273,110
39XT2226,Y180M,800,2590,2364,2339,2410,2384,2320,2294,2311,2294,110
39XT2226,Y180L,800,2590,2404,2379,2448,2419,2320,2332,2349,2332,110
39XT2226,Y200L,800,2590,2464,2455,2499,2469,2365,2435,2409,2435,110
39XT2226,Y225S,800,2590,2469,2481,2576,2480,2460,2485,2455,2485,110
39XT2226,Y225M,800,2590,2519,2541,2631,2535,2460,2510,2480,2510,110
39XT2226,Y250M,800,2590,2594,2578,2678,2668,2518,2568,2560,2568,110
39XT2328,Y80,800,2790,2053,2031,2086,2034,2010,1988,1982,1988,110
39XT2328,Y90S,800,2790,2064,2069,2131,2074,2036,2008,2023,2008,110
39XT2328,Y90L,800,2790,2089,2094,2156,2094,2036,2030,2048,2030,110
39XT2328,Y100L,800,2790,2129,2119,2160,2149,2050,2070,2061,2070,110
39XT2328,Y112M,800,2790,2134,2128,2163,2169,2072,2086,2081,2086,110
39XT2328,Y132S,800,2790,2179,2174,2236,2169,2182,2103,2115,2103,110
39XT2328,Y132M,800,2790,2219,2214,2274,2209,2182,2140,2153,2140,110
39XT2328,Y160M,800,2790,2299,2262,2332,2274,2223,2229,2247,2229,110
39XT2328,Y160L,800,2790,2344,2317,2376,2319,2223,2273,2291,2273,110
39XT2328,Y180M,800,2790,2364,2339,2410,2384,2320,2294,2311,2294,110
39XT2328,Y180L,800,2790,2404,2379,2448,2419,2320,2332,2349,2332,110
39XT2328,Y200L,800,2790,2464,2455,2499,2469,2365,2435,2409,2435,110
39XT2328,Y225S,800,2790,2469,2481,2576,2480,2460,2485,2455,2485,110
39XT2328,Y225M,800,2790,2519,2541,2631,2535,2460,2510,2480,2510,110
39XT2328,Y250M,800,2790,2594,2578,2678,2668,2518,2568,2560,2568,110
39XT2328,Y80,900,2790,2234,2212,2268,2215,2191,2169,2163,2169,110
39XT2328,Y90S,900,2790,2245,2250,2312,2255,2217,2189,2205,2189,110
39XT2328,Y90L,900,2790,2270,2275,2337,2275,2217,2211,2230,2211,110
39XT2328,Y100L,900,2790,2310,2300,2341,2330,2231,2251,2242,2251,110
39XT2328,Y112M,900,2790,2315,2309,2345,2350,2253,2267,2263,2267,110
39XT2328,Y132S,900,2790,2360,2355,2417,2350,2363,2284,2296,2284,110
39XT2328,Y132M,900,2790,2400,2395,2455,2390,2363,2321,2334,2321,110
39XT2328,Y160M,900,2790,2480,2443,2513,2455,2404,2410,2428,2410,110
39XT2328,Y160L,900,2790,2525,2498,2557,2500,2404,2454,2472,2454,110
39XT2328,Y180M,900,2790,2545,2520,2591,2565,2501,2475,2492,2475,110
39XT2328,Y180L,900,2790,2585,2560,2629,2600,2501,2513,2530,2513,110
39XT2328,Y200L,900,2790,2645,2636,2680,2650,2546,2616,2590,2616,110
39XT2328,Y225S,900,2790,2650,2662,2758,2661,2641,2666,2636,2666,110
39XT2328,Y225M,900,2790,2700,2722,2813,2716,2641,2691,2661,2691,110
39XT2328,Y250M,900,2790,2775,2759,2859,2849,2699,2749,2741,2749,110
39XT2330,Y80,800,2990,2053,2031,2086,2034,2010,1988,1982,1988,110
39XT2330,Y90S,800,2990,2064,2069,2131,2074,2036,2008,2023,2008,110
39XT2330,Y90L,800,2990,2089,2094,2156,2094,2036,2030,2048,2030,110
39XT2330,Y100L,800,2990,2129,2119,2160,2149,2050,2070,2061,2070,110
39XT2330,Y112M,800,2990,2134,2128,2163,2169,2072,2086,2081,2086,110
39XT2330,Y132S,800,2990,2179,2174,2236,2169,2182,2103,2115,2103,110
39XT2330,Y132M,800,2990,2219,2214,2274,2209,2182,2140,2153,2140,110
39XT2330,Y160M,800,2990,2299,2262,2332,2274,2223,2229,2247,2229,110
39XT2330,Y160L,800,2990,2344,2317,2376,2319,2223,2273,2291,2273,110
39XT2330,Y180M,800,2990,2364,2339,2410,2384,2320,2294,2311,2294,110
39XT2330,Y180L,800,2990,2404,2379,2448,2419,2320,2332,2349,2332,110
39XT2330,Y200L,800,2990,2464,2455,2499,2469,2365,2435,2409,2435,110
39XT2330,Y225S,800,2990,2469,2481,2576,2480,2460,2485,2455,2485,110
39XT2330,Y225M,800,2990,2519,2541,2631,2535,2460,2510,2480,2510,110
39XT2330,Y250M,800,2990,2594,2578,2678,2668,2518,2568,2560,2568,110
39XT2330,Y80,900,2990,2234,2212,2268,2215,2191,2169,2163,2169,110
39XT2330,Y90S,900,2990,2245,2250,2312,2255,2217,2189,2205,2189,110
39XT2330,Y90L,900,2990,2270,2275,2337,2275,2217,2211,2230,2211,110
39XT2330,Y100L,900,2990,2310,2300,2341,2330,2231,2251,2242,2251,110
39XT2330,Y112M,900,2990,2315,2309,2345,2350,2253,2267,2263,2267,110
39XT2330,Y132S,900,2990,2360,2355,2417,2350,2363,2284,2296,2284,110
39XT2330,Y132M,900,2990,2400,2395,2455,2390,2363,2321,2334,2321,110
39XT2330,Y160M,900,2990,2480,2443,2513,2455,2404,2410,2428,2410,110
39XT2330,Y160L,900,2990,2525,2498,2557,2500,2404,2454,2472,2454,110
39XT2330,Y180M,900,2990,2545,2520,2591,2565,2501,2475,2492,2475,110
39XT2330,Y180L,900,2990,2585,2560,2629,2600,2501,2513,2530,2513,110
39XT2330,Y200L,900,2990,2645,2636,2680,2650,2546,2616,2590,2616,110
39XT2330,Y225S,900,2990,2650,2662,2758,2661,2641,2666,2636,2666,110
39XT2330,Y225M,900,2990,2700,2722,2813,2716,2641,2691,2661,2691,110
39XT2330,Y250M,900,2990,2775,2759,2859,2849,2699,2749,2741,2749,110
39XT2330,Y280S,900,2990,2885,2888,2913,2956,2802,2827,2858,2827,110
39XT2333,Y80,800,3290,2053,2031,2086,2034,2010,1988,1982,1988,110
39XT2333,Y90S,800,3290,2064,2069,2131,2074,2036,2008,2023,2008,110
39XT2333,Y90L,800,3290,2089,2094,2156,2094,2036,2030,2048,2030,110
39XT2333,Y100L,800,3290,2129,2119,2160,2149,2050,2070,2061,2070,110
39XT2333,Y112M,800,3290,2134,2128,2163,2169,2072,2086,2081,2086,110
39XT2333,Y132S,800,3290,2179,2174,2236,2169,2182,2103,2115,2103,110
39XT2333,Y132M,800,3290,2219,2214,2274,2209,2182,2140,2153,2140,110
39XT2333,Y160M,800,3290,2299,2262,2332,2274,2223,2229,2247,2229,110
39XT2333,Y160L,800,3290,2344,2317,2376,2319,2223,2273,2291,2273,110
39XT2333,Y180M,800,3290,2364,2339,2410,2384,2320,2294,2311,2294,110
39XT2333,Y180L,800,3290,2404,2379,2448,2419,2320,2332,2349,2332,110
39XT2333,Y200L,800,3290,2464,2455,2499,2469,2365,2435,2409,2435,110
39XT2333,Y225S,800,3290,2469,2481,2576,2480,2460,2485,2455,2485,110
39XT2333,Y225M,800,3290,2519,2541,2631,2535,2460,2510,2480,2510,110
39XT2333,Y250M,800,3290,2594,2578,2678,2668,2518,2568,2560,2568,110
39XT2333,Y80,900,3290,2234,2212,2268,2215,2191,2169,2163,2169,110
39XT2333,Y90S,900,3290,2245,2250,2312,2255,2217,2189,2205,2189,110
39XT2333,Y90L,900,3290,2270,2275,2337,2275,2217,2211,2230,2211,110
39XT2333,Y100L,900,3290,2310,2300,2341,2330,2231,2251,2242,2251,110
39XT2333,Y112M,900,3290,2315,2309,2345,2350,2253,2267,2263,2267,110
39XT2333,Y132S,900,3290,2360,2355,2417,2350,2363,2284,2296,2284,110
39XT2333,Y132M,900,3290,2400,2395,2455,2390,2363,2321,2334,2321,110
39XT2333,Y160M,900,3290,2480,2443,2513,2455,2404,2410,2428,2410,110
39XT2333,Y160L,900,3290,2525,2498,2557,2500,2404,2454,2472,2454,110
39XT2333,Y180M,900,3290,2545,2520,2591,2565,2501,2475,2492,2475,110
39XT2333,Y180L,900,3290,2585,2560,2629,2600,2501,2513,2530,2513,110
39XT2333,Y200L,900,3290,2645,2636,2680,2650,2546,2616,2590,2616,110
39XT2333,Y225S,900,3290,2650,2662,2758,2661,2641,2666,2636,2666,110
39XT2333,Y225M,900,3290,2700,2722,2813,2716,2641,2691,2661,2691,110
39XT2333,Y250M,900,3290,2775,2759,2859,2849,2699,2749,2741,2749,110
