FANTYPE,FANCODE,INNERHEIGHT,INNERWIDTH,A,P,AP,M,N,D,W
39CQ0606,160,590,590,193,85,108,370,244,110,384
39CQ0606,180,590,590,181,71,110,390,268,110,384
39CQ0608,160,590,790,174,66,108,370,244,110,384
39CQ0608,180,590,790,130,0,110,390,268,110,384
39CQ0609,180,590,890,241,131,110,390,268,110,384
39CQ0609,200,590,890,211,68,143,420,306,110,384
39CQ0610,180,590,990,381,271,110,390,268,110,384
39CQ0610,200,590,990,367,224,143,420,306,110,384
39CQ0707,180,690,690,231,121,110,390,268,110,384
39CQ0707,200,690,690,217,74,143,420,306,110,384
39CQ0710,200,690,990,367,224,143,420,306,110,384
39CQ0710,225,690,990,351,198,153,460,338,110,384
39CQ0711,200,690,1090,311,168,143,420,306,110,384
39CQ0711,225,690,1090,262,109,153,460,338,110,384
39CQ0713,225,690,1290,501,348,153,460,338,110,384
39CQ0713,250,690,1290,484,311,173,490,372,110,384
39CQ0715,225,690,1490,601,448,153,460,338,110,384
39CQ0715,250,690,1490,584,411,173,490,372,110,384
39CQ0811,225,790,1090,262,109,153,460,338,110,384
39CQ0811,250,790,1090,262,89,173,490,372,110,384
39CQ0909,225,890,890,301,148,153,460,338,110,384
39CQ0909,250,890,890,284,111,173,490,372,110,384
39CQ0911,250,890,1090,384,211,173,490,372,110,384
39CQ0911,280,890,1090,365,177,188,580,421,110,384
39CQ0912,250,890,1190,312,139,173,490,372,110,384
39CQ0912,280,890,1190,286,98,188,580,421,110,384
39CQ0913,280,890,1290,336,148,188,580,421,110,384
39CQ0913,315,890,1290,293,85,208,625,464,110,384
39CQ0914,315,890,1390,343,135,208,625,464,110,384
39CQ0914,355,890,1390,346,113,233,685,533,110,384
39CQ0915,355,890,1490,519,286,233,685,533,110,384
39CQ0917,355,890,1690,619,386,233,685,533,110,384
39CQ0918,355,890,1790,669,436,233,685,533,110,384
39CQ1006,200,990,590,167,24,143,420,306,110,384
39CQ1006,225,990,590,151,0,153,460,338,110,384
39CQ1014,355,990,1390,469,236,233,685,533,110,384
39CQ1014,400,990,1390,442,184,258,790,587,110,384
39CQ1015,355,990,1490,396,163,233,685,533,110,384
39CQ1015,400,990,1490,345,87,258,790,587,110,384
39CQ1017,400,990,1690,592,334,258,790,587,110,384
39CQ1017,450,990,1690,561,273,288,850,649,110,384
39CQ1019,400,990,1890,692,434,258,790,587,110,384
39CQ1107,200,1090,690,217,74,143,420,306,110,384
39CQ1107,225,1090,690,201,48,153,460,338,110,384
39CQ1111,315,1090,1090,343,135,208,625,464,110,384
39CQ1111,355,1090,1090,319,86,233,685,533,110,384
39CQ1115,400,1090,1490,492,234,258,790,587,110,384
39CQ1115,450,1090,1490,461,173,288,850,649,110,384
39CQ1117,400,1090,1690,445,187,258,790,587,110,384
39CQ1117,450,1090,1690,385,97,288,850,649,110,384
39CQ1120,400,1090,1990,742,484,258,790,587,110,384
39CQ1120,450,1090,1990,711,423,288,850,649,110,384
39CQ1208,250,1190,790,234,61,173,490,372,110,384
39CQ1208,280,1190,790,215,27,188,580,421,110,384
39CQ1217,400,1190,1690,592,334,258,790,587,110,384
39CQ1217,450,1190,1690,561,273,288,850,649,110,384
39CQ1220,450,1190,1990,711,423,288,850,649,110,384
39CQ1220,500,1190,1990,676,350,326,920,718,110,384
39CQ1308,280,1290,790,215,27,188,580,421,110,384
39CQ1308,315,1290,790,193,0,208,625,464,110,384
39CQ1309,315,1290,890,243,35,208,625,464,110,384
39CQ1309,355,1290,890,219,0,233,685,533,110,384
39CQ1310,355,1290,990,269,36,233,685,533,110,384
39CQ1310,400,1290,990,242,0,258,790,587,110,384
39CQ1313,400,1290,1290,392,134,258,790,587,110,384
39CQ1313,450,1290,1290,361,73,288,850,649,110,384
39CQ1317,400,1290,1690,445,187,258,790,587,110,384
39CQ1317,450,1290,1690,340,52,288,850,649,110,384
39CQ1318,450,1290,1790,611,323,288,850,649,110,384
39CQ1318,500,1290,1790,576,250,326,920,718,110,384
39CQ1322,450,1290,2190,811,523,288,850,649,110,384
39CQ1322,500,1290,2190,776,450,326,920,718,110,384
39CQ1324,450,1290,2390,911,623,288,850,649,110,384
39CQ1324,500,1290,2390,876,550,326,920,718,110,384
39CQ1410,355,1390,990,269,36,233,685,533,110,384
39CQ1410,400,1390,990,242,0,258,790,587,110,384
39CQ1418,450,1390,1790,390,102,288,850,649,110,384
39CQ1418,500,1390,1790,371,45,326,920,718,110,384
39CQ1419,500,1390,1890,626,300,326,920,718,110,384
39CQ1419,560,1390,1890,588,230,358,1070,815,110,384
39CQ1420,500,1390,1990,471,145,326,920,718,110,384
39CQ1420,560,1390,1990,462,104,358,1070,815,110,384
39CQ1426,500,1390,2590,976,650,326,920,718,110,384
39CQ1426,560,1390,2590,938,580,358,1070,815,110,384
39CQ1510,400,1490,990,242,0,258,790,587,110,384
39CQ1510,450,1490,990,211,0,288,850,649,110,384
39CQ1512,400,1490,1190,342,84,258,790,587,110,384
39CQ1512,450,1490,1190,311,23,288,850,649,110,384
39CQ1515,450,1490,1490,461,173,288,850,649,110,384
39CQ1515,500,1490,1490,426,100,326,920,718,110,384
39CQ1520,560,1490,1990,638,280,358,1070,815,110,384
39CQ1520,630,1490,1990,595,269,326,1155,901,110,384
39CQ1521,560,1490,2090,688,330,358,1070,815,110,384
39CQ1521,630,1490,2090,645,319,326,1155,901,110,384
39CQ1522,560,1490,2190,738,380,358,1070,815,110,384
39CQ1522,630,1490,2190,695,369,326,1155,901,110,384
39CQ1523,560,1490,2290,788,430,358,1070,815,110,384
39CQ1523,630,1490,2290,745,419,326,1155,901,110,384
39CQ1524,560,1490,2390,838,480,358,1070,815,110,384
39CQ1524,630,1490,2390,795,469,326,1155,901,110,384
39CQ1528,560,1490,2790,1038,680,358,1070,815,110,384
39CQ1528,630,1490,2790,995,669,326,1155,901,110,384
39CQ1621,560,1590,2090,462,104,358,1070,815,110,384
39CQ1621,630,1590,2090,376,50,326,1155,901,110,384
39CQ1625,560,1590,2490,888,530,358,1070,815,110,384
39CQ1625,630,1590,2490,845,519,326,1155,901,110,384
39CQ1712,400,1690,1190,342,84,258,790,587,110,384
39CQ1712,450,1690,1190,311,23,288,850,649,110,384
39CQ1721,560,1690,2090,688,330,358,1070,815,110,384
39CQ1721,630,1690,2090,645,319,326,1155,901,110,384
39CQ1725,630,1690,2490,845,519,326,1155,901,110,384
39CQ1725,710,1690,2490,796,338,458,1290,998,110,384
39CQ1726,630,1690,2590,895,569,326,1155,901,110,384
39CQ1726,710,1690,2590,846,388,458,1290,998,110,384
39CQ1728,630,1690,2790,995,669,326,1155,901,110,384
39CQ1728,710,1690,2790,946,488,458,1290,998,110,384
39CQ1730,630,1690,2990,1095,769,326,1155,901,110,384
39CQ1730,710,1690,2990,1046,588,458,1290,998,110,384
39CQ1813,450,1790,1290,361,73,288,850,649,110,384
39CQ1813,500,1790,1290,326,0,326,920,718,110,384
39CQ1818,560,1790,1790,538,180,358,1070,815,110,384
39CQ1818,630,1790,1790,495,169,326,1155,901,110,384
39CQ1821,560,1790,2090,688,330,358,1070,815,110,384
39CQ1821,630,1790,2090,645,319,326,1155,901,110,384
39CQ1822,560,1790,2190,562,204,358,1070,815,110,384
39CQ1822,630,1790,2190,476,150,326,1155,901,110,384
39CQ1823,630,1790,2290,745,419,326,1155,901,110,384
39CQ1823,710,1790,2290,696,238,458,1290,998,110,384
39CQ1824,630,1790,2390,795,469,326,1155,901,110,384
39CQ1824,710,1790,2390,746,288,458,1290,998,110,384
39CQ1825,630,1790,2490,671,345,326,1155,901,110,384
39CQ1825,710,1790,2490,574,116,458,1290,998,110,384
39CQ2014,500,1990,1390,376,50,326,920,718,110,384
39CQ2014,560,1990,1390,338,0,358,1070,815,110,384
39CQ2015,560,1990,1490,388,30,358,1070,815,110,384
39CQ2015,630,1990,1490,345,0,326,1155,901,110,384
39CQ2020,560,1990,1990,638,280,358,1070,815,110,384
39CQ2020,630,1990,1990,595,269,326,1155,901,110,384
39CQ2025,630,1990,2490,671,345,326,1090,901,110,384
39CQ2025,710,1990,2490,574,116,458,1290,998,110,384
39CQ2028,710,1990,2790,946,488,458,1290,998,110,384
39CQ2028,800,1990,2790,892,484,408,1450,1107,110,584
39CQ2030,710,1990,2990,1046,588,458,1290,998,110,384
39CQ2030,800,1990,2990,992,584,408,1450,1107,110,584
39CQ2124,710,2090,2390,746,288,458,1290,998,110,384
39CQ2124,800,2090,2390,692,284,408,1450,1107,110,584
39CQ2125,710,2090,2490,524,66,458,1290,998,110,384
39CQ2125,800,2090,2490,464,56,408,1450,1107,110,584
39CQ2126,710,2090,2590,846,388,458,1290,998,110,384
39CQ2126,800,2090,2590,792,384,408,1450,1107,110,584
39CQ2215,560,2190,1490,388,30,358,1070,815,110,384
39CQ2215,630,2190,1490,345,0,326,1155,901,110,384
39CQ2217,560,2190,1690,488,130,358,1070,815,110,384
39CQ2217,630,2190,1690,445,119,326,1155,901,110,384
39CQ2222,630,2190,2190,695,369,326,1155,901,110,384
39CQ2222,710,2190,2190,646,188,458,1290,998,110,384
39CQ2226,710,2190,2590,624,166,458,1290,998,110,584
39CQ2226,800,2190,2590,564,156,408,1450,1107,110,584
39CQ2228,800,2190,2790,892,484,408,1450,1107,110,584
39CQ2228,900,2190,2790,830,304,526,1570,1250,110,584
39CQ2328,800,2290,2790,614,206,408,1450,1107,110,584
39CQ2328,900,2290,2790,586,60,526,1570,1250,110,584
39CQ2330,800,2290,2990,765,357,408,1450,1107,110,584
39CQ2330,900,2290,2990,737,211,526,1570,1250,110,584
39CQ2333,800,2290,3290,914,506,408,1450,1107,110,584
39CQ2333,900,2290,3290,886,360,526,1570,1250,110,584
39CQ2417,630,2390,1690,445,119,326,1155,901,110,384
39CQ2417,710,2390,1690,396,0,458,1290,998,110,384
39CQ2424,800,2390,2390,692,284,408,1450,1107,110,584
39CQ2424,900,2390,2390,630,104,526,1570,1250,110,584
39CQ2430,800,2390,2990,992,584,408,1450,1107,110,584
39CQ2430,900,2390,2990,930,404,526,1570,1250,110,584
39CQ2435,900,2390,3490,1086,560,526,1570,1250,110,684
39CQ2435,1000,2390,3490,986,338,648,1700,1387,110,684
39CQ2617,630,2590,1690,445,119,326,1155,901,110,384
39CQ2617,710,2590,1690,396,0,458,1290,998,110,384
39CQ2619,630,2590,1890,545,219,326,1155,901,110,384
39CQ2619,710,2590,1890,496,38,458,1290,998,110,384
39CQ2626,800,2590,2590,792,384,408,1450,1107,110,584
39CQ2626,900,2590,2590,730,204,526,1570,1250,110,584
39CQ2633,900,2590,3290,1080,554,526,1570,1250,110,584
39CQ2633,1000,2590,3290,1012,364,648,1700,1387,110,684
39CQ2635,900,2590,3490,1086,560,526,1570,1250,110,684
39CQ2635,1000,2590,3490,986,338,648,1700,1387,110,684
39CQ2720,710,2690,1990,546,88,458,1290,998,110,384
39CQ2720,800,2690,1990,492,84,408,1450,1107,110,584
39CQ2722,800,2690,2190,592,184,408,1450,1107,110,584
39CQ2722,900,2690,2190,530,0,526,1570,1250,110,584
39CQ2727,800,2690,2690,842,434,408,1450,1107,110,584
39CQ2727,900,2690,2690,780,254,526,1570,1250,110,584
39CQ2730,900,2690,2990,930,404,526,1570,1250,110,584
39CQ2730,1000,2690,2990,862,214,648,1700,1387,110,684
39CQ2735,900,2690,3490,986,460,526,1570,1250,110,684
39CQ2735,1000,2690,3490,886,238,648,1700,1387,110,684