MOTORBASENO,BPABB,BPWOLONG,BPDONGYUAN,BPGE,BPSIMENS,PTABB,PTWOLONG,PTDONGYUAN,PTGE,PTGE3,PTSIMENS3,PTSIMENS2,SSDONGYUAN,SSWOLONG,FBWOLONG,C
Y80,364,342,397.5,345,348,309,300,293,299,299,288,328,293,295,330,30
Y90S,385,390,452,395,386,335,350,344.5,329,329,316,366,344.5,315,380,40
Y90L,410,415,477,415,411,351,380,369.5,351,351,341,391,354.5,340,400,40
Y100L,460,450,491,480,470,376,430,392,401,401,390,460,392,385,455,50
Y112M,465,459,494.5,500,485,411,465,412.5,417,417,395,448,412.5,400,500,50
Y132S,530,525,587,520,555,479,470,466,454,454,480,515,462,470,520,60
Y132M,570,565,625,560,600,521,510,504,492,492,525,560,500,510,560,60
Y160M,680,643,713,655,669,587,620,608,590,590,614,614,611,615,730,70
Y160L,725,715,757,700,729,587,665,652,634,634,674,674,655,670,760,70
Y180M,745,720,791,765,748,683,710,672,655,655,683,718,690,700,780,70
Y180L,785,760,829,800,783,683,745,710,693,693,718,758,728,740,800,70
Y200L,845,836,880,850,837,728,770,770,796,796,772,807,782,770,850,70
Y225S,880,892,987.5,891,880,824,815,816,846,846,820,845,816,815,900,90
Y225M,900,922,1012.5,916,905,854,840,841,871,871,845,875,841,845,930,70
Y250M,1005,1005,1089,1079,997,882,920,921,929,929,917,967,921,910,980,90
Y280S,1115,1118,1142.5,1186,1010,982,960,1037.5,1007,1007,900,991,1037.5,985,1020,90
Y280M,1165,1168,1192.5,1234,1137,1052,1010,1087.5,1055,1055,1027,1042,1087.5,1035,1100,90
Y315S,1300,1315,1451,1335,1233,1216,1220,1246,1162,1162,1143,1193,0,0,1280,90
Y315M,1410,1425,1501,1435,1413,1246,1330,1296,1262,1262,1323,1423,0,0,1400,90
Y315L,1410,1425,1601,1435,1413,1356,1330,1396,1262,1262,1323,1423,0,0,1400,90
Y355M,1655,1582,1810,1687,1620,1399,0,1605,1462,1462,1520,1520,0,0,1580,90
Y355L,1655,1582,1810,1860,1620,1469,0,1605,1632,1632,1520,1520,0,0,1700,90