unitType,id,type,typeLen,typeLen1,remark,motorBase,ubfLen,thfLen,seq
39CQ2532,1,1000,26,,,Y250M,30,26,26
39CQ2532,1,1000,26,,,Y280S,30,27,27
39CQ2532,1,1000,26,,,Y280M,30,27,28
39CQ2832,1,1000,26,,,Y250M,30,26,26
39CQ2832,1,1000,26,,,Y280S,30,27,27
39CQ2832,1,1000,26,,,Y280M,30,27,28
39CQ3132,1,1000,26,,,Y250M,30,26,26
39CQ3132,1,1000,26,,,Y280S,30,27,27
39CQ3132,1,1000,26,,,Y280M,30,27,28
39CQ2832,1,1120,26,,,Y280S,33,30,27
39CQ2832,1,1120,26,,,Y280M,33,30,28
39CQ3132,1,1120,26,,,Y280S,33,30,27
39CQ3132,1,1120,26,,,Y280M,33,30,28
39CQ3438,1,1250,26,,,Y280S,36,32,27
39CQ3438,1,1250,26,,,Y280M,36,32,28
39CQ3841,1,1250,26,,,Y280S,36,32,27
39CQ3841,1,1250,26,,,Y280M,36,32,28
39CQ0608,1,160,9,8,,Y090,8,9,4
39CQ0608,2,160,9,,,Y090,8,9,4
39CQ0608,1,180,9,,,Y100,9,9,7
39CQ0608,2,180,9,,,Y090,9,9,4
39CQ0609,1,180,9,8,,Y100,9,9,7
39CQ0609,2,180,9,,,Y100,9,9,7
39CQ0609,1,200,9,,,Y100,9,10,7
39CQ0609,2,200,9,,,Y100,9,10,7
39CQ0711,1,200,10,9,,Y100,9,10,7
39CQ0711,2,200,10,,,Y100,9,10,7
39CQ0711,1,225,10,,,Y132S,10,10,10
39CQ0711,2,225,10,,,Y132S,10,10,10
39CQ0811,1,225,10,9,,Y132S,10,10,10
39CQ0811,2,225,10,,,Y132S,10,10,10
39CQ0811,1,250,10,9,,Y132S,10,10,10
39CQ0811,2,250,10,,,Y132S,10,10,10
39CQ0912,1,250,10,9,,Y132S,10,10,10
39CQ0912,2,250,10,,,Y132S,10,10,10
39CQ0912,1,280,11,9,,Y132M,11,11,12
39CQ0912,2,280,11,,,Y132M,11,11,12
39CQ0913,1,280,11,10,,Y132M,11,11,12
39CQ0913,2,280,11,,,Y132M,11,11,12
39CQ0913,1,315,11,10,,Y132M,11,11,12
39CQ0913,2,315,11,,,Y132M,11,11,12
39CQ0914,1,315,11,10,,Y132M,11,11,12
39CQ0914,2,315,11,,,Y132M,11,11,12
39CQ0914,1,355,12,10,,Y132M,12,12,12
39CQ0914,2,355,12,,,Y132M,12,12,12
39CQ1015,2,355,12,,,Y132M,12,12,12
39CQ1015,1,355,12,11,,Y132M,12,12,12
39CQ0914,1,355,12,10,,Y160M,13,13,16
39CQ0914,2,355,12,,,Y160M,13,13,16
39CQ1015,2,355,12,,,Y160M,13,13,16
39CQ1015,1,355,12,11,,Y160M,13,13,16
39CQ1015,2,400,13,,,Y132M,13,13,12
39CQ1015,1,400,13,11,,Y132M,13,13,12
39CQ1117,1,400,14,11,,Y132M,13,13,12
39CQ1117,2,400,14,,,Y132M,13,13,12
39CQ1317,1,400,14,14,,Y132M,13,13,12
39CQ1317,2,400,14,,,Y132M,13,13,12
39CQ1015,2,400,13,,,Y160M,14,14,17
39CQ1015,1,400,13,11,,Y160L,14,14,18
39CQ1117,1,400,14,11,,Y160L,14,14,18
39CQ1117,2,400,14,,,Y160M,14,14,17
39CQ1317,1,400,14,14,,Y160L,14,14,18
39CQ1317,2,400,14,,,Y160M,14,14,17
39CQ1117,1,450,15,11,,Y132M,14,14,12
39CQ1117,2,450,15,,,Y132M,14,14,12
39CQ1317,1,450,15,14,,Y132M,14,14,12
39CQ1317,2,450,15,,,Y132M,14,14,12
39CQ1418,1,450,15,13,,Y132M,14,14,12
39CQ1418,2,450,15,,,Y132M,14,14,12
39CQ1117,1,450,15,11,,Y160L,15,14,18
39CQ1117,2,450,15,,,Y160L,15,14,18
39CQ1317,1,450,15,14,,Y160L,15,14,18
39CQ1317,2,450,15,,,Y160L,15,14,18
39CQ1418,1,450,15,13,,Y160L,15,14,18
39CQ1418,2,450,15,,,Y160L,15,14,18
39CQ1418,1,500,16,13,,Y132M,15,14,12
39CQ1418,2,500,16,,,Y132M,15,14,12
39CQ1420,1,500,16,16,,Y132M,15,15,12
39CQ1420,2,500,16,,,Y132M,15,15,12
39CQ1418,1,500,16,13,,Y160L,16,15,18
39CQ1418,2,500,16,,,Y160L,16,15,18
39CQ1420,1,500,16,16,,Y160L,16,15,18
39CQ1420,2,500,16,,,Y160L,16,15,18
39CQ1420,1,560,18,16,,Y180L,18,17,20
39CQ1420,2,560,18,,,Y180L,18,17,20
39CQ1621,1,560,18,17,,Y180L,18,17,20
39CQ1621,2,560,18,,,Y180L,18,17,20
39CQ1822,1,560,18,19,,Y180L,18,17,20
39CQ1822,2,560,18,19,,Y180L,18,17,20
39CQ1621,1,630,20,17,,Y180L,20,19,20
39CQ1621,2,630,20,,,Y180L,20,19,20
39CQ1822,1,630,20,21,,Y180L,20,19,20
39CQ1825,1,630,21,23,,Y225S,21,20,24
39CQ2025,1,630,21,,,Y225S,21,20,24
39CQ1822,2,630,20,21,,Y180L,20,19,20
39CQ1825,2,630,21,23,,Y200L,21,20,23
39CQ2025,2,630,21,,,Y200L,21,20,23
39CQ1825,1,710,22,,,Y180L,21,20,20
39CQ2025,1,710,22,,,Y180L,21,20,20
39CQ2125,1,710,22,,,Y180L,21,20,20
39CQ2226,1,710,22,,,Y180L,21,20,20
39CQ1825,2,710,22,,,Y180L,21,20,20
39CQ1825,1,710,22,,,Y225M,22,21,25
39CQ1825,2,710,22,,,Y225M,22,21,25
39CQ2025,2,710,22,,,Y180L,21,20,20
39CQ2025,1,710,22,,,Y225M,22,21,25
39CQ2025,2,710,22,,,Y225M,22,21,25
39CQ2125,2,710,22,,,Y180L,21,20,20
39CQ2125,1,710,22,,,Y225M,22,21,25
39CQ2125,2,710,22,,,Y225M,22,21,25
39CQ2226,2,710,22,,,Y180L,21,20,20
39CQ2226,1,710,22,,,Y225M,22,21,25
39CQ2226,2,710,22,,,Y225M,22,21,25
39CQ2125,1,800,24,,,Y180L,23,21,20
39CQ2226,1,800,24,,,Y180L,23,21,20
39CQ2328,1,800,24,,,Y180L,23,21,20
39CQ2330,1,800,24,,,Y180L,23,21,20
39CQ2333,1,800,24,,,Y180L,23,21,20
39CQ2125,2,800,24,,,Y180L,23,21,20
39CQ2125,1,800,24,,,Y225M,24,22,25
39CQ2125,2,800,24,,,Y225M,24,22,25
39CQ2226,2,800,24,,,Y180L,23,21,20
39CQ2226,1,800,24,,,Y225M,24,22,25
39CQ2226,2,800,24,,,Y225M,24,22,25
39CQ2328,2,800,24,,,Y180L,23,21,20
39CQ2328,1,800,24,,,Y225M,24,22,25
39CQ2328,2,800,24,,,Y225M,24,22,25
39CQ2328,1,800,24,,,Y250M,25,23,26
39CQ2328,2,800,24,,,Y225M,25,23,25
39CQ2330,2,800,24,,,Y180L,23,21,20
39CQ2330,1,800,24,,,Y225M,24,22,25
39CQ2330,2,800,24,,,Y225M,24,22,25
39CQ2330,1,800,24,,,Y250M,25,23,26
39CQ2330,2,800,24,,,Y250M,25,23,26
39CQ2333,2,800,24,,,Y180L,23,21,20
39CQ2333,1,800,24,,,Y225M,24,22,25
39CQ2333,2,800,24,,,Y225M,24,22,25
39CQ2333,1,800,24,,,Y250M,25,23,26
39CQ2333,2,800,24,,,Y250M,25,23,26
39CQ2328,1,900,26,,,Y180L,25,23,20
39CQ2330,1,900,26,,,Y180L,25,23,20
39CQ2333,1,900,26,,,Y180L,25,23,20
39CQ2328,2,900,26,,,Y180L,25,23,20
39CQ2328,1,900,26,,,Y225M,26,24,25
39CQ2328,2,900,26,,,Y225M,26,24,25
39CQ2328,1,900,26,,,Y280S,27,25,27
39CQ2328,2,900,26,,,Y250M,27,25,26
39CQ2330,2,900,26,,,Y180L,25,23,20
39CQ2330,1,900,26,,,Y225M,26,24,25
39CQ2330,2,900,26,,,Y225M,26,24,25
39CQ2330,1,900,26,,,Y280S,27,25,27
39CQ2330,2,900,26,,,Y250M,27,25,26
39CQ2333,2,900,26,,,Y180L,25,23,20
39CQ2333,1,900,26,,,Y225M,26,24,25
39CQ2333,2,900,26,,,Y225M,26,24,25
39CQ2333,1,900,26,,,Y280S,27,25,27
39CQ2333,2,900,26,,,Y250M,27,25,26
39G2532,1,1000,26,,,Y250M,30,26,26
39G2532,1,1000,26,,,Y280S,30,27,27
39G2532,1,1000,26,,,Y280M,30,27,28
39G2832,1,1000,26,,,Y250M,30,26,26
39G2832,1,1000,26,,,Y280S,30,27,27
39G2832,1,1000,26,,,Y280M,30,27,28
39G3132,1,1000,26,,,Y250M,30,26,26
39G3132,1,1000,26,,,Y280S,30,27,27
39G3132,1,1000,26,,,Y280M,30,27,28
39G2832,1,1120,26,,,Y280S,33,30,27
39G2832,1,1120,26,,,Y280M,33,30,28
39G3132,1,1120,26,,,Y280S,33,30,27
39G3132,1,1120,26,,,Y280M,33,30,28
39G3438,1,1250,26,,,Y280S,36,32,27
39G3438,1,1250,26,,,Y280M,36,32,28
39G3841,1,1250,26,,,Y280S,36,32,27
39G3841,1,1250,26,,,Y280M,36,32,28
39G0608,1,160,9,8,,Y090,8,9,4
39G0608,2,160,9,,,Y090,8,9,4
39G0608,1,180,9,,,Y100,9,9,7
39G0608,2,180,9,,,Y090,9,9,4
39G0609,1,180,9,8,,Y100,9,9,7
39G0609,2,180,9,,,Y100,9,9,7
39G0609,1,200,9,,,Y100,9,10,7
39G0609,2,200,9,,,Y100,9,10,7
39G0711,1,200,10,9,,Y100,9,10,7
39G0711,2,200,10,,,Y100,9,10,7
39G0711,1,225,10,,,Y132S,10,10,10
39G0711,2,225,10,,,Y132S,10,10,10
39G0811,1,225,10,9,,Y132S,10,10,10
39G0811,2,225,10,,,Y132S,10,10,10
39G0811,1,250,10,9,,Y132S,10,10,10
39G0811,2,250,10,,,Y132S,10,10,10
39G0912,1,250,10,9,,Y132S,10,10,10
39G0912,2,250,10,,,Y132S,10,10,10
39G0912,1,280,11,9,,Y132M,11,11,12
39G0912,2,280,11,,,Y132M,11,11,12
39G0913,1,280,11,10,,Y132M,11,11,12
39G0913,2,280,11,,,Y132M,11,11,12
39G0913,1,315,11,10,,Y132M,11,11,12
39G0913,2,315,11,,,Y132M,11,11,12
39G0914,1,315,11,10,,Y132M,11,11,12
39G0914,2,315,11,,,Y132M,11,11,12
39G0914,1,355,12,10,,Y132M,12,12,12
39G0914,2,355,12,,,Y132M,12,12,12
39G1015,2,355,12,,,Y132M,12,12,12
39G1015,1,355,12,11,,Y132M,12,12,12
39G0914,1,355,12,10,,Y160M,13,13,16
39G0914,2,355,12,,,Y160M,13,13,16
39G1015,2,355,12,,,Y160M,13,13,16
39G1015,1,355,12,11,,Y160M,13,13,16
39G1015,2,400,13,,,Y132M,13,13,12
39G1015,1,400,13,11,,Y132M,13,13,12
39G1117,1,400,14,11,,Y132M,13,13,12
39G1117,2,400,14,,,Y132M,13,13,12
39G1317,1,400,14,14,,Y132M,13,13,12
39G1317,2,400,14,,,Y132M,13,13,12
39G1015,2,400,13,,,Y160M,14,14,17
39G1015,1,400,13,11,,Y160L,14,14,18
39G1117,1,400,14,11,,Y160L,14,14,18
39G1117,2,400,14,,,Y160M,14,14,17
39G1317,1,400,14,14,,Y160L,14,14,18
39G1317,2,400,14,,,Y160M,14,14,17
39G1117,1,450,15,11,,Y132M,14,14,12
39G1117,2,450,15,,,Y132M,14,14,12
39G1317,1,450,15,14,,Y132M,14,14,12
39G1317,2,450,15,,,Y132M,14,14,12
39G1418,1,450,15,13,,Y132M,14,14,12
39G1418,2,450,15,,,Y132M,14,14,12
39G1117,1,450,15,11,,Y160L,15,14,18
39G1117,2,450,15,,,Y160L,15,14,18
39G1317,1,450,15,14,,Y160L,15,14,18
39G1317,2,450,15,,,Y160L,15,14,18
39G1418,1,450,15,13,,Y160L,15,14,18
39G1418,2,450,15,,,Y160L,15,14,18
39G1418,1,500,16,13,,Y132M,15,14,12
39G1418,2,500,16,,,Y132M,15,14,12
39G1420,1,500,16,16,,Y132M,15,15,12
39G1420,2,500,16,,,Y132M,15,15,12
39G1418,1,500,16,13,,Y160L,16,15,18
39G1418,2,500,16,,,Y160L,16,15,18
39G1420,1,500,16,16,,Y160L,16,15,18
39G1420,2,500,16,,,Y160L,16,15,18
39G1420,1,560,18,16,,Y180L,18,17,20
39G1420,2,560,18,,,Y180L,18,17,20
39G1621,1,560,18,17,,Y180L,18,17,20
39G1621,2,560,18,,,Y180L,18,17,20
39G1822,1,560,18,19,,Y180L,18,17,20
39G1822,2,560,18,19,,Y180L,18,17,20
39G1621,1,630,20,17,,Y180L,20,19,20
39G1621,2,630,20,,,Y180L,20,19,20
39G1822,1,630,20,21,,Y180L,20,19,20
39G1825,1,630,21,23,,Y225S,21,20,24
39G2025,1,630,21,,,Y225S,21,20,24
39G1822,2,630,20,21,,Y180L,20,19,20
39G1825,2,630,21,23,,Y200L,21,20,23
39G2025,2,630,21,,,Y200L,21,20,23
39G1825,1,710,22,,,Y180L,21,20,20
39G2025,1,710,22,,,Y180L,21,20,20
39G2125,1,710,22,,,Y180L,21,20,20
39G2226,1,710,22,,,Y180L,21,20,20
39G1825,2,710,22,,,Y180L,21,20,20
39G1825,1,710,22,,,Y225M,22,21,25
39G1825,2,710,22,,,Y225M,22,21,25
39G2025,2,710,22,,,Y180L,21,20,20
39G2025,1,710,22,,,Y225M,22,21,25
39G2025,2,710,22,,,Y225M,22,21,25
39G2125,2,710,22,,,Y180L,21,20,20
39G2125,1,710,22,,,Y225M,22,21,25
39G2125,2,710,22,,,Y225M,22,21,25
39G2226,2,710,22,,,Y180L,21,20,20
39G2226,1,710,22,,,Y225M,22,21,25
39G2226,2,710,22,,,Y225M,22,21,25
39G2125,1,800,24,,,Y180L,23,21,20
39G2226,1,800,24,,,Y180L,23,21,20
39G2328,1,800,24,,,Y180L,23,21,20
39G2330,1,800,24,,,Y180L,23,21,20
39G2333,1,800,24,,,Y180L,23,21,20
39G2125,2,800,24,,,Y180L,23,21,20
39G2125,1,800,24,,,Y225M,24,22,25
39G2125,2,800,24,,,Y225M,24,22,25
39G2226,2,800,24,,,Y180L,23,21,20
39G2226,1,800,24,,,Y225M,24,22,25
39G2226,2,800,24,,,Y225M,24,22,25
39G2328,2,800,24,,,Y180L,23,21,20
39G2328,1,800,24,,,Y225M,24,22,25
39G2328,2,800,24,,,Y225M,24,22,25
39G2328,1,800,24,,,Y250M,25,23,26
39G2328,2,800,24,,,Y225M,25,23,25
39G2330,2,800,24,,,Y180L,23,21,20
39G2330,1,800,24,,,Y225M,24,22,25
39G2330,2,800,24,,,Y225M,24,22,25
39G2330,1,800,24,,,Y250M,25,23,26
39G2330,2,800,24,,,Y250M,25,23,26
39G2333,2,800,24,,,Y180L,23,21,20
39G2333,1,800,24,,,Y225M,24,22,25
39G2333,2,800,24,,,Y225M,24,22,25
39G2333,1,800,24,,,Y250M,25,23,26
39G2333,2,800,24,,,Y250M,25,23,26
39G2328,1,900,26,,,Y180L,25,23,20
39G2330,1,900,26,,,Y180L,25,23,20
39G2333,1,900,26,,,Y180L,25,23,20
39G2328,2,900,26,,,Y180L,25,23,20
39G2328,1,900,26,,,Y225M,26,24,25
39G2328,2,900,26,,,Y225M,26,24,25
39G2328,1,900,26,,,Y280S,27,25,27
39G2328,2,900,26,,,Y250M,27,25,26
39G2330,2,900,26,,,Y180L,25,23,20
39G2330,1,900,26,,,Y225M,26,24,25
39G2330,2,900,26,,,Y225M,26,24,25
39G2330,1,900,26,,,Y280S,27,25,27
39G2330,2,900,26,,,Y250M,27,25,26
39G2333,2,900,26,,,Y180L,25,23,20
39G2333,1,900,26,,,Y225M,26,24,25
39G2333,2,900,26,,,Y225M,26,24,25
39G2333,1,900,26,,,Y280S,27,25,27
39G2333,2,900,26,,,Y250M,27,25,26
39XT2532,1,1000,26,,,Y250M,30,26,26
39XT2532,1,1000,26,,,Y280S,30,27,27
39XT2532,1,1000,26,,,Y280M,30,27,28
39XT2832,1,1000,26,,,Y250M,30,26,26
39XT2832,1,1000,26,,,Y280S,30,27,27
39XT2832,1,1000,26,,,Y280M,30,27,28
39XT3132,1,1000,26,,,Y250M,30,26,26
39XT3132,1,1000,26,,,Y280S,30,27,27
39XT3132,1,1000,26,,,Y280M,30,27,28
39XT2832,1,1120,26,,,Y280S,33,30,27
39XT2832,1,1120,26,,,Y280M,33,30,28
39XT3132,1,1120,26,,,Y280S,33,30,27
39XT3132,1,1120,26,,,Y280M,33,30,28
39XT3438,1,1250,26,,,Y280S,36,32,27
39XT3438,1,1250,26,,,Y280M,36,32,28
39XT3841,1,1250,26,,,Y280S,36,32,27
39XT3841,1,1250,26,,,Y280M,36,32,28
39XT0608,1,160,9,8,,Y090,8,9,4
39XT0608,2,160,9,,,Y090,8,9,4
39XT0608,1,180,9,,,Y100,9,9,7
39XT0608,2,180,9,,,Y090,9,9,4
39XT0609,1,180,9,8,,Y100,9,9,7
39XT0609,2,180,9,,,Y100,9,9,7
39XT0609,1,200,9,,,Y100,9,10,7
39XT0609,2,200,9,,,Y100,9,10,7
39XT0711,1,200,10,9,,Y100,9,10,7
39XT0711,2,200,10,,,Y100,9,10,7
39XT0711,1,225,10,,,Y132S,10,10,10
39XT0711,2,225,10,,,Y132S,10,10,10
39XT0811,1,225,10,9,,Y132S,10,10,10
39XT0811,2,225,10,,,Y132S,10,10,10
39XT0811,1,250,10,9,,Y132S,10,10,10
39XT0811,2,250,10,,,Y132S,10,10,10
39XT0912,1,250,10,9,,Y132S,10,10,10
39XT0912,2,250,10,,,Y132S,10,10,10
39XT0912,1,280,11,9,,Y132M,11,11,12
39XT0912,2,280,11,,,Y132M,11,11,12
39XT0913,1,280,11,10,,Y132M,11,11,12
39XT0913,2,280,11,,,Y132M,11,11,12
39XT0913,1,315,11,10,,Y132M,11,11,12
39XT0913,2,315,11,,,Y132M,11,11,12
39XT0914,1,315,11,10,,Y132M,11,11,12
39XT0914,2,315,11,,,Y132M,11,11,12
39XT0914,1,355,12,10,,Y132M,12,12,12
39XT0914,2,355,12,,,Y132M,12,12,12
39XT1015,2,355,12,,,Y132M,12,12,12
39XT1015,1,355,12,11,,Y132M,12,12,12
39XT0914,1,355,12,10,,Y160M,13,13,16
39XT0914,2,355,12,,,Y160M,13,13,16
39XT1015,2,355,12,,,Y160M,13,13,16
39XT1015,1,355,12,11,,Y160M,13,13,16
39XT1015,2,400,13,,,Y132M,13,13,12
39XT1015,1,400,13,11,,Y132M,13,13,12
39XT1117,1,400,14,11,,Y132M,13,13,12
39XT1117,2,400,14,,,Y132M,13,13,12
39XT1317,1,400,14,14,,Y132M,13,13,12
39XT1317,2,400,14,,,Y132M,13,13,12
39XT1015,2,400,13,,,Y160M,14,14,17
39XT1015,1,400,13,11,,Y160L,14,14,18
39XT1117,1,400,14,11,,Y160L,14,14,18
39XT1117,2,400,14,,,Y160M,14,14,17
39XT1317,1,400,14,14,,Y160L,14,14,18
39XT1317,2,400,14,,,Y160M,14,14,17
39XT1117,1,450,15,11,,Y132M,14,14,12
39XT1117,2,450,15,,,Y132M,14,14,12
39XT1317,1,450,15,14,,Y132M,14,14,12
39XT1317,2,450,15,,,Y132M,14,14,12
39XT1418,1,450,15,13,,Y132M,14,14,12
39XT1418,2,450,15,,,Y132M,14,14,12
39XT1117,1,450,15,11,,Y160L,15,14,18
39XT1117,2,450,15,,,Y160L,15,14,18
39XT1317,1,450,15,14,,Y160L,15,14,18
39XT1317,2,450,15,,,Y160L,15,14,18
39XT1418,1,450,15,13,,Y160L,15,14,18
39XT1418,2,450,15,,,Y160L,15,14,18
39XT1418,1,500,16,13,,Y132M,15,14,12
39XT1418,2,500,16,,,Y132M,15,14,12
39XT1420,1,500,16,16,,Y132M,15,15,12
39XT1420,2,500,16,,,Y132M,15,15,12
39XT1418,1,500,16,13,,Y160L,16,15,18
39XT1418,2,500,16,,,Y160L,16,15,18
39XT1420,1,500,16,16,,Y160L,16,15,18
39XT1420,2,500,16,,,Y160L,16,15,18
39XT1420,1,560,18,16,,Y180L,18,17,20
39XT1420,2,560,18,,,Y180L,18,17,20
39XT1621,1,560,18,17,,Y180L,18,17,20
39XT1621,2,560,18,,,Y180L,18,17,20
39XT1822,1,560,18,19,,Y180L,18,17,20
39XT1822,2,560,18,19,,Y180L,18,17,20
39XT1621,1,630,20,17,,Y180L,20,19,20
39XT1621,2,630,20,,,Y180L,20,19,20
39XT1822,1,630,20,21,,Y180L,20,19,20
39XT1825,1,630,21,23,,Y225S,21,20,24
39XT2025,1,630,21,,,Y225S,21,20,24
39XT1822,2,630,20,21,,Y180L,20,19,20
39XT1825,2,630,21,23,,Y200L,21,20,23
39XT2025,2,630,21,,,Y200L,21,20,23
39XT1825,1,710,22,,,Y180L,21,20,20
39XT2025,1,710,22,,,Y180L,21,20,20
39XT2125,1,710,22,,,Y180L,21,20,20
39XT2226,1,710,22,,,Y180L,21,20,20
39XT1825,2,710,22,,,Y180L,21,20,20
39XT1825,1,710,22,,,Y225M,22,21,25
39XT1825,2,710,22,,,Y225M,22,21,25
39XT2025,2,710,22,,,Y180L,21,20,20
39XT2025,1,710,22,,,Y225M,22,21,25
39XT2025,2,710,22,,,Y225M,22,21,25
39XT2125,2,710,22,,,Y180L,21,20,20
39XT2125,1,710,22,,,Y225M,22,21,25
39XT2125,2,710,22,,,Y225M,22,21,25
39XT2226,2,710,22,,,Y180L,21,20,20
39XT2226,1,710,22,,,Y225M,22,21,25
39XT2226,2,710,22,,,Y225M,22,21,25
39XT2125,1,800,24,,,Y180L,23,21,20
39XT2226,1,800,24,,,Y180L,23,21,20
39XT2328,1,800,24,,,Y180L,23,21,20
39XT2330,1,800,24,,,Y180L,23,21,20
39XT2333,1,800,24,,,Y180L,23,21,20
39XT2125,2,800,24,,,Y180L,23,21,20
39XT2125,1,800,24,,,Y225M,24,22,25
39XT2125,2,800,24,,,Y225M,24,22,25
39XT2226,2,800,24,,,Y180L,23,21,20
39XT2226,1,800,24,,,Y225M,24,22,25
39XT2226,2,800,24,,,Y225M,24,22,25
39XT2328,2,800,24,,,Y180L,23,21,20
39XT2328,1,800,24,,,Y225M,24,22,25
39XT2328,2,800,24,,,Y225M,24,22,25
39XT2328,1,800,24,,,Y250M,25,23,26
39XT2328,2,800,24,,,Y225M,25,23,25
39XT2330,2,800,24,,,Y180L,23,21,20
39XT2330,1,800,24,,,Y225M,24,22,25
39XT2330,2,800,24,,,Y225M,24,22,25
39XT2330,1,800,24,,,Y250M,25,23,26
39XT2330,2,800,24,,,Y250M,25,23,26
39XT2333,2,800,24,,,Y180L,23,21,20
39XT2333,1,800,24,,,Y225M,24,22,25
39XT2333,2,800,24,,,Y225M,24,22,25
39XT2333,1,800,24,,,Y250M,25,23,26
39XT2333,2,800,24,,,Y250M,25,23,26
39XT2328,1,900,26,,,Y180L,25,23,20
39XT2330,1,900,26,,,Y180L,25,23,20
39XT2333,1,900,26,,,Y180L,25,23,20
39XT2328,2,900,26,,,Y180L,25,23,20
39XT2328,1,900,26,,,Y225M,26,24,25
39XT2328,2,900,26,,,Y225M,26,24,25
39XT2328,1,900,26,,,Y280S,27,25,27
39XT2328,2,900,26,,,Y250M,27,25,26
39XT2330,2,900,26,,,Y180L,25,23,20
39XT2330,1,900,26,,,Y225M,26,24,25
39XT2330,2,900,26,,,Y225M,26,24,25
39XT2330,1,900,26,,,Y280S,27,25,27
39XT2330,2,900,26,,,Y250M,27,25,26
39XT2333,2,900,26,,,Y180L,25,23,20
39XT2333,1,900,26,,,Y225M,26,24,25
39XT2333,2,900,26,,,Y225M,26,24,25
39XT2333,1,900,26,,,Y280S,27,25,27
39XT2333,2,900,26,,,Y250M,27,25,26
39CQ2435,1,900,26,,,Y180L,25,23,20
39CQ2435,2,900,26,,,Y180L,25,23,20
39CQ2435,1,900,26,,,Y225M,26,24,25
39CQ2435,2,900,26,,,Y225M,26,24,25
39CQ2435,1,900,26,,,Y250M,28,25,26
39CQ2435,2,900,26,,,Y250M,28,25,26
39CQ2435,1,900,26,,,Y280S,28,25,27
39CQ2435,2,900,26,,,Y280S,28,25,27
39CQ2435,1,1000,26,,,Y180L,27,24,29
39CQ2435,2,1000,26,,,Y180L,27,24,29
39CQ2435,1,1000,26,,,Y225M,28,25,30
39CQ2435,2,1000,26,,,Y225M,28,25,30
39CQ2435,1,1000,26,,,Y250M,30,26,26
39CQ2435,2,1000,26,,,Y250M,30,26,26
39CQ2435,1,1000,26,,,Y280S,31,27,28
39CQ2435,2,1000,26,,,Y280S,31,27,28
39CQ2635,1,900,26,,,Y180L,25,23,20
39CQ2635,2,900,26,,,Y180L,25,23,20
39CQ2635,1,900,26,,,Y225M,26,24,25
39CQ2635,2,900,26,,,Y225M,26,24,25
39CQ2635,1,900,26,,,Y250M,28,25,26
39CQ2635,2,900,26,,,Y250M,28,25,26
39CQ2635,1,900,26,,,Y280S,28,25,27
39CQ2635,2,900,26,,,Y280S,28,25,27
39CQ2635,1,1000,26,,,Y180L,27,24,29
39CQ2635,2,1000,26,,,Y180L,27,24,29
39CQ2635,1,1000,26,,,Y225M,28,25,30
39CQ2635,2,1000,26,,,Y225M,28,25,30
39CQ2635,1,1000,26,,,Y250M,30,26,26
39CQ2635,2,1000,26,,,Y250M,30,26,26
39CQ2635,1,1000,26,,,Y280S,31,27,28
39CQ2635,2,1000,26,,,Y280S,31,27,28
39CQ2735,1,900,26,,,Y180L,25,23,20
39CQ2735,2,900,26,,,Y180L,25,23,20
39CQ2735,1,900,26,,,Y225M,26,24,25
39CQ2735,2,900,26,,,Y225M,26,24,25
39CQ2735,1,900,26,,,Y250M,28,25,26
39CQ2735,2,900,26,,,Y250M,28,25,26
39CQ2735,1,900,26,,,Y280S,28,25,27
39CQ2735,2,900,26,,,Y280S,28,25,27
39CQ2735,1,1000,26,,,Y180L,27,24,29
39CQ2735,2,1000,26,,,Y180L,27,24,29
39CQ2735,1,1000,26,,,Y225M,28,25,30
39CQ2735,2,1000,26,,,Y225M,28,25,30
39CQ2735,1,1000,26,,,Y250M,30,26,26
39CQ2735,2,1000,26,,,Y250M,30,26,26
39CQ2735,1,1000,26,,,Y280S,31,27,28
39CQ2735,2,1000,26,,,Y280S,31,27,28
