TYPE,FANMODE,MACHINESITENO,THFBHF,UBFUBR,FBTHFBHF,FBUBFUBR
0608,160,Y90,900,800,42.5,12.5
0608,180,Y100,900,900,32.5,-7.5
0609,180,Y100,900,900,32.5,-7.5
0609,200,Y112,1000,900,52.5,-27.5
0711,200,Y112,1000,900,52.5,-27.5
0711,225,Y132M,1000,1000,130,40
0811,225,Y132M,1000,1000,130,40
0811,250,Y132M,1000,1000,90,-10
0912,250,Y132M,1000,1000,90,-10
0912,280,Y132M,1100,1100,40,40
0913,280,Y132M,1100,1100,40,40
0913,315,Y132M,1100,1100,90,-10
0914,315,Y132M,1100,1100,90,-10
0914,355,Y132M,1200,1200,90,20
0914,355,Y160L,1300,1300,95,-5
1015,355,Y132M,1200,1200,90,20
1015,355,Y160L,1300,1300,95,-5
1015,400,Y132M,1300,1300,82,40
1015,400,Y160L,1400,1400,107,25
1117,400,Y132M,1300,1300,82,40
1117,400,Y160L,1400,1400,107,25
1117,450,Y132M,1400,1400,95,20
1117,450,Y180L,1500,1500,125,50
1317,400,Y132M,1300,1300,82,40
1317,400,Y160L,1400,1400,107,25
1317,450,Y132M,1400,1400,95,20
1317,450,Y180L,1500,1500,137.5,62.5
1418,450,Y132M,1400,1400,95,20
1418,450,Y180L,1500,1500,125,50
1418,500,Y132M,1400,1500,40,40
1418,500,Y180L,1500,1600,87.5,57.5
1420,500,Y132M,1400,1500,40,40
1420,500,Y180L,1500,1600,87.5,57.5
1420,560,Y180L,1700,1800,59.5,17.5
1420,560,Y200L,1900,1900,139.5,-2.5
1621,560,Y180L,1700,1800,59.5,17.5
1621,560,Y200L,1900,1900,139.5,-2.5
1621,630,Y180L,1900,2000,154.5,87.5
1621,630,Y200L,1900,2000,139.5,-2.5
1822,560,Y180L,1700,1800,59.5,17.5
1822,560,Y200L,1900,1900,139.5,-2.5
1822,630,Y180L,1900,2000,154.5,87.5
1822,630,Y200L,2000,2100,135.5,67.5
1825,630,Y180L,1900,2000,154.5,87.5
1825,630,Y200L,2000,2100,134.5,67.5
1825,710,Y180L,2000,2100,124.5,37.5
1825,710,Y200L,2000,2200,67.5,17.5
1825,710,Y225M,2100,2200,127,40
2025,630,Y180L,1900,2000,154.5,87.5
2025,630,Y200L,2000,2100,135.5,67.5
2025,710,Y180L,2000,2100,124.5,37.5
2025,710,Y200L,2000,2200,67.5,17.5
2025,710,Y225M,2100,2200,127,40
2125,710,Y180L,2000,2100,124.5,37.5
2125,710,Y200L,2000,2200,67.5,17.5
2125,710,Y225M,2100,2200,127,40
2125,800,Y180L,2100,2300,93.5,67.5
2125,800,Y225M,2200,2400,96,70
2125,800,Y250M,2300,2500,59,25
2226,710,Y180L,2000,2100,124.5,37.5
2226,710,Y225M,2100,2200,127,40
2226,800,Y180L,2100,2300,93.5,67.5
2226,800,Y225M,2200,2400,96,70
2226,800,Y250M,2300,2500,59,25
2328,800,Y180L,2100,2300,93.5,67.5
2328,800,Y225M,2200,2400,96,70
2328,800,Y250M,2300,2500,71,45
2328,900,Y180L,2300,2500,138.5,87.5
2328,900,Y225M,2400,2600,116,65
2328,900,Y250M,2500,2700,116,65
2330,800,Y180L,2100,2300,93.5,67.5
2330,800,Y225M,2200,2400,96,70
2330,800,Y250M,2300,2500,71,45
2330,900,Y180L,2300,2500,138.5,87.5
2330,900,Y225M,2400,2600,141,90
2330,900,Y250M,2500,2700,116,65
2333,800,Y180L,2100,2300,93.5,67.5
2333,800,Y225M,2200,2400,96,70
2333,800,Y250M,2300,2500,71,45
2333,900,Y180L,2300,2500,138.5,87.5
2333,900,Y225M,2400,2600,141,90
2333,900,Y250M,2500,2700,116,65
2532,1000,Y250M,2600,3000,81,95
2532,1000,Y280S,2700,3000,111,125
2532,1000,Y280M,2700,3000,111,125
2832,1000,Y250M,2600,3000,81,95
2832,1000,Y280S,2700,3000,111,125
2832,1000,Y280M,2700,3000,111,125
2832,1120,Y250M,2900,3200,85,82
2832,1120,Y280S,3000,3300,115,112
2832,1120,Y280M,3000,3300,115,112
3132,1000,Y250M,2600,3000,81,95
3132,1000,Y280S,2700,3000,111,125
3132,1000,Y280M,2700,3000,111,125
3132,1120,Y250M,2900,3200,85,82
3132,1120,Y280S,3000,3300,115,112
3132,1120,Y280M,3000,3300,115,112
3438,1250,Y280S,3200,3600,115,124
3438,1250,Y280M,3200,3600,115,124
3841,1400,Y250M,3400,3800,110,82
3841,1400,Y280S,3500,3900,140,112
3841,1400,Y280M,3500,3900,140,112
3841,1400,Y315S,3600,4000,85,57
3841,1400,Y315M,3600,4000,85,57
3841,1400,Y355M,3700,4200,-15,57
3841,1400,Y355L,3700,4200,-15,57
4444,1400,Y250M,3400,3800,110,82
4444,1400,Y280S,3500,3900,140,112
4444,1400,Y280M,3500,3900,140,112
4444,1400,Y315S,3600,4000,85,57
4444,1400,Y315M,3600,4000,85,57
4444,1400,Y355M,3700,4200,-15,57
4444,1400,Y355L,3700,4200,-15,57
4750,1600,Y250M,3700,4100,110,77
4750,1600,Y280S,3800,4200,140,107
4750,1600,Y280M,3800,4200,140,107
4750,1600,Y315S,3900,4300,85,52
4750,1600,Y315M,3900,4300,85,52
4750,1600,Y355M,4000,4500,-15,52
4750,1600,Y355L,4000,4500,-15,52
4751,1600,Y250M,3700,4100,110,77
4751,1600,Y280S,3800,4200,140,107
4751,1600,Y280M,3800,4200,140,107
4751,1600,Y315S,3900,4300,85,52
4751,1600,Y315M,3900,4300,85,52
4751,1600,Y355M,4000,4500,-15,52
4751,1600,Y355L,4000,4500,-15,52
2435,900,Y180L,2300,2500,81,80
2435,900,Y225M,2400,2600,71,70
2435,900,Y250M,2500,2700,71,70
2435,1000,Y180L,2400,2600,36,50
2435,1000,Y225M,2500,2700,46,0
2435,1000,Y250M,2600,2900,36,0
2635,900,Y180L,2300,2500,81,80
2635,900,Y225M,2400,2600,71,70
2635,900,Y250M,2500,2700,71,70
2635,1000,Y180L,2400,2600,36,50
2635,1000,Y225M,2500,2700,46,0
2635,1000,Y250M,2600,2900,36,0
2635,900,Y180L,2300,2500,81,80
2635,900,Y225M,2400,2600,71,70
2635,900,Y250M,2500,2700,71,70
2635,1000,Y180L,2400,2600,36,50
2635,1000,Y225M,2500,2700,46,0
2635,1000,Y250M,2600,2900,36,0
2635,1000,Y280S,2700,2900,36,0
2735,900,Y180L,2300,2500,81,80
2735,900,Y225M,2400,2600,71,70
2735,900,Y250M,2500,2700,71,70
2735,1000,Y180L,2400,2600,36,50
2735,1000,Y225M,2500,2700,46,0
2735,1000,Y250M,2600,2900,36,0
2735,900,Y180L,2300,2500,81,80
2735,900,Y225M,2400,2600,71,70
2735,900,Y250M,2500,2700,71,70
2735,1000,Y180L,2400,2600,36,50
2735,1000,Y225M,2500,2700,46,0
2735,1000,Y250M,2600,2900,36,0
2735,1000,Y280S,2700,2900,36,0
