power,level,machineSiteNo,machineSite,weight,inputPower,machineSiteNo1,motorCode,seq
0.37,6,Y80M1,804,17,0,Y08001,80,1
0.55,4,Y80M1,804,17,0.74,Y08001,80,1
0.55,6,Y80M2,805,18,0,Y08002,80,2
0.75,2,Y80M1,804,17,1,Y08001,80,1
0.75,4,Y80M2,805,18,1.03,Y08002,80,2
0.75,6,Y90S,902,25,1.03,Y090S0,90,3
1.1,2,Y80M2,805,18,1.43,Y08002,80,2
1.1,4,Y90S,902,23,1.41,Y090S0,90,3
1.1,6,Y90L,908,27,1.5,Y090L0,90,4
1.5,2,Y90S,902,22,1.92,Y090S0,90,3
1.5,4,Y90L,908,27,1.9,Y090L0,90,4
1.5,6,Y100L,1007,33,1.94,Y100L0,100,5
11,2,Y160M1,1604,119,12.61,Y160M1,160,15
11,4,Y160M,1604,127,12.5,Y160M0,160,16
11,6,Y160L,1608,147,12.64,Y160L0,160,18
110,2,Y315S,1330,1060,120.88,Y315S0,315,29
110,4,Y315S,1330,1060,118.28,Y315S0,315,29
110,6,Y315L1,1330,1060,118.92,Y315L1,315,31
132,2,Y315M1,1330,1120,145.06,Y315M1,315,30
132,4,Y315M1,1330,1120,141.94,Y315M1,315,30
132,6,Y315L2,1330,1120,142.7,Y315L2,315,32
15,2,Y160M2,1605,129,17.01,Y315L2,160,17
15,4,Y160L,1608,146,16.95,Y160L0,160,18
15,6,Y180L,1808,195,16.76,Y180L0,180,20
160,2,Y315L1,1565,1360,174.86,Y315L1,315,31
160,4,Y315L1,1565,1360,172.04,Y315L1,315,31
160,6,Y355M1,1565,1360,172.04,Y355M1,355,33
18.5,2,Y160L,1608,149,20.79,Y160L0,160,18
18.5,4,Y180M,1805,182,20.33,Y180M0,180,19
18.5,6,Y200L1,2007,233,20.6,Y200L1,200,22
2.2,2,Y90L,908,25,2.68,Y090L0,90,4
2.2,4,Y100L1,1007,35,2.72,Y100L1,100,6
2.2,6,Y112M,1125,45,2.73,Y112M0,112,8
200,2,Y315L2,1565,1551,213.91,Y315L2,315,32
200,4,Y315L2,1565,1551,211.64,Y315L2,315,32
200,6,Y355M2,1565,1551,211.64,Y355M2,355,34
22,2,Y180M,1805,180,24.72,Y180M0,180,19
22,4,Y180L,1808,195,24.04,Y180L0,180,20
22,6,Y200L2,2008,254,24.39,Y200L2,200,23
3,2,Y100L,1007,35,3.66,Y100L0,100,5
3,4,Y100L2,1008,38,3.64,Y100L2,100,7
3,6,Y132S,1321,68,3.61,Y132S0,132,10
30,2,Y200L1,2007,240,33.33,Y200L1,200,22
30,4,Y200L,2007,270,32.54,Y200L0,200,21
30,6,Y225M,2255,308,33.26,Y225M0,225,25
37,2,Y200L2,2008,254,40.88,Y200L2,200,23
37,4,Y225S,2252,308,40.31,Y225S0,225,24
37,6,Y250M,2252,308,40.31,Y250M0,250,26
4,2,Y112M,1125,50,4.68,Y112M0,112,8
4,4,Y112M,1125,52,4.73,Y112M0,112,8
4,6,Y132M1,1324,79,4.76,Y132M1,132,12
45,2,Y225M,2255,328,49.18,Y225M0,225,25
45,4,Y225M,2255,335,48.75,Y225M0,225,25
45,6,Y280S,975,482,48.91,Y280S0,280,27
5.5,2,Y132S1,1321,67,6.43,Y132S1,132,9
5.5,4,Y132S,1321,68,6.43,Y132S0,132,10
5.5,6,Y132M2,1325,84,6.45,Y132M2,132,14
55,2,Y250M,1040,532,60.11,Y250M0,250,26
55,4,Y250M,2252,532,59.4,Y250M0,250,26
55,6,Y280M,1040,532,59.78,Y280M0,280,28
7.5,2,Y132S2,1322,71,8.7,Y132S2,132,11
7.5,4,Y132M,1324,81,8.62,Y132M0,132,12
7.5,6,Y160M,1604,122,8.72,Y160M0,160,16
75,2,Y280S,1220,920,81.97,Y280S0,280,27
75,4,Y280S,1220,920,80.91,Y280S0,280,27
75,6,Y315S,1220,920,81.52,Y315S0,315,29
90,2,Y280M,1330,1010,97.83,Y280M0,280,28
90,4,Y280M,1330,1010,96.15,Y280M0,280,28
90,6,Y315M1,1220,1010,97.83,Y315M1,315,30
