type,bend,fanQuery,fan,maxPower,maxMachineSite,supplier
39CQ0608,1,KTQ1.6,FC160,1.5,908,A
39CQ0608,1,KTQ1.8,FC180,1.5,908,A
39CQ0608,1,KTQ1.6,FDA160,1.5,908,B
39CQ0608,1,KTQ1.8,FDA180,1.5,908,B
39CQ0609,1,KTQ1.8,FC180,1.5,908,A
39CQ0609,1,KTQ2.0,FC200,2.2,1008,A
39CQ0609,1,KTQ1.8,FDA180,1.5,908,B
39CQ0609,1,KTQ2.0,FDA200,2.2,1008,B
39CQ0711,1,KTQ2.0,FC200,2.2,1008,A
39CQ0711,1,KTQ2.25,FC225,4,1128,A
39CQ0711,1,KTQ2.0,FDA200,2.2,1008,B
39CQ0711,1,KTQ2.25,FDA225,4,1128,B
39CQ0811,3,KTH2.5,ADA250,4,1128,B
39CQ0811,2,KTH2.5,BC250,4,1128,A
39CQ0811,2,KTH2.5,BDB250,4,1128,B
39CQ0811,1,KTQ2.25,FC225,4,1128,A
39CQ0811,1,KTQ2.5,FC250,4,1128,A
39CQ0811,1,KTQ2.25,FDA225,4,1128,B
39CQ0811,1,KTQ2.5,FDA250,4,1128,B
39CQ0912,3,KTH2.5,ADA250,4,1128,B
39CQ0912,3,KTH2.8,ADA280,5.5,1322,B
39CQ0912,2,KTH2.5,BC250,4,1128,A
39CQ0912,2,KTH2.8,BC280,5.5,1322,A
39CQ0912,2,KTH2.5,BDB250,4,1128,B
39CQ0912,2,KTH2.8,BDB280,5.5,1322,B
39CQ0912,1,KTQ2.5,FC250,4,1128,A
39CQ0912,1,KTQ2.8,FC280,5.5,1322,A
39CQ0912,1,KTQ2.5,FDA250,4,1128,B
39CQ0912,1,KTQ2.8,FDA280,5.5,1322,B
39CQ0913,3,KTH2.8,ADA280,5.5,1322,B
39CQ0913,3,KTH3.15,ADA315,5.5,1322,B
39CQ0913,2,KTH2.8,BC280,5.5,1322,A
39CQ0913,2,KTH3.15,BC315,5.5,1322,A
39CQ0913,2,KTH2.8,BDB280,5.5,1322,B
39CQ0913,2,KTH3.15,BDB315,5.5,1322,B
39CQ0913,1,KTQ2.8,FC280,5.5,1322,A
39CQ0913,1,KTQ3.15,FC315,5.5,1322,A
39CQ0913,1,KTQ2.8,FDA280,5.5,1322,B
39CQ0913,1,KTQ3.15,FDA315,5.5,1322,B
39CQ0914,3,KTH3.15,ADA315,5.5,1322,B
39CQ0914,3,KTH3.55,ADA355,5.5,1322,B
39CQ0914,2,KTH3.15,BC315,5.5,1322,A
39CQ0914,2,KTH3.55,BC355,5.5,1322,A
39CQ0914,2,KTH3.15,BDB315,5.5,1322,B
39CQ0914,2,KTH3.55,BDB355,5.5,1322,B
39CQ0914,1,KTQ3.15,FC315,5.5,1322,A
39CQ0914,1,KTQ3.55,FC355,5.5,1322,A
39CQ0914,1,KTQ3.15,FDA315,5.5,1322,B
39CQ0914,1,KTQ3.55,FDA355,5.5,1322,B
39CQ1015,3,KTH3.55,ADA355,7.5,1322,B
39CQ1015,3,KTH4.0,ADA400,7.5,1325,B
39CQ1015,2,KTH3.55,BC355,7.5,1322,A
39CQ1015,2,KTH4.0,BC400,7.5,1325,A
39CQ1015,2,KTH3.55,BDB355,7.5,1322,B
39CQ1015,2,KTH4.0,BDB400,7.5,1325,B
39CQ1015,1,KTQ3.55,FC355,5.5,1322,A
39CQ1015,1,KTQ4.0,FC400,7.5,1325,A
39CQ1015,1,KTQ3.55,FDA355,5.5,1322,B
39CQ1015,1,KTQ4.0,FDA400,7.5,1325,B
39CQ1117,3,KTH4.0,ADA400,11,1325,B
39CQ1117,3,KTH4.5,ADA450,11,1605,B
39CQ1117,2,KTH4.0,BC400,11,1325,A
39CQ1117,2,KTH4.5,BC450,11,1605,A
39CQ1117,2,KTH4.0,BDB400,11,1325,B
39CQ1117,2,KTH4.5,BDB450,11,1605,B
39CQ1117,1,KTQ4.0,FC400,11,1325,A
39CQ1117,1,KTQ4.5,FC450,11,1605,A
39CQ1117,1,KTQ4.0,FDA400,11,1325,B
39CQ1117,1,KTQ4.5,FDA450,11,1605,B
39CQ1317,3,KTH4.0,ADA400,15,1325,B
39CQ1317,3,KTH4.5,ADA450,15,1608,B
39CQ1317,2,KTH4.0,BC400,15,1325,A
39CQ1317,2,KTH4.5,BC450,15,1608,A
39CQ1317,2,KTH4.0,BDB400,15,1325,B
39CQ1317,2,KTH4.5,BDB450,15,1608,B
39CQ1317,1,KTQ4.0,FC400,15,1325,A
39CQ1317,1,KTQ4.5,FC450,15,1608,A
39CQ1317,1,KTQ4.0,FDA400,15,1325,B
39CQ1317,1,KTQ4.5,FDA450,15,1608,B
39CQ1418,3,KTH4.5,ADA450,15,1608,B
39CQ1418,3,KTH5.0,ADA500,15,1608,B
39CQ1418,2,KTH4.5,BC450,15,1608,A
39CQ1418,2,KTH5.0,BC500,15,1608,A
39CQ1418,2,KTH4.5,BDB450,15,1608,B
39CQ1418,2,KTH5.0,BDB500,15,1608,B
39CQ1418,1,KTQ4.5,FC450,15,1608,A
39CQ1418,1,KTQ5.0,FC500,15,1608,A
39CQ1418,1,KTQ4.5,FDA450,15,1608,B
39CQ1418,1,KTQ5.0,FDA500,15,1608,B
39CQ1420,3,KTH5.0,ADA500,18.5,1608,B
39CQ1420,3,KTH5.6,ADA560,18.5,1805,B
39CQ1420,2,KTH5.0,BC500,18.5,1608,A
39CQ1420,2,KTH5.6,BC560,18.5,1805,A
39CQ1420,2,KTH5.0,BDB500,18.5,1608,B
39CQ1420,2,KTH5.6,BDB560,18.5,1805,B
39CQ1420,1,KTQ5.0,FC500,18.5,1608,A
39CQ1420,1,KTQ5.6,FC560,18.5,1805,A
39CQ1420,1,KTQ5.0,FDA500,18.5,1608,B
39CQ1420,1,KTQ5.6,FDA560,18.5,1805,B
39CQ1621,3,KTH5.6,ADA560,18.5,1805,B
39CQ1621,3,KTH6.3,ADA630,18.5,1805,B
39CQ1621,2,KTH5.6,BC560,18.5,1805,A
39CQ1621,2,KTH6.3,BC630,18.5,1805,A
39CQ1621,2,KTH5.6,BDB560,18.5,1805,B
39CQ1621,2,KTH6.3,BDB630,18.5,1805,B
39CQ1621,1,KTQ5.6,FC560,18.5,1805,A
39CQ1621,1,KTQ6.3,FC630,18.5,1805,A
39CQ1621,1,KTQ5.6,FDA560,18.5,1805,B
39CQ1621,1,KTQ6.3,FDA630,18.5,1805,B
39CQ1822,3,KTH5.6,ADA560,18.5,1805,B
39CQ1822,3,KTH6.3,ADA630,18.5,1805,B
39CQ1822,2,KTH5.6,BC560,18.5,1805,A
39CQ1822,2,KTH6.3,BC630,18.5,1805,A
39CQ1822,2,KTH5.6,BDB560,18.5,1805,B
39CQ1822,2,KTH6.3,BDB630,18.5,1805,B
39CQ1822,1,KTQ5.6,FC560,18.5,1805,A
39CQ1822,1,KTQ6.3,FC630,18.5,1805,A
39CQ1822,1,KTQ5.6,FDA560,18.5,1805,B
39CQ1822,1,KTQ6.3,FDA630,18.5,1805,B
39CQ1825,3,KTH6.3,ADA630,30,1808,B
39CQ1825,3,KTH7.1,ADA710,30,2008,B
39CQ1825,2,KTH6.3,BC630,30,1808,A
39CQ1825,2,KTH7.1,BC710,30,2008,A
39CQ1825,2,KTH6.3,BDB630,30,1808,B
39CQ1825,2,KTH7.1,BDB710,30,2008,B
39CQ1825,1,KTQ6.3,FC630,30,1808,A
39CQ1825,1,KTQ7.1,FC710,30,2008,A
39CQ1825,1,KTQ6.3,FDA630,30,1808,B
39CQ1825,1,KTQ7.1,FDA710,30,2008,B
39CQ2025,3,KTH6.3,ADA630,30,1808,B
39CQ2025,3,KTH7.1,ADA710,30,2008,B
39CQ2025,2,KTH6.3,BC630,30,1808,A
39CQ2025,2,KTH7.1,BC710,30,2008,A
39CQ2025,2,KTH6.3,BDB630,30,1808,B
39CQ2025,2,KTH7.1,BDB710,30,2008,B
39CQ2025,1,KTQ6.3,FC630,30,1808,A
39CQ2025,1,KTQ7.1,FC710,30,2008,A
39CQ2025,1,KTQ6.3,FDA630,30,1808,B
39CQ2025,1,KTQ7.1,FDA710,30,2008,B
39CQ2125,3,KTH7.1,ADA710,30,2008,B
39CQ2125,3,KTH8.0,ADA800,30,2008,B
39CQ2125,2,KTH7.1,BC710,30,2008,A
39CQ2125,2,KTH8.0,BC800,30,2008,A
39CQ2125,2,KTH7.1,BDB710,30,2008,B
39CQ2125,2,KTH8.0,BDB800,30,2008,B
39CQ2125,1,KTQ7.1,FC710,30,2008,A
39CQ2125,1,KTQ8.0,FC800,30,2008,A
39CQ2125,1,KTQ7.1,FDA710,30,2008,B
39CQ2125,1,KTQ8.0,FDA800,30,2008,B
39CQ2226,3,KTH7.1,ADA710,30,2008,B
39CQ2226,3,KTH8.0,ADA800,30,2008,B
39CQ2226,2,KTH7.1,BC710,30,2008,A
39CQ2226,2,KTH8.0,BC800,30,2008,A
39CQ2226,2,KTH7.1,BDB710,30,2008,B
39CQ2226,2,KTH8.0,BDB800,30,2008,B
39CQ2226,1,KTQ7.1,FC710,30,2008,A
39CQ2226,1,KTQ8.0,FC800,30,2008,A
39CQ2226,1,KTQ7.1,FDA710,30,2008,B
39CQ2226,1,KTQ8.0,FDA800,30,2008,B
39CQ2328,3,KTH8.0,ADA800,37,2008,B
39CQ2328,3,KTH9.0,ADA900,37,2252,B
39CQ2328,2,KTH8.0,BC800,37,2008,A
39CQ2328,2,KTH9.0,BC900,37,2252,A
39CQ2328,2,KTH8.0,BDB800,37,2008,B
39CQ2328,2,KTH9.0,BDB900,37,2252,B
39CQ2328,1,KTQ8.0,FC800,37,2008,A
39CQ2328,1,KTQ9.0,FC900,37,2252,A
39CQ2328,1,KTQ8.0,FDA800,37,2008,B
39CQ2328,1,KTQ9.0,FDA900,37,2252,B
39CQ2330,3,KTH8.0,ADA800,37,2008,B
39CQ2330,3,KTH9.0,ADA900,37,2252,B
39CQ2330,2,KTH8.0,BC800,37,2008,A
39CQ2330,2,KTH9.0,BC900,37,2252,A
39CQ2330,2,KTH8.0,BDB800,37,2008,B
39CQ2330,2,KTH9.0,BDB900,37,2252,B
39CQ2330,1,KTQ8.0,FC800,37,2008,A
39CQ2330,1,KTQ9.0,FC900,37,2252,A
39CQ2330,1,KTQ8.0,FDA800,37,2008,B
39CQ2330,1,KTQ9.0,FDA900,37,2252,B
39CQ2333,3,KTH8.0,ADA800,45,2008,B
39CQ2333,3,KTH9.0,ADA900,45,2255,B
39CQ2333,2,KTH8.0,BC800,45,2008,A
39CQ2333,2,KTH9.0,BC900,45,2255,A
39CQ2333,2,KTH8.0,BDB800,45,2008,B
39CQ2333,2,KTH9.0,BDB900,45,2255,B
39CQ2333,1,KTQ8.0,FC800,45,2008,A
39CQ2333,1,KTQ9.0,FC900,45,2255,A
39CQ2333,1,KTQ8.0,FDA800,45,2008,B
39CQ2333,1,KTQ9.0,FDA900,45,2255,B
39CQ2532,2,KTH10.0,BDB1000,90,3000,B
39CQ2532,2,KTH9.0,BDB900,45,3000,B
39CQ2532,1,KTH10.0,FDA1000,90,3000,B
39CQ2532,1,KTH9.0,FDA900,45,3000,B
39CQ2532,2,KHF1000,KHF1000,90,3000,A
39CQ2532,2,KHF900,KHF900,45,3000,A
39CQ2832,2,KTH10.0,BDB1000,90,3000,B
39CQ2832,2,KTH11.2,BDB1120,90,3000,B
39CQ2832,1,KTH10.0,FDA1000,90,3000,B
39CQ2832,1,KTH11.2,FDA1120,90,3000,B
39CQ2832,2,KHF1000,KHF1000,90,3000,A
39CQ2832,2,KHF1120,KHF1120,90,3000,A
39CQ3132,2,KTH10.0,BDB1000,90,3000,B
39CQ3132,2,KTH11.2,BDB1120,90,3000,B
39CQ3132,1,KTH10.0,FDA1000,90,3000,B
39CQ3132,1,KTH11.2,FDA1120,90,3000,B
39CQ3132,2,KHF1000,KHF1000,90,3000,A
39CQ3132,2,KHF1120,KHF1120,90,3000,A
39CQ3438,2,KTH12.5,BDB1250,90,3000,B
39CQ3438,1,KTH12.5,FDA1250,90,3000,B
39CQ3438,2,KHF1250,KHF1250,90,3000,A
39CQ3841,2,KTH12.5,BDB1250,132,3000,B
39CQ3841,2,KTH14.0,BDB1400,132,3000,B
39CQ3841,1,KTH12.5,FDA1250,132,3000,B
39CQ3841,1,KTH14.0,FDA1400,132,3000,B
39CQ3841,2,KHF1250,KHF1250,132,3000,A
39CQ3841,2,KHF1400,KHF1400,132,3000,A
39CQ4444,2,KTH14.0,BDB1400,132,3000,B
39CQ4444,1,KTH14.0,FDA1400,132,3000,B
39CQ4444,2,KHF1400,KHF1400,132,3000,A
39CQ4750,2,KHF16.0,BDB1600,132,3000,B
39CQ4750,1,KHF16.0,FDA1600,132,3000,B
39CQ4750,2,KHF1600,KHF1600,132,3000,A
39CQ4751,2,KTH14.0,BDB1400,132,3000,B
39CQ4751,1,KTH14.0,FDA1400,132,3000,B
39CQ4751,2,KHF1400,KHF1400,132,3000,A
39G0608,1,KTQ1.6,FC160,1.5,908,A
39G0608,1,KTQ1.8,FC180,1.5,908,A
39G0608,1,KTQ1.6,FDA160,1.5,908,B
39G0608,1,KTQ1.8,FDA180,1.5,908,B
39G0609,1,KTQ1.8,FC180,1.5,908,A
39G0609,1,KTQ2.0,FC200,2.2,1008,A
39G0609,1,KTQ1.8,FDA180,1.5,908,B
39G0609,1,KTQ2.0,FDA200,2.2,1008,B
39G0711,1,KTQ2.0,FC200,2.2,1008,A
39G0711,1,KTQ2.25,FC225,4,1128,A
39G0711,1,KTQ2.0,FDA200,2.2,1008,B
39G0711,1,KTQ2.25,FDA225,4,1128,B
39G0811,3,KTH2.5,ADA250,4,1128,B
39G0811,2,KTH2.5,BC250,4,1128,A
39G0811,2,KTH2.5,BDB250,4,1128,B
39G0811,1,KTQ2.25,FC225,4,1128,A
39G0811,1,KTQ2.5,FC250,4,1128,A
39G0811,1,KTQ2.25,FDA225,4,1128,B
39G0811,1,KTQ2.5,FDA250,4,1128,B
39G0912,3,KTH2.5,ADA250,4,1128,B
39G0912,3,KTH2.8,ADA280,5.5,1322,B
39G0912,2,KTH2.5,BC250,4,1128,A
39G0912,2,KTH2.8,BC280,5.5,1322,A
39G0912,2,KTH2.5,BDB250,4,1128,B
39G0912,2,KTH2.8,BDB280,5.5,1322,B
39G0912,1,KTQ2.5,FC250,4,1128,A
39G0912,1,KTQ2.8,FC280,5.5,1322,A
39G0912,1,KTQ2.5,FDA250,4,1128,B
39G0912,1,KTQ2.8,FDA280,5.5,1322,B
39G0913,3,KTH2.8,ADA280,5.5,1322,B
39G0913,3,KTH3.15,ADA315,5.5,1322,B
39G0913,2,KTH2.8,BC280,5.5,1322,A
39G0913,2,KTH3.15,BC315,5.5,1322,A
39G0913,2,KTH2.8,BDB280,5.5,1322,B
39G0913,2,KTH3.15,BDB315,5.5,1322,B
39G0913,1,KTQ2.8,FC280,5.5,1322,A
39G0913,1,KTQ3.15,FC315,5.5,1322,A
39G0913,1,KTQ2.8,FDA280,5.5,1322,B
39G0913,1,KTQ3.15,FDA315,5.5,1322,B
39G0914,3,KTH3.15,ADA315,5.5,1322,B
39G0914,3,KTH3.55,ADA355,5.5,1322,B
39G0914,2,KTH3.15,BC315,5.5,1322,A
39G0914,2,KTH3.55,BC355,5.5,1322,A
39G0914,2,KTH3.15,BDB315,5.5,1322,B
39G0914,2,KTH3.55,BDB355,5.5,1322,B
39G0914,1,KTQ3.15,FC315,5.5,1322,A
39G0914,1,KTQ3.55,FC355,5.5,1322,A
39G0914,1,KTQ3.15,FDA315,5.5,1322,B
39G0914,1,KTQ3.55,FDA355,5.5,1322,B
39G1015,3,KTH3.55,ADA355,7.5,1322,B
39G1015,3,KTH4.0,ADA400,7.5,1325,B
39G1015,2,KTH3.55,BC355,7.5,1322,A
39G1015,2,KTH4.0,BC400,7.5,1325,A
39G1015,2,KTH3.55,BDB355,7.5,1322,B
39G1015,2,KTH4.0,BDB400,7.5,1325,B
39G1015,1,KTQ3.55,FC355,5.5,1322,A
39G1015,1,KTQ4.0,FC400,7.5,1325,A
39G1015,1,KTQ3.55,FDA355,5.5,1322,B
39G1015,1,KTQ4.0,FDA400,7.5,1325,B
39G1117,3,KTH4.0,ADA400,11,1325,B
39G1117,3,KTH4.5,ADA450,11,1605,B
39G1117,2,KTH4.0,BC400,11,1325,A
39G1117,2,KTH4.5,BC450,11,1605,A
39G1117,2,KTH4.0,BDB400,11,1325,B
39G1117,2,KTH4.5,BDB450,11,1605,B
39G1117,1,KTQ4.0,FC400,11,1325,A
39G1117,1,KTQ4.5,FC450,11,1605,A
39G1117,1,KTQ4.0,FDA400,11,1325,B
39G1117,1,KTQ4.5,FDA450,11,1605,B
39G1317,3,KTH4.0,ADA400,15,1325,B
39G1317,3,KTH4.5,ADA450,15,1608,B
39G1317,2,KTH4.0,BC400,15,1325,A
39G1317,2,KTH4.5,BC450,15,1608,A
39G1317,2,KTH4.0,BDB400,15,1325,B
39G1317,2,KTH4.5,BDB450,15,1608,B
39G1317,1,KTQ4.0,FC400,15,1325,A
39G1317,1,KTQ4.5,FC450,15,1608,A
39G1317,1,KTQ4.0,FDA400,15,1325,B
39G1317,1,KTQ4.5,FDA450,15,1608,B
39G1418,3,KTH4.5,ADA450,15,1608,B
39G1418,3,KTH5.0,ADA500,15,1608,B
39G1418,2,KTH4.5,BC450,15,1608,A
39G1418,2,KTH5.0,BC500,15,1608,A
39G1418,2,KTH4.5,BDB450,15,1608,B
39G1418,2,KTH5.0,BDB500,15,1608,B
39G1418,1,KTQ4.5,FC450,15,1608,A
39G1418,1,KTQ5.0,FC500,15,1608,A
39G1418,1,KTQ4.5,FDA450,15,1608,B
39G1418,1,KTQ5.0,FDA500,15,1608,B
39G1420,3,KTH5.0,ADA500,18.5,1608,B
39G1420,3,KTH5.6,ADA560,18.5,1805,B
39G1420,2,KTH5.0,BC500,18.5,1608,A
39G1420,2,KTH5.6,BC560,18.5,1805,A
39G1420,2,KTH5.0,BDB500,18.5,1608,B
39G1420,2,KTH5.6,BDB560,18.5,1805,B
39G1420,1,KTQ5.0,FC500,18.5,1608,A
39G1420,1,KTQ5.6,FC560,18.5,1805,A
39G1420,1,KTQ5.0,FDA500,18.5,1608,B
39G1420,1,KTQ5.6,FDA560,18.5,1805,B
39G1621,3,KTH5.6,ADA560,18.5,1805,B
39G1621,3,KTH6.3,ADA630,18.5,1805,B
39G1621,2,KTH5.6,BC560,18.5,1805,A
39G1621,2,KTH6.3,BC630,18.5,1805,A
39G1621,2,KTH5.6,BDB560,18.5,1805,B
39G1621,2,KTH6.3,BDB630,18.5,1805,B
39G1621,1,KTQ5.6,FC560,18.5,1805,A
39G1621,1,KTQ6.3,FC630,18.5,1805,A
39G1621,1,KTQ5.6,FDA560,18.5,1805,B
39G1621,1,KTQ6.3,FDA630,18.5,1805,B
39G1822,3,KTH5.6,ADA560,18.5,1805,B
39G1822,3,KTH6.3,ADA630,18.5,1805,B
39G1822,2,KTH5.6,BC560,18.5,1805,A
39G1822,2,KTH6.3,BC630,18.5,1805,A
39G1822,2,KTH5.6,BDB560,18.5,1805,B
39G1822,2,KTH6.3,BDB630,18.5,1805,B
39G1822,1,KTQ5.6,FC560,18.5,1805,A
39G1822,1,KTQ6.3,FC630,18.5,1805,A
39G1822,1,KTQ5.6,FDA560,18.5,1805,B
39G1822,1,KTQ6.3,FDA630,18.5,1805,B
39G1825,3,KTH6.3,ADA630,30,1808,B
39G1825,3,KTH7.1,ADA710,30,2008,B
39G1825,2,KTH6.3,BC630,30,1808,A
39G1825,2,KTH7.1,BC710,30,2008,A
39G1825,2,KTH6.3,BDB630,30,1808,B
39G1825,2,KTH7.1,BDB710,30,2008,B
39G1825,1,KTQ6.3,FC630,30,1808,A
39G1825,1,KTQ7.1,FC710,30,2008,A
39G1825,1,KTQ6.3,FDA630,30,1808,B
39G1825,1,KTQ7.1,FDA710,30,2008,B
39G2025,3,KTH6.3,ADA630,30,1808,B
39G2025,3,KTH7.1,ADA710,30,2008,B
39G2025,2,KTH6.3,BC630,30,1808,A
39G2025,2,KTH7.1,BC710,30,2008,A
39G2025,2,KTH6.3,BDB630,30,1808,B
39G2025,2,KTH7.1,BDB710,30,2008,B
39G2025,1,KTQ6.3,FC630,30,1808,A
39G2025,1,KTQ7.1,FC710,30,2008,A
39G2025,1,KTQ6.3,FDA630,30,1808,B
39G2025,1,KTQ7.1,FDA710,30,2008,B
39G2125,3,KTH7.1,ADA710,30,2008,B
39G2125,3,KTH8.0,ADA800,30,2008,B
39G2125,2,KTH7.1,BC710,30,2008,A
39G2125,2,KTH8.0,BC800,30,2008,A
39G2125,2,KTH7.1,BDB710,30,2008,B
39G2125,2,KTH8.0,BDB800,30,2008,B
39G2125,1,KTQ7.1,FC710,30,2008,A
39G2125,1,KTQ8.0,FC800,30,2008,A
39G2125,1,KTQ7.1,FDA710,30,2008,B
39G2125,1,KTQ8.0,FDA800,30,2008,B
39G2226,3,KTH7.1,ADA710,30,2008,B
39G2226,3,KTH8.0,ADA800,30,2008,B
39G2226,2,KTH7.1,BC710,30,2008,A
39G2226,2,KTH8.0,BC800,30,2008,A
39G2226,2,KTH7.1,BDB710,30,2008,B
39G2226,2,KTH8.0,BDB800,30,2008,B
39G2226,1,KTQ7.1,FC710,30,2008,A
39G2226,1,KTQ8.0,FC800,30,2008,A
39G2226,1,KTQ7.1,FDA710,30,2008,B
39G2226,1,KTQ8.0,FDA800,30,2008,B
39G2328,3,KTH8.0,ADA800,37,2008,B
39G2328,3,KTH9.0,ADA900,37,2252,B
39G2328,2,KTH8.0,BC800,37,2008,A
39G2328,2,KTH9.0,BC900,37,2252,A
39G2328,2,KTH8.0,BDB800,37,2008,B
39G2328,2,KTH9.0,BDB900,37,2252,B
39G2328,1,KTQ8.0,FC800,37,2008,A
39G2328,1,KTQ9.0,FC900,37,2252,A
39G2328,1,KTQ8.0,FDA800,37,2008,B
39G2328,1,KTQ9.0,FDA900,37,2252,B
39G2330,3,KTH8.0,ADA800,37,2008,B
39G2330,3,KTH9.0,ADA900,37,2252,B
39G2330,2,KTH8.0,BC800,37,2008,A
39G2330,2,KTH9.0,BC900,37,2252,A
39G2330,2,KTH8.0,BDB800,37,2008,B
39G2330,2,KTH9.0,BDB900,37,2252,B
39G2330,1,KTQ8.0,FC800,37,2008,A
39G2330,1,KTQ9.0,FC900,37,2252,A
39G2330,1,KTQ8.0,FDA800,37,2008,B
39G2330,1,KTQ9.0,FDA900,37,2252,B
39G2333,3,KTH8.0,ADA800,45,2008,B
39G2333,3,KTH9.0,ADA900,45,2255,B
39G2333,2,KTH8.0,BC800,45,2008,A
39G2333,2,KTH9.0,BC900,45,2255,A
39G2333,2,KTH8.0,BDB800,45,2008,B
39G2333,2,KTH9.0,BDB900,45,2255,B
39G2333,1,KTQ8.0,FC800,45,2008,A
39G2333,1,KTQ9.0,FC900,45,2255,A
39G2333,1,KTQ8.0,FDA800,45,2008,B
39G2333,1,KTQ9.0,FDA900,45,2255,B
39G2532,2,KTH10.0,BDB1000,90,3000,B
39G2532,2,KTH9.0,BDB900,45,3000,B
39G2532,1,KTH10.0,FDA1000,90,3000,B
39G2532,1,KTH9.0,FDA900,45,3000,B
39G2532,2,KHF1000,KHF1000,90,3000,A
39G2532,2,KHF900,KHF900,45,3000,A
39G2832,2,KTH10.0,BDB1000,90,3000,B
39G2832,2,KTH11.2,BDB1120,90,3000,B
39G2832,1,KTH10.0,FDA1000,90,3000,B
39G2832,1,KTH11.2,FDA1120,90,3000,B
39G2832,2,KHF1000,KHF1000,90,3000,A
39G2832,2,KHF1120,KHF1120,90,3000,A
39G3132,2,KTH10.0,BDB1000,90,3000,B
39G3132,2,KTH11.2,BDB1120,90,3000,B
39G3132,1,KTH10.0,FDA1000,90,3000,B
39G3132,1,KTH11.2,FDA1120,90,3000,B
39G3132,2,KHF1000,KHF1000,90,3000,A
39G3132,2,KHF1120,KHF1120,90,3000,A
39G3438,2,KTH12.5,BDB1250,90,3000,B
39G3438,1,KTH12.5,FDA1250,90,3000,B
39G3438,2,KHF1250,KHF1250,90,3000,A
39G3841,2,KTH12.5,BDB1250,132,3000,B
39G3841,2,KTH14.0,BDB1400,132,3000,B
39G3841,1,KTH12.5,FDA1250,132,3000,B
39G3841,1,KTH14.0,FDA1400,132,3000,B
39G3841,2,KHF1250,KHF1250,132,3000,A
39G3841,2,KHF1400,KHF1400,132,3000,A
39G4444,2,KTH14.0,BDB1400,132,3000,B
39G4444,1,KTH14.0,FDA1400,132,3000,B
39G4444,2,KHF1400,KHF1400,132,3000,A
39G4750,2,KHF16.0,BDB1600,132,3000,B
39G4750,1,KHF16.0,FDA1600,132,3000,B
39G4750,2,KHF1600,KHF1600,132,3000,A
39G4751,2,KTH14.0,BDB1400,132,3000,B
39G4751,1,KTH14.0,FDA1400,132,3000,B
39G4751,2,KHF1400,KHF1400,132,3000,A
39XT0608,1,KTQ1.6,FC160,1.5,908,A
39XT0608,1,KTQ1.8,FC180,1.5,908,A
39XT0608,1,KTQ1.6,FDA160,1.5,908,B
39XT0608,1,KTQ1.8,FDA180,1.5,908,B
39XT0609,1,KTQ1.8,FC180,1.5,908,A
39XT0609,1,KTQ2.0,FC200,2.2,1008,A
39XT0609,1,KTQ1.8,FDA180,1.5,908,B
39XT0609,1,KTQ2.0,FDA200,2.2,1008,B
39XT0711,1,KTQ2.0,FC200,2.2,1008,A
39XT0711,1,KTQ2.25,FC225,4,1128,A
39XT0711,1,KTQ2.0,FDA200,2.2,1008,B
39XT0711,1,KTQ2.25,FDA225,4,1128,B
39XT0811,3,KTH2.5,ADA250,4,1128,B
39XT0811,2,KTH2.5,BC250,4,1128,A
39XT0811,2,KTH2.5,BDB250,4,1128,B
39XT0811,1,KTQ2.25,FC225,4,1128,A
39XT0811,1,KTQ2.5,FC250,4,1128,A
39XT0811,1,KTQ2.25,FDA225,4,1128,B
39XT0811,1,KTQ2.5,FDA250,4,1128,B
39XT0912,3,KTH2.5,ADA250,4,1128,B
39XT0912,3,KTH2.8,ADA280,5.5,1322,B
39XT0912,2,KTH2.5,BC250,4,1128,A
39XT0912,2,KTH2.8,BC280,5.5,1322,A
39XT0912,2,KTH2.5,BDB250,4,1128,B
39XT0912,2,KTH2.8,BDB280,5.5,1322,B
39XT0912,1,KTQ2.5,FC250,4,1128,A
39XT0912,1,KTQ2.8,FC280,5.5,1322,A
39XT0912,1,KTQ2.5,FDA250,4,1128,B
39XT0912,1,KTQ2.8,FDA280,5.5,1322,B
39XT0913,3,KTH2.8,ADA280,5.5,1322,B
39XT0913,3,KTH3.15,ADA315,5.5,1322,B
39XT0913,2,KTH2.8,BC280,5.5,1322,A
39XT0913,2,KTH3.15,BC315,5.5,1322,A
39XT0913,2,KTH2.8,BDB280,5.5,1322,B
39XT0913,2,KTH3.15,BDB315,5.5,1322,B
39XT0913,1,KTQ2.8,FC280,5.5,1322,A
39XT0913,1,KTQ3.15,FC315,5.5,1322,A
39XT0913,1,KTQ2.8,FDA280,5.5,1322,B
39XT0913,1,KTQ3.15,FDA315,5.5,1322,B
39XT0914,3,KTH3.15,ADA315,5.5,1322,B
39XT0914,3,KTH3.55,ADA355,5.5,1322,B
39XT0914,2,KTH3.15,BC315,5.5,1322,A
39XT0914,2,KTH3.55,BC355,5.5,1322,A
39XT0914,2,KTH3.15,BDB315,5.5,1322,B
39XT0914,2,KTH3.55,BDB355,5.5,1322,B
39XT0914,1,KTQ3.15,FC315,5.5,1322,A
39XT0914,1,KTQ3.55,FC355,5.5,1322,A
39XT0914,1,KTQ3.15,FDA315,5.5,1322,B
39XT0914,1,KTQ3.55,FDA355,5.5,1322,B
39XT1015,3,KTH3.55,ADA355,7.5,1322,B
39XT1015,3,KTH4.0,ADA400,7.5,1325,B
39XT1015,2,KTH3.55,BC355,7.5,1322,A
39XT1015,2,KTH4.0,BC400,7.5,1325,A
39XT1015,2,KTH3.55,BDB355,7.5,1322,B
39XT1015,2,KTH4.0,BDB400,7.5,1325,B
39XT1015,1,KTQ3.55,FC355,5.5,1322,A
39XT1015,1,KTQ4.0,FC400,7.5,1325,A
39XT1015,1,KTQ3.55,FDA355,5.5,1322,B
39XT1015,1,KTQ4.0,FDA400,7.5,1325,B
39XT1117,3,KTH4.0,ADA400,11,1325,B
39XT1117,3,KTH4.5,ADA450,11,1605,B
39XT1117,2,KTH4.0,BC400,11,1325,A
39XT1117,2,KTH4.5,BC450,11,1605,A
39XT1117,2,KTH4.0,BDB400,11,1325,B
39XT1117,2,KTH4.5,BDB450,11,1605,B
39XT1117,1,KTQ4.0,FC400,11,1325,A
39XT1117,1,KTQ4.5,FC450,11,1605,A
39XT1117,1,KTQ4.0,FDA400,11,1325,B
39XT1117,1,KTQ4.5,FDA450,11,1605,B
39XT1317,3,KTH4.0,ADA400,15,1325,B
39XT1317,3,KTH4.5,ADA450,15,1608,B
39XT1317,2,KTH4.0,BC400,15,1325,A
39XT1317,2,KTH4.5,BC450,15,1608,A
39XT1317,2,KTH4.0,BDB400,15,1325,B
39XT1317,2,KTH4.5,BDB450,15,1608,B
39XT1317,1,KTQ4.0,FC400,15,1325,A
39XT1317,1,KTQ4.5,FC450,15,1608,A
39XT1317,1,KTQ4.0,FDA400,15,1325,B
39XT1317,1,KTQ4.5,FDA450,15,1608,B
39XT1418,3,KTH4.5,ADA450,15,1608,B
39XT1418,3,KTH5.0,ADA500,15,1608,B
39XT1418,2,KTH4.5,BC450,15,1608,A
39XT1418,2,KTH5.0,BC500,15,1608,A
39XT1418,2,KTH4.5,BDB450,15,1608,B
39XT1418,2,KTH5.0,BDB500,15,1608,B
39XT1418,1,KTQ4.5,FC450,15,1608,A
39XT1418,1,KTQ5.0,FC500,15,1608,A
39XT1418,1,KTQ4.5,FDA450,15,1608,B
39XT1418,1,KTQ5.0,FDA500,15,1608,B
39XT1420,3,KTH5.0,ADA500,18.5,1608,B
39XT1420,3,KTH5.6,ADA560,18.5,1805,B
39XT1420,2,KTH5.0,BC500,18.5,1608,A
39XT1420,2,KTH5.6,BC560,18.5,1805,A
39XT1420,2,KTH5.0,BDB500,18.5,1608,B
39XT1420,2,KTH5.6,BDB560,18.5,1805,B
39XT1420,1,KTQ5.0,FC500,18.5,1608,A
39XT1420,1,KTQ5.6,FC560,18.5,1805,A
39XT1420,1,KTQ5.0,FDA500,18.5,1608,B
39XT1420,1,KTQ5.6,FDA560,18.5,1805,B
39XT1621,3,KTH5.6,ADA560,18.5,1805,B
39XT1621,3,KTH6.3,ADA630,18.5,1805,B
39XT1621,2,KTH5.6,BC560,18.5,1805,A
39XT1621,2,KTH6.3,BC630,18.5,1805,A
39XT1621,2,KTH5.6,BDB560,18.5,1805,B
39XT1621,2,KTH6.3,BDB630,18.5,1805,B
39XT1621,1,KTQ5.6,FC560,18.5,1805,A
39XT1621,1,KTQ6.3,FC630,18.5,1805,A
39XT1621,1,KTQ5.6,FDA560,18.5,1805,B
39XT1621,1,KTQ6.3,FDA630,18.5,1805,B
39XT1822,3,KTH5.6,ADA560,18.5,1805,B
39XT1822,3,KTH6.3,ADA630,18.5,1805,B
39XT1822,2,KTH5.6,BC560,18.5,1805,A
39XT1822,2,KTH6.3,BC630,18.5,1805,A
39XT1822,2,KTH5.6,BDB560,18.5,1805,B
39XT1822,2,KTH6.3,BDB630,18.5,1805,B
39XT1822,1,KTQ5.6,FC560,18.5,1805,A
39XT1822,1,KTQ6.3,FC630,18.5,1805,A
39XT1822,1,KTQ5.6,FDA560,18.5,1805,B
39XT1822,1,KTQ6.3,FDA630,18.5,1805,B
39XT1825,3,KTH6.3,ADA630,30,1808,B
39XT1825,3,KTH7.1,ADA710,30,2008,B
39XT1825,2,KTH6.3,BC630,30,1808,A
39XT1825,2,KTH7.1,BC710,30,2008,A
39XT1825,2,KTH6.3,BDB630,30,1808,B
39XT1825,2,KTH7.1,BDB710,30,2008,B
39XT1825,1,KTQ6.3,FC630,30,1808,A
39XT1825,1,KTQ7.1,FC710,30,2008,A
39XT1825,1,KTQ6.3,FDA630,30,1808,B
39XT1825,1,KTQ7.1,FDA710,30,2008,B
39XT2025,3,KTH6.3,ADA630,30,1808,B
39XT2025,3,KTH7.1,ADA710,30,2008,B
39XT2025,2,KTH6.3,BC630,30,1808,A
39XT2025,2,KTH7.1,BC710,30,2008,A
39XT2025,2,KTH6.3,BDB630,30,1808,B
39XT2025,2,KTH7.1,BDB710,30,2008,B
39XT2025,1,KTQ6.3,FC630,30,1808,A
39XT2025,1,KTQ7.1,FC710,30,2008,A
39XT2025,1,KTQ6.3,FDA630,30,1808,B
39XT2025,1,KTQ7.1,FDA710,30,2008,B
39XT2125,3,KTH7.1,ADA710,30,2008,B
39XT2125,3,KTH8.0,ADA800,30,2008,B
39XT2125,2,KTH7.1,BC710,30,2008,A
39XT2125,2,KTH8.0,BC800,30,2008,A
39XT2125,2,KTH7.1,BDB710,30,2008,B
39XT2125,2,KTH8.0,BDB800,30,2008,B
39XT2125,1,KTQ7.1,FC710,30,2008,A
39XT2125,1,KTQ8.0,FC800,30,2008,A
39XT2125,1,KTQ7.1,FDA710,30,2008,B
39XT2125,1,KTQ8.0,FDA800,30,2008,B
39XT2226,3,KTH7.1,ADA710,30,2008,B
39XT2226,3,KTH8.0,ADA800,30,2008,B
39XT2226,2,KTH7.1,BC710,30,2008,A
39XT2226,2,KTH8.0,BC800,30,2008,A
39XT2226,2,KTH7.1,BDB710,30,2008,B
39XT2226,2,KTH8.0,BDB800,30,2008,B
39XT2226,1,KTQ7.1,FC710,30,2008,A
39XT2226,1,KTQ8.0,FC800,30,2008,A
39XT2226,1,KTQ7.1,FDA710,30,2008,B
39XT2226,1,KTQ8.0,FDA800,30,2008,B
39XT2328,3,KTH8.0,ADA800,37,2008,B
39XT2328,3,KTH9.0,ADA900,37,2252,B
39XT2328,2,KTH8.0,BC800,37,2008,A
39XT2328,2,KTH9.0,BC900,37,2252,A
39XT2328,2,KTH8.0,BDB800,37,2008,B
39XT2328,2,KTH9.0,BDB900,37,2252,B
39XT2328,1,KTQ8.0,FC800,37,2008,A
39XT2328,1,KTQ9.0,FC900,37,2252,A
39XT2328,1,KTQ8.0,FDA800,37,2008,B
39XT2328,1,KTQ9.0,FDA900,37,2252,B
39XT2330,3,KTH8.0,ADA800,37,2008,B
39XT2330,3,KTH9.0,ADA900,37,2252,B
39XT2330,2,KTH8.0,BC800,37,2008,A
39XT2330,2,KTH9.0,BC900,37,2252,A
39XT2330,2,KTH8.0,BDB800,37,2008,B
39XT2330,2,KTH9.0,BDB900,37,2252,B
39XT2330,1,KTQ8.0,FC800,37,2008,A
39XT2330,1,KTQ9.0,FC900,37,2252,A
39XT2330,1,KTQ8.0,FDA800,37,2008,B
39XT2330,1,KTQ9.0,FDA900,37,2252,B
39XT2333,3,KTH8.0,ADA800,45,2008,B
39XT2333,3,KTH9.0,ADA900,45,2255,B
39XT2333,2,KTH8.0,BC800,45,2008,A
39XT2333,2,KTH9.0,BC900,45,2255,A
39XT2333,2,KTH8.0,BDB800,45,2008,B
39XT2333,2,KTH9.0,BDB900,45,2255,B
39XT2333,1,KTQ8.0,FC800,45,2008,A
39XT2333,1,KTQ9.0,FC900,45,2255,A
39XT2333,1,KTQ8.0,FDA800,45,2008,B
39XT2333,1,KTQ9.0,FDA900,45,2255,B
39XT2532,2,KTH10.0,BDB1000,90,3000,B
39XT2532,2,KTH9.0,BDB900,45,3000,B
39XT2532,1,KTH10.0,FDA1000,90,3000,B
39XT2532,1,KTH9.0,FDA900,45,3000,B
39XT2532,2,KHF1000,KHF1000,90,3000,A
39XT2532,2,KHF900,KHF900,45,3000,A
39XT2832,2,KTH10.0,BDB1000,90,3000,B
39XT2832,2,KTH11.2,BDB1120,90,3000,B
39XT2832,1,KTH10.0,FDA1000,90,3000,B
39XT2832,1,KTH11.2,FDA1120,90,3000,B
39XT2832,2,KHF1000,KHF1000,90,3000,A
39XT2832,2,KHF1120,KHF1120,90,3000,A
39XT3132,2,KTH10.0,BDB1000,90,3000,B
39XT3132,2,KTH11.2,BDB1120,90,3000,B
39XT3132,1,KTH10.0,FDA1000,90,3000,B
39XT3132,1,KTH11.2,FDA1120,90,3000,B
39XT3132,2,KHF1000,KHF1000,90,3000,A
39XT3132,2,KHF1120,KHF1120,90,3000,A
39XT3438,2,KTH12.5,BDB1250,90,3000,B
39XT3438,1,KTH12.5,FDA1250,90,3000,B
39XT3438,2,KHF1250,KHF1250,90,3000,A
39XT3841,2,KTH12.5,BDB1250,132,3000,B
39XT3841,2,KTH14.0,BDB1400,132,3000,B
39XT3841,1,KTH12.5,FDA1250,132,3000,B
39XT3841,1,KTH14.0,FDA1400,132,3000,B
39XT3841,2,KHF1250,KHF1250,132,3000,A
39XT3841,2,KHF1400,KHF1400,132,3000,A
39XT4444,2,KTH14.0,BDB1400,132,3000,B
39XT4444,1,KTH14.0,FDA1400,132,3000,B
39XT4444,2,KHF1400,KHF1400,132,3000,A
39XT4750,2,KHF16.0,BDB1600,132,3000,B
39XT4750,1,KHF16.0,FDA1600,132,3000,B
39XT4750,2,KHF1600,KHF1600,132,3000,A
39XT4751,2,KTH14.0,BDB1400,132,3000,B
39XT4751,1,KTH14.0,FDA1400,132,3000,B
39XT4751,2,KHF1400,KHF1400,132,3000,A
39CQ2435,3,KTH9.0,ADA900,45,2255,B
39CQ2435,3,KTH10.0,ADA1000,45,3000,B
39CQ2435,2,KTH9.0,BC900,45,2255,A
39CQ2435,2,KTH10.0,BC1000,45,3000,A
39CQ2435,2,KTH9.0,BDB900,45,2255,B
39CQ2435,2,KTH10.0,BDB1000,45,3000,B
39CQ2435,1,KTQ9.0,FC900,45,2255,A
39CQ2435,1,KTQ10.0,FC1000,45,3000,A
39CQ2435,1,KTQ9.0,FDA900,45,2255,B
39CQ2435,1,KTQ10.0,FDA1000,45,3000,B
39CQ2635,3,KTH9.0,ADA900,45,2255,B
39CQ2635,3,KTH10.0,ADA1000,45,3000,B
39CQ2635,2,KTH9.0,BC900,45,2255,A
39CQ2635,2,KTH10.0,BC1000,45,3000,A
39CQ2635,2,KTH9.0,BDB900,45,2255,B
39CQ2635,2,KTH10.0,BDB1000,45,3000,B
39CQ2635,1,KTQ9.0,FC900,45,2255,A
39CQ2635,1,KTQ10.0,FC1000,45,3000,A
39CQ2635,1,KTQ9.0,FDA900,45,2255,B
39CQ2635,1,KTQ10.0,FDA1000,45,3000,B
39CQ2735,3,KTH9.0,ADA900,75,2255,B
39CQ2735,3,KTH10.0,ADA1000,75,3000,B
39CQ2735,2,KTH9.0,BC900,75,2255,A
39CQ2735,2,KTH10.0,BC1000,75,3000,A
39CQ2735,2,KTH9.0,BDB900,75,2255,B
39CQ2735,2,KTH10.0,BDB1000,75,3000,B
39CQ2735,1,KTQ9.0,FC900,75,2255,A
39CQ2735,1,KTQ10.0,FC1000,75,3000,A
39CQ2735,1,KTQ9.0,FDA900,75,2255,B
39CQ2735,1,KTQ10.0,FDA1000,75,3000,B
