power,level,machineSiteNo,a,b,c,s,motorType
0.37,6,Y80M1,364,342,373,342,D
0.55,4,Y80M1,364,342,373,342,D
0.55,6,Y80M2,364,342,373,342,D
0.75,2,Y80M1,364,342,373,342,D
0.75,4,Y80M2,364,342,373,342,D
0.75,6,Y90S,385,390,452,385,D
1.1,2,Y80M2,364,342,373,342,D
1.1,4,Y90S,385,390,452,385,D
1.1,6,Y90L,410,415,477,410,D
1.5,2,Y90S,385,390,452,385,D
1.5,4,Y90L,410,415,477,410,D
1.5,6,Y100L,460,450,491,466.5,D
11,2,Y160M1,680,643,713,665,D
11,4,Y160M,680,643,713,665,D
11,6,Y160L,725,698,757,725,D
110,2,Y315S,1300,1315,1451,1229.5,D
110,4,Y315S,1300,1315,1451,1229.5,D
110,6,Y315L1,1410,1425,1601,1409.5,D
132,2,Y315M1,1410,1425,1501,1409.5,D
132,4,Y315M1,1410,1425,1501,1409.5,D
132,6,Y315L2,1410,1425,1601,1409.5,D
15,2,Y160M2,680,643,713,665,D
15,4,Y160L,725,698,757,725,D
15,6,Y180L,785,760,829,748.5,D
160,2,Y315L1,1410,1425,1601,1409.5,D
160,4,Y315L1,1410,1425,1601,1409.5,D
160,6,Y355M1,1655,1582,1810,1585,D
18.5,2,Y160L,725,698,757,725,D
18.5,4,Y180M,745,720,791,713.5,D
18.5,6,Y200L1,845,836,880,832,D
2.2,2,Y90L,410,415,477,410,D
2.2,4,Y100L1,460,450,491,466.5,D
2.2,6,Y112M,465,459,494.5,480.5,D
200,2,Y315L2,1410,1425,1601,1409.5,D
200,4,Y315L2,1410,1425,1601,1409.5,D
200,6,Y355M2,1655,1582,1810,1585,D
22,2,Y180M,745,720,791,713.5,D
22,4,Y180L,785,760,829,748.5,D
22,6,Y200L2,845,836,880,832,D
3,2,Y100L,460,450,491,466.5,D
3,4,Y100L2,460,450,491,466.5,D
3,6,Y132S,530,525,587,551,D
30,2,Y200L1,845,836,880,832,D
30,4,Y200L,845,836,880,832,D
30,6,Y225M,900,922,1013,903.5,D
37,2,Y200L2,845,836,880,832,D
37,4,Y225S,880,892,968,878.5,D
37,6,Y250M,1005,989,1086,980.5,D
4,2,Y112M,465,459,494.5,480.5,D
4,4,Y112M,465,459,494.5,480.5,D
4,6,Y132M1,570,565,625,596,D
45,2,Y225M,900,922,1013,903.5,D
45,4,Y225M,900,922,1013,903.5,D
45,6,Y280S,1115,1118,1272.5,1084,D
5.5,2,Y132S1,530,525,587,551,D
5.5,4,Y132S,530,525,587,551,D
5.5,6,Y132M2,570,565,625,596,D
55,2,Y250M,1005,989,1086,980.5,D
55,4,Y250M,1005,989,1086,980.5,D
55,6,Y280M,1165,1168,1322.5,1135,D
7.5,2,Y132S2,530,525,587,551,D
7.5,4,Y132M,570,565,625,596,D
7.5,6,Y160M,680,643,713,665,D
75,2,Y280S,1115,1118,1272.5,1084,D
75,4,Y280S,1115,1118,1272.5,1084,D
75,6,Y315S,1300,1315,1451,1229.5,D
90,2,Y280M,1165,1168,1322.5,1135,D
90,4,Y280M,1165,1168,1322.5,1135,D
90,6,Y315M1,1410,1425,1501,1409.5,D
0.37,6,Y80M1,321,300,293,288,A
0.55,4,Y80M1,321,300,293,288,A
0.55,6,Y80M2,321,300,293,288,A
0.75,2,Y80M1,321,300,293,288,A
0.75,4,Y80M2,321,300,293,288,A
0.75,6,Y90S,357,350,344.5,316,A
1.1,2,Y80M2,321,300,293,288,A
1.1,4,Y90S,357,350,344.5,316,A
1.1,6,Y90L,357,380,369.5,341,A
1.5,2,Y90S,357,350,344.5,316,A
1.5,4,Y90L,357,380,369.5,341,A
1.5,6,Y100L,381,430,392,390,A
11,2,Y160M1,584,620,608,614,A
11,4,Y160M,584,620,608,614,A
11,6,Y160L,584,665,652,674,A
110,2,Y315S,1216,1220,1246,1113,A
110,4,Y315S,1216,1220,1246,1143,A
110,6,Y315L1,1330,1330,1396,1323,A
132,2,Y315M1,1216,1330,1296,1293,A
132,4,Y315M1,1216,1330,1296,1323,A
132,6,Y315L2,1330,1330,1396,1323,A
15,2,Y160M2,584,620,608,614,A
15,4,Y160L,584,665,652,674,A
15,6,Y180L,681,745,710,718,A
160,2,Y315L1,1330,1330,1396,1293,A
160,4,Y315L1,1330,1330,1396,1323,A
160,6,Y355M1,1399,1530,1605,1520,A
18.5,2,Y160L,584,665,652,674,A
18.5,4,Y180M,681,710,672,683,A
18.5,6,Y200L1,726,770,770,772,A
2.2,2,Y90L,357,380,369.5,341,A
2.2,4,Y100L1,381,430,392,390,A
2.2,6,Y112M,403,465,412.5,395,A
200,2,Y315L2,1330,1330,1396,1293,A
200,4,Y315L2,1330,1330,1396,1323,A
200,6,Y355M2,1399,1530,1605,1520,A
22,2,Y180M,681,710,672,683,A
22,4,Y180L,681,745,710,718,A
22,6,Y200L2,726,770,770,772,A
3,2,Y100L,381,430,392,390,A
3,4,Y100L2,381,430,392,390,A
3,6,Y132S,533,470,466,480,A
30,2,Y200L1,726,770,770,772,A
30,4,Y200L,726,770,770,772,A
30,6,Y225M,821,840,841,845,A
37,2,Y200L2,726,770,770,772,A
37,4,Y225S,821,815,816,820,A
37,6,Y250M,879,840,921,917,A
4,2,Y112M,403,465,412.5,395,A
4,4,Y112M,403,465,412.5,395,A
4,6,Y132M1,533,510,504,525,A
45,2,Y225M,821,840,841,815,A
45,4,Y225M,821,840,841,845,A
45,6,Y280S,982,920,1037.5,976,A
5.5,2,Y132S1,533,470,466,480,A
5.5,4,Y132S,533,470,466,480,A
5.5,6,Y132M2,533,510,504,525,A
55,2,Y250M,879,840,921,917,A
55,4,Y250M,879,840,921,917,A
55,6,Y280M,1052,1010,1087.5,1027,A
7.5,2,Y132S2,533,470,466,480,A
7.5,4,Y132M,533,510,504,525,A
7.5,6,Y160M,584,620,608,614,A
75,2,Y280S,982,920,1037.5,976,A
75,4,Y280S,982,920,1037.5,976,A
75,6,Y315S,1216,1220,1246,1143,A
90,2,Y280M,1052,1010,1087.5,1027,A
90,4,Y280M,1052,1010,1087.5,1027,A
90,6,Y315M1,1216,1330,1296,1323,A
