brand,wheelDia,wheelType
DRI,500,57
DRI,600,58
DRI,700,59
DRI,800,60
DRI,900,61
DRI,1000,62
DRI,1100,63
DRI,1200,64
DRI,1300,65
DRI,1400,66
DRI,1500,67
DRI,1600,68
DRI,1700,69
DRI,1800,70
DRI,1900,71
DRI,2000,72
DRI,2200,74
DRI,2400,75
DRI,2600,76
DRI,2800,77
DRI,3000,78
DRI,3200,79
DRI,3400,80
HeatX,600,58
HeatX,700,59
HeatX,800,60
HeatX,900,61
HeatX,1000,62
HeatX,1050,63
HeatX,1100,64
HeatX,1150,65
HeatX,1200,66
HeatX,1250,67
HeatX,1300,68
HeatX,1400,69
HeatX,1500,70
HeatX,1650,71
HeatX,1750,72
HeatX,1950,73
HeatX,2050,74
HeatX,2300,75
HeatX,2400,76
HeatX,2600,77
HeatX,2750,78
HeatX,3000,79
HeatX,3050,80
HeatX,3200,81
