gl,js,fhdj,jjdj,partNo,supplier,memo,tp,oldPrice,supplierNo
15,2,IP54,F,Y160M22F54MA,a,d,4255,2481,
18.5,2,IP54,F,Y160L02F54MA,a,d,4627,2699,
22,2,IP54,F,Y180M02F54MA,a,d,5788,3514,
30,2,IP54,F,Y200L12F54MA,a,d,8266,0,
37,2,IP54,F,Y200L22F54MA,a,d,9129,0,
45,2,IP54,F,Y225M02F54MA,a,d,11847,0,
55,2,IP54,F,Y250M02F54MA,a,d,15303,0,
75,2,IP54,F,Y280S02F54MA,a,d,19783,0,
90,2,IP54,F,Y280M02F54MA,a,d,21648,0,
110,2,IP54,F,Y315S02F54MA,a,d,41757,0,
0.55,4,IP54,F,Y080014F54MA,a,d,696,389,
0.75,4,IP54,F,Y080024F54MA,a,d,740,412,
1.1,4,IP54,F,Y090S04F54MA,a,d,863,481,
1.5,4,IP54,F,Y090L04F54MA,a,d,907,506,
2.2,4,IP54,F,Y100L14F54MA,a,d,1149,643,
3,4,IP54,F,Y100L24F54MA,a,d,1269,710,
4,4,IP54,F,Y112M04F54MA,a,d,1572,897,
5.5,4,IP54,F,Y132S04F54MA,a,d,2132,1215,
7.5,4,IP54,F,Y132M04F54MA,a,d,2419,1379,
11,4,IP54,F,Y160M04F54MA,a,d,3820,2229,
15,4,IP54,F,Y160L04F54MA,a,d,4418,2575,
18.5,4,IP54,F,Y180M04F54MA,a,d,5480,3198,
22,4,IP54,F,Y180L04F54MA,a,d,5851,3414,
30,4,IP54,F,Y200L04F54MA,a,d,8237,4496,
37,4,IP54,F,Y225S04F54MA,a,d,10167,5549,
45,4,IP54,F,Y225M04F54MA,a,d,11372,6207,
55,4,IP54,F,Y250M04F54MA,a,d,14096,7693,
75,4,IP54,F,Y280S04F54MA,a,d,19194,10071,
90,4,IP54,F,Y280M04F54MA,a,d,21771,11424,
110,4,IP54,F,Y315S04F54MA,a,d,33862,18614,
0.75,6,IP54,F,Y090S06F54MA,a,d,847,473,
1.1,6,IP54,F,Y090L06F54MA,a,d,907,506,
1.5,6,IP54,F,Y100L06F54MA,a,d,1209,676,
2.2,6,IP54,F,Y112M06F54MA,a,d,1543,859,
3,6,IP54,F,Y132S06F54MA,a,d,2132,1191,
4,6,IP54,F,Y132M16F54MA,a,d,2343,1336,
5.5,6,IP54,F,Y132M26F54MA,a,d,2555,1456,
7.5,6,IP54,F,Y160M06F54MA,a,d,3820,2042,
11,6,IP54,F,Y160L06F54MA,a,d,4418,2575,
15,6,IP54,F,Y180L06F54MA,a,d,5851,3414,
18.5,6,IP54,F,Y200L16F54MA,a,d,7824,4268,
22,6,IP54,F,Y200L26F54MA,a,d,8615,4718,
30,6,IP54,F,Y225M06F54MA,a,d,11339,6188,
37,6,IP54,F,Y250M06F54MA,a,d,13958,7618,
45,6,IP54,F,Y280S06F54MA,a,d,17369,9480,
55,6,IP54,F,Y280M06F54MA,a,d,19745,10778,
75,6,IP54,F,Y315S06F54MA,a,d,37531,19691,
2.2,8,IP54,F,Y132S08F54MA,a,d,2298,1191,
3,8,IP54,F,Y132M08F54MA,a,d,2419,1351,
4,8,IP54,F,Y160M18F54MA,a,d,3675,1967,
5.5,8,IP54,F,Y160M28F54MA,a,d,4046,2163,
7.5,8,IP54,F,Y160L08F54MA,a,d,4418,2361,
11,8,IP54,F,Y180L08F54MA,a,d,5851,3414,
15,8,IP54,F,Y200L08F54MA,a,d,8151,4439,
18.5,8,IP54,F,Y225S08F54MA,a,d,10029,5455,
22,8,IP54,F,Y250M08F54MA,a,d,11235,6132,
30,8,IP54,F,Y280S08F54MA,a,d,13958,7618,
37,8,IP54,F,Y280M08F54MA,a,d,17369,9480,
0.75,2,IP55,F,Y080012F55MA,a,d,711,416,
1.1,2,IP55,F,Y080022F55MA,a,d,787,461,
1.5,2,IP55,F,Y090S02F55MA,a,d,892,523,
2.2,2,IP55,F,Y090L02F55MA,a,d,938,548,
3,2,IP55,F,Y100L02F55MA,a,d,1269,746,
4,2,IP55,F,Y112M02F55MA,a,d,1587,951,
5.5,2,IP55,F,Y132S12F55MA,a,d,2132,1276,
7.5,2,IP55,F,Y132S22F55MA,a,d,2343,1402,
11,2,IP55,F,Y160M12F55MA,a,d,3820,2340,
15,2,IP55,F,Y160M22F55MA,a,d,4255,2605,
18.5,2,IP55,F,Y160L02F55MA,a,d,4627,2834,
22,2,IP55,F,Y180M02F55MA,a,d,5788,3690,
30,2,IP55,F,Y200L12F55MA,a,d,8266,0,
37,2,IP55,F,Y200L22F55MA,a,d,9129,0,
45,2,IP55,F,Y225M02F55MA,a,d,11847,0,
55,2,IP55,F,Y250M02F55MA,a,d,15303,0,
75,2,IP55,F,Y280S02F55MA,a,d,19783,0,
90,2,IP55,F,Y280M02F55MA,a,d,21648,0,
110,2,IP55,F,Y315S02F55MA,a,d,41757,0,
0.55,4,IP55,F,Y080014F55MA,a,d,696,408,
0.75,4,IP55,F,Y080024F55MA,a,d,740,433,
1.1,4,IP55,F,Y090S04F55MA,a,d,863,505,
1.5,4,IP55,F,Y090L04F55MA,a,d,907,532,
2.2,4,IP55,F,Y100L14F55MA,a,d,1149,675,
3,4,IP55,F,Y100L24F55MA,a,d,1269,746,
4,4,IP55,F,Y112M04F55MA,a,d,1572,941,
5.5,4,IP55,F,Y132S04F55MA,a,d,2132,1276,
7.5,4,IP55,F,Y132M04F55MA,a,d,2419,1448,
11,4,IP55,F,Y160M04F55MA,a,d,3820,2340,
15,4,IP55,F,Y160L04F55MA,a,d,4418,2704,
18.5,4,IP55,F,Y180M04F55MA,a,d,5480,3358,
22,4,IP55,F,Y180L04F55MA,a,d,5851,3585,
30,4,IP55,F,Y200L04F55MA,a,d,8237,4720,
37,4,IP55,F,Y225S04F55MA,a,d,10167,5826,
45,4,IP55,F,Y225M04F55MA,a,d,11372,6518,
55,4,IP55,F,Y250M04F55MA,a,d,14096,8078,
75,4,IP55,F,Y280S04F55MA,a,d,19194,10575,
90,4,IP55,F,Y280M04F55MA,a,d,21771,11995,
110,4,IP55,F,Y315S04F55MA,a,d,33862,19545,
0.75,6,IP55,F,Y090S06F55MA,a,d,847,497,
1.1,6,IP55,F,Y090L06F55MA,a,d,907,532,
1.5,6,IP55,F,Y100L06F55MA,a,d,1209,709,
2.2,6,IP55,F,Y112M06F55MA,a,d,1543,902,
3,6,IP55,F,Y132S06F55MA,a,d,2132,1251,
4,6,IP55,F,Y132M16F55MA,a,d,2343,1402,
5.5,6,IP55,F,Y132M26F55MA,a,d,2555,1529,
7.5,6,IP55,F,Y160M06F55MA,a,d,3820,2145,
11,6,IP55,F,Y160L06F55MA,a,d,4418,2704,
15,6,IP55,F,Y180L06F55MA,a,d,5851,3585,
18.5,6,IP55,F,Y200L16F55MA,a,d,7824,4482,
22,6,IP55,F,Y200L26F55MA,a,d,8615,4954,
30,6,IP55,F,Y225M06F55MA,a,d,11339,6498,
37,6,IP55,F,Y250M06F55MA,a,d,13958,7999,
45,6,IP55,F,Y280S06F55MA,a,d,17369,9954,
55,6,IP55,F,Y280M06F55MA,a,d,19745,11317,
75,6,IP55,F,Y315S06F55MA,a,d,37531,20675,
2.2,8,IP55,F,Y132S08F55MA,a,d,2298,1251,
3,8,IP55,F,Y132M08F55MA,a,d,2419,1419,
4,8,IP55,F,Y160M18F55MA,a,d,3675,2066,
5.5,8,IP55,F,Y160M28F55MA,a,d,4046,2271,
7.5,8,IP55,F,Y160L08F55MA,a,d,4418,2479,
11,8,IP55,F,Y180L08F55MA,a,d,5851,3585,
15,8,IP55,F,Y200L08F55MA,a,d,8151,4661,
18.5,8,IP55,F,Y225S08F55MA,a,d,10029,5728,
22,8,IP55,F,Y250M08F55MA,a,d,11235,6439,
30,8,IP55,F,Y280S08F55MA,a,d,13958,7999,
37,8,IP55,F,Y280M08F55MA,a,d,17369,9954,
0.75,2,IP55,F,Y080012B54MFB,a,b,1947,416,
1.1,2,IP55,F,Y080022B54MFB,a,b,2033,461,
1.5,2,IP55,F,Y090S02B54MFB,a,b,2315,523,
2.2,2,IP55,F,Y090L02B54MFB,a,b,2584,548,
3,2,IP55,F,Y100L02B54MFB,a,b,3307,746,
4,2,IP55,F,Y112M02B54MFB,a,b,4127,951,
5.5,2,IP55,F,Y132S12B54MFB,a,b,5547,1276,
7.5,2,IP55,F,Y132S22B54MFB,a,b,6087,1402,
11,2,IP55,F,Y160M12B54MFB,a,b,8756,2340,
15,2,IP55,F,Y160M22B54MFB,a,b,9760,2605,
18.5,2,IP55,F,Y160L02B54MFB,a,b,10605,2834,
22,2,IP55,F,Y180M02B54MFB,a,b,13263,3690,
30,2,IP55,F,Y200L12B54MFB,a,b,17770,0,
37,2,IP55,F,Y200L22B54MFB,a,b,19643,0,
45,2,IP55,F,Y225M02B54MFB,a,b,25497,0,
55,2,IP55,F,Y250M02B54MFB,a,b,33714,0,
75,2,IP55,F,Y280S02B54MFB,a,b,41699,0,
90,2,IP55,F,Y280M02B54MFB,a,b,47797,0,
110,2,IP55,F,Y315S02B54MFB,a,b,82168,0,
130,2,IP55,F,,a,b,86697,0,
160,2,IP55,F,,a,b,89910,0,
200,2,IP55,F,,a,b,98885,0,
250,2,IP55,F,,a,b,150878,0,
315,2,IP55,F,,a,b,174090,0,
0.55,4,IP55,F,Y080014B55MFB,a,b,1886,408,
0.75,4,IP55,F,Y080024B55MFB,a,b,1996,433,
1.1,4,IP55,F,Y090S04B55MFB,a,b,2315,505,
1.5,4,IP55,F,Y090L04B55MFB,a,b,2498,532,
2.2,4,IP55,F,Y100L14B55MFB,a,b,3073,675,
3,4,IP55,F,Y100L24B55MFB,a,b,3490,746,
4,4,IP55,F,Y112M04B55MFB,a,b,4188,941,
5.5,4,IP55,F,Y132S04B55MFB,a,b,5547,1276,
7.5,4,IP55,F,Y132M04B55MFB,a,b,6406,1448,
11,4,IP55,F,Y160M04B55MFB,a,b,8756,2340,
15,4,IP55,F,Y160L04B55MFB,a,b,10128,2704,
18.5,4,IP55,F,Y180M04B55MFB,a,b,12700,3358,
22,4,IP55,F,Y180L04B55MFB,a,b,13556,3585,
30,4,IP55,F,Y200L04B55MFB,a,b,17855,4720,
37,4,IP55,F,Y225S04B55MFB,a,b,22032,5826,
45,4,IP55,F,Y225M04B55MFB,a,b,24395,6518,
55,4,IP55,F,Y250M04B55MFB,a,b,31988,8078,
75,4,IP55,F,Y280S04B55MFB,a,b,40204,10575,
90,4,IP55,F,Y280M04B55MFB,a,b,45605,11995,
110,4,IP55,F,Y315S04B55MFB,a,b,44926,19545,
130,4,IP55,F,,a,b,50316,0,
160,4,IP55,F,,a,b,58779,0,
200,4,IP55,F,,a,b,64650,0,
250,4,IP55,F,,a,b,92689,0,
315,4,IP55,F,,a,b,107711,0,
0.37,6,IP55,F,,a,b,1923,0,
0.55,6,IP55,F,,a,b,2046,0,
0.75,6,IP55,F,Y090S06B55MFB,a,b,2327,497,
1.1,6,IP55,F,Y090L06B55MFB,a,b,2498,532,
1.5,6,IP55,F,Y100L06B55MFB,a,b,3147,709,
2.2,6,IP55,F,Y112M06B55MFB,a,b,4004,902,
3,6,IP55,F,Y132S06B55MFB,a,b,5547,1251,
4,6,IP55,F,Y132M16B55MFB,a,b,6087,1402,
5.5,6,IP55,F,Y132M26B55MFB,a,b,6638,1529,
7.5,6,IP55,F,Y160M06B55MFB,a,b,8756,2145,
11,6,IP55,F,Y160L06B55MFB,a,b,10128,2704,
15,6,IP55,F,Y180L06B55MFB,a,b,13556,3585,
18.5,6,IP55,F,Y200L16B55MFB,a,b,16948,4482,
22,6,IP55,F,Y200L26B55MFB,a,b,18662,4954,
30,6,IP55,F,Y225M06B55MFB,a,b,24309,6498,
37,6,IP55,F,Y250M06B55MFB,a,b,31682,7999,
45,6,IP55,F,Y280S06B55MFB,a,b,39433,9954,
55,6,IP55,F,Y280M06B55MFB,a,b,44822,11317,
75,6,IP55,F,Y315S06B55MFB,a,b,78609,20675,
90,6,IP55,F,,a,b,83068,0,
110,6,IP55,F,,a,b,58497,0,
130,6,IP55,F,,a,b,64739,0,
160,6,IP55,F,,a,b,90179,0,
200,6,IP55,F,,a,b,95192,0,
250,6,IP55,F,,a,b,107711,0,
1.1,8,IP55,F,,a,b,3147,0,
1.5,8,IP55,F,,a,b,4004,0,
2.2,8,IP55,F,Y132S08B55MFB,a,b,5547,1251,
3,8,IP55,F,Y132M08B55MFB,a,b,6282,1419,
4,8,IP55,F,Y160M18B55MFB,a,b,8413,2066,
5.5,8,IP55,F,Y160M28B55MFB,a,b,9270,2271,
7.5,8,IP55,F,Y160L08B55MFB,a,b,11720,2479,
11,8,IP55,F,Y180L08B55MFB,a,b,13520,3585,
15,8,IP55,F,Y200L08B55MFB,a,b,17647,4661,
18.5,8,IP55,F,Y225S08B55MFB,a,b,21737,5728,
22,8,IP55,F,Y250M08B55MFB,a,b,24089,6439,
30,8,IP55,F,Y280S08B55MFB,a,b,31682,7999,
37,8,IP55,F,Y280M08B55MFB,a,b,39433,9954,
45,8,IP55,F,,a,b,44822,0,
55,8,IP55,F,,a,b,71812,0,
75,8,IP55,F,,a,b,83227,0,
90,8,IP55,F,,a,b,95901,0,
110,8,IP55,F,,a,b,63369,0,
0.18,6,IP55,F,,a,c,1462,0,
0.37,2,IP55,F,,a,c,1462,0,
0.25,4,IP55,F,,a,c,1462,0,
0.55,2,IP55,F,,a,c,1572,0,
0.25,6,IP55,F,,a,c,1572,0,
0.37,4,IP55,F,,a,c,1572,0,
0.37,6,IP55,F,,a,c,1629,0,
0.55,4,IP55,F,Y080014B55MBP,a,c,1593,0,
0.75,4,IP55,F,Y080024B55MBP,a,c,1646,0,
0.55,6,IP55,F,0,a,c,1729,0,
0.75,4,IP55,F,Y080024B55MBP,a,c,1686,0,
1.1,2,IP55,F,Y080022B55MBP,a,c,1726,0,
0.75,6,IP55,F,Y090S06B55MBP,a,c,1974,0,
1.1,4,IP55,F,Y090S04B55MBP,a,c,1961,0,
1.1,6,IP55,F,Y090L06B55MBP,a,c,1964,0,
1.5,2,IP55,F,Y090S02B55MBP,a,c,1964,0,
1.5,4,IP55,F,Y090L04B55MBP,a,c,2118,0,
1.5,6,IP55,F,Y100L06B55MBP,a,c,2875,0,
2.2,2,IP55,F,Y090L02B55MBP,a,c,2369,0,
2.2,4,IP55,F,Y100L14B55MBP,a,c,2817,0,
2.2,6,IP55,F,Y112M06B55MBP,a,c,3395,0,
2.2,8,IP55,F,Y132S08B55MBP,a,c,3989,0,
3,2,IP55,F,Y100L02B55MBP,a,c,2775,0,
3,4,IP55,F,Y100L24B55MBP,a,c,2930,0,
3,6,IP55,F,Y132S06B55MBP,a,c,3957,0,
3,8,IP55,F,Y132M08B55MBP,a,c,4489,0,
4,2,IP55,F,Y112M02B55MBP,a,c,3467,0,
4,4,IP55,F,Y112M04B55MBP,a,c,3523,0,
4,6,IP55,F,Y132M16B55MBP,a,c,4347,0,
4,8,IP55,F,Y160M18B55MBP,a,c,6033,0,
5.5,2,IP55,F,Y132S12B55MBP,a,c,3989,0,
5.5,4,IP55,F,Y132S04B55MBP,a,c,3989,0,
5.5,6,IP55,F,Y132M26B55MBP,a,c,4781,0,
5.5,8,IP55,F,Y160M28B55MBP,a,c,6700,0,
7.5,2,IP55,F,Y132S22B55MBP,a,c,4382,0,
7.5,4,IP55,F,Y132M04B55MBP,a,c,4610,0,
7.5,6,IP55,F,Y160M06B55MBP,a,c,6328,0,
7.5,8,IP55,F,Y160L08B55MBP,a,c,8473,0,
11,2,IP55,F,Y160M12B55MBP,a,c,6328,0,
11,4,IP55,F,Y160M04B55MBP,a,c,6328,0,
11,6,IP55,F,Y160L06B55MBP,a,c,7317,0,
11,8,IP55,F,Y180L08B55MBP,a,c,9766,0,
15,2,IP55,F,Y160M22B55MBP,a,c,7049,0,
15,4,IP55,F,Y160L04B55MBP,a,c,7316,0,
15,6,IP55,F,Y180L06B55MBP,a,c,9792,0,
15,8,IP55,F,Y200L08B55MBP,a,c,12747,0,
18.5,2,IP55,F,Y160L02B55MBP,a,c,7663,0,
18.5,4,IP55,F,Y180M04B55MBP,a,c,9174,0,
18.5,6,IP55,F,Y200L16B55MBP,a,c,12249,0,
18.5,8,IP55,F,Y225S08B55MBP,a,c,14543,0,
22,4,IP55,F,Y180L04B55MBP,a,c,9793,0,
22,6,IP55,F,Y200L26B55MBP,a,c,13488,0,
22,8,IP55,F,Y250M08B55MBP,a,c,17406,0,
30,4,IP55,F,Y200L04B55MBP,a,c,12900,0,
30,6,IP55,F,Y225M06B55MBP,a,c,17564,0,
30,8,IP55,F,Y280S08B55MBP,a,c,22365,0,
37,4,IP55,F,Y225S04B55MBP,a,c,15917,0,
37,6,IP55,F,Y250M06B55MBP,a,c,22365,0,
37,8,IP55,F,Y280M08B55MBP,a,c,27831,0,
45,4,IP55,F,Y225M04B55MBP,a,c,17624,0,
45,6,IP55,F,Y280S06B55MBP,a,c,27831,0,
45,8,IP55,F,0,a,c,31638,0,
55,4,IP55,F,Y250M04B55MBP,a,c,22404,0,
55,6,IP55,F,Y280M06B55MBP,a,c,31386,0,
55,8,IP55,F,0,a,c,50286,0,
55,6,IP55,F,Y280M06B55MBP,a,c,31386,0,
75,6,IP55,F,Y315S06B55MBP,a,c,55052,0,
75,8,IP55,F,0,a,c,58284,0,
90,4,IP55,F,Y280M04B55MBP,a,c,31937,0,
90,6,IP55,F,0,a,c,58172,0,
90,8,IP55,F,0,a,c,67156,0,
0.55,2,IP55,F,0.45/0.55-4/2P,a,a,714,0,
0.75,2,IP55,F,0.55/0.75-4/2P,a,a,758,0,
0.45,6,IP55,F,0.35/0.45-8/6P,a,a,886,0,
0.85,4,IP55,F,0.65/0.85-6/4P,a,a,886,0,
1.1,2,IP55,F,0.85/1.1-4/2P,a,a,878,0,
1.8,2,IP55,F,1.3/1.8-4/2P,a,a,949,0,
1.1,4,IP55,F,0.85/1.1-6/4P,a,a,949,0,
0.75,4,IP55,F,0.45/0.75-8/4P,a,a,949,0,
0.65,6,IP55,F,0.45/0.65-8/6P,a,a,949,0,
2.4,2,IP55,F,2/2.4-4/2P,a,a,1170,0,
1.8,4,IP55,F,1.3/1.8-6/4P,a,a,1170,0,
1.5,4,IP55,F,0.85/1.5-8/4P,a,a,1192,0,
1.1,6,IP55,F,0.75/1.1-8/6P,a,a,1192,0,
2.2,4,IP55,F,1.5/2.2-6/4P,a,a,1325,0,
3,2,IP55,F,2.4/3-4/2P,a,a,1325,0,
1.8,6,IP55,F,1.3/1.8-8/6P,a,a,1521,0,
2.8,4,IP55,F,2.2/2.8-6/4P,a,a,1521,0,
2.4,4,IP55,F,1.5/2.4-8/4P,a,a,1521,0,
4,2,IP55,F,3.3/4-4/2P,a,a,1593,0,
5.5,2,IP55,F,4.5/5.5-4/2P,a,a,2103,0,
4,4,IP55,F,3/4-6/4P,a,a,2103,0,
3.3,4,IP55,F,2.2/3.3-8/4P,a,a,2103,0,
2.4,6,IP55,F,1.8/2.4-8/6P,a,a,2103,0,
5.5,4,IP55,F,4/5.5-6/4P,a,a,2520,0,
8,2,IP55,F,6.5/8-4/2P,a,a,3058,0,
4.5,4,IP55,F,3/4.5-8/4P,a,a,3058,0,
3.7,6,IP55,F,2.6/3.7-8/6P,a,a,3058,0,
11,2,IP55,F,9/11-4/2P,a,a,4671,0,
8,4,IP55,F,6.5/8-6/4P,a,a,4671,0,
7.5,4,IP55,F,5/7.5-8/4P,a,a,4671,0,
6,6,IP55,F,4.5/6-8/6P,a,a,4671,0,
5,6,IP55,F,2.6/5-12/6P,a,a,4671,0,
14,2,IP55,F,11/14-4/2P,a,a,5403,0,
11,4,IP55,F,9/11-6/4P,a,a,5403,0,
8,6,IP55,F,6/8-8/6P,a,a,5403,0,
18.5,2,IP55,F,15/18.5-4/2P,a,a,6982,0,
14,4,IP55,F,11/14-6/4P,a,a,6982,0,
10,6,IP55,F,7.5/10-8/6P,a,a,6982,0,
22,2,IP55,F,18.5/22-4/2P,a,a,7149,0,
16,4,IP55,F,13/16-6/4P,a,a,7149,0,
12,6,IP55,F,9/12-8/6P,a,a,7149,0,
30,2,IP55,F,26/30-4/2P,a,a,9968,0,
22,4,IP55,F,18.5/22-6/4P,a,a,9968,0,
17,6,IP55,F,12/17-8/6P,a,a,9469,0,
20,6,IP55,F,15/20-8/6P,a,a,9968,0,
37,2,IP55,F,32/37-4/2P,a,a,12311,0,
28,4,IP55,F,22/28-6/4P,a,a,12145,0,
45,2,IP55,F,37/45-4/2P,a,a,13765,0,
32,4,IP55,F,26/32-6/4P,a,a,13765,0,
34,6,IP55,F,24/34-8/6P,a,a,13765,0,
52,2,IP55,F,45/52-4/2P,a,a,17063,0,
42,4,IP55,F,32/42-6/4P,a,a,17063,0,
72,2,IP55,F,60/72-4/2P,a,a,21440,0,
55,4,IP55,F,42/55-6/4P,a,a,21021,0,
82,2,IP55,F,72/82-4/2P,a,a,24329,0,
67,4,IP55,F,55/67-6/4P,a,a,23910,0,
1.1,4,IP55,F,YDT90S6403711,b,a,899,0,
1.5,4,IP55,F,YDT90L6405515,b,a,963,0,
2.2,4,IP55,F,YDT100L6407522,b,a,1284,0,
3,4,IP55,F,YDT112M64093,b,a,1638,0,
4.5,4,IP55,F,YDT132S641545,b,a,2375,0,
6,4,IP55,F,YDT132M6426,b,a,2680,0,
9,4,IP55,F,YDT160M6439,b,a,4106,0,
12,4,IP55,F,YDT160L64412,b,a,4741,0,
14,4,IP55,F,YDT180M644514,b,a,5887,0,
17,4,IP55,F,YDT180L645517,b,a,6282,0,
24,4,IP55,F,YDT200L64824,b,a,8659,0,
30,4,IP55,F,YDT225S641030,b,a,10260,0,
37,4,IP55,F,YDT225M641237,b,a,11429,0,
47,4,IP55,F,YDT250M641647,b,a,14027,0,
60,4,IP55,F,YDT280S642060,b,a,17801,0,
72,4,IP55,F,YDT280M642772,b,a,19849,0,
90,4,IP55,F,YDT315S643090,b,a,32268,0,
110,4,IP55,F,YDT315M6437110,b,a,39718,0,
132,4,IP55,F,YDT315L6445132,b,a,43956,0,
0.55,6,IP55,F,YDT90L86022055,b,a,963,0,
0.75,6,IP55,F,YDT100L86037075,b,a,1284,0,
1.1,6,IP55,F,YDT112M8605511,b,a,1638,0,
2.4,6,IP55,F,YDT132M861124,b,a,2375,0,
3.7,6,IP55,F,YDT132S861837,b,a,2680,0,
5.6,6,IP55,F,YDT160M86256,b,a,4106,0,
7.8,6,IP55,F,YDT160L86378,b,a,4741,0,
10,6,IP55,F,YDT180M864510,b,a,5887,0,
12,6,IP55,F,YDT180L865512,b,a,6282,0,
17,6,IP55,F,YDT200L186817,b,a,8659,0,
20,6,IP55,F,YDT200L2861020,b,a,10030,0,
25,6,IP55,F,YDT225M861225,b,a,11429,0,
30,6,IP55,F,YDT250M861530,b,a,14027,0,
37,6,IP55,F,YDT280S8618537,b,a,17801,0,
45,6,IP55,F,YDT280M1862245,b,a,19849,0,
55,6,IP55,F,YDT280M2862755,b,a,21835,0,
75,6,IP55,F,YDT315S863775,b,a,32268,0,
90,6,IP55,F,YDT315M864590,b,a,39718,0,
110,6,IP55,F,YDT315L8655110,b,a,43956,0,
0.75,2,IP55,F,Y080012B54MFB,c,b,840,416,
1.1,2,IP55,F,Y080022B54MFB,c,b,760,461,
1.5,2,IP55,F,Y090S02B54MFB,c,b,979,523,
2.2,2,IP55,F,Y090L02B54MFB,c,b,1118,548,
3,2,IP55,F,Y100L02B54MFB,c,b,1377,746,
4,2,IP55,F,Y112M02B54MFB,c,b,1794,951,
5.5,2,IP55,F,Y132S12B54MFB,c,b,2544,1276,
7.5,2,IP55,F,Y132S22B54MFB,c,b,2988,1402,
11,2,IP55,F,Y160M12B54MFB,c,b,4264,2340,
15,2,IP55,F,Y160M22B54MFB,c,b,4234,2605,
18.5,2,IP55,F,Y160L02B54MFB,c,b,4648,2834,
22,2,IP55,F,Y180M02B54MFB,c,b,4856,3690,
30,2,IP55,F,Y200L12B54MFB,c,b,7602,0,
37,2,IP55,F,Y200L22B54MFB,c,b,8152,0,
45,2,IP55,F,Y225M02B54MFB,c,b,10512,0,
55,2,IP55,F,Y250M02B54MFB,c,b,13764,0,
75,2,IP55,F,Y280S02B54MFB,c,b,0,0,
90,2,IP55,F,Y280M02B54MFB,c,b,47797,0,
110,2,IP55,F,Y315S02B54MFB,c,b,82168,0,
130,2,IP55,F,,c,b,86697,0,
160,2,IP55,F,,c,b,89910,0,
200,2,IP55,F,,c,b,98885,0,
250,2,IP55,F,,c,b,150878,0,
315,2,IP55,F,,c,b,174090,0,
0.55,4,IP55,F,Y080014B55MFB,c,b,797,408,
0.75,4,IP55,F,Y080024B55MFB,c,b,879,433,
1.1,4,IP55,F,Y090S04B55MFB,c,b,931,505,
1.5,4,IP55,F,Y090L04B55MFB,c,b,1067,532,
2.2,4,IP55,F,Y100L14B55MFB,c,b,1377,675,
3,4,IP55,F,Y100L24B55MFB,c,b,1506,746,
4,4,IP55,F,Y112M04B55MFB,c,b,1954,941,
5.5,4,IP55,F,Y132S04B55MFB,c,b,2590,1276,
7.5,4,IP55,F,Y132M04B55MFB,c,b,3194,1448,
11,4,IP55,F,Y160M04B55MFB,c,b,4032,2340,
15,4,IP55,F,Y160L04B55MFB,c,b,4422,2704,
18.5,4,IP55,F,Y180M04B55MFB,c,b,6118,3358,
22,4,IP55,F,Y180L04B55MFB,c,b,7615,3585,
30,4,IP55,F,Y200L04B55MFB,c,b,8013,4720,
37,4,IP55,F,Y225S04B55MFB,c,b,9461,5826,
45,4,IP55,F,Y225M04B55MFB,c,b,10604,6518,
55,4,IP55,F,Y250M04B55MFB,c,b,13063,8078,
75,4,IP55,F,Y280S04B55MFB,c,b,14988,10575,
90,4,IP55,F,Y280M04B55MFB,c,b,45605,11995,
110,4,IP55,F,Y315S04B55MFB,c,b,44926,19545,
130,4,IP55,F,,c,b,50316,0,
160,4,IP55,F,,c,b,58779,0,
200,4,IP55,F,,c,b,64650,0,
250,4,IP55,F,,c,b,92689,0,
315,4,IP55,F,,c,b,107711,0,
0.37,6,IP55,F,,c,b,1923,0,
0.55,6,IP55,F,,c,b,797,0,
0.75,6,IP55,F,Y090S06B55MFB,c,b,983,497,
1.1,6,IP55,F,Y090L06B55MFB,c,b,1052,532,
1.5,6,IP55,F,Y100L06B55MFB,c,b,1150,709,
2.2,6,IP55,F,Y112M06B55MFB,c,b,1719,902,
3,6,IP55,F,Y132S06B55MFB,c,b,2814,1251,
4,6,IP55,F,Y132M16B55MFB,c,b,2891,1402,
5.5,6,IP55,F,Y132M26B55MFB,c,b,3278,1529,
7.5,6,IP55,F,Y160M06B55MFB,c,b,3585,2145,
11,6,IP55,F,Y160L06B55MFB,c,b,4449,2704,
15,6,IP55,F,Y180L06B55MFB,c,b,5422,3585,
18.5,6,IP55,F,Y200L16B55MFB,c,b,7062,4482,
22,6,IP55,F,Y200L26B55MFB,c,b,8116,4954,
30,6,IP55,F,Y225M06B55MFB,c,b,10342,6498,
37,6,IP55,F,Y250M06B55MFB,c,b,12934,7999,
45,6,IP55,F,Y280S06B55MFB,c,b,16096,9954,
55,6,IP55,F,Y280M06B55MFB,c,b,18300,11317,
75,6,IP55,F,Y315S06B55MFB,c,b,32250,20675,
90,6,IP55,F,,c,b,83068,0,
110,6,IP55,F,,c,b,58497,0,
130,6,IP55,F,,c,b,64739,0,
160,6,IP55,F,,c,b,90179,0,
200,6,IP55,F,,c,b,95192,0,
250,6,IP55,F,,c,b,107711,0,
1.1,8,IP55,F,,c,b,1271,0,
1.5,8,IP55,F,,c,b,1386,0,
2.2,8,IP55,F,Y132S08B55MFB,c,b,2093,1251,
3,8,IP55,F,Y132M08B55MFB,c,b,2509,1419,
4,8,IP55,F,Y160M18B55MFB,c,b,3526,2066,
5.5,8,IP55,F,Y160M28B55MFB,c,b,3784,2271,
7.5,8,IP55,F,Y160L08B55MFB,c,b,4015,2479,
11,8,IP55,F,Y180L08B55MFB,c,b,5460,3585,
15,8,IP55,F,Y200L08B55MFB,c,b,7109,4661,
18.5,8,IP55,F,Y225S08B55MFB,c,b,9524,5728,
22,8,IP55,F,Y250M08B55MFB,c,b,10512,6439,
30,8,IP55,F,Y280S08B55MFB,c,b,12934,7999,
37,8,IP55,F,Y280M08B55MFB,c,b,16399,9954,
45,8,IP55,F,,c,b,18300,0,
55,8,IP55,F,,c,b,71812,0,
75,8,IP55,F,,c,b,0,0,
90,8,IP55,F,,c,b,95901,0,
110,8,IP55,F,,c,b,63369,0,
0.18,6,IP55,F,,c,c,1462,0,
0.37,2,IP55,F,,c,c,1462,0,
0.25,4,IP55,F,,c,c,1462,0,
0.55,2,IP55,F,,c,c,0,0,
0.25,6,IP55,F,,c,c,1572,0,
0.37,4,IP55,F,,c,c,1572,0,
0.37,6,IP55,F,,c,c,1629,0,
0.55,4,IP55,F,Y080014B55MBP,c,c,671,0,
0.75,4,IP55,F,Y080024B55MBP,c,c,686,0,
0.55,6,IP55,F,0,c,c,0,0,
0.75,4,IP55,F,Y080024B55MBP,c,c,715,0,
1.1,2,IP55,F,Y080022B55MBP,c,c,760,0,
0.75,6,IP55,F,Y090S06B55MBP,c,c,832,0,
1.1,4,IP55,F,Y090S04B55MBP,c,c,832,0,
1.1,6,IP55,F,Y090L06B55MBP,c,c,979,0,
1.5,2,IP55,F,Y090S02B55MBP,c,c,860,0,
1.5,4,IP55,F,Y090L04B55MBP,c,c,937,0,
1.5,6,IP55,F,Y100L06B55MBP,c,c,1186,0,
2.2,2,IP55,F,Y090L02B55MBP,c,c,951,0,
2.2,4,IP55,F,Y100L14B55MBP,c,c,1243,0,
2.2,6,IP55,F,Y112M06B55MBP,c,c,1553,0,
2.2,8,IP55,F,Y132S08B55MBP,c,c,2093,0,
3,2,IP55,F,Y100L02B55MBP,c,c,1259,0,
3,4,IP55,F,Y100L24B55MBP,c,c,1370,0,
3,6,IP55,F,Y132S06B55MBP,c,c,2042,0,
3,8,IP55,F,Y132M08B55MBP,c,c,2435,0,
4,2,IP55,F,Y112M02B55MBP,c,c,3467,0,
4,4,IP55,F,Y112M04B55MBP,c,c,3523,0,
4,6,IP55,F,Y132M16B55MBP,c,c,4347,0,
4,8,IP55,F,Y160M18B55MBP,c,c,6033,0,
5.5,2,IP55,F,Y132S12B55MBP,c,c,2348,0,
5.5,4,IP55,F,Y132S04B55MBP,c,c,2365,0,
5.5,6,IP55,F,Y132M26B55MBP,c,c,3278,0,
5.5,8,IP55,F,Y160M28B55MBP,c,c,4011,0,
7.5,2,IP55,F,Y132S22B55MBP,c,c,2606,0,
7.5,4,IP55,F,Y132M04B55MBP,c,c,2743,0,
7.5,6,IP55,F,Y160M06B55MBP,c,c,3868,0,
7.5,8,IP55,F,Y160L08B55MBP,c,c,4684,0,
11,2,IP55,F,Y160M12B55MBP,c,c,3889,0,
11,4,IP55,F,Y160M04B55MBP,c,c,4121,0,
11,6,IP55,F,Y160L06B55MBP,c,c,4513,0,
11,8,IP55,F,Y180L08B55MBP,c,c,5981,0,
15,2,IP55,F,Y160M22B55MBP,c,c,4394,0,
15,4,IP55,F,Y160L04B55MBP,c,c,4828,0,
15,6,IP55,F,Y180L06B55MBP,c,c,5981,0,
15,8,IP55,F,Y200L08B55MBP,c,c,7712,0,
18.5,2,IP55,F,Y160L02B55MBP,c,c,4718,0,
18.5,4,IP55,F,Y180M04B55MBP,c,c,6015,0,
18.5,6,IP55,F,Y200L16B55MBP,c,c,7548,0,
18.5,8,IP55,F,Y225S08B55MBP,c,c,9104,0,
22,4,IP55,F,Y180L04B55MBP,c,c,6668,0,
22,6,IP55,F,Y200L26B55MBP,c,c,8116,0,
22,8,IP55,F,Y250M08B55MBP,c,c,10812,0,
30,4,IP55,F,Y200L04B55MBP,c,c,8496,0,
30,6,IP55,F,Y225M06B55MBP,c,c,11872,0,
30,8,IP55,F,Y280S08B55MBP,c,c,13653,0,
37,4,IP55,F,Y225S04B55MBP,c,c,10102,0,
37,6,IP55,F,Y250M06B55MBP,c,c,13329,0,
37,8,IP55,F,Y280M08B55MBP,c,c,27831,0,
45,4,IP55,F,Y225M04B55MBP,c,c,11900,0,
45,6,IP55,F,Y280S06B55MBP,c,c,17264,0,
45,8,IP55,F,0,c,c,20174,0,
55,4,IP55,F,Y250M04B55MBP,c,c,22404,0,
55,6,IP55,F,Y280M06B55MBP,c,c,31386,0,
55,8,IP55,F,0,c,c,50286,0,
55,6,IP55,F,Y280M06B55MBP,c,c,31386,0,
75,6,IP55,F,Y315S06B55MBP,c,c,55052,0,
75,8,IP55,F,0,c,c,58284,0,
90,4,IP55,B,Y280M04B55MA,a,d,19791,11995,
110,4,IP55,B,Y315S04B55MA,a,d,32250,19545,
0.75,6,IP55,B,Y090S06B55MA,a,d,770,497,
1.1,6,IP55,B,Y090L06B55MA,a,d,825,532,
1.5,6,IP55,B,Y100L06B55MA,a,d,1100,709,
2.2,6,IP55,B,Y112M06B55MA,a,d,1402,902,
3,6,IP55,B,Y132S06B55MA,a,d,1938,1251,
4,6,IP55,B,Y132M16B55MA,a,d,2130,1402,
5.5,6,IP55,B,Y132M26B55MA,a,d,2323,1529,
7.5,6,IP55,B,Y160M06B55MA,a,d,3472,2145,
11,6,IP55,B,Y160L06B55MA,a,d,4016,2704,
15,6,IP55,B,Y180L06B55MA,a,d,5320,3585,
18.5,6,IP55,B,Y200L16B55MA,a,d,7112,4482,
22,6,IP55,B,Y200L26B55MA,a,d,7832,4954,
30,6,IP55,B,Y225M06B55MA,a,d,10308,6498,
37,6,IP55,B,Y250M06B55MA,a,d,12689,7999,
45,6,IP55,B,Y280S06B55MA,a,d,15790,9954,
55,6,IP55,B,Y280M06B55MA,a,d,17950,11317,
75,6,IP55,B,Y315S06B55MA,a,d,34119,20675,
2.2,8,IP55,B,Y132S08B55MA,a,d,2089,1251,
3,8,IP55,B,Y132M08B55MA,a,d,2199,1419,
4,8,IP55,B,Y160M18B55MA,a,d,3341,2066,
5.5,8,IP55,B,Y160M28B55MA,a,d,3679,2271,
7.5,8,IP55,B,Y160L08B55MA,a,d,4016,2479,
11,8,IP55,B,Y180L08B55MA,a,d,5320,3585,
15,8,IP55,B,Y200L08B55MA,a,d,7409,4661,
18.5,8,IP55,B,Y225S08B55MA,a,d,9118,5728,
22,8,IP55,B,Y250M08B55MA,a,d,10213,6439,
30,8,IP55,B,Y280S08B55MA,a,d,12689,7999,
37,8,IP55,B,Y280M08B55MA,a,d,15790,9954,
0.75,2,IP54,F,Y080012F54MA,a,d,711,397,
1.1,2,IP54,F,Y080022F54MA,a,d,787,439,
1.5,2,IP54,F,Y090S02F54MA,a,d,892,498,
2.2,2,IP54,F,Y090L02F54MA,a,d,938,522,
3,2,IP54,F,Y100L02F54MA,a,d,1269,710,
4,2,IP54,F,Y112M02F54MA,a,d,1587,906,
5.5,2,IP54,F,Y132S12F54MA,a,d,2132,1215,
7.5,2,IP54,F,Y132S22F54MA,a,d,2343,1336,
11,2,IP54,F,Y160M12F54MA,a,d,3820,2229,
90,4,IP55,F,Y280M04B55MBP,c,c,31937,0,
90,6,IP55,F,0,c,c,58172,0,
90,8,IP55,F,0,c,c,67156,0,
0.55,2,IP55,F,0.45/0.55-4/2P,c,a,588,0,
0.75,2,IP55,F,0.55/0.75-4/2P,c,a,650,0,
0.45,6,IP55,F,0.35/0.45-8/6P,c,a,886,0,
0.85,4,IP55,F,0.65/0.85-6/4P,c,a,713,0,
1.1,2,IP55,F,0.85/1.1-4/2P,c,a,737,0,
1.8,2,IP55,F,1.3/1.8-4/2P,c,a,775,0,
1.1,4,IP55,F,0.85/1.1-6/4P,c,a,750,0,
0.75,4,IP55,F,0.45/0.75-8/4P,c,a,650,0,
0.65,6,IP55,F,0.45/0.65-8/6P,c,a,949,0,
2.4,2,IP55,F,2/2.4-4/2P,c,a,949,0,
1.8,4,IP55,F,1.3/1.8-6/4P,c,a,949,0,
1.5,4,IP55,F,0.85/1.5-8/4P,c,a,1049,0,
1.1,6,IP55,F,0.75/1.1-8/6P,c,a,999,0,
2.2,4,IP55,F,1.5/2.2-6/4P,c,a,1049,0,
3,2,IP55,F,2.4/3-4/2P,c,a,1049,0,
1.8,6,IP55,F,1.3/1.8-8/6P,c,a,1301,0,
2.8,4,IP55,F,2.2/2.8-6/4P,c,a,1301,0,
2.4,4,IP55,F,1.5/2.4-8/4P,c,a,1301,0,
4,2,IP55,F,3.3/4-4/2P,c,a,1312,0,
5.5,2,IP55,F,4.5/5.5-4/2P,c,a,1761,0,
4,4,IP55,F,3/4-6/4P,c,a,1761,0,
3.3,4,IP55,F,2.2/3.3-8/4P,c,a,1761,0,
2.4,6,IP55,F,1.8/2.4-8/6P,c,a,1761,0,
5.5,4,IP55,F,4/5.5-6/4P,c,a,2000,0,
8,2,IP55,F,6.5/8-4/2P,c,a,2000,0,
4.5,4,IP55,F,3/4.5-8/4P,c,a,2000,0,
3.7,6,IP55,F,2.6/3.7-8/6P,c,a,2000,0,
11,2,IP55,F,9/11-4/2P,c,a,3091,0,
8,4,IP55,F,6.5/8-6/4P,c,a,3091,0,
7.5,4,IP55,F,5/7.5-8/4P,c,a,3091,0,
6,6,IP55,F,4.5/6-8/6P,c,a,3091,0,
5,6,IP55,F,2.6/5-12/6P,c,a,4671,0,
14,2,IP55,F,11/14-4/2P,c,a,3742,0,
11,4,IP55,F,9/11-6/4P,c,a,3574,0,
8,6,IP55,F,6/8-8/6P,c,a,3574,0,
18.5,2,IP55,F,15/18.5-4/2P,c,a,4565,0,
14,4,IP55,F,11/14-6/4P,c,a,4434,0,
10,6,IP55,F,7.5/10-8/6P,c,a,3895,0,
22,2,IP55,F,18.5/22-4/2P,c,a,4733,0,
16,4,IP55,F,13/16-6/4P,c,a,4733,0,
12,6,IP55,F,9/12-8/6P,c,a,4733,0,
30,2,IP55,F,26/30-4/2P,c,a,6232,0,
22,4,IP55,F,18.5/22-6/4P,c,a,6232,0,
17,6,IP55,F,12/17-8/6P,c,a,5919,0,
20,6,IP55,F,15/20-8/6P,c,a,6520,0,
37,2,IP55,F,32/37-4/2P,c,a,7693,0,
28,4,IP55,F,22/28-6/4P,c,a,7693,0,
45,2,IP55,F,37/45-4/2P,c,a,8997,0,
32,4,IP55,F,26/32-6/4P,c,a,8579,0,
34,6,IP55,F,24/34-8/6P,c,a,0,0,
52,2,IP55,F,45/52-4/2P,c,a,0,0,
42,4,IP55,F,32/42-6/4P,c,a,11110,0,
72,2,IP55,F,60/72-4/2P,c,a,14479,0,
55,4,IP55,F,42/55-6/4P,c,a,13963,0,
82,2,IP55,F,72/82-4/2P,c,a,16599,0,
67,4,IP55,F,55/67-6/4P,c,a,0,0,
0.75,2,IP54,B,Y080012B54MA,a,d,647,397,
1.1,2,IP54,B,Y080022B54MA,a,d,715,439,
1.5,2,IP54,B,Y090S02B54MA,a,d,811,498,
2.2,2,IP54,B,Y090L02B54MA,a,d,852,522,
3,2,IP54,B,Y100L02B54MA,a,d,1154,710,
4,2,IP54,B,Y112M02B54MA,a,d,1443,906,
5.5,2,IP54,B,Y132S12B54MA,a,d,1938,1215,
7.5,2,IP54,B,Y132S22B54MA,a,d,2130,1336,
11,2,IP54,B,Y160M12B54MA,a,d,3472,2229,
15,2,IP54,B,Y160M22B54MA,a,d,3868,2481,
18.5,2,IP54,B,Y160L02B54MA,a,d,4207,2699,
22,2,IP54,B,Y180M02B54MA,a,d,5261,3514,
30,2,IP54,B,Y200L12B54MA,a,d,7514,0,
37,2,IP54,B,Y200L22B54MA,a,d,8299,0,
45,2,IP54,B,Y225M02B54MA,a,d,10770,0,
55,2,IP54,B,Y250M02B54MA,a,d,13912,0,
75,2,IP54,B,Y280S02B54MA,a,d,17985,0,
90,2,IP54,B,Y280M02B54MA,a,d,20617,0,
110,2,IP54,B,Y315S02B54MA,a,d,37961,0,
0.55,4,IP54,B,Y080014B54MA,a,d,633,389,
0.75,4,IP54,B,Y080024B54MA,a,d,673,412,
1.1,4,IP54,B,Y090S04B54MA,a,d,784,481,
1.5,4,IP54,B,Y090L04B54MA,a,d,825,506,
2.2,4,IP54,B,Y100L14B54MA,a,d,1045,643,
3,4,IP54,B,Y100L24B54MA,a,d,1154,710,
4,4,IP54,B,Y112M04B54MA,a,d,1429,897,
5.5,4,IP54,B,Y132S04B54MA,a,d,1938,1215,
7.5,4,IP54,B,Y132M04B54MA,a,d,2199,1379,
11,4,IP54,B,Y160M04B54MA,a,d,3472,2229,
15,4,IP54,B,Y160L04B54MA,a,d,4016,2575,
18.5,4,IP54,B,Y180M04B54MA,a,d,4983,3198,
22,4,IP54,B,Y180L04B54MA,a,d,5320,3414,
30,4,IP54,B,Y200L04B54MA,a,d,7489,4496,
37,4,IP54,B,Y225S04B54MA,a,d,9243,5549,
45,4,IP54,B,Y225M04B54MA,a,d,10338,6207,
55,4,IP54,B,Y250M04B54MA,a,d,12815,7693,
75,4,IP54,B,Y280S04B54MA,a,d,17449,10071,
90,4,IP54,B,Y280M04B54MA,a,d,19791,11424,
110,4,IP54,B,Y315S04B54MA,a,d,32250,18614,
0.75,6,IP54,B,Y090S06B54MA,a,d,770,473,
1.1,6,IP54,B,Y090L06B54MA,a,d,825,506,
1.5,6,IP54,B,Y100L06B54MA,a,d,1100,676,
2.2,6,IP54,B,Y112M06B54MA,a,d,1402,859,
3,6,IP54,B,Y132S06B54MA,a,d,1938,1191,
4,6,IP54,B,Y132M16B54MA,a,d,2130,1336,
5.5,6,IP54,B,Y132M26B54MA,a,d,2323,1456,
7.5,6,IP54,B,Y160M06B54MA,a,d,3472,2042,
11,6,IP54,B,Y160L06B54MA,a,d,4016,2575,
15,6,IP54,B,Y180L06B54MA,a,d,5320,3414,
18.5,6,IP54,B,Y200L16B54MA,a,d,7112,4268,
22,6,IP54,B,Y200L26B54MA,a,d,7832,4718,
30,6,IP54,B,Y225M06B54MA,a,d,10308,6188,
37,6,IP54,B,Y250M06B54MA,a,d,12689,7618,
45,6,IP54,B,Y280S06B54MA,a,d,15790,9480,
55,6,IP54,B,Y280M06B54MA,a,d,17950,10778,
75,6,IP54,B,Y315S06B54MA,a,d,34119,19691,
2.2,8,IP54,B,Y132S08B54MA,a,d,2089,1191,
3,8,IP54,B,Y132M08B54MA,a,d,2199,1351,
4,8,IP54,B,Y160M18B54MA,a,d,3341,1967,
5.5,8,IP54,B,Y160M28B54MA,a,d,3679,2163,
7.5,8,IP54,B,Y160L08B54MA,a,d,4016,2361,
11,8,IP54,B,Y180L08B54MA,a,d,5320,3414,
15,8,IP54,B,Y200L08B54MA,a,d,7409,4439,
18.5,8,IP54,B,Y225S08B54MA,a,d,9118,5455,
22,8,IP54,B,Y250M08B54MA,a,d,10213,6132,
30,8,IP54,B,Y280S08B54MA,a,d,12689,7618,
37,8,IP54,B,Y280M08B54MA,a,d,15790,9480,
0.75,2,IP55,B,Y080012B55MA,a,d,647,416,
1.1,2,IP55,B,Y080022B55MA,a,d,715,461,
1.5,2,IP55,B,Y090S02B55MA,a,d,811,523,
2.2,2,IP55,B,Y090L02B55MA,a,d,852,548,
3,2,IP55,B,Y100L02B55MA,a,d,1154,746,
4,2,IP55,B,Y112M02B55MA,a,d,1443,951,
5.5,2,IP55,B,Y132S12B55MA,a,d,1938,1276,
7.5,2,IP55,B,Y132S22B55MA,a,d,2130,1402,
11,2,IP55,B,Y160M12B55MA,a,d,3472,2340,
15,2,IP55,B,Y160M22B55MA,a,d,3868,2605,
18.5,2,IP55,B,Y160L02B55MA,a,d,4207,2834,
22,2,IP55,B,Y180M02B55MA,a,d,5261,3690,
30,2,IP55,B,Y200L12B55MA,a,d,7514,0,
37,2,IP55,B,Y200L22B55MA,a,d,8299,0,
45,2,IP55,B,Y225M02B55MA,a,d,10770,0,
55,2,IP55,B,Y250M02B55MA,a,d,13912,0,
75,2,IP55,B,Y280S02B55MA,a,d,17985,0,
90,2,IP55,B,Y280M02B55MA,a,d,20617,0,
110,2,IP55,B,Y315S02B55MA,a,d,37961,0,
0.55,4,IP55,B,Y080014B55MA,a,d,633,408,
0.75,4,IP55,B,Y080024B55MA,a,d,673,433,
1.1,4,IP55,B,Y090S04B55MA,a,d,784,505,
1.5,4,IP55,B,Y090L04B55MA,a,d,825,532,
2.2,4,IP55,B,Y100L14B55MA,a,d,1045,675,
3,4,IP55,B,Y100L24B55MA,a,d,1154,746,
4,4,IP55,B,Y112M04B55MA,a,d,1429,941,
5.5,4,IP55,B,Y132S04B55MA,a,d,1938,1276,
7.5,4,IP55,B,Y132M04B55MA,a,d,2199,1448,
11,4,IP55,B,Y160M04B55MA,a,d,3472,2340,
15,4,IP55,B,Y160L04B55MA,a,d,4016,2704,
18.5,4,IP55,B,Y180M04B55MA,a,d,4983,3358,
22,4,IP55,B,Y180L04B55MA,a,d,5320,3585,
30,4,IP55,B,Y200L04B55MA,a,d,7489,4720,
37,4,IP55,B,Y225S04B55MA,a,d,9243,5826,
45,4,IP55,B,Y225M04B55MA,a,d,10338,6518,
55,4,IP55,B,Y250M04B55MA,a,d,12815,8078,
75,4,IP55,B,Y280S04B55MA,a,d,17449,10575,
90,4,IP55,B,Y280M04B55MA,d,d,17135,11995,
110,4,IP55,B,Y315S04B55MA,d,d,27922,19545,
0.75,6,IP55,B,Y090S06B55MA,d,d,667,497,
1.1,6,IP55,B,Y090L06B55MA,d,d,714,532,
1.5,6,IP55,B,Y100L06B55MA,d,d,952,709,
2.2,6,IP55,B,Y112M06B55MA,d,d,1214,902,
3,6,IP55,B,Y132S06B55MA,d,d,1678,1251,
4,6,IP55,B,Y132M16B55MA,d,d,1844,1402,
5.5,6,IP55,B,Y132M26B55MA,d,d,2011,1529,
7.5,6,IP55,B,Y160M06B55MA,d,d,3006,2145,
11,6,IP55,B,Y160L06B55MA,d,d,3477,2704,
15,6,IP55,B,Y180L06B55MA,d,d,4606,3585,
18.5,6,IP55,B,Y200L16B55MA,d,d,6158,4482,
22,6,IP55,B,Y200L26B55MA,d,d,6781,4954,
30,6,IP55,B,Y225M06B55MA,d,d,8925,6498,
37,6,IP55,B,Y250M06B55MA,d,d,10986,7999,
45,6,IP55,B,Y280S06B55MA,d,d,13671,9954,
55,6,IP55,B,Y280M06B55MA,d,d,15541,11317,
75,6,IP55,B,Y315S06B55MA,d,d,29540,20675,
2.2,8,IP55,B,Y132S08B55MA,d,d,1809,1251,
3,8,IP55,B,Y132M08B55MA,d,d,1904,1419,
4,8,IP55,B,Y160M18B55MA,d,d,2893,2066,
5.5,8,IP55,B,Y160M28B55MA,d,d,3185,2271,
7.5,8,IP55,B,Y160L08B55MA,d,d,3477,2479,
11,8,IP55,B,Y180L08B55MA,d,d,4606,3585,
15,8,IP55,B,Y200L08B55MA,d,d,6415,4661,
18.5,8,IP55,B,Y225S08B55MA,d,d,7894,5728,
22,8,IP55,B,Y250M08B55MA,d,d,8842,6439,
30,8,IP55,B,Y280S08B55MA,d,d,10986,7999,
37,8,IP55,B,Y280M08B55MA,d,d,13671,9954,
0.75,2,IP54,F,Y080012F54MA,d,d,616,397,
1.1,2,IP54,F,Y080022F54MA,d,d,681,439,
1.5,2,IP54,F,Y090S02F54MA,d,d,772,498,
2.2,2,IP54,F,Y090L02F54MA,d,d,812,522,
3,2,IP54,F,Y100L02F54MA,d,d,1099,710,
4,2,IP54,F,Y112M02F54MA,d,d,1374,906,
5.5,2,IP54,F,Y132S12F54MA,d,d,1846,1215,
7.5,2,IP54,F,Y132S22F54MA,d,d,2029,1336,
11,2,IP54,F,Y160M12F54MA,d,d,3307,2229,
15,2,IP54,F,Y160M22F54MA,d,d,3684,2481,
18.5,2,IP54,F,Y160L02F54MA,d,d,4006,2699,
22,2,IP54,F,Y180M02F54MA,d,d,5011,3514,
30,2,IP54,F,Y200L12F54MA,d,d,7157,0,
37,2,IP54,F,Y200L22F54MA,d,d,7904,0,
45,2,IP54,F,Y225M02F54MA,d,d,10257,0,
55,2,IP54,F,Y250M02F54MA,d,d,13249,0,
75,2,IP54,F,Y280S02F54MA,d,d,17128,0,
90,2,IP54,F,Y280M02F54MA,d,d,18743,0,
110,2,IP54,F,Y315S02F54MA,d,d,36153,0,
0.55,4,IP54,F,Y080014F54MA,d,d,603,389,
0.75,4,IP54,F,Y080024F54MA,d,d,641,412,
1.1,4,IP54,F,Y090S04F54MA,d,d,747,481,
1.5,4,IP54,F,Y090L04F54MA,d,d,785,506,
2.2,4,IP54,F,Y100L14F54MA,d,d,995,643,
3,4,IP54,F,Y100L24F54MA,d,d,1099,710,
4,4,IP54,F,Y112M04F54MA,d,d,1361,897,
5.5,4,IP54,F,Y132S04F54MA,d,d,1846,1215,
7.5,4,IP54,F,Y132M04F54MA,d,d,2094,1379,
11,4,IP54,F,Y160M04F54MA,d,d,3307,2229,
15,4,IP54,F,Y160L04F54MA,d,d,3825,2575,
18.5,4,IP54,F,Y180M04F54MA,d,d,4745,3198,
22,4,IP54,F,Y180L04F54MA,d,d,5066,3414,
30,4,IP54,F,Y200L04F54MA,d,d,7132,4496,
37,4,IP54,F,Y225S04F54MA,d,d,8803,5549,
45,4,IP54,F,Y225M04F54MA,d,d,9846,6207,
55,4,IP54,F,Y250M04F54MA,d,d,12204,7693,
75,4,IP54,F,Y280S04F54MA,d,d,16618,10071,
90,4,IP54,F,Y280M04F54MA,d,d,18849,11424,
110,4,IP54,F,Y315S04F54MA,d,d,29318,18614,
0.75,6,IP54,F,Y090S06F54MA,d,d,733,473,
1.1,6,IP54,F,Y090L06F54MA,d,d,785,506,
1.5,6,IP54,F,Y100L06F54MA,d,d,1047,676,
2.2,6,IP54,F,Y112M06F54MA,d,d,1336,859,
3,6,IP54,F,Y132S06F54MA,d,d,1846,1191,
4,6,IP54,F,Y132M16F54MA,d,d,2029,1336,
5.5,6,IP54,F,Y132M26F54MA,d,d,2212,1456,
7.5,6,IP54,F,Y160M06F54MA,d,d,3307,2042,
11,6,IP54,F,Y160L06F54MA,d,d,3825,2575,
15,6,IP54,F,Y180L06F54MA,d,d,5066,3414,
18.5,6,IP54,F,Y200L16F54MA,d,d,6774,4268,
22,6,IP54,F,Y200L26F54MA,d,d,7459,4718,
30,6,IP54,F,Y225M06F54MA,d,d,9817,6188,
37,6,IP54,F,Y250M06F54MA,d,d,12085,7618,
45,6,IP54,F,Y280S06F54MA,d,d,15038,9480,
55,6,IP54,F,Y280M06F54MA,d,d,17095,10778,
75,6,IP54,F,Y315S06F54MA,d,d,32494,19691,
2.2,8,IP54,F,Y132S08F54MA,d,d,1990,1191,
3,8,IP54,F,Y132M08F54MA,d,d,2094,1351,
4,8,IP54,F,Y160M18F54MA,d,d,3182,1967,
5.5,8,IP54,F,Y160M28F54MA,d,d,3503,2163,
7.5,8,IP54,F,Y160L08F54MA,d,d,3825,2361,
11,8,IP54,F,Y180L08F54MA,d,d,5066,3414,
15,8,IP54,F,Y200L08F54MA,d,d,7057,4439,
18.5,8,IP54,F,Y225S08F54MA,d,d,8683,5455,
22,8,IP54,F,Y250M08F54MA,d,d,9727,6132,
30,8,IP54,F,Y280S08F54MA,d,d,12085,7618,
37,8,IP54,F,Y280M08F54MA,d,d,15038,9480,
0.75,2,IP55,F,Y080012F55MA,d,d,616,416,
1.1,2,IP55,F,Y080022F55MA,d,d,681,461,
1.5,2,IP55,F,Y090S02F55MA,d,d,772,523,
2.2,2,IP55,F,Y090L02F55MA,d,d,812,548,
3,2,IP55,F,Y100L02F55MA,d,d,1099,746,
4,2,IP55,F,Y112M02F55MA,d,d,1374,951,
5.5,2,IP55,F,Y132S12F55MA,d,d,1846,1276,
7.5,2,IP55,F,Y132S22F55MA,d,d,2029,1402,
11,2,IP55,F,Y160M12F55MA,d,d,3307,2340,
15,2,IP55,F,Y160M22F55MA,d,d,3684,2605,
18.5,2,IP55,F,Y160L02F55MA,d,d,4006,2834,
22,2,IP55,F,Y180M02F55MA,d,d,5011,3690,
30,2,IP55,F,Y200L12F55MA,d,d,7157,0,
37,2,IP55,F,Y200L22F55MA,d,d,7904,0,
45,2,IP55,F,Y225M02F55MA,d,d,10257,0,
55,2,IP55,F,Y250M02F55MA,d,d,13249,0,
75,2,IP55,F,Y280S02F55MA,d,d,17128,0,
90,2,IP55,F,Y280M02F55MA,d,d,18743,0,
110,2,IP55,F,Y315S02F55MA,d,d,36153,0,
0.55,4,IP55,F,Y080014F55MA,d,d,603,408,
0.75,4,IP55,F,Y080024F55MA,d,d,641,433,
1.1,4,IP55,F,Y090S04F55MA,d,d,747,505,
1.5,4,IP55,F,Y090L04F55MA,d,d,785,532,
2.2,4,IP55,F,Y100L14F55MA,d,d,995,675,
3,4,IP55,F,Y100L24F55MA,d,d,1099,746,
4,4,IP55,F,Y112M04F55MA,d,d,1361,941,
5.5,4,IP55,F,Y132S04F55MA,d,d,1846,1276,
7.5,4,IP55,F,Y132M04F55MA,d,d,2094,1448,
11,4,IP55,F,Y160M04F55MA,d,d,3307,2340,
15,4,IP55,F,Y160L04F55MA,d,d,3825,2704,
18.5,4,IP55,F,Y180M04F55MA,d,d,4745,3358,
22,4,IP55,F,Y180L04F55MA,d,d,5066,3585,
30,4,IP55,F,Y200L04F55MA,d,d,7132,4720,
37,4,IP55,F,Y225S04F55MA,d,d,8803,5826,
45,4,IP55,F,Y225M04F55MA,d,d,9846,6518,
55,4,IP55,F,Y250M04F55MA,d,d,12204,8078,
75,4,IP55,F,Y280S04F55MA,d,d,16618,10575,
90,4,IP55,F,Y280M04F55MA,d,d,18849,11995,
110,4,IP55,F,Y315S04F55MA,d,d,29318,19545,
0.75,6,IP55,F,Y090S06F55MA,d,d,733,497,
1.1,6,IP55,F,Y090L06F55MA,d,d,785,532,
1.5,6,IP55,F,Y100L06F55MA,d,d,1047,709,
2.2,6,IP55,F,Y112M06F55MA,d,d,1336,902,
3,6,IP55,F,Y132S06F55MA,d,d,1846,1251,
4,6,IP55,F,Y132M16F55MA,d,d,2029,1402,
5.5,6,IP55,F,Y132M26F55MA,d,d,2212,1529,
7.5,6,IP55,F,Y160M06F55MA,d,d,3307,2145,
11,6,IP55,F,Y160L06F55MA,d,d,3825,2704,
15,6,IP55,F,Y180L06F55MA,d,d,5066,3585,
18.5,6,IP55,F,Y200L16F55MA,d,d,6774,4482,
22,6,IP55,F,Y200L26F55MA,d,d,7459,4954,
30,6,IP55,F,Y225M06F55MA,d,d,9817,6498,
37,6,IP55,F,Y250M06F55MA,d,d,12085,7999,
45,6,IP55,F,Y280S06F55MA,d,d,15038,9954,
55,6,IP55,F,Y280M06F55MA,d,d,17095,11317,
75,6,IP55,F,Y315S06F55MA,d,d,32494,20675,
2.2,8,IP55,F,Y132S08F55MA,d,d,1990,1251,
3,8,IP55,F,Y132M08F55MA,d,d,2094,1419,
4,8,IP55,F,Y160M18F55MA,d,d,3182,2066,
5.5,8,IP55,F,Y160M28F55MA,d,d,3503,2271,
7.5,8,IP55,F,Y160L08F55MA,d,d,3825,2479,
11,8,IP55,F,Y180L08F55MA,d,d,5066,3585,
15,8,IP55,F,Y200L08F55MA,d,d,7057,4661,
18.5,8,IP55,F,Y225S08F55MA,d,d,8683,5728,
22,8,IP55,F,Y250M08F55MA,d,d,9727,6439,
30,8,IP55,F,Y280S08F55MA,d,d,12085,7999,
37,8,IP55,F,Y280M08F55MA,d,d,15038,9954,
0.75,2,IP55,F,Y080012B54MFB,d,b,1686,416,
1.1,2,IP55,F,Y080022B54MFB,d,b,1760,461,
1.5,2,IP55,F,Y090S02B54MFB,d,b,2004,523,
2.2,2,IP55,F,Y090L02B54MFB,d,b,2237,548,
3,2,IP55,F,Y100L02B54MFB,d,b,2863,746,
4,2,IP55,F,Y112M02B54MFB,d,b,3573,951,
5.5,2,IP55,F,Y132S12B54MFB,d,b,4803,1276,
7.5,2,IP55,F,Y132S22B54MFB,d,b,5270,1402,
11,2,IP55,F,Y160M12B54MFB,d,b,7581,2340,
15,2,IP55,F,Y160M22B54MFB,d,b,8450,2605,
18.5,2,IP55,F,Y160L02B54MFB,d,b,9182,2834,
22,2,IP55,F,Y180M02B54MFB,d,b,11483,3690,
30,2,IP55,F,Y200L12B54MFB,d,b,15385,0,
37,2,IP55,F,Y200L22B54MFB,d,b,17007,0,
45,2,IP55,F,Y225M02B54MFB,d,b,22075,0,
55,2,IP55,F,Y250M02B54MFB,d,b,29190,0,
75,2,IP55,F,Y280S02B54MFB,d,b,36103,0,
90,2,IP55,F,Y280M02B54MFB,d,b,41383,0,
110,2,IP55,F,Y315S02B54MFB,d,b,71141,0,
130,2,IP55,F,,d,b,75062,0,
160,2,IP55,F,,d,b,77844,0,
200,2,IP55,F,,d,b,85615,0,
250,2,IP55,F,,d,b,130630,0,
315,2,IP55,F,,d,b,150727,0,
0.55,4,IP55,F,Y080014B55MFB,d,b,1633,408,
0.75,4,IP55,F,Y080024B55MFB,d,b,1728,433,
1.1,4,IP55,F,Y090S04B55MFB,d,b,2004,505,
1.5,4,IP55,F,Y090L04B55MFB,d,b,2163,532,
2.2,4,IP55,F,Y100L14B55MFB,d,b,2661,675,
3,4,IP55,F,Y100L24B55MFB,d,b,3022,746,
4,4,IP55,F,Y112M04B55MFB,d,b,3626,941,
5.5,4,IP55,F,Y132S04B55MFB,d,b,4803,1276,
7.5,4,IP55,F,Y132M04B55MFB,d,b,5546,1448,
11,4,IP55,F,Y160M04B55MFB,d,b,7581,2340,
15,4,IP55,F,Y160L04B55MFB,d,b,8769,2704,
18.5,4,IP55,F,Y180M04B55MFB,d,b,10996,3358,
22,4,IP55,F,Y180L04B55MFB,d,b,11737,3585,
30,4,IP55,F,Y200L04B55MFB,d,b,15459,4720,
37,4,IP55,F,Y225S04B55MFB,d,b,19075,5826,
45,4,IP55,F,Y225M04B55MFB,d,b,21121,6518,
55,4,IP55,F,Y250M04B55MFB,d,b,27695,8078,
75,4,IP55,F,Y280S04B55MFB,d,b,34809,10575,
90,4,IP55,F,Y280M04B55MFB,d,b,39485,11995,
110,4,IP55,F,Y315S04B55MFB,d,b,38897,19545,
130,4,IP55,F,,d,b,43564,0,
160,4,IP55,F,,d,b,50891,0,
200,4,IP55,F,,d,b,55974,0,
250,4,IP55,F,,d,b,80250,0,
315,4,IP55,F,,d,b,93256,0,
0.37,6,IP55,F,,d,b,1665,0,
0.55,6,IP55,F,,d,b,1771,0,
0.75,6,IP55,F,Y090S06B55MFB,d,b,2015,497,
1.1,6,IP55,F,Y090L06B55MFB,d,b,2163,532,
1.5,6,IP55,F,Y100L06B55MFB,d,b,2725,709,
2.2,6,IP55,F,Y112M06B55MFB,d,b,3467,902,
3,6,IP55,F,Y132S06B55MFB,d,b,4803,1251,
4,6,IP55,F,Y132M16B55MFB,d,b,5270,1402,
5.5,6,IP55,F,Y132M26B55MFB,d,b,5747,1529,
7.5,6,IP55,F,Y160M06B55MFB,d,b,7581,2145,
11,6,IP55,F,Y160L06B55MFB,d,b,8769,2704,
15,6,IP55,F,Y180L06B55MFB,d,b,11737,3585,
18.5,6,IP55,F,Y200L16B55MFB,d,b,14674,4482,
22,6,IP55,F,Y200L26B55MFB,d,b,16158,4954,
30,6,IP55,F,Y225M06B55MFB,d,b,21047,6498,
37,6,IP55,F,Y250M06B55MFB,d,b,27430,7999,
45,6,IP55,F,Y280S06B55MFB,d,b,34141,9954,
55,6,IP55,F,Y280M06B55MFB,d,b,38807,11317,
75,6,IP55,F,Y315S06B55MFB,d,b,68060,20675,
90,6,IP55,F,,d,b,71920,0,
110,6,IP55,F,,d,b,50647,0,
130,6,IP55,F,,d,b,56051,0,
160,6,IP55,F,,d,b,78077,0,
200,6,IP55,F,,d,b,82417,0,
250,6,IP55,F,,d,b,93256,0,
1.1,8,IP55,F,,d,b,2725,0,
1.5,8,IP55,F,,d,b,3467,0,
2.2,8,IP55,F,Y132S08B55MFB,d,b,4803,1251,
3,8,IP55,F,Y132M08B55MFB,d,b,5439,1419,
4,8,IP55,F,Y160M18B55MFB,d,b,7284,2066,
5.5,8,IP55,F,Y160M28B55MFB,d,b,8026,2271,
7.5,8,IP55,F,Y160L08B55MFB,d,b,10147,2479,
11,8,IP55,F,Y180L08B55MFB,d,b,11706,3585,
15,8,IP55,F,Y200L08B55MFB,d,b,15279,4661,
18.5,8,IP55,F,Y225S08B55MFB,d,b,18820,5728,
22,8,IP55,F,Y250M08B55MFB,d,b,20856,6439,
30,8,IP55,F,Y280S08B55MFB,d,b,27430,7999,
37,8,IP55,F,Y280M08B55MFB,d,b,34141,9954,
45,8,IP55,F,,d,b,38807,0,
55,8,IP55,F,,d,b,62175,0,
75,8,IP55,F,,d,b,72058,0,
90,8,IP55,F,,d,b,83031,0,
110,8,IP55,F,,d,b,54865,0,
0.18,6,IP55,F,,d,c,1266,0,
0.37,2,IP55,F,,d,c,1266,0,
0.25,4,IP55,F,,d,c,1266,0,
0.55,2,IP55,F,,d,c,1361,0,
0.25,6,IP55,F,,d,c,1361,0,
0.37,4,IP55,F,,d,c,1361,0,
0.37,6,IP55,F,,d,c,1410,0,
0.55,4,IP55,F,Y080014B55MBP,d,c,1379,0,
0.75,4,IP55,F,Y080024B55MBP,d,c,1425,0,
0.55,6,IP55,F,0,d,c,1497,0,
0.75,4,IP55,F,Y080024B55MBP,d,c,1460,0,
1.1,2,IP55,F,Y080022B55MBP,d,c,1494,0,
0.75,6,IP55,F,Y090S06B55MBP,d,c,1709,0,
1.1,4,IP55,F,Y090S04B55MBP,d,c,1698,0,
1.1,6,IP55,F,Y090L06B55MBP,d,c,1700,0,
1.5,2,IP55,F,Y090S02B55MBP,d,c,1700,0,
1.5,4,IP55,F,Y090L04B55MBP,d,c,1834,0,
1.5,6,IP55,F,Y100L06B55MBP,d,c,2489,0,
2.2,2,IP55,F,Y090L02B55MBP,d,c,2051,0,
2.2,4,IP55,F,Y100L14B55MBP,d,c,2439,0,
2.2,6,IP55,F,Y112M06B55MBP,d,c,2939,0,
2.2,8,IP55,F,Y132S08B55MBP,d,c,3454,0,
3,2,IP55,F,Y100L02B55MBP,d,c,2403,0,
3,4,IP55,F,Y100L24B55MBP,d,c,2537,0,
3,6,IP55,F,Y132S06B55MBP,d,c,3426,0,
3,8,IP55,F,Y132M08B55MBP,d,c,3887,0,
4,2,IP55,F,Y112M02B55MBP,d,c,3002,0,
4,4,IP55,F,Y112M04B55MBP,d,c,3050,0,
4,6,IP55,F,Y132M16B55MBP,d,c,3764,0,
4,8,IP55,F,Y160M18B55MBP,d,c,5223,0,
5.5,2,IP55,F,Y132S12B55MBP,d,c,3454,0,
5.5,4,IP55,F,Y132S04B55MBP,d,c,3454,0,
5.5,6,IP55,F,Y132M26B55MBP,d,c,4139,0,
5.5,8,IP55,F,Y160M28B55MBP,d,c,5801,0,
7.5,2,IP55,F,Y132S22B55MBP,d,c,3794,0,
7.5,4,IP55,F,Y132M04B55MBP,d,c,3991,0,
7.5,6,IP55,F,Y160M06B55MBP,d,c,5479,0,
7.5,8,IP55,F,Y160L08B55MBP,d,c,7336,0,
11,2,IP55,F,Y160M12B55MBP,d,c,5479,0,
11,4,IP55,F,Y160M04B55MBP,d,c,5479,0,
11,6,IP55,F,Y160L06B55MBP,d,c,6335,0,
11,8,IP55,F,Y180L08B55MBP,d,c,8455,0,
15,2,IP55,F,Y160M22B55MBP,d,c,6103,0,
15,4,IP55,F,Y160L04B55MBP,d,c,6334,0,
15,6,IP55,F,Y180L06B55MBP,d,c,8478,0,
15,8,IP55,F,Y200L08B55MBP,d,c,11036,0,
18.5,2,IP55,F,Y160L02B55MBP,d,c,6635,0,
18.5,4,IP55,F,Y180M04B55MBP,d,c,7943,0,
18.5,6,IP55,F,Y200L16B55MBP,d,c,10605,0,
18.5,8,IP55,F,Y225S08B55MBP,d,c,12591,0,
22,4,IP55,F,Y180L04B55MBP,d,c,8479,0,
22,6,IP55,F,Y200L26B55MBP,d,c,11678,0,
22,8,IP55,F,Y250M08B55MBP,d,c,15070,0,
30,4,IP55,F,Y200L04B55MBP,d,c,11169,0,
30,6,IP55,F,Y225M06B55MBP,d,c,15207,0,
30,8,IP55,F,Y280S08B55MBP,d,c,19364,0,
37,4,IP55,F,Y225S04B55MBP,d,c,13781,0,
37,6,IP55,F,Y250M06B55MBP,d,c,19364,0,
37,8,IP55,F,Y280M08B55MBP,d,c,24096,0,
45,4,IP55,F,Y225M04B55MBP,d,c,15259,0,
45,6,IP55,F,Y280S06B55MBP,d,c,24096,0,
45,8,IP55,F,0,d,c,27392,0,
55,4,IP55,F,Y250M04B55MBP,d,c,19397,0,
55,6,IP55,F,Y280M06B55MBP,d,c,27174,0,
55,8,IP55,F,0,d,c,43538,0,
55,6,IP55,F,Y280M06B55MBP,d,c,27174,0,
75,6,IP55,F,Y315S06B55MBP,d,c,47664,0,
75,8,IP55,F,0,d,c,50462,0,
90,4,IP55,F,Y280M04B55MBP,d,c,27651,0,
90,6,IP55,F,0,d,c,50365,0,
90,8,IP55,F,0,d,c,58144,0,
0.55,2,IP55,F,0.45/0.55-4/2P,d,a,618,0,
0.75,2,IP55,F,0.55/0.75-4/2P,d,a,656,0,
0.45,6,IP55,F,0.35/0.45-8/6P,d,a,767,0,
0.85,4,IP55,F,0.65/0.85-6/4P,d,a,767,0,
1.1,2,IP55,F,0.85/1.1-4/2P,d,a,760,0,
1.8,2,IP55,F,1.3/1.8-4/2P,d,a,822,0,
1.1,4,IP55,F,0.85/1.1-6/4P,d,a,822,0,
0.75,4,IP55,F,0.45/0.75-8/4P,d,a,822,0,
0.65,6,IP55,F,0.45/0.65-8/6P,d,a,822,0,
2.4,2,IP55,F,2/2.4-4/2P,d,a,1013,0,
1.8,4,IP55,F,1.3/1.8-6/4P,d,a,1013,0,
1.5,4,IP55,F,0.85/1.5-8/4P,d,a,1032,0,
1.1,6,IP55,F,0.75/1.1-8/6P,d,a,1032,0,
2.2,4,IP55,F,1.5/2.2-6/4P,d,a,1147,0,
3,2,IP55,F,2.4/3-4/2P,d,a,1147,0,
1.8,6,IP55,F,1.3/1.8-8/6P,d,a,1317,0,
2.8,4,IP55,F,2.2/2.8-6/4P,d,a,1317,0,
2.4,4,IP55,F,1.5/2.4-8/4P,d,a,1317,0,
4,2,IP55,F,3.3/4-4/2P,d,a,1379,0,
5.5,2,IP55,F,4.5/5.5-4/2P,d,a,1821,0,
4,4,IP55,F,3/4-6/4P,d,a,1821,0,
3.3,4,IP55,F,2.2/3.3-8/4P,d,a,1821,0,
2.4,6,IP55,F,1.8/2.4-8/6P,d,a,1821,0,
5.5,4,IP55,F,4/5.5-6/4P,d,a,2182,0,
8,2,IP55,F,6.5/8-4/2P,d,a,2648,0,
4.5,4,IP55,F,3/4.5-8/4P,d,a,2648,0,
3.7,6,IP55,F,2.6/3.7-8/6P,d,a,2648,0,
11,2,IP55,F,9/11-4/2P,d,a,4044,0,
8,4,IP55,F,6.5/8-6/4P,d,a,4044,0,
7.5,4,IP55,F,5/7.5-8/4P,d,a,4044,0,
6,6,IP55,F,4.5/6-8/6P,d,a,4044,0,
5,6,IP55,F,2.6/5-12/6P,d,a,4044,0,
14,2,IP55,F,11/14-4/2P,d,a,4678,0,
11,4,IP55,F,9/11-6/4P,d,a,4678,0,
8,6,IP55,F,6/8-8/6P,d,a,4678,0,
18.5,2,IP55,F,15/18.5-4/2P,d,a,6045,0,
14,4,IP55,F,11/14-6/4P,d,a,6045,0,
10,6,IP55,F,7.5/10-8/6P,d,a,6045,0,
22,2,IP55,F,18.5/22-4/2P,d,a,6190,0,
16,4,IP55,F,13/16-6/4P,d,a,6190,0,
12,6,IP55,F,9/12-8/6P,d,a,6190,0,
30,2,IP55,F,26/30-4/2P,d,a,8630,0,
22,4,IP55,F,18.5/22-6/4P,d,a,8630,0,
17,6,IP55,F,12/17-8/6P,d,a,8198,0,
20,6,IP55,F,15/20-8/6P,d,a,8630,0,
37,2,IP55,F,32/37-4/2P,d,a,10659,0,
28,4,IP55,F,22/28-6/4P,d,a,10515,0,
45,2,IP55,F,37/45-4/2P,d,a,11918,0,
32,4,IP55,F,26/32-6/4P,d,a,11918,0,
34,6,IP55,F,24/34-8/6P,d,a,11918,0,
52,2,IP55,F,45/52-4/2P,d,a,14773,0,
42,4,IP55,F,32/42-6/4P,d,a,14773,0,
72,2,IP55,F,60/72-4/2P,d,a,18563,0,
55,4,IP55,F,42/55-6/4P,d,a,18200,0,
82,2,IP55,F,72/82-4/2P,d,a,21064,0,
67,4,IP55,F,55/67-6/4P,d,a,20701,0,
0.75,2,IP54,B,Y080012B54MA,d,d,560,397,
1.1,2,IP54,B,Y080022B54MA,d,d,619,439,
1.5,2,IP54,B,Y090S02B54MA,d,d,702,498,
2.2,2,IP54,B,Y090L02B54MA,d,d,738,522,
3,2,IP54,B,Y100L02B54MA,d,d,999,710,
4,2,IP54,B,Y112M02B54MA,d,d,1249,906,
5.5,2,IP54,B,Y132S12B54MA,d,d,1678,1215,
7.5,2,IP54,B,Y132S22B54MA,d,d,1844,1336,
11,2,IP54,B,Y160M12B54MA,d,d,3006,2229,
15,2,IP54,B,Y160M22B54MA,d,d,3349,2481,
18.5,2,IP54,B,Y160L02B54MA,d,d,3642,2699,
22,2,IP54,B,Y180M02B54MA,d,d,4555,3514,
30,2,IP54,B,Y200L12B54MA,d,d,6506,0,
37,2,IP54,B,Y200L22B54MA,d,d,7185,0,
45,2,IP54,B,Y225M02B54MA,d,d,9325,0,
55,2,IP54,B,Y250M02B54MA,d,d,12045,0,
75,2,IP54,B,Y280S02B54MA,d,d,15571,0,
90,2,IP54,B,Y280M02B54MA,d,d,17850,0,
110,2,IP54,B,Y315S02B54MA,d,d,32867,0,
0.55,4,IP54,B,Y080014B54MA,d,d,548,389,
0.75,4,IP54,B,Y080024B54MA,d,d,583,412,
1.1,4,IP54,B,Y090S04B54MA,d,d,679,481,
1.5,4,IP54,B,Y090L04B54MA,d,d,714,506,
2.2,4,IP54,B,Y100L14B54MA,d,d,905,643,
3,4,IP54,B,Y100L24B54MA,d,d,999,710,
4,4,IP54,B,Y112M04B54MA,d,d,1237,897,
5.5,4,IP54,B,Y132S04B54MA,d,d,1678,1215,
7.5,4,IP54,B,Y132M04B54MA,d,d,1904,1379,
11,4,IP54,B,Y160M04B54MA,d,d,3006,2229,
15,4,IP54,B,Y160L04B54MA,d,d,3477,2575,
18.5,4,IP54,B,Y180M04B54MA,d,d,4314,3198,
22,4,IP54,B,Y180L04B54MA,d,d,4606,3414,
30,4,IP54,B,Y200L04B54MA,d,d,6484,4496,
37,4,IP54,B,Y225S04B54MA,d,d,8003,5549,
45,4,IP54,B,Y225M04B54MA,d,d,8951,6207,
55,4,IP54,B,Y250M04B54MA,d,d,11095,7693,
75,4,IP54,B,Y280S04B54MA,d,d,15107,10071,
90,4,IP54,B,Y280M04B54MA,d,d,17135,11424,
110,4,IP54,B,Y315S04B54MA,d,d,27922,18614,
0.75,6,IP54,B,Y090S06B54MA,d,d,667,473,
1.1,6,IP54,B,Y090L06B54MA,d,d,714,506,
1.5,6,IP54,B,Y100L06B54MA,d,d,952,676,
2.2,6,IP54,B,Y112M06B54MA,d,d,1214,859,
3,6,IP54,B,Y132S06B54MA,d,d,1678,1191,
4,6,IP54,B,Y132M16B54MA,d,d,1844,1336,
5.5,6,IP54,B,Y132M26B54MA,d,d,2011,1456,
7.5,6,IP54,B,Y160M06B54MA,d,d,3006,2042,
11,6,IP54,B,Y160L06B54MA,d,d,3477,2575,
15,6,IP54,B,Y180L06B54MA,d,d,4606,3414,
18.5,6,IP54,B,Y200L16B54MA,d,d,6158,4268,
22,6,IP54,B,Y200L26B54MA,d,d,6781,4718,
30,6,IP54,B,Y225M06B54MA,d,d,8925,6188,
37,6,IP54,B,Y250M06B54MA,d,d,10986,7618,
45,6,IP54,B,Y280S06B54MA,d,d,13671,9480,
55,6,IP54,B,Y280M06B54MA,d,d,15541,10778,
75,6,IP54,B,Y315S06B54MA,d,d,29540,19691,
2.2,8,IP54,B,Y132S08B54MA,d,d,1809,1191,
3,8,IP54,B,Y132M08B54MA,d,d,1904,1351,
4,8,IP54,B,Y160M18B54MA,d,d,2893,1967,
5.5,8,IP54,B,Y160M28B54MA,d,d,3185,2163,
7.5,8,IP54,B,Y160L08B54MA,d,d,3477,2361,
11,8,IP54,B,Y180L08B54MA,d,d,4606,3414,
15,8,IP54,B,Y200L08B54MA,d,d,6415,4439,
18.5,8,IP54,B,Y225S08B54MA,d,d,7894,5455,
22,8,IP54,B,Y250M08B54MA,d,d,8842,6132,
30,8,IP54,B,Y280S08B54MA,d,d,10986,7618,
37,8,IP54,B,Y280M08B54MA,d,d,13671,9480,
0.75,2,IP55,B,Y080012B55MA,d,d,560,416,
1.1,2,IP55,B,Y080022B55MA,d,d,619,461,
1.5,2,IP55,B,Y090S02B55MA,d,d,702,523,
2.2,2,IP55,B,Y090L02B55MA,d,d,738,548,
3,2,IP55,B,Y100L02B55MA,d,d,999,746,
4,2,IP55,B,Y112M02B55MA,d,d,1249,951,
5.5,2,IP55,B,Y132S12B55MA,d,d,1678,1276,
7.5,2,IP55,B,Y132S22B55MA,d,d,1844,1402,
11,2,IP55,B,Y160M12B55MA,d,d,3006,2340,
15,2,IP55,B,Y160M22B55MA,d,d,3349,2605,
18.5,2,IP55,B,Y160L02B55MA,d,d,3642,2834,
22,2,IP55,B,Y180M02B55MA,d,d,4555,3690,
30,2,IP55,B,Y200L12B55MA,d,d,6506,0,
37,2,IP55,B,Y200L22B55MA,d,d,7185,0,
45,2,IP55,B,Y225M02B55MA,d,d,9325,0,
55,2,IP55,B,Y250M02B55MA,d,d,12045,0,
75,2,IP55,B,Y280S02B55MA,d,d,15571,0,
90,2,IP55,B,Y280M02B55MA,d,d,17850,0,
110,2,IP55,B,Y315S02B55MA,d,d,32867,0,
0.55,4,IP55,B,Y080014B55MA,d,d,548,408,
0.75,4,IP55,B,Y080024B55MA,d,d,583,433,
1.1,4,IP55,B,Y090S04B55MA,d,d,679,505,
1.5,4,IP55,B,Y090L04B55MA,d,d,714,532,
2.2,4,IP55,B,Y100L14B55MA,d,d,905,675,
3,4,IP55,B,Y100L24B55MA,d,d,999,746,
4,4,IP55,B,Y112M04B55MA,d,d,1237,941,
5.5,4,IP55,B,Y132S04B55MA,d,d,1678,1276,
7.5,4,IP55,B,Y132M04B55MA,d,d,1904,1448,
11,4,IP55,B,Y160M04B55MA,d,d,3006,2340,
15,4,IP55,B,Y160L04B55MA,d,d,3477,2704,
18.5,4,IP55,B,Y180M04B55MA,d,d,4314,3358,
22,4,IP55,B,Y180L04B55MA,d,d,4606,3585,
30,4,IP55,B,Y200L04B55MA,d,d,6484,4720,
37,4,IP55,B,Y225S04B55MA,d,d,8003,5826,
45,4,IP55,B,Y225M04B55MA,d,d,8951,6518,
55,4,IP55,B,Y250M04B55MA,d,d,11095,8078,
75,4,IP55,B,Y280S04B55MA,d,d,15107,10575,
90,4,IP55,B,Y280M04B55MA,e,d,18472,11995,
110,4,IP55,B,Y315S04B55MA,e,d,30100,19545,
0.75,6,IP55,B,Y090S06B55MA,e,d,719,497,
1.1,6,IP55,B,Y090L06B55MA,e,d,770,532,
1.5,6,IP55,B,Y100L06B55MA,e,d,1026,709,
2.2,6,IP55,B,Y112M06B55MA,e,d,1309,902,
3,6,IP55,B,Y132S06B55MA,e,d,1809,1251,
4,6,IP55,B,Y132M16B55MA,e,d,1988,1402,
5.5,6,IP55,B,Y132M26B55MA,e,d,2168,1529,
7.5,6,IP55,B,Y160M06B55MA,e,d,3240,2145,
11,6,IP55,B,Y160L06B55MA,e,d,3748,2704,
15,6,IP55,B,Y180L06B55MA,e,d,4965,3585,
18.5,6,IP55,B,Y200L16B55MA,e,d,6638,4482,
22,6,IP55,B,Y200L26B55MA,e,d,7310,4954,
30,6,IP55,B,Y225M06B55MA,e,d,9621,6498,
37,6,IP55,B,Y250M06B55MA,e,d,11843,7999,
45,6,IP55,B,Y280S06B55MA,e,d,14737,9954,
55,6,IP55,B,Y280M06B55MA,e,d,16753,11317,
75,6,IP55,B,Y315S06B55MA,e,d,31844,20675,
2.2,8,IP55,B,Y132S08B55MA,e,d,1950,1251,
3,8,IP55,B,Y132M08B55MA,e,d,2053,1419,
4,8,IP55,B,Y160M18B55MA,e,d,3119,2066,
5.5,8,IP55,B,Y160M28B55MA,e,d,3433,2271,
7.5,8,IP55,B,Y160L08B55MA,e,d,3748,2479,
11,8,IP55,B,Y180L08B55MA,e,d,4965,3585,
15,8,IP55,B,Y200L08B55MA,e,d,6915,4661,
18.5,8,IP55,B,Y225S08B55MA,e,d,8510,5728,
22,8,IP55,B,Y250M08B55MA,e,d,9532,6439,
30,8,IP55,B,Y280S08B55MA,e,d,11843,7999,
37,8,IP55,B,Y280M08B55MA,e,d,14737,9954,
0.75,2,IP54,F,Y080012F54MA,e,d,664,397,
1.1,2,IP54,F,Y080022F54MA,e,d,734,439,
1.5,2,IP54,F,Y090S02F54MA,e,d,832,498,
2.2,2,IP54,F,Y090L02F54MA,e,d,875,522,
3,2,IP54,F,Y100L02F54MA,e,d,1185,710,
4,2,IP54,F,Y112M02F54MA,e,d,1481,906,
5.5,2,IP54,F,Y132S12F54MA,e,d,1990,1215,
7.5,2,IP54,F,Y132S22F54MA,e,d,2187,1336,
11,2,IP54,F,Y160M12F54MA,e,d,3565,2229,
15,2,IP54,F,Y160M22F54MA,e,d,3971,2481,
18.5,2,IP54,F,Y160L02F54MA,e,d,4318,2699,
22,2,IP54,F,Y180M02F54MA,e,d,5402,3514,
30,2,IP54,F,Y200L12F54MA,e,d,7715,0,
37,2,IP54,F,Y200L22F54MA,e,d,8521,0,
45,2,IP54,F,Y225M02F54MA,e,d,11057,0,
55,2,IP54,F,Y250M02F54MA,e,d,14282,0,
75,2,IP54,F,Y280S02F54MA,e,d,18464,0,
90,2,IP54,F,Y280M02F54MA,e,d,20205,0,
110,2,IP54,F,Y315S02F54MA,e,d,38973,0,
0.55,4,IP54,F,Y080014F54MA,e,d,650,389,
0.75,4,IP54,F,Y080024F54MA,e,d,691,412,
1.1,4,IP54,F,Y090S04F54MA,e,d,805,481,
1.5,4,IP54,F,Y090L04F54MA,e,d,846,506,
2.2,4,IP54,F,Y100L14F54MA,e,d,1073,643,
3,4,IP54,F,Y100L24F54MA,e,d,1185,710,
4,4,IP54,F,Y112M04F54MA,e,d,1467,897,
5.5,4,IP54,F,Y132S04F54MA,e,d,1990,1215,
7.5,4,IP54,F,Y132M04F54MA,e,d,2257,1379,
11,4,IP54,F,Y160M04F54MA,e,d,3565,2229,
15,4,IP54,F,Y160L04F54MA,e,d,4123,2575,
18.5,4,IP54,F,Y180M04F54MA,e,d,5115,3198,
22,4,IP54,F,Y180L04F54MA,e,d,5461,3414,
30,4,IP54,F,Y200L04F54MA,e,d,7688,4496,
37,4,IP54,F,Y225S04F54MA,e,d,9490,5549,
45,4,IP54,F,Y225M04F54MA,e,d,10614,6207,
55,4,IP54,F,Y250M04F54MA,e,d,13156,7693,
75,4,IP54,F,Y280S04F54MA,e,d,17914,10071,
90,4,IP54,F,Y280M04F54MA,e,d,20319,11424,
110,4,IP54,F,Y315S04F54MA,e,d,31605,18614,
0.75,6,IP54,F,Y090S06F54MA,e,d,790,473,
1.1,6,IP54,F,Y090L06F54MA,e,d,846,506,
1.5,6,IP54,F,Y100L06F54MA,e,d,1129,676,
2.2,6,IP54,F,Y112M06F54MA,e,d,1440,859,
3,6,IP54,F,Y132S06F54MA,e,d,1990,1191,
4,6,IP54,F,Y132M16F54MA,e,d,2187,1336,
5.5,6,IP54,F,Y132M26F54MA,e,d,2385,1456,
7.5,6,IP54,F,Y160M06F54MA,e,d,3565,2042,
11,6,IP54,F,Y160L06F54MA,e,d,4123,2575,
15,6,IP54,F,Y180L06F54MA,e,d,5461,3414,
18.5,6,IP54,F,Y200L16F54MA,e,d,7302,4268,
22,6,IP54,F,Y200L26F54MA,e,d,8041,4718,
30,6,IP54,F,Y225M06F54MA,e,d,10583,6188,
37,6,IP54,F,Y250M06F54MA,e,d,13028,7618,
45,6,IP54,F,Y280S06F54MA,e,d,16211,9480,
55,6,IP54,F,Y280M06F54MA,e,d,18428,10778,
75,6,IP54,F,Y315S06F54MA,e,d,35029,19691,
2.2,8,IP54,F,Y132S08F54MA,e,d,2145,1191,
3,8,IP54,F,Y132M08F54MA,e,d,2257,1351,
4,8,IP54,F,Y160M18F54MA,e,d,3430,1967,
5.5,8,IP54,F,Y160M28F54MA,e,d,3776,2163,
7.5,8,IP54,F,Y160L08F54MA,e,d,4123,2361,
11,8,IP54,F,Y180L08F54MA,e,d,5461,3414,
15,8,IP54,F,Y200L08F54MA,e,d,7607,4439,
18.5,8,IP54,F,Y225S08F54MA,e,d,9360,5455,
22,8,IP54,F,Y250M08F54MA,e,d,10486,6132,
30,8,IP54,F,Y280S08F54MA,e,d,13028,7618,
37,8,IP54,F,Y280M08F54MA,e,d,16211,9480,
0.75,2,IP55,F,Y080012F55MA,e,d,664,416,
1.1,2,IP55,F,Y080022F55MA,e,d,734,461,
1.5,2,IP55,F,Y090S02F55MA,e,d,832,523,
2.2,2,IP55,F,Y090L02F55MA,e,d,875,548,
3,2,IP55,F,Y100L02F55MA,e,d,1185,746,
4,2,IP55,F,Y112M02F55MA,e,d,1481,951,
5.5,2,IP55,F,Y132S12F55MA,e,d,1990,1276,
7.5,2,IP55,F,Y132S22F55MA,e,d,2187,1402,
11,2,IP55,F,Y160M12F55MA,e,d,3565,2340,
15,2,IP55,F,Y160M22F55MA,e,d,3971,2605,
18.5,2,IP55,F,Y160L02F55MA,e,d,4318,2834,
22,2,IP55,F,Y180M02F55MA,e,d,5402,3690,
30,2,IP55,F,Y200L12F55MA,e,d,7715,0,
37,2,IP55,F,Y200L22F55MA,e,d,8521,0,
45,2,IP55,F,Y225M02F55MA,e,d,11057,0,
55,2,IP55,F,Y250M02F55MA,e,d,14282,0,
75,2,IP55,F,Y280S02F55MA,e,d,18464,0,
90,2,IP55,F,Y280M02F55MA,e,d,20205,0,
110,2,IP55,F,Y315S02F55MA,e,d,38973,0,
0.55,4,IP55,F,Y080014F55MA,e,d,650,408,
0.75,4,IP55,F,Y080024F55MA,e,d,691,433,
1.1,4,IP55,F,Y090S04F55MA,e,d,805,505,
1.5,4,IP55,F,Y090L04F55MA,e,d,846,532,
2.2,4,IP55,F,Y100L14F55MA,e,d,1073,675,
3,4,IP55,F,Y100L24F55MA,e,d,1185,746,
4,4,IP55,F,Y112M04F55MA,e,d,1467,941,
5.5,4,IP55,F,Y132S04F55MA,e,d,1990,1276,
7.5,4,IP55,F,Y132M04F55MA,e,d,2257,1448,
11,4,IP55,F,Y160M04F55MA,e,d,3565,2340,
15,4,IP55,F,Y160L04F55MA,e,d,4123,2704,
18.5,4,IP55,F,Y180M04F55MA,e,d,5115,3358,
22,4,IP55,F,Y180L04F55MA,e,d,5461,3585,
30,4,IP55,F,Y200L04F55MA,e,d,7688,4720,
37,4,IP55,F,Y225S04F55MA,e,d,9490,5826,
45,4,IP55,F,Y225M04F55MA,e,d,10614,6518,
55,4,IP55,F,Y250M04F55MA,e,d,13156,8078,
75,4,IP55,F,Y280S04F55MA,e,d,17914,10575,
90,4,IP55,F,Y280M04F55MA,e,d,20319,11995,
110,4,IP55,F,Y315S04F55MA,e,d,31605,19545,
0.75,6,IP55,F,Y090S06F55MA,e,d,790,497,
1.1,6,IP55,F,Y090L06F55MA,e,d,846,532,
1.5,6,IP55,F,Y100L06F55MA,e,d,1129,709,
2.2,6,IP55,F,Y112M06F55MA,e,d,1440,902,
3,6,IP55,F,Y132S06F55MA,e,d,1990,1251,
4,6,IP55,F,Y132M16F55MA,e,d,2187,1402,
5.5,6,IP55,F,Y132M26F55MA,e,d,2385,1529,
7.5,6,IP55,F,Y160M06F55MA,e,d,3565,2145,
11,6,IP55,F,Y160L06F55MA,e,d,4123,2704,
15,6,IP55,F,Y180L06F55MA,e,d,5461,3585,
18.5,6,IP55,F,Y200L16F55MA,e,d,7302,4482,
22,6,IP55,F,Y200L26F55MA,e,d,8041,4954,
30,6,IP55,F,Y225M06F55MA,e,d,10583,6498,
37,6,IP55,F,Y250M06F55MA,e,d,13028,7999,
45,6,IP55,F,Y280S06F55MA,e,d,16211,9954,
55,6,IP55,F,Y280M06F55MA,e,d,18428,11317,
75,6,IP55,F,Y315S06F55MA,e,d,35029,20675,
2.2,8,IP55,F,Y132S08F55MA,e,d,2145,1251,
3,8,IP55,F,Y132M08F55MA,e,d,2257,1419,
4,8,IP55,F,Y160M18F55MA,e,d,3430,2066,
5.5,8,IP55,F,Y160M28F55MA,e,d,3776,2271,
7.5,8,IP55,F,Y160L08F55MA,e,d,4123,2479,
11,8,IP55,F,Y180L08F55MA,e,d,5461,3585,
15,8,IP55,F,Y200L08F55MA,e,d,7607,4661,
18.5,8,IP55,F,Y225S08F55MA,e,d,9360,5728,
22,8,IP55,F,Y250M08F55MA,e,d,10486,6439,
30,8,IP55,F,Y280S08F55MA,e,d,13028,7999,
37,8,IP55,F,Y280M08F55MA,e,d,16211,9954,
0.75,2,IP55,F,Y080012B54MFB,e,b,1818,416,
1.1,2,IP55,F,Y080022B54MFB,e,b,1897,461,
1.5,2,IP55,F,Y090S02B54MFB,e,b,2160,523,
2.2,2,IP55,F,Y090L02B54MFB,e,b,2411,548,
3,2,IP55,F,Y100L02B54MFB,e,b,3086,746,
4,2,IP55,F,Y112M02B54MFB,e,b,3852,951,
5.5,2,IP55,F,Y132S12B54MFB,e,b,5178,1276,
7.5,2,IP55,F,Y132S22B54MFB,e,b,5681,1402,
11,2,IP55,F,Y160M12B54MFB,e,b,8172,2340,
15,2,IP55,F,Y160M22B54MFB,e,b,9109,2605,
18.5,2,IP55,F,Y160L02B54MFB,e,b,9898,2834,
22,2,IP55,F,Y180M02B54MFB,e,b,12379,3690,
30,2,IP55,F,Y200L12B54MFB,e,b,16585,0,
37,2,IP55,F,Y200L22B54MFB,e,b,18334,0,
45,2,IP55,F,Y225M02B54MFB,e,b,23797,0,
55,2,IP55,F,Y250M02B54MFB,e,b,31467,0,
75,2,IP55,F,Y280S02B54MFB,e,b,38919,0,
90,2,IP55,F,Y280M02B54MFB,e,b,44611,0,
110,2,IP55,F,Y315S02B54MFB,e,b,76690,0,
130,2,IP55,F,,e,b,80917,0,
160,2,IP55,F,,e,b,83916,0,
200,2,IP55,F,,e,b,92293,0,
250,2,IP55,F,,e,b,140819,0,
315,2,IP55,F,,e,b,162484,0,
0.55,4,IP55,F,Y080014B55MFB,e,b,1760,408,
0.75,4,IP55,F,Y080024B55MFB,e,b,1863,433,
1.1,4,IP55,F,Y090S04B55MFB,e,b,2160,505,
1.5,4,IP55,F,Y090L04B55MFB,e,b,2332,532,
2.2,4,IP55,F,Y100L14B55MFB,e,b,2869,675,
3,4,IP55,F,Y100L24B55MFB,e,b,3258,746,
4,4,IP55,F,Y112M04B55MFB,e,b,3909,941,
5.5,4,IP55,F,Y132S04B55MFB,e,b,5178,1276,
7.5,4,IP55,F,Y132M04B55MFB,e,b,5979,1448,
11,4,IP55,F,Y160M04B55MFB,e,b,8172,2340,
15,4,IP55,F,Y160L04B55MFB,e,b,9453,2704,
18.5,4,IP55,F,Y180M04B55MFB,e,b,11854,3358,
22,4,IP55,F,Y180L04B55MFB,e,b,12652,3585,
30,4,IP55,F,Y200L04B55MFB,e,b,16665,4720,
37,4,IP55,F,Y225S04B55MFB,e,b,20563,5826,
45,4,IP55,F,Y225M04B55MFB,e,b,22768,6518,
55,4,IP55,F,Y250M04B55MFB,e,b,29855,8078,
75,4,IP55,F,Y280S04B55MFB,e,b,37524,10575,
90,4,IP55,F,Y280M04B55MFB,e,b,42565,11995,
110,4,IP55,F,Y315S04B55MFB,e,b,41931,19545,
130,4,IP55,F,,e,b,46962,0,
160,4,IP55,F,,e,b,54860,0,
200,4,IP55,F,,e,b,60340,0,
250,4,IP55,F,,e,b,86510,0,
315,4,IP55,F,,e,b,100530,0,
0.37,6,IP55,F,,e,b,1795,0,
0.55,6,IP55,F,,e,b,1909,0,
0.75,6,IP55,F,Y090S06B55MFB,e,b,2172,497,
1.1,6,IP55,F,Y090L06B55MFB,e,b,2332,532,
1.5,6,IP55,F,Y100L06B55MFB,e,b,2938,709,
2.2,6,IP55,F,Y112M06B55MFB,e,b,3737,902,
3,6,IP55,F,Y132S06B55MFB,e,b,5178,1251,
4,6,IP55,F,Y132M16B55MFB,e,b,5681,1402,
5.5,6,IP55,F,Y132M26B55MFB,e,b,6195,1529,
7.5,6,IP55,F,Y160M06B55MFB,e,b,8172,2145,
11,6,IP55,F,Y160L06B55MFB,e,b,9453,2704,
15,6,IP55,F,Y180L06B55MFB,e,b,12652,3585,
18.5,6,IP55,F,Y200L16B55MFB,e,b,15819,4482,
22,6,IP55,F,Y200L26B55MFB,e,b,17418,4954,
30,6,IP55,F,Y225M06B55MFB,e,b,22689,6498,
37,6,IP55,F,Y250M06B55MFB,e,b,29570,7999,
45,6,IP55,F,Y280S06B55MFB,e,b,36804,9954,
55,6,IP55,F,Y280M06B55MFB,e,b,41834,11317,
75,6,IP55,F,Y315S06B55MFB,e,b,73369,20675,
90,6,IP55,F,,e,b,77530,0,
110,6,IP55,F,,e,b,54597,0,
130,6,IP55,F,,e,b,60423,0,
160,6,IP55,F,,e,b,84167,0,
200,6,IP55,F,,e,b,88846,0,
250,6,IP55,F,,e,b,100530,0,
1.1,8,IP55,F,,e,b,2938,0,
1.5,8,IP55,F,,e,b,3737,0,
2.2,8,IP55,F,Y132S08B55MFB,e,b,5178,1251,
3,8,IP55,F,Y132M08B55MFB,e,b,5863,1419,
4,8,IP55,F,Y160M18B55MFB,e,b,7852,2066,
5.5,8,IP55,F,Y160M28B55MFB,e,b,8652,2271,
7.5,8,IP55,F,Y160L08B55MFB,e,b,10938,2479,
11,8,IP55,F,Y180L08B55MFB,e,b,12619,3585,
15,8,IP55,F,Y200L08B55MFB,e,b,16471,4661,
18.5,8,IP55,F,Y225S08B55MFB,e,b,20288,5728,
22,8,IP55,F,Y250M08B55MFB,e,b,22483,6439,
30,8,IP55,F,Y280S08B55MFB,e,b,29570,7999,
37,8,IP55,F,Y280M08B55MFB,e,b,36804,9954,
45,8,IP55,F,,e,b,41834,0,
55,8,IP55,F,,e,b,67025,0,
75,8,IP55,F,,e,b,77679,0,
90,8,IP55,F,,e,b,89507,0,
110,8,IP55,F,,e,b,59144,0,
0.18,6,IP55,F,,e,c,1365,0,
0.37,2,IP55,F,,e,c,1365,0,
0.25,4,IP55,F,,e,c,1365,0,
0.55,2,IP55,F,,e,c,1467,0,
0.25,6,IP55,F,,e,c,1467,0,
0.37,4,IP55,F,,e,c,1467,0,
0.37,6,IP55,F,,e,c,1520,0,
0.55,4,IP55,F,Y080014B55MBP,e,c,1487,0,
0.75,4,IP55,F,Y080024B55MBP,e,c,1536,0,
0.55,6,IP55,F,0,e,c,1614,0,
0.75,4,IP55,F,Y080024B55MBP,e,c,1574,0,
1.1,2,IP55,F,Y080022B55MBP,e,c,1611,0,
0.75,6,IP55,F,Y090S06B55MBP,e,c,1842,0,
1.1,4,IP55,F,Y090S04B55MBP,e,c,1830,0,
1.1,6,IP55,F,Y090L06B55MBP,e,c,1833,0,
1.5,2,IP55,F,Y090S02B55MBP,e,c,1833,0,
1.5,4,IP55,F,Y090L04B55MBP,e,c,1977,0,
1.5,6,IP55,F,Y100L06B55MBP,e,c,2683,0,
2.2,2,IP55,F,Y090L02B55MBP,e,c,2211,0,
2.2,4,IP55,F,Y100L14B55MBP,e,c,2629,0,
2.2,6,IP55,F,Y112M06B55MBP,e,c,3168,0,
2.2,8,IP55,F,Y132S08B55MBP,e,c,3723,0,
3,2,IP55,F,Y100L02B55MBP,e,c,2590,0,
3,4,IP55,F,Y100L24B55MBP,e,c,2735,0,
3,6,IP55,F,Y132S06B55MBP,e,c,3693,0,
3,8,IP55,F,Y132M08B55MBP,e,c,4190,0,
4,2,IP55,F,Y112M02B55MBP,e,c,3236,0,
4,4,IP55,F,Y112M04B55MBP,e,c,3288,0,
4,6,IP55,F,Y132M16B55MBP,e,c,4058,0,
4,8,IP55,F,Y160M18B55MBP,e,c,5630,0,
5.5,2,IP55,F,Y132S12B55MBP,e,c,3723,0,
5.5,4,IP55,F,Y132S04B55MBP,e,c,3723,0,
5.5,6,IP55,F,Y132M26B55MBP,e,c,4462,0,
5.5,8,IP55,F,Y160M28B55MBP,e,c,6253,0,
7.5,2,IP55,F,Y132S22B55MBP,e,c,4090,0,
7.5,4,IP55,F,Y132M04B55MBP,e,c,4302,0,
7.5,6,IP55,F,Y160M06B55MBP,e,c,5906,0,
7.5,8,IP55,F,Y160L08B55MBP,e,c,7908,0,
11,2,IP55,F,Y160M12B55MBP,e,c,5906,0,
11,4,IP55,F,Y160M04B55MBP,e,c,5906,0,
11,6,IP55,F,Y160L06B55MBP,e,c,6829,0,
11,8,IP55,F,Y180L08B55MBP,e,c,9114,0,
15,2,IP55,F,Y160M22B55MBP,e,c,6579,0,
15,4,IP55,F,Y160L04B55MBP,e,c,6828,0,
15,6,IP55,F,Y180L06B55MBP,e,c,9139,0,
15,8,IP55,F,Y200L08B55MBP,e,c,11897,0,
18.5,2,IP55,F,Y160L02B55MBP,e,c,7153,0,
18.5,4,IP55,F,Y180M04B55MBP,e,c,8563,0,
18.5,6,IP55,F,Y200L16B55MBP,e,c,11432,0,
18.5,8,IP55,F,Y225S08B55MBP,e,c,13573,0,
22,4,IP55,F,Y180L04B55MBP,e,c,9140,0,
22,6,IP55,F,Y200L26B55MBP,e,c,12589,0,
22,8,IP55,F,Y250M08B55MBP,e,c,16245,0,
30,4,IP55,F,Y200L04B55MBP,e,c,12040,0,
30,6,IP55,F,Y225M06B55MBP,e,c,16393,0,
30,8,IP55,F,Y280S08B55MBP,e,c,20874,0,
37,4,IP55,F,Y225S04B55MBP,e,c,14856,0,
37,6,IP55,F,Y250M06B55MBP,e,c,20874,0,
37,8,IP55,F,Y280M08B55MBP,e,c,25975,0,
45,4,IP55,F,Y225M04B55MBP,e,c,16449,0,
45,6,IP55,F,Y280S06B55MBP,e,c,25975,0,
45,8,IP55,F,0,e,c,29529,0,
55,4,IP55,F,Y250M04B55MBP,e,c,20910,0,
55,6,IP55,F,Y280M06B55MBP,e,c,29294,0,
55,8,IP55,F,0,e,c,46934,0,
55,6,IP55,F,Y280M06B55MBP,e,c,29294,0,
75,6,IP55,F,Y315S06B55MBP,e,c,51382,0,
75,8,IP55,F,0,e,c,54398,0,
90,4,IP55,F,Y280M04B55MBP,e,c,29808,0,
90,6,IP55,F,0,e,c,54293,0,
90,8,IP55,F,0,e,c,62679,0,
0.55,2,IP55,F,0.45/0.55-4/2P,e,a,666,0,
0.75,2,IP55,F,0.55/0.75-4/2P,e,a,707,0,
0.45,6,IP55,F,0.35/0.45-8/6P,e,a,827,0,
0.85,4,IP55,F,0.65/0.85-6/4P,e,a,827,0,
1.1,2,IP55,F,0.85/1.1-4/2P,e,a,819,0,
1.8,2,IP55,F,1.3/1.8-4/2P,e,a,886,0,
1.1,4,IP55,F,0.85/1.1-6/4P,e,a,886,0,
0.75,4,IP55,F,0.45/0.75-8/4P,e,a,886,0,
0.65,6,IP55,F,0.45/0.65-8/6P,e,a,886,0,
2.4,2,IP55,F,2/2.4-4/2P,e,a,1092,0,
1.8,4,IP55,F,1.3/1.8-6/4P,e,a,1092,0,
1.5,4,IP55,F,0.85/1.5-8/4P,e,a,1112,0,
1.1,6,IP55,F,0.75/1.1-8/6P,e,a,1112,0,
2.2,4,IP55,F,1.5/2.2-6/4P,e,a,1236,0,
3,2,IP55,F,2.4/3-4/2P,e,a,1236,0,
1.8,6,IP55,F,1.3/1.8-8/6P,e,a,1420,0,
2.8,4,IP55,F,2.2/2.8-6/4P,e,a,1420,0,
2.4,4,IP55,F,1.5/2.4-8/4P,e,a,1420,0,
4,2,IP55,F,3.3/4-4/2P,e,a,1487,0,
5.5,2,IP55,F,4.5/5.5-4/2P,e,a,1963,0,
4,4,IP55,F,3/4-6/4P,e,a,1963,0,
3.3,4,IP55,F,2.2/3.3-8/4P,e,a,1963,0,
2.4,6,IP55,F,1.8/2.4-8/6P,e,a,1963,0,
5.5,4,IP55,F,4/5.5-6/4P,e,a,2352,0,
8,2,IP55,F,6.5/8-4/2P,e,a,2855,0,
4.5,4,IP55,F,3/4.5-8/4P,e,a,2855,0,
3.7,6,IP55,F,2.6/3.7-8/6P,e,a,2855,0,
11,2,IP55,F,9/11-4/2P,e,a,4359,0,
8,4,IP55,F,6.5/8-6/4P,e,a,4359,0,
7.5,4,IP55,F,5/7.5-8/4P,e,a,4359,0,
6,6,IP55,F,4.5/6-8/6P,e,a,4359,0,
5,6,IP55,F,2.6/5-12/6P,e,a,4359,0,
14,2,IP55,F,11/14-4/2P,e,a,5043,0,
11,4,IP55,F,9/11-6/4P,e,a,5043,0,
8,6,IP55,F,6/8-8/6P,e,a,5043,0,
18.5,2,IP55,F,15/18.5-4/2P,e,a,6517,0,
14,4,IP55,F,11/14-6/4P,e,a,6517,0,
10,6,IP55,F,7.5/10-8/6P,e,a,6517,0,
22,2,IP55,F,18.5/22-4/2P,e,a,6673,0,
16,4,IP55,F,13/16-6/4P,e,a,6673,0,
12,6,IP55,F,9/12-8/6P,e,a,6673,0,
30,2,IP55,F,26/30-4/2P,e,a,9303,0,
22,4,IP55,F,18.5/22-6/4P,e,a,9303,0,
17,6,IP55,F,12/17-8/6P,e,a,8837,0,
20,6,IP55,F,15/20-8/6P,e,a,9303,0,
37,2,IP55,F,32/37-4/2P,e,a,11490,0,
28,4,IP55,F,22/28-6/4P,e,a,11335,0,
45,2,IP55,F,37/45-4/2P,e,a,12848,0,
32,4,IP55,F,26/32-6/4P,e,a,12848,0,
34,6,IP55,F,24/34-8/6P,e,a,12848,0,
52,2,IP55,F,45/52-4/2P,e,a,15925,0,
42,4,IP55,F,32/42-6/4P,e,a,15925,0,
72,2,IP55,F,60/72-4/2P,e,a,20011,0,
55,4,IP55,F,42/55-6/4P,e,a,19620,0,
82,2,IP55,F,72/82-4/2P,e,a,22707,0,
67,4,IP55,F,55/67-6/4P,e,a,22316,0,
0.75,2,IP54,B,Y080012B54MA,e,d,604,397,
1.1,2,IP54,B,Y080022B54MA,e,d,667,439,
1.5,2,IP54,B,Y090S02B54MA,e,d,757,498,
2.2,2,IP54,B,Y090L02B54MA,e,d,796,522,
3,2,IP54,B,Y100L02B54MA,e,d,1077,710,
4,2,IP54,B,Y112M02B54MA,e,d,1346,906,
5.5,2,IP54,B,Y132S12B54MA,e,d,1809,1215,
7.5,2,IP54,B,Y132S22B54MA,e,d,1988,1336,
11,2,IP54,B,Y160M12B54MA,e,d,3240,2229,
15,2,IP54,B,Y160M22B54MA,e,d,3610,2481,
18.5,2,IP54,B,Y160L02B54MA,e,d,3926,2699,
22,2,IP54,B,Y180M02B54MA,e,d,4910,3514,
30,2,IP54,B,Y200L12B54MA,e,d,7013,0,
37,2,IP54,B,Y200L22B54MA,e,d,7745,0,
45,2,IP54,B,Y225M02B54MA,e,d,10052,0,
55,2,IP54,B,Y250M02B54MA,e,d,12985,0,
75,2,IP54,B,Y280S02B54MA,e,d,16786,0,
90,2,IP54,B,Y280M02B54MA,e,d,19242,0,
110,2,IP54,B,Y315S02B54MA,e,d,35431,0,
0.55,4,IP54,B,Y080014B54MA,e,d,591,389,
0.75,4,IP54,B,Y080024B54MA,e,d,628,412,
1.1,4,IP54,B,Y090S04B54MA,e,d,732,481,
1.5,4,IP54,B,Y090L04B54MA,e,d,770,506,
2.2,4,IP54,B,Y100L14B54MA,e,d,976,643,
3,4,IP54,B,Y100L24B54MA,e,d,1077,710,
4,4,IP54,B,Y112M04B54MA,e,d,1333,897,
5.5,4,IP54,B,Y132S04B54MA,e,d,1809,1215,
7.5,4,IP54,B,Y132M04B54MA,e,d,2053,1379,
11,4,IP54,B,Y160M04B54MA,e,d,3240,2229,
15,4,IP54,B,Y160L04B54MA,e,d,3748,2575,
18.5,4,IP54,B,Y180M04B54MA,e,d,4650,3198,
22,4,IP54,B,Y180L04B54MA,e,d,4965,3414,
30,4,IP54,B,Y200L04B54MA,e,d,6990,4496,
37,4,IP54,B,Y225S04B54MA,e,d,8627,5549,
45,4,IP54,B,Y225M04B54MA,e,d,9649,6207,
55,4,IP54,B,Y250M04B54MA,e,d,11960,7693,
75,4,IP54,B,Y280S04B54MA,e,d,16285,10071,
90,4,IP54,B,Y280M04B54MA,e,d,18472,11424,
110,4,IP54,B,Y315S04B54MA,e,d,30100,18614,
0.75,6,IP54,B,Y090S06B54MA,e,d,719,473,
1.1,6,IP54,B,Y090L06B54MA,e,d,770,506,
1.5,6,IP54,B,Y100L06B54MA,e,d,1026,676,
2.2,6,IP54,B,Y112M06B54MA,e,d,1309,859,
3,6,IP54,B,Y132S06B54MA,e,d,1809,1191,
4,6,IP54,B,Y132M16B54MA,e,d,1988,1336,
5.5,6,IP54,B,Y132M26B54MA,e,d,2168,1456,
7.5,6,IP54,B,Y160M06B54MA,e,d,3240,2042,
11,6,IP54,B,Y160L06B54MA,e,d,3748,2575,
15,6,IP54,B,Y180L06B54MA,e,d,4965,3414,
18.5,6,IP54,B,Y200L16B54MA,e,d,6638,4268,
22,6,IP54,B,Y200L26B54MA,e,d,7310,4718,
30,6,IP54,B,Y225M06B54MA,e,d,9621,6188,
37,6,IP54,B,Y250M06B54MA,e,d,11843,7618,
45,6,IP54,B,Y280S06B54MA,e,d,14737,9480,
55,6,IP54,B,Y280M06B54MA,e,d,16753,10778,
75,6,IP54,B,Y315S06B54MA,e,d,31844,19691,
2.2,8,IP54,B,Y132S08B54MA,e,d,1950,1191,
3,8,IP54,B,Y132M08B54MA,e,d,2053,1351,
4,8,IP54,B,Y160M18B54MA,e,d,3119,1967,
5.5,8,IP54,B,Y160M28B54MA,e,d,3433,2163,
7.5,8,IP54,B,Y160L08B54MA,e,d,3748,2361,
11,8,IP54,B,Y180L08B54MA,e,d,4965,3414,
15,8,IP54,B,Y200L08B54MA,e,d,6915,4439,
18.5,8,IP54,B,Y225S08B54MA,e,d,8510,5455,
22,8,IP54,B,Y250M08B54MA,e,d,9532,6132,
30,8,IP54,B,Y280S08B54MA,e,d,11843,7618,
37,8,IP54,B,Y280M08B54MA,e,d,14737,9480,
0.75,2,IP55,B,Y080012B55MA,e,d,604,416,
1.1,2,IP55,B,Y080022B55MA,e,d,667,461,
1.5,2,IP55,B,Y090S02B55MA,e,d,757,523,
2.2,2,IP55,B,Y090L02B55MA,e,d,796,548,
3,2,IP55,B,Y100L02B55MA,e,d,1077,746,
4,2,IP55,B,Y112M02B55MA,e,d,1346,951,
5.5,2,IP55,B,Y132S12B55MA,e,d,1809,1276,
7.5,2,IP55,B,Y132S22B55MA,e,d,1988,1402,
11,2,IP55,B,Y160M12B55MA,e,d,3240,2340,
15,2,IP55,B,Y160M22B55MA,e,d,3610,2605,
18.5,2,IP55,B,Y160L02B55MA,e,d,3926,2834,
22,2,IP55,B,Y180M02B55MA,e,d,4910,3690,
30,2,IP55,B,Y200L12B55MA,e,d,7013,0,
37,2,IP55,B,Y200L22B55MA,e,d,7745,0,
45,2,IP55,B,Y225M02B55MA,e,d,10052,0,
55,2,IP55,B,Y250M02B55MA,e,d,12985,0,
75,2,IP55,B,Y280S02B55MA,e,d,16786,0,
90,2,IP55,B,Y280M02B55MA,e,d,19242,0,
110,2,IP55,B,Y315S02B55MA,e,d,35431,0,
0.55,4,IP55,B,Y080014B55MA,e,d,591,408,
0.75,4,IP55,B,Y080024B55MA,e,d,628,433,
1.1,4,IP55,B,Y090S04B55MA,e,d,732,505,
1.5,4,IP55,B,Y090L04B55MA,e,d,770,532,
2.2,4,IP55,B,Y100L14B55MA,e,d,976,675,
3,4,IP55,B,Y100L24B55MA,e,d,1077,746,
4,4,IP55,B,Y112M04B55MA,e,d,1333,941,
5.5,4,IP55,B,Y132S04B55MA,e,d,1809,1276,
7.5,4,IP55,B,Y132M04B55MA,e,d,2053,1448,
11,4,IP55,B,Y160M04B55MA,e,d,3240,2340,
15,4,IP55,B,Y160L04B55MA,e,d,3748,2704,
18.5,4,IP55,B,Y180M04B55MA,e,d,4650,3358,
22,4,IP55,B,Y180L04B55MA,e,d,4965,3585,
30,4,IP55,B,Y200L04B55MA,e,d,6990,4720,
37,4,IP55,B,Y225S04B55MA,e,d,8627,5826,
45,4,IP55,B,Y225M04B55MA,e,d,9649,6518,
55,4,IP55,B,Y250M04B55MA,e,d,11960,8078,
75,4,IP55,B,Y280S04B55MA,e,d,16285,10575,
