type,m3,m4,m5,m6,m7,m8,m9
39G0608,2211,2543,2819,3350,3875,4417,4969
39G0609,2590,2979,3179,3814,4417,5036,5665
39G0711,2632,3027,3763,4515,5235,5971,6717
39G0811,2632,3027,3763,4515,5235,5971,6717
39G0912,2677,3078,3863,4590,5325,6074,6833
39G0913,2920,3358,4197,5036,5779,6665,7499
39G0914,3085,3547,4457,5348,6145,7011,7888
39G1015,3235,3720,4630,5555,6448,7357,8277
39G1117,3606,4147,5163,6196,7195,8211,9237
39G1317,3606,4147,5163,6196,7195,8211,9237
39G1418,3752,4315,5340,6407,7489,8547,9615
39G1420,3990,4588,5889,7067,8211,9373,10544
39G1621,4432,5097,5914,7097,8858,10112,11376
39G1822,4940,5681,6351,7621,9880,11279,12689
39G1825,5124,5893,7116,8540,10219,11661,13119
39G2025,5124,5893,7116,8540,10219,11661,13119
39G2125,5124,5893,7116,8540,10219,11661,13119
39G2226,5520,6348,7328,8794,11016,12572,14144
39G2328,6412,7374,7771,9325,11663,14138,15906
39G2330,6487,7460,8331,9997,11663,14723,16564
39G2333,6520,7498,8973,10768,12562,15669,17628
39CQ0608,2101,2416,2678,3183,3682,4196,4721
39CQ0609,2461,2830,3020,3624,4196,4785,5383
39CQ0711,2501,2876,3575,4290,4974,5673,6382
39CQ0811,2501,2876,3575,4290,4974,5673,6382
39CQ0912,2543,2925,3670,4361,5059,5771,6492
39CQ0913,2774,3190,3988,4785,5490,6333,7125
39CQ0914,2931,3370,4235,5082,5839,6662,7494
39CQ1015,3074,3535,4399,5278,6126,6990,7864
39CQ1117,3426,3940,4905,5887,6836,7801,8777
39CQ1317,3426,3940,4905,5887,6836,7801,8777
39CQ1418,3565,4100,5073,6088,7115,8121,9136
39CQ1420,3791,4359,5595,6714,7802,8905,10018
39CQ1621,4211,4843,5619,6743,8416,9607,10808
39CQ1822,4694,5398,6034,7241,9387,10716,12056
39CQ1825,4869,5599,6761,8114,9709,11079,12464
39CQ2025,4869,5599,6761,8114,9709,11079,12464
39CQ2125,4869,5599,6761,8114,9709,11079,12464
39CQ2226,5245,6032,6962,8355,10467,11945,13438
39CQ2328,6092,7006,7383,8860,11081,13433,15112
39CQ2330,6164,7088,7915,9498,11081,13989,15738
39CQ2333,6195,7124,8525,10230,11936,14887,16748
39CQ2435,6573,7559,9046,10855,12665,17191,19340
39CQ2635,6573,7559,9046,10855,12665,17191,19340
39CQ2735,6573,7559,9046,10855,12665,17191,19340
39XT0608,1999,2299,2548,3028,3503,3993,4492
39XT0609,2341,2693,2873,3448,3993,4552,5121
39XT0711,2379,2736,3402,4082,4732,5397,6072
39XT0811,2379,2736,3402,4082,4732,5397,6072
39XT0912,2420,2783,3492,4149,4814,5491,6177
39XT0913,2639,3035,3794,4553,5224,6025,6779
39XT0914,2788,3207,4029,4835,5555,6338,7130
39XT1015,2924,3363,4185,5022,5829,6651,7482
39XT1117,3260,3749,4667,5601,6504,7423,8350
39XT1317,3260,3749,4667,5601,6504,7423,8350
39XT1418,3392,3901,4827,5792,6770,7726,8692
39XT1420,3606,4147,5324,6388,7423,8473,9532
39XT1621,4007,4608,5346,6416,8007,9141,10283
39XT1822,4466,5136,5741,6889,8931,10196,11470
39XT1825,4632,5327,6433,7720,9238,10541,11859
39XT2025,4632,5327,6433,7720,9238,10541,11859
39XT2125,4632,5327,6433,7720,9238,10541,11859
39XT2226,4990,5739,6624,7949,9958,11365,12786
39XT2328,5796,6666,7024,8429,10543,12781,14378
39XT2330,5864,6744,7531,9037,10543,13310,14973
39XT2333,5894,6778,8111,9734,11356,14164,15935