{
    "name":"CoolingCoil",
    "version":"1.0.0",
    "parameters":[
        {
            "key":"meta.section.coolingCoil.para",
            "name":"product",
            "group":"ahu",
            "rMaterial":false,
            "rDirection":true,
            "rPerformance":false,
            "editable":false,
            "global":true,
            "valueSource":"",
        	"valueType":"Double",
            "memo":""
        }
    ]
}