section,whichFlag,fanType,size,wringq,wringqAl
A,1,39CQ0608,756*322.5,5,5
A,1,39CQ0609,856*322.5,5.5,5.5
A,1,39CQ0711,1056*322.5,6,6
A,1,39CQ0811,1056*322.5,6,6
A,1,39CQ0912,1156*322.5,6.5,6.5
A,1,39CQ0913,1256*480,8,8
A,1,39CQ0914,1356*480,8,8
A,1,39CQ1015,1456*480,9,9
A,1,39CQ1117,1656*480,10,10
A,1,39CQ1317,1656*480,10,10
A,1,39CQ1418,1756*637.5,19,18
A,1,39CQ1420,1956*637.5,20,20
A,1,39CQ1621,2056*637.5,21,21
A,1,39CQ1822,2156*795,23,23
A,1,39CQ1825,2456*795,25,14*2
A,1,39CQ2025,2456*795,25,14*2
A,1,39CQ2125,2456*952.5,30,15*2
A,1,39CQ2226,2556*952.5,17*2,16*2
A,1,39CQ2328,2756*952.5,18*2,18*2
A,1,39CQ2330,2956X952.5,19*2,19*2
A,1,39CQ2333,3256X952.5,20*2,20*2
A,1,39CQ2435,3456*952.5,22*2,22*2
A,1,39CQ2635,3456X952.5,22*2,22*2
A,1,39CQ2735,3456X952.5,22*2,22*2
A,1,39CQ2532,3156*952.5,20*2,20*2
A,1,39CQ2832,3156*952.5,20*2,20*2
A,1,39CQ3132,3156*1267.5,23*2,23*2
A,1,39CQ3438,3756*1267.5,29*2,29*2
A,1,39G0608,676*322.5,5,5
A,1,39G0609,776*322.5,5.5,5.5
A,1,39G0711,976*322.5,6,6
A,1,39G0811,976*322.5,6,6
A,1,39G0912,1076*322.5,6.5,6.5
A,1,39G0913,1176*480,8,8
A,1,39G0914,1276*480,8,8
A,1,39G1015,1376*480,9,9
A,1,39G1117,1576*480,10,10
A,1,39G1317,1576*480,10,10
A,1,39G1418,1676*637.5,13,15
A,1,39G1420,1876*637.5,20,20
A,1,39G1621,1976*637.5,21,21
A,1,39G1822,2076*795,23,23
A,1,39G1825,2376*795,24,24
A,1,39G2025,2376*795,34,24
A,1,39G2125,2376*952.5,30,15*2
A,1,39G2226,2476*952.5,32,16*2
A,1,39G2328,2676*952.5,18*2,18*2
A,1,39G2330,2876*952.5,19*2,19*2
A,1,39G2333,3176*952.5,20*2,20*2
A,1,39XT0608,704*322.5,5,5
A,1,39XT0609,804*322.5,5.5,5.5
A,1,39XT0711,1004*322.5,6,6
A,1,39XT0811,1004*322.5,6,6
A,1,39XT0912,1104*322.5,6.5,6.5
A,1,39XT0913,1204*480,8,8
A,1,39XT0914,1304*480,8,8
A,1,39XT1015,1404*480,9,9
A,1,39XT1117,1604*480,10,10
A,1,39XT1317,1604*480,10,10
A,1,39XT1418,1704*637.5,13,15
A,1,39XT1420,1904*637.5,20,20
A,1,39XT1621,2004*637.5,21,21
A,1,39XT1822,2104*795,23,23
A,1,39XT1825,2404*795,25,24
A,1,39XT2025,2404*795,25,24
A,1,39XT2125,2404*952.5,30,15*2
A,1,39XT2226,2504*952.5,32,16*2
A,1,39XT2328,2704*952.5,18*2,18*2
A,1,39XT2330,3204*952.5,19*2,19*2
A,1,39XT2333,3204*952.5,20*2,20*2
A,1,39XT2532,3104*952.5,20*2,20*2
A,1,39XT2832,3104*952.5,20*2,20*2
A,1,39XT3132,3104*1267.5,23*2,23*2
A,1,39XT3438,3704*1267.5,29*2,29*2
A,1,39XT3841,4004*1582.5,31*2,31*2
A,1,39XT4444,4304*1582.5,33*2,33*2
A,1,39XT4750,4904*1582.5,35*2,35*2
A,2,39CQ0608,756*322.5,5,5
A,2,39CQ0609,856*322.5,5.5,5.5
A,2,39CQ0711,1056*322.5,6,6
A,2,39CQ0811,1056*322.5,6,6
A,2,39CQ0912,1156*322.5,6.5,6.5
A,2,39CQ0913,1256*480,8,8
A,2,39CQ0914,1356*480,8,8
A,2,39CQ1015,1456*480,9,9
A,2,39CQ1117,1656*480,10,10
A,2,39CQ1317,1656*480,10,10
A,2,39CQ1418,1756*637.5,19,18
A,2,39CQ1420,1956*637.5,20,20
A,2,39CQ1621,2056*637.5,21,21
A,2,39CQ1822,2156*795,23,23
A,2,39CQ1825,2456*795,25,14*2
A,2,39CQ2025,2456*795,25,14*2
A,2,39CQ2125,2456*952.5,30,15*2
A,2,39CQ2226,2556*952.5,17*2,16*2
A,2,39CQ2328,2756*952.5,18*2,18*2
A,2,39CQ2330,2956X952.5,19*2,19*2
A,2,39CQ2333,3256X952.5,20*2,20*2
A,2,39CQ2435,3456*952.5,22*2,22*2
A,2,39CQ2635,3456X952.5,22*2,22*2
A,2,39CQ2735,3456X952.5,22*2,22*2
A,2,39CQ2532,3156*952.5,20*2,20*2
A,2,39CQ2832,3156*952.5,20*2,20*2
A,2,39CQ3132,3156*1267.5,23*2,23*2
A,2,39CQ3438,3756*1267.5,29*2,29*2
A,2,39G0608,676*322.5,5,5
A,2,39G0609,776*322.5,5.5,5.5
A,2,39G0711,976*322.5,6,6
A,2,39G0811,976*322.5,6,6
A,2,39G0912,1076*322.5,6.5,6.5
A,2,39G0913,1176*480,8,8
A,2,39G0914,1276*480,8,8
A,2,39G1015,1376*480,9,9
A,2,39G1117,1576*480,10,10
A,2,39G1317,1576*480,10,10
A,2,39G1418,1676*637.5,13,15
A,2,39G1420,1876*637.5,20,20
A,2,39G1621,1976*637.5,21,21
A,2,39G1822,2076*795,23,23
A,2,39G1825,2376*795,24,24
A,2,39G2025,2376*795,34,24
A,2,39G2125,2376*952.5,30,15*2
A,2,39G2226,2476*952.5,32,16*2
A,2,39G2328,2676*952.5,18*2,18*2
A,2,39G2330,2876*952.5,19*2,19*2
A,2,39G2333,3176*952.5,20*2,20*2
A,2,39XT0608,704*322.5,5,5
A,2,39XT0609,804*322.5,5.5,5.5
A,2,39XT0711,1004*322.5,6,6
A,2,39XT0811,1004*322.5,6,6
A,2,39XT0912,1104*322.5,6.5,6.5
A,2,39XT0913,1204*480,8,8
A,2,39XT0914,1304*480,8,8
A,2,39XT1015,1404*480,9,9
A,2,39XT1117,1604*480,10,10
A,2,39XT1317,1604*480,10,10
A,2,39XT1418,1704*637.5,13,15
A,2,39XT1420,1904*637.5,20,20
A,2,39XT1621,2004*637.5,21,21
A,2,39XT1822,2104*795,23,23
A,2,39XT1825,2404*795,25,24
A,2,39XT2025,2404*795,25,24
A,2,39XT2125,2404*952.5,30,15*2
A,2,39XT2226,2504*952.5,32,16*2
A,2,39XT2328,2704*952.5,18*2,18*2
A,2,39XT2330,3204*952.5,19*2,19*2
A,2,39XT2333,3204*952.5,20*2,20*2
A,2,39XT2532,3104*952.5,20*2,20*2
A,2,39XT2832,3104*952.5,20*2,20*2
A,2,39XT3132,3104*1267.5,23*2,23*2
A,2,39XT3438,3704*1267.5,29*2,29*2
A,2,39XT3841,4004*1582.5,31*2,31*2
A,2,39XT4444,4304*1582.5,33*2,33*2
A,2,39XT4750,4904*1582.5,35*2,35*2
A,3,39CQ0608,556*322.5,4,4
A,3,39CQ0609,556*322.5,4,4
A,3,39CQ0711,656*322.5,4,4
A,3,39CQ0811,656*322.5,4,5
A,3,39CQ0912,756*322.5,5,5
A,3,39CQ0913,856*322.5,5,6
A,3,39CQ0914,856*480,6,6
A,3,39CQ1015,856*480,6,6.5
A,3,39CQ1117,956*480,6.5,6.5
A,3,39CQ1317,1056*480,6.5,8
A,3,39CQ1418,1256*480,8,11
A,3,39CQ1420,1356*637.5,11,11
A,3,39CQ1621,1356*637.5,11,12
A,3,39CQ1822,1556*637.5,12,18
A,3,39CQ1825,1756*795,18,18
A,3,39CQ2025,1756*795,18,20
A,3,39CQ2125,1956*795,20,30
A,3,39CQ2226,2056*952.5,30,30
A,3,39CQ2328,2156*952.5,30,30
A,3,39CQ2330,2156*952.5,30,30
A,3,39CQ2333,2256*952.5,30,30
A,3,39CQ2435,2356*952.5,32,32
A,3,39CQ2635,2556*952.5,34,34
A,3,39CQ2735,2656*952.5,36,36
A,3,39G0608,476X322.5,4,4
A,3,39G0609,476X322.5,4,4
A,3,39G0711,576X322.5,4,4
A,3,39G0811,676X322.5,4,5
A,3,39G0912,776X322.5,5,5
A,3,39G0913,776X480,5,6
A,3,39G0914,776X480,6,6
A,3,39G1015,876X480,6,6.5
A,3,39G1117,976X480,6.5,6.5
A,3,39G1317,1176X480,6.5,8
A,3,39G1418,1276X637.5,8,11
A,3,39G1420,1276X637.5,11,11
A,3,39G1621,1476X637.5,11,12
A,3,39G1822,1676X795,12,15
A,3,39G1825,1676X795,15,15
A,3,39G2025,1876X795,15,20
A,3,39G2125,1976X952.5,20,30
A,3,39G2226,2076X952.5,30,30
A,3,39G2328,2176X952.5,30,30
A,3,39G2330,2176X952.5,30,30
A,3,39G2333,2176X952.5,30,30
A,3,39XT0608,504*322.5,4,4
A,3,39XT0609,504*322.5,4,4
A,3,39XT0711,604*322.5,4,4
A,3,39XT0811,604*322.5,4,5
A,3,39XT0912,704*322.5,5,5
A,3,39XT0913,804*322.5,5,6
A,3,39XT0914,804*480,6,6
A,3,39XT1015,804*480,6,6.5
A,3,39XT1117,904*480,6.5,6.5
A,3,39XT1317,1004*480,6.5,8
A,3,39XT1418,1204*480,8,11
A,3,39XT1420,1304*637.5,11,11
A,3,39XT1621,1304*637.5,11,12
A,3,39XT1822,1504*637.5,12,15
A,3,39XT1825,1704*795,15,15
A,3,39XT2025,1704*795,15,20
A,3,39XT2125,1904*795,20,30
A,3,39XT2226,2004*952.5,30,30
A,3,39XT2328,2104*952.5,30,30
A,3,39XT2330,2204*952.5,30,30
A,3,39XT2333,2204*952.5,30,30
A,4,39CQ0608,556*322.5,4,4
A,4,39CQ0609,556*322.5,4,4
A,4,39CQ0711,656*322.5,4,4
A,4,39CQ0811,656*322.5,4,5
A,4,39CQ0912,756*322.5,5,5
A,4,39CQ0913,856*322.5,5,6
A,4,39CQ0914,856*480,6,6
A,4,39CQ1015,856*480,6,6.5
A,4,39CQ1117,956*480,6.5,6.5
A,4,39CQ1317,1056*480,6.5,8
A,4,39CQ1418,1256*480,8,11
A,4,39CQ1420,1356*637.5,11,11
A,4,39CQ1621,1356*637.5,11,12
A,4,39CQ1822,1556*637.5,12,18
A,4,39CQ1825,1756*795,18,18
A,4,39CQ2025,1756*795,18,20
A,4,39CQ2125,1956*795,20,30
A,4,39CQ2226,2056*952.5,30,30
A,4,39CQ2328,2156*952.5,30,30
A,4,39CQ2330,2256*952.5,30,30
A,4,39CQ2333,2256*952.5,30,30
A,4,39CQ2435,2356*952.5,32,32
A,4,39CQ2635,2556*952.5,34,34
A,4,39CQ2735,2656*952.5,36,36
A,4,39G0608,476X322.5,4,4
A,4,39G0609,476X322.5,4,4
A,4,39G0711,576X322.5,4,4
A,4,39G0811,676X322.5,4,5
A,4,39G0912,776X322.5,5,5
A,4,39G0913,776X480,5,6
A,4,39G0914,776X480,6,6
A,4,39G1015,876X480,6,6.5
A,4,39G1117,976X480,6.5,6.5
A,4,39G1317,1176X480,6.5,8
A,4,39G1418,1276X637.5,8,11
A,4,39G1420,1276X637.5,11,11
A,4,39G1621,1476X637.5,11,12
A,4,39G1822,1676X795,12,15
A,4,39G1825,1676X795,15,15
A,4,39G2025,1876X795,15,20
A,4,39G2125,1976X952.5,20,30
A,4,39G2226,2076X952.5,30,30
A,4,39G2328,2176X952.5,30,30
A,4,39G2330,2176X952.5,30,30
A,4,39G2333,2176X952.5,30,30
A,4,39XT0608,504*322.5,4,4
A,4,39XT0609,504*322.5,4,4
A,4,39XT0711,604*322.5,4,4
A,4,39XT0811,604*322.5,4,5
A,4,39XT0912,704*322.5,5,5
A,4,39XT0913,804*322.5,5,6
A,4,39XT0914,804*480,6,6
A,4,39XT1015,804*480,6,6.5
A,4,39XT1117,904*480,6.5,6.5
A,4,39XT1317,1004*480,6.5,8
A,4,39XT1418,1204*480,8,11
A,4,39XT1420,1304*637.5,11,11
A,4,39XT1621,1304*637.5,11,12
A,4,39XT1822,1504*637.5,12,15
A,4,39XT1825,1704*795,15,15
A,4,39XT2025,1704*795,15,20
A,4,39XT2125,1904*795,20,30
A,4,39XT2226,2004*952.5,30,30
A,4,39XT2328,2104*952.5,30,30
A,4,39XT2330,2204*952.5,30,30
A,4,39XT2333,2204*952.5,30,30
A,5,39CQ0608,356*200,3,3
A,5,39CQ0609,456*200,3,3
A,5,39CQ0711,656*200,3,3
A,5,39CQ0811,656*200,3,3
A,5,39CQ0912,756*200,3,3
A,5,39CQ0913,856*322.5,5.5,5
A,5,39CQ0914,956*322.5,5.5,5
A,5,39CQ1015,1056*322.5,6,5
A,5,39CQ1117,1256*322.5,6.5,5
A,5,39CQ1317,1256*322.5,6.5,5
A,5,39CQ1418,1356*480,8,8
A,5,39CQ1420,1556*480,9,9
A,5,39CQ1621,1656*480,10,10
A,5,39CQ1822,1756*637.5,19,18
A,5,39CQ1825,2056*637.5,21,20
A,5,39CQ2025,2056*637.5,21,20
A,5,39CQ2125,2056*795,23,22
A,5,39CQ2226,2156*795,23,22
A,5,39CQ2328,2356*795,24,23
A,5,39CQ2330,2856*795,30,30
A,5,39CQ2333,2856*795,18*2,18*2
A,5,39CQ2435,3056*952.5,20*2,20*2
A,5,39CQ2635,3056*952.5,20*2,20*2
A,5,39CQ2735,3056*952.5,20*2,20*2
A,5,39G0608,276X200,3,3
A,5,39G0609,376X200,3,3
A,5,39G0711,576X200,3,3
A,5,39G0811,576X200,3,3
A,5,39G0912,676X200,3,3
A,5,39G0913,776X322.5,5,5
A,5,39G0914,876X322.5,5,5
A,5,39G1015,976X322.5,5,5
A,5,39G1117,1176X322.5,5,5
A,5,39G1317,1176X322.5,5,5
A,5,39G1418,1276X480,8,8
A,5,39G1420,1476X480,9,9
A,5,39G1621,1576X480,10,10
A,5,39G1822,1676X637.5,13,13
A,5,39G1825,1976X637.5,20,20
A,5,39G2025,1976X637.5,20,20
A,5,39G2125,1976X795,22,22
A,5,39G2226,2076X795,22,22
A,5,39G2328,2276X795,23,23
A,5,39G2330,2776X795,30,30
A,5,39G2333,2776X795,18*2,18*2
A,5,39XT0608,304*200,3,3
A,5,39XT0609,404*200,3,3
A,5,39XT0711,604*200,3,3
A,5,39XT0811,604*200,3,3
A,5,39XT0912,704*200,3,3
A,5,39XT0913,804*322.5,5.5,5
A,5,39XT0914,904*322.5,6,5
A,5,39XT1015,1004*322.5,6,5
A,5,39XT1117,1204*322.5,6,5
A,5,39XT1317,1204*322.5,6,5
A,5,39XT1418,1304*480,8,8
A,5,39XT1420,1504*480,9,9
A,5,39XT1621,1604*480,10,10
A,5,39XT1822,1704*637.5,13,13
A,5,39XT1825,2004*637.5,21,20
A,5,39XT2025,2004*637.5,21,20
A,5,39XT2125,2004*795,22,22
A,5,39XT2226,2104*795,23,22
A,5,39XT2328,2304*795,25,23
A,5,39XT2330,2804*795,30,30
A,5,39XT2333,2804*795,18*2,18*2
L,1,39CQ0608,556*322.5,4,4
L,1,39CQ0609,656*322.5,4,4
L,1,39CQ0711,856*322.5,5,5
L,1,39CQ0811,856*322.5,5,5
L,1,39CQ0912,956*322.5,5,5
L,1,39CQ0913,1056*480,7,7
L,1,39CQ0914,1156*480,7,7
L,1,39CQ1015,1256*480,8,8
L,1,39CQ1117,1456*480,8,8
L,1,39CQ1317,1456*480,8,8
L,1,39CQ1418,1556*637.5,12,12
L,1,39CQ1420,1756*637.5,20,20
L,1,39CQ1621,1856*637.5,20,20
L,1,39CQ1822,1956*795,22,22
L,1,39CQ1825,2056*795,22,22
L,1,39CQ2025,2056*795,22,22
L,1,39CQ2125,2056*952.5,30,30
L,1,39CQ2226,2156*952.5,30,30
L,1,39CQ2328,2356*952.5,30,30
L,1,39CQ2330,2556*952.5,30,30
L,1,39CQ2333,2856*952.5,18*2,18*2
L,1,39CQ2435,2976*952.5,19*2,19*2
L,1,39CQ2635,2976*952.5,19*2,19*2
L,1,39CQ2735,2976*952.5,19*2,19*2
L,1,39G0608,476*322.5,4,4
L,1,39G0609,576*322.5,4,4
L,1,39G0711,776*322.5,5,5
L,1,39G0811,776*322.5,5,5
L,1,39G0912,876*322.5,5,5
L,1,39G0913,976*480,7,7
L,1,39G0914,1076*480,7,7
L,1,39G1015,1176*480,8,8
L,1,39G1117,1376*480,8,8
L,1,39G1317,1376*480,8,8
L,1,39G1418,1476*637.5,12,12
L,1,39G1420,1676*637.5,13,13
L,1,39G1621,1776*637.5,20,20
L,1,39G1822,1876*795,22,22
L,1,39G1825,1976*795,22,22
L,1,39G2025,1976*795,22,22
L,1,39G2125,1976*952.5,30,30
L,1,39G2226,2076*952.5,30,30
L,1,39G2328,2276*952.5,30,30
L,1,39G2330,2476*952.5,30,30
L,1,39G2333,2776*952.5,18*2,18*2
L,1,39XT0608,556*322.5,4,4
L,1,39XT0609,656*322.5,4,4
L,1,39XT0711,856*322.5,5,5
L,1,39XT0811,856*322.5,5,5
L,1,39XT0912,956*322.5,5,5
L,1,39XT0913,1056*480,7,7
L,1,39XT0914,1156*480,7,7
L,1,39XT1015,1256*480,8,8
L,1,39XT1117,1456*480,8,8
L,1,39XT1317,1456*480,8,8
L,1,39XT1418,1556*637.5,12,12
L,1,39XT1420,1756*637.5,20,20
L,1,39XT1621,1856*637.5,20,20
L,1,39XT1822,1956*795,22,22
L,1,39XT1825,2056*795,22,22
L,1,39XT2025,2056*795,22,22
L,1,39XT2125,2056*952.5,30,30
L,1,39XT2226,2156*952.5,30,30
L,1,39XT2328,2356*952.5,30,30
L,1,39XT2330,2556*952.5,30,30
L,1,39XT2333,2856*952.5,18*2,18*2
L,2,39CQ0608,756*322.5,5,5
L,2,39CQ0609,856*322.5,5.5,5.5
L,2,39CQ0711,1056*322.5,6,6
L,2,39CQ0811,1056*322.5,6,6
L,2,39CQ0912,1156*322.5,6,5
L,2,39CQ0913,1256*322.5,6,5.5
L,2,39CQ0914,1356*322.5,7,6
L,2,39CQ1015,1456*322.5,7,6
L,2,39CQ1117,1656*322.5,8,6
L,2,39CQ1317,1656*322.5,8,6
L,2,39CQ1418,1756*322.5,12,7
L,2,39CQ1420,1956*322.5,12,7
L,2,39CQ1621,2056*322.5,12,8
L,2,39CQ1822,2156*322.5,13,8
L,2,39CQ1825,2456*322.5,15,12
L,2,39CQ2025,2456*322.5,15,12
L,2,39CQ2125,2456*637.5,15,12
L,2,39CQ2226,2556*637.5,13*2,13
L,2,39CQ2328,2756*637.5,13*2,15
L,2,39CQ2330,2756*637.5,13*2,15
L,2,39CQ2333,3256*637.5,14*2,13*2
L,2,39CQ2435,3456*952.5,22*2,22*2
L,2,39CQ2635,3456*952.5,22*2,22*2
L,2,39CQ2735,3456*952.5,22*2,22*2
L,2,39CQ2532,3156*952.5,20*2,13*2
L,2,39CQ2832,3156*952.5,20*2,13*2
L,2,39CQ3132,3156*1267.5,23*2,14*2
L,2,39CQ3438,3756*1267.5,29*2,20*2
L,2,39G0608,676*322.5,5,5
L,2,39G0609,776*322.5,5.5,5.5
L,2,39G0711,976*322.5,6,6
L,2,39G0811,976*322.5,6,6
L,2,39G0912,1076*322.5,6,6
L,2,39G0913,1176*322.5,6,6
L,2,39G0914,1276*322.5,7,7
L,2,39G1015,1376*322.5,7,7
L,2,39G1117,1576*322.5,8,8
L,2,39G1317,1576*322.5,8,8
L,2,39G1418,1676*322.5,8,8
L,2,39G1420,1876*322.5,12,12
L,2,39G1621,1976*322.5,12,12
L,2,39G1822,2076*322.5,13,13
L,2,39G1825,2376*322.5,15,15
L,2,39G2025,2376*322.5,15,15
L,2,39G2125,2376*637.5,22,22
L,2,39G2226,2476*637.5,22,12*2
L,2,39G2328,2676*637.5,13*2,13*2
L,2,39G2330,2876*637.5,13*2,13*2
L,2,39G2333,3176*637.5,14*2,14*2
L,2,39XT0608,704*322.5,5,5
L,2,39XT0609,804*322.5,5.5,5.5
L,2,39XT0711,1004*322.5,6,6
L,2,39XT0811,1004*322.5,6,6
L,2,39XT0912,1104*322.5,6,6
L,2,39XT0913,1204*322.5,6,6
L,2,39XT0914,1304*322.5,7,7
L,2,39XT1015,1404*322.5,7,7
L,2,39XT1117,1604*322.5,8,8
L,2,39XT1317,1604*322.5,8,8
L,2,39XT1418,1704*322.5,8,8
L,2,39XT1420,1904*322.5,12,12
L,2,39XT1621,2004*322.5,12,12
L,2,39XT1822,2104*322.5,13,13
L,2,39XT1825,2404*322.5,15,15
L,2,39XT2025,2904*637.5,15,22
L,2,39XT2125,2404*637.5,18,12*2
L,2,39XT2226,2504*637.5,18,13*2
L,2,39XT2328,2704*637.5,13*2,14*2
L,2,39XT2330,2704*637.5,14*2,14*2
L,2,39XT2333,3204*637.5,14*2,14*2
L,2,39XT2832,3104*952.5,20*2,20*2
L,2,39XT3132,3104*1267.5,23*2,23*2
L,2,39XT3438,3704*1267.5,29*2,29*2
L,2,39XT3841,4004*1582.5,31*2,31*2
L,2,39XT4444,4304*1582.5,33*2,33*2
L,2,39XT4750,4904*1582.5,35*2,35*2
L,3,39CQ0608,756*322.5,5,5
L,3,39CQ0609,856*322.5,5.5,5.5
L,3,39CQ0711,1056*322.5,6,6
L,3,39CQ0811,1056*322.5,6,6
L,3,39CQ0912,1156*322.5,6,5
L,3,39CQ0913,1256*322.5,6,5.5
L,3,39CQ0914,1356*322.5,7,6
L,3,39CQ1015,1456*322.5,7,6
L,3,39CQ1117,1656*322.5,8,6
L,3,39CQ1317,1656*322.5,8,6
L,3,39CQ1418,1756*322.5,12,7
L,3,39CQ1420,1956*322.5,12,7
L,3,39CQ1621,2056*322.5,12,8
L,3,39CQ1822,2156*322.5,13,8
L,3,39CQ1825,2456*322.5,15,12
L,3,39CQ2025,2456*322.5,15,12
L,3,39CQ2125,2456*637.5,15,12
L,3,39CQ2226,2556*637.5,13*2,13
L,3,39CQ2328,2756*637.5,13*2,15
L,3,39CQ2330,2756*637.5,13*2,15
L,3,39CQ2333,3256*637.5,14*2,13*2
L,3,39CQ2435,3456*952.5,22*2,22*2
L,3,39CQ2635,3456*952.5,22*2,22*2
L,3,39CQ2735,3456*952.5,22*2,22*2
L,3,39CQ2532,3156*952.5,20*2,13*2
L,3,39CQ2832,3156*952.5,20*2,13*2
L,3,39CQ3132,3156*1267.5,23*2,14*2
L,3,39CQ3438,3756*1267.5,29*2,20*2
L,3,39G0608,676*322.5,5,5
L,3,39G0609,776*322.5,5.5,5.5
L,3,39G0711,976*322.5,6,6
L,3,39G0811,976*322.5,6,6
L,3,39G0912,1076*322.5,6,6
L,3,39G0913,1176*322.5,6,6
L,3,39G0914,1276*322.5,7,7
L,3,39G1015,1376*322.5,7,7
L,3,39G1117,1576*322.5,8,8
L,3,39G1317,1576*322.5,8,8
L,3,39G1418,1676*322.5,8,8
L,3,39G1420,1876*322.5,12,12
L,3,39G1621,1976*322.5,12,12
L,3,39G1822,2076*322.5,13,13
L,3,39G1825,2376*322.5,15,15
L,3,39G2025,2376*322.5,15,15
L,3,39G2125,2376*637.5,22,22
L,3,39G2226,2476*637.5,22,12*2
L,3,39G2328,2676*637.5,13*2,13*2
L,3,39G2330,2876*637.5,13*2,13*2
L,3,39G2333,3176*637.5,14*2,14*2
L,3,39XT0608,704*322.5,5,5
L,3,39XT0609,804*322.5,5.5,5.5
L,3,39XT0711,1004*322.5,6,6
L,3,39XT0811,1004*322.5,6,6
L,3,39XT0912,1104*322.5,6,6
L,3,39XT0913,1204*322.5,6,6
L,3,39XT0914,1304*322.5,7,7
L,3,39XT1015,1404*322.5,7,7
L,3,39XT1117,1604*322.5,8,8
L,3,39XT1317,1604*322.5,8,8
L,3,39XT1418,1704*322.5,8,8
L,3,39XT1420,1904*322.5,12,12
L,3,39XT1621,2004*322.5,12,12
L,3,39XT1822,2104*322.5,13,13
L,3,39XT1825,2404*322.5,15,15
L,3,39XT2025,2904*637.5,15,22
L,3,39XT2125,2404*637.5,18,12*2
L,3,39XT2226,2504*637.5,18,13*2
L,3,39XT2328,2704*637.5,13*2,14*2
L,3,39XT2330,2704*637.5,13*2,14*2
L,3,39XT2333,3204*637.5,14*2,14*2
L,3,39XT2832,3104*952.5,20*2,20*2
L,3,39XT3132,3104*1267.5,23*2,23*2
L,3,39XT3438,3704*1267.5,29*2,29*2
L,3,39XT3841,4004*1582.5,31*2,31*2
L,3,39XT4444,4304*1582.5,33*2,33*2
L,3,39XT4750,4904*1582.5,35*2,35*2
N,1,39CQ0608,714X322.5,5,5
N,1,39CQ0609,814X322.5,5.5,5.5
N,1,39CQ0711,1014X322.5,6,6
N,1,39CQ0811,1014X322.5,6,6
N,1,39CQ0912,1114X322.5,6.5,6.5
N,1,39CQ0913,1214X480,8,8
N,1,39CQ0914,1314X480,8,8
N,1,39CQ1015,1414X480,9,9
N,1,39CQ1117,1614X480,10,10
N,1,39CQ1317,1614X480,10,10
N,1,39CQ1418,1714X637.5,19,18
N,1,39CQ1420,1914X637.5,20,20
N,1,39CQ1621,2014X637.5,21,21
N,1,39CQ1822,2114X795,23,23
N,1,39CQ1825,2414X795,25,14*2
N,1,39CQ2025,2414X795,25,14*2
N,1,39CQ2125,2414X952.5,30,15*2
N,1,39CQ2226,2514X952.5,17*2,16*2
N,1,39CQ2328,2714X952.5,18*2,18*2
N,1,39CQ2330,2914X952.5,19*2,19*2
N,1,39CQ2333,3214X952.5,20*2,20*2
N,1,39CQ2435,3456*952.5,22*2,22*2
N,1,39CQ2635,3456X952.5,22*2,22*2
N,1,39CQ2735,3456X952.5,22*2,22*2
N,1,39CQ2532,3156*952.5,20*2,20*2
N,1,39CQ2832,3156*952.5,20*2,20*2
N,1,39CQ3132,3156*1267.5,23*2,23*2
N,1,39CQ3438,3756*1267.5,29*2,29*2
N,1,39G0608,676X322.5,5,5
N,1,39G0609,776X322.5,5.5,5.5
N,1,39G0711,976X322.5,6,6
N,1,39G0811,976X322.5,6,6
N,1,39G0912,1076X322.5,6.5,6.5
N,1,39G0913,1176X480,8,8
N,1,39G0914,1276X480,8,8
N,1,39G1015,1376X480,9,9
N,1,39G1117,1576X480,10,10
N,1,39G1317,1576X480,10,10
N,1,39G1418,1676X637.5,13,15
N,1,39G1420,1876X637.5,20,20
N,1,39G1621,1976X637.5,21,21
N,1,39G1822,2076X795,23,23
N,1,39G1825,2376X795,24,24
N,1,39G2025,2376X795,34,24
N,1,39G2125,2376X952.5,30,15*2
N,1,39G2226,2476X952.5,32,16*2
N,1,39G2328,2676X952.5,18*2,18*2
N,1,39G2330,2876X952.5,19*2,19*2
N,1,39G2333,3176X952.5,20*2,20*2
N,1,39XT0608,704*322.5,5,5
N,1,39XT0609,804*322.5,5.5,5.5
N,1,39XT0711,1004*322.5,6,6
N,1,39XT0811,1004*322.5,6,6
N,1,39XT0912,1104*322.5,6.5,6.5
N,1,39XT0913,1204*480,8,8
N,1,39XT0914,1304*480,8,8
N,1,39XT1015,1404*480,9,9
N,1,39XT1117,1604*480,10,10
N,1,39XT1317,1604*480,10,10
N,1,39XT1418,1704*637.5,13,15
N,1,39XT1420,1904*637.5,20,20
N,1,39XT1621,2004*637.5,21,21
N,1,39XT1822,2104*795,23,23
N,1,39XT1825,2404*795,25,24
N,1,39XT2025,2404*795,25,24
N,1,39XT2125,2404*952.5,30,15*2
N,1,39XT2226,2504*952.5,32,16*2
N,1,39XT2328,2704*952.5,18*2,18*2
N,1,39XT2330,3024*952.5,19*2,19*2
N,1,39XT2333,3204*952.5,20*2,20*2
N,1,39XT2532,3104*952.5,20*2,20*2
N,1,39XT2832,3104*952.5,20*2,20*2
N,1,39XT3132,3104*1267.5,23*2,23*2
N,1,39XT3438,3704*1267.5,29*2,29*2
N,1,39XT3841,4004*1582.5,31*2,31*2
N,1,39XT4444,4304*1582.5,33*2,33*2
N,1,39XT4750,4904*1582.5,35*2,35*2
N,2,39CQ0608,756*322.5,5,5
N,2,39CQ0609,856*322.5,5.5,5.5
N,2,39CQ0711,1056*322.5,6,6
N,2,39CQ0811,1056*322.5,6,6
N,2,39CQ0912,1156*322.5,6.5,6.5
N,2,39CQ0913,1256*480,8,8
N,2,39CQ0914,1356*480,8,8
N,2,39CQ1015,1456*480,9,9
N,2,39CQ1117,1656*480,10,10
N,2,39CQ1317,1656*480,10,10
N,2,39CQ1418,1756*637.5,19,18
N,2,39CQ1420,1956*637.5,20,20
N,2,39CQ1621,2056*637.5,21,21
N,2,39CQ1822,2156*795,23,23
N,2,39CQ1825,2456*795,25,14*2
N,2,39CQ2025,2456*795,25,14*2
N,2,39CQ2125,2456*952.5,30,15*2
N,2,39CQ2226,2556*952.5,17*2,16*2
N,2,39CQ2328,2756*952.5,18*2,18*2
N,2,39CQ2330,2956X952.5,19*2,20*2
N,2,39CQ2333,3256*952.5,20*2,19*2
N,2,39CQ2435,3456*952.5,22*2,22*2
N,2,39CQ2635,3456X952.5,22*2,22*2
N,2,39CQ2735,3456X952.5,22*2,22*2
N,2,39CQ2532,3156*952.5,20*2,20*2
N,2,39CQ2832,3156*952.5,20*2,20*2
N,2,39CQ3132,3156*1267.5,23*2,23*2
N,2,39CQ3438,3756*1267.5,29*2,29*2
N,2,39G0608,676X322.5,5,5
N,2,39G0609,776X322.5,5.5,5.5
N,2,39G0711,976X322.5,6,6
N,2,39G0811,976X322.5,6,6
N,2,39G0912,1076X322.5,6.5,6.5
N,2,39G0913,1176X480,8,8
N,2,39G0914,1276X480,8,8
N,2,39G1015,1376X480,9,9
N,2,39G1117,1576X480,10,10
N,2,39G1317,1576X480,10,10
N,2,39G1418,1676X637.5,13,15
N,2,39G1420,1876X637.5,20,20
N,2,39G1621,1976X637.5,21,21
N,2,39G1822,2076X795,23,23
N,2,39G1825,2376X795,24,24
N,2,39G2025,2376X795,34,24
N,2,39G2125,2376X952.5,30,15*2
N,2,39G2226,2476X952.5,32,16*2
N,2,39G2328,2676X952.5,18*2,18*2
N,2,39G2330,3176X952.5,19*2,19*2
N,2,39G2333,3176X952.5,20*2,20*2
N,2,39XT0608,704*322.5,5,5
N,2,39XT0609,804*322.5,5.5,5.5
N,2,39XT0711,1004*322.5,6,6
N,2,39XT0811,1004*322.5,6,6
N,2,39XT0912,1104*322.5,6.5,6.5
N,2,39XT0913,1204*480,8,8
N,2,39XT0914,1304*480,8,8
N,2,39XT1015,1404*480,9,9
N,2,39XT1117,1604*480,10,10
N,2,39XT1317,1604*480,10,10
N,2,39XT1418,1704*637.5,13,15
N,2,39XT1420,1904*637.5,20,20
N,2,39XT1621,2004*637.5,21,21
N,2,39XT1822,2104*795,23,23
N,2,39XT1825,2404*795,25,24
N,2,39XT2025,2404*795,25,24
N,2,39XT2125,2404*952.5,30,15*2
N,2,39XT2226,2504*952.5,32,16*2
N,2,39XT2328,2704*952.5,18*2,18*2
N,2,39XT2330,3024*952.5,29*2,19*2
N,2,39XT2333,3204*952.5,20*2,20*2
N,2,39XT2532,3104*952.5,20*2,20*2
N,2,39XT2832,3104*952.5,20*2,20*2
N,2,39XT3132,3104*1267.5,23*2,23*2
N,2,39XT3438,3704*1267.5,29*2,29*2
N,2,39XT3841,4004*1582.5,31*2,31*2
N,2,39XT4444,4304*1582.5,33*2,33*2
N,2,39XT4750,4904*1582.5,35*2,35*2
N,3,39CQ0608,556*322.5,4,4
N,3,39CQ0609,556*322.5,4,4
N,3,39CQ0711,656*322.5,4,4
N,3,39CQ0811,656*322.5,4,5
N,3,39CQ0912,756*322.5,5,5
N,3,39CQ0913,856*322.5,5,6
N,3,39CQ0914,856*480,6,6
N,3,39CQ1015,856*480,6,6.5
N,3,39CQ1117,956*480,6.5,6.5
N,3,39CQ1317,1056*480,6.5,8
N,3,39CQ1418,1256*480,8,11
N,3,39CQ1420,1356*637.5,11,11
N,3,39CQ1621,1356*637.5,11,12
N,3,39CQ1822,1556*637.5,12,18
N,3,39CQ1825,1756*795,18,18
N,3,39CQ2025,1756*795,18,20
N,3,39CQ2125,1956*795,20,30
N,3,39CQ2226,2056*952.5,30,30
N,3,39CQ2328,2156*952.5,30,30
N,3,39CQ2330,2156*952.5,30,30
N,3,39CQ2333,2256*952.5,30,30
N,3,39CQ2435,2356*952.5,32,32
N,3,39CQ2635,2556*952.5,34,34
N,3,39CQ2735,2656*952.5,36,36
N,3,39G0608,476X322.5,4,4
N,3,39G0609,476X322.5,4,4
N,3,39G0711,576X322.5,4,4
N,3,39G0811,676X322.5,4,5
N,3,39G0912,776X322.5,5,5
N,3,39G0913,776X480,5,6
N,3,39G0914,776X480,6,6
N,3,39G1015,876X480,6,6.5
N,3,39G1117,976X480,6.5,6.5
N,3,39G1317,1176X480,6.5,8
N,3,39G1418,1276X637.5,8,11
N,3,39G1420,1276X637.5,11,11
N,3,39G1621,1476X637.5,11,12
N,3,39G1822,1676X795,12,15
N,3,39G1825,1676X795,15,15
N,3,39G2025,1876X795,15,20
N,3,39G2125,1976X952.5,20,30
N,3,39G2226,2076X952.5,30,30
N,3,39G2328,2176X952.5,30,30
N,3,39G2330,2176X952.5,30,30
N,3,39G2333,2176X952.5,30,30
N,3,39XT0608,504*322.5,4,4
N,3,39XT0609,504*322.5,4,4
N,3,39XT0711,604*322.5,4,4
N,3,39XT0811,604*322.5,4,5
N,3,39XT0912,704*322.5,5,5
N,3,39XT0913,804*322.5,5,6
N,3,39XT0914,804*480,6,6
N,3,39XT1015,804*480,6,6.5
N,3,39XT1117,904*480,6.5,6.5
N,3,39XT1317,1004*480,6.5,8
N,3,39XT1418,1204*480,8,11
N,3,39XT1420,1304*637.5,11,11
N,3,39XT1621,1304*637.5,11,12
N,3,39XT1822,1504*637.5,12,15
N,3,39XT1825,1704*795,15,15
N,3,39XT2025,1704*795,15,20
N,3,39XT2125,1904*795,20,30
N,3,39XT2226,2004*952.5,30,30
N,3,39XT2328,2104*952.5,30,30
N,3,39XT2330,2204*952.5,30,30
N,3,39XT2333,2204*952.5,30,30
N,4,39CQ0608,514X322.5,4,4
N,4,39CQ0609,514X322.5,4,4
N,4,39CQ0711,614X322.5,4,4
N,4,39CQ0811,714X322.5,4,5
N,4,39CQ0912,814X322.5,5,5
N,4,39CQ0913,814X480,5,6
N,4,39CQ0914,814X480,6,6
N,4,39CQ1015,914X480,6,6.5
N,4,39CQ1117,1014X480,6.5,6.5
N,4,39CQ1317,1214X480,6.5,8
N,4,39CQ1418,1314X637.5,8,11
N,4,39CQ1420,1314X637.5,11,11
N,4,39CQ1621,1514X637.5,11,12
N,4,39CQ1822,1714X795,12,18
N,4,39CQ1825,1714X795,18,18
N,4,39CQ2025,1914X795,18,20
N,4,39CQ2125,2014X952.5,20,30
N,4,39CQ2226,2114X952.5,30,30
N,4,39CQ2328,2214X952.5,30,30
N,4,39CQ2333,2214X952.5,30,30
N,4,39CQ2435,2356*952.5,32,32
N,4,39CQ2635,2556*952.5,34,34
N,4,39CQ2735,2656*952.5,36,36
N,4,39G0608,476X322.5,4,4
N,4,39G0609,476X322.5,4,4
N,4,39G0711,576X322.5,4,4
N,4,39G0811,676X322.5,4,5
N,4,39G0912,776X322.5,5,5
N,4,39G0913,776X480,5,6
N,4,39G0914,776X480,6,6
N,4,39G1015,876X480,6,6.5
N,4,39G1117,976X480,6.5,6.5
N,4,39G1317,1176X480,6.5,8
N,4,39G1418,1276X637.5,8,11
N,4,39G1420,1276X637.5,11,11
N,4,39G1621,1476X637.5,11,12
N,4,39G1822,1676X795,12,15
N,4,39G1825,1676X795,15,15
N,4,39G2025,1876X795,15,20
N,4,39G2125,1976X952.5,20,30
N,4,39G2226,2076X952.5,30,30
N,4,39G2328,2176X952.5,30,30
N,4,39G2330,2176X952.5,30,30
N,4,39G2333,2176X952.5,30,30
N,4,39XT0608,504*322.5,4,4
N,4,39XT0609,504*322.5,4,4
N,4,39XT0711,604*322.5,4,4
N,4,39XT0811,604*322.5,4,5
N,4,39XT0912,704*322.5,5,5
N,4,39XT0913,804*322.5,5,6
N,4,39XT0914,804*480,6,6
N,4,39XT1015,804*480,6,6.5
N,4,39XT1117,904*480,6.5,6.5
N,4,39XT1317,1004*480,6.5,8
N,4,39XT1418,1204*480,8,11
N,4,39XT1420,1304*637.5,11,11
N,4,39XT1621,1304*637.5,11,12
N,4,39XT1822,1504*637.5,12,15
N,4,39XT1825,1704*795,15,15
N,4,39XT2025,1704*795,15,20
N,4,39XT2125,1904*795,20,30
N,4,39XT2226,2004*952.5,30,30
N,4,39XT2328,2104*952.5,30,30
N,4,39XT2330,2204*952.5,30,30
N,4,39XT2333,2204*952.5,30,30
N,5,39CQ0608,314X200,3,3
N,5,39CQ0609,414X200,3,3
N,5,39CQ0711,614X200,3,3
N,5,39CQ0811,614X200,3,3
N,5,39CQ0912,714X200,3,3
N,5,39CQ0913,814X322.5,5.5,5
N,5,39CQ0914,914X322.5,5.5,5
N,5,39CQ1015,1014X322.5,6,5
N,5,39CQ1117,1214X322.5,6.5,5
N,5,39CQ1317,1214X322.5,6.5,5
N,5,39CQ1418,1314X480,8,8
N,5,39CQ1420,1514X480,9,9
N,5,39CQ1621,1614X480,10,10
N,5,39CQ1822,1714X637.5,19,18
N,5,39CQ1825,2014X637.5,21,20
N,5,39CQ2025,2014X637.5,21,20
N,5,39CQ2125,2014X795,23,22
N,5,39CQ2226,2114X795,23,22
N,5,39CQ2328,2314X795,24,23
N,5,39CQ2330,2856*795,30,30
N,5,39CQ2333,2814X795,18*2,18*2
N,5,39CQ2435,3056*952.5,20*2,20*2
N,5,39CQ2635,3056*952.5,20*2,20*2
N,5,39CQ2735,3056*952.5,20*2,20*2
N,5,39G0608,276X200,3,3
N,5,39G0609,376X200,3,3
N,5,39G0711,576X200,3,3
N,5,39G0811,576X200,3,3
N,5,39G0912,676X200,3,3
N,5,39G0913,776X322.5,5,5
N,5,39G0914,876X322.5,5,5
N,5,39G1015,976X322.5,5,5
N,5,39G1117,1176X322.5,5,5
N,5,39G1317,1176X322.5,5,5
N,5,39G1418,1276X480,8,8
N,5,39G1420,1476X480,9,9
N,5,39G1621,1576X480,10,10
N,5,39G1822,1676X637.5,13,13
N,5,39G1825,1976X637.5,20,20
N,5,39G2025,1976X637.5,20,20
N,5,39G2125,1976X795,22,22
N,5,39G2226,2076X795,22,22
N,5,39G2328,2276X795,23,23
N,5,39G2330,2776X795,30,30
N,5,39G2333,2776X795,18*2,18*2
N,5,39XT0608,304*200,3,3
N,5,39XT0609,404*200,3,3
N,5,39XT0711,604*200,3,3
N,5,39XT0811,604*200,3,3
N,5,39XT0912,704*200,3,3
N,5,39XT0913,804*322.5,5.5,5
N,5,39XT0914,904*322.5,6,5
N,5,39XT1015,1004*322.5,6,5
N,5,39XT1117,1204*322.5,6,5
N,5,39XT1317,1204*322.5,6,5
N,5,39XT1418,1304*480,8,8
N,5,39XT1420,1504*480,9,9
N,5,39XT1621,1604*480,10,10
N,5,39XT1822,1704*637.5,13,13
N,5,39XT1825,2004*637.5,21,20
N,5,39XT2025,2004*637.5,21,20
N,5,39XT2125,2004*795,22,22
N,5,39XT2226,2104*795,23,22
N,5,39XT2328,2304*795,25,23
N,5,39XT2330,2804*795,30,30
N,5,39XT2333,2804*795,18*2,18*2
