fan,machineSiteNo,a,b,c,d,e,f,g,h
160KTQ,Y08001,JD20,JD20,JD20,JD20,,,,
160KTQ,Y08002,JD20,JD20,JD20,JD20,,,,
160KTQ,Y090S0,JD20,JD20,JD40A,JD20,,,,
160KTQ,Y090L0,JD20,JD20,JD40A,JD20,,,,
180KTQ,Y08001,JD20,JD20,JD20,JD20,,,,
180KTQ,Y08002,JD20,JD20,JD20,JD20,,,,
180KTQ,Y090S0,JD20,JD20,JD40A,JD20,,,,
180KTQ,Y090L0,JD20,JD20,JD40A,JD20,,,,
180KTQ,Y090L0,JD20,JD20,JD40A,JD20,,,,
200KTQ,Y08001,JD20,JD20,JD20,JD20,,,,
200KTQ,Y08002,JD20,JD20,JD20,JD20,,,,
200KTQ,Y090S0,JD20,JD20,JD40A,JD20,,,,
200KTQ,Y090L0,JD20,JD20,JD40A,JD20,,,,
200KTQ,Y100L0,JD20,JD20,JD40A,JD20,,,,
200KTQ,Y090L0,JD20,JD20,JD40A,JD20,,,,
225KTQ,Y08001,JD20,JD20,JD40A,JD20,,,,
225KTQ,Y08002,JD20,JD20,JD40A,JD20,,,,
225KTQ,Y090S0,JD20,JD20,JD40A,JD20,,,,
225KTQ,Y090L0,JD20,JD20,JD40A,JD20,,,,
225KTQ,Y100L0,JD20,JD20,JD40A,JD20,,,,
250KTQ,Y08002,JD20,JD20,JD40A,JD20,,,,
250KTQ,Y090S0,JD20,JD20,JD40A,JD20,,,,
250KTQ,Y090L0,JD20,JD20,JD40A,JD20,,,,
250KTQ,Y100L0,JD20,JD20,JD40A,JD20,,,,
250KTQ,Y112M0,JD20,JD20,JD40A,JD20,,,,
250KTH,Y08002,JD20,JD20,JD40A,JD20,,,,
250KTH,Y090S0,JD20,JD20,JD40A,JD20,,,,
250KTH,Y090L0,JD20,JD20,JD40A,JD20,,,,
250KTH,Y100L0,JD20,JD20,JD40A,JD20,,,,
250KTH,Y112M0,JD20,JD20,JD40A,JD20,,,,
250KTQ,Y090L0,JD20,JD20,JD40A,JD20,,,,
250KTH,Y090L0,JD20,JD20,JD40A,JD20,,,,
280KTQ,Y08002,JD20,JD20,JD40A,JD20,,,,
280KTQ,Y090S0,JD20,JD20,JD40A,JD20,,,,
280KTQ,Y090L0,JD20,JD20,JD40A,JD20,,,,
280KTQ,Y100L0,JD20,JD20,JD40A,JD20,,,,
280KTQ,Y112M0,JD20,JD20,JD40A,JD20,,,,
280KTH,Y08002,JD20,JD20,JD40A,JD20,,,,
280KTH,Y090S0,JD20,JD20,JD40A,JD20,,,,
280KTH,Y090L0,JD20,JD20,JD40A,JD20,,,,
280KTH,Y100L0,JD20,JD20,JD40A,JD20,,,,
280KTH,Y112M0,JD20,JD20,JD40A,JD20,,,,
280KTQ,Y090L0,JD20,JD20,JD40A,JD20,,,,
280KTH,Y090L0,JD20,JD20,JD40A,JD20,,,,
315KTQ,Y090S0,JD40A,JD20,JD40A,JD20,,,,
315KTQ,Y090L0,JD40A,JD20,JD40A,JD20,,,,
315KTQ,Y100L0,JD40A,JD20,JD40A,JD20,,,,
315KTQ,Y112M0,JD40A,JD20,JD40A,JD40A,,,,
315KTQ,Y132S0,JD40A,JD40A,JD60A,JD40A,,,,
315KTH,Y090S0,JD40A,JD20,JD40A,JD20,,,,
315KTH,Y090L0,JD40A,JD20,JD40A,JD20,,,,
315KTH,Y100L0,JD40A,JD20,JD40A,JD40A,,,,
315KTH,Y112M0,JD40A,JD20,JD40A,JD40A,,,,
315KTH,Y132S0,JD40A,JD40A,JD60A,JD40A,,,,
315KTQ,Y090L0,JD40A,JD20,JD40A,JD20,,,,
315KTH,Y090L0,JD40A,JD20,JD40A,JD20,,,,
355KTQ,Y090S0,JD40,JD40,JD40,JD40,,,,
355KTQ,Y090L0,JD40,JD40,JD40,JD40,,,,
355KTQ,Y100L0,JD40,JD40,JD40,JD40,,,,
355KTQ,Y112M0,JD40,JD40,JD60,JD40,,,,
355KTQ,Y132S0,JD40,JD40,JD60,JD40,,,,
355KTH,Y090S0,JD40,JD40,JD40,JD40,,,,
355KTH,Y090L0,JD40,JD40,JD40,JD40,,,,
355KTH,Y100L0,JD40,JD40,JD40,JD40,,,,
355KTH,Y112M0,JD40,JD40,JD60,JD40,,,,
355KTH,Y132S0,JD40,JD40,JD60,JD40,,,,
355KTQ,Y090L0,JD40,JD40,JD40,JD40,,,,
355KTH,Y090L0,JD40,JD40,JD40,JD40,,,,
400KTQ,Y100L0,JD40,JD40,JD60,JD40,,,,
400KTQ,Y112M0,JD40,JD40,JD60,JD40,,,,
400KTQ,Y132S0,JD60,JD60,JD80,JD60,,,,
400KTQ,Y132M0,JD60,JD60,JD80,JD60,,,,
400KTH,Y100L0,JD40,JD40,JD60,JD40,,,,
400KTH,Y112M0,JD40,JD40,JD60,JD40,,,,
400KTH,Y132S0,JD60,JD60,JD80,JD60,,,,
400KTH,Y132M0,JD60,JD60,JD80,JD60,,,,
450KTQ,Y100L0,JD40,JD40,JD60,JD40,,,,
450KTQ,Y112M0,JD40,JD40,JD60,JD40,,,,
450KTQ,Y132S0,JD60,JD60,JD80,JD60,,,,
450KTQ,Y132M0,JD60,JD60,JD80,JD60,,,,
450KTQ,Y160M0,JD40,JD40,JD60,JD40,JD80,JD40,,
450KTH,Y100L0,JD40,JD40,JD60,JD40,,,,
450KTH,Y112M0,JD40,JD40,JD60,JD40,,,,
450KTH,Y132S0,JD60,JD60,JD80,JD60,,,,
450KTH,Y132M0,JD60,JD60,JD80,JD60,,,,
450KTH,Y160M0,JD40,JD40,JD60,JD40,JD80,JD40,,
450KTQ,Y160L0,JD40,JD40,JD80,JD40,JD100,JD60,,
450KTH,Y160L0,JD40,JD40,JD80,JD40,JD100,JD60,,
500KTQ,Y100L0,JD60,JD40,JD60,JD40,,,,
500KTQ,Y112M0,JD60,JD40,JD60,JD40,,,,
500KTQ,Y132S0,JD60,JD60,JD80,JD60,,,,
500KTQ,Y132M0,JD60,JD60,JD100,JD60,,,,
500KTQ,Y160M0,JD40,JD40,JD80,JD40,JD100,JD60,,
500KTQ,Y160L0,JD40,JD40,JD80,JD40,JD100,JD60,,
500KTH,Y100L0,JD60,JD60,JD60,JD40,,,,
500KTH,Y112M0,JD60,JD60,JD60,JD40,,,,
500KTH,Y132S0,JD60,JD60,JD80,JD60,,,,
500KTH,Y132M0,JD60,JD60,JD100,JD60,,,,
500KTH,Y160M0,JD40,JD40,JD80,JD40,JD100,JD60,,
500KTH,Y160L0,JD40,JD40,JD80,JD40,JD100,JD60,,
560KTQ,Y132S0,HD60,HD40,HD50,HD35,HD70,HD70,,
560KTQ,Y132M0,HD60,HD40,HD60,HD35,HD70,HD70,,
560KTQ,Y160M0,HD60,HD40,HD70,HD43,HD85,HD85,,
560KTQ,Y160L0,HD60,HD40,HD70,HD50,HD100,HD85,,
560KTQ,Y180M0,HD60,HD40,HD85,HD60,HD100,HD85,,
560KTH,Y132S0,HD60,HD43,HD50,HD35,HD70,HD70,,
560KTH,Y132M0,HD60,HD43,HD60,HD40,HD70,HD70,,
560KTH,Y160M0,HD60,HD43,HD70,HD43,HD85,HD85,,
560KTH,Y160L0,HD60,HD43,HD70,HD50,HD100,HD85,,
560KTH,Y180M0,HD60,HD43,HD85,HD50,HD100,HD85,,
630KTQ,Y112M0,HD85,HD60,HD50,HD40,HD85,HD100,,
630KTQ,Y132M0,HD85,HD60,HD50,HD40,HD85,HD100,,
630KTQ,Y160M0,HD85,HD60,HD70,HD43,HD100,HD100,,
630KTQ,Y160L0,HD85,HD60,HD85,HD50,HD100,HD100,,
630KTQ,Y180M0,HD85,HD60,HD85,HD50,HD120,HD100,,
630KTH,Y112M0,HD85,HD60,HD60,HD40,HD85,HD100,,
630KTH,Y132M0,HD85,HD60,HD60,HD40,HD85,HD100,,
630KTH,Y160M0,HD85,HD60,HD70,HD50,HD100,HD100,,
630KTH,Y160L0,HD85,HD60,HD85,HD50,HD100,HD100,,
630KTH,Y180M0,HD85,HD60,HD85,HD60,HD120,HD100,,
630KTQ,Y180L0,HD85,HD60,HD100,HD60,HD120,HD120,,
630KTH,Y180L0,HD85,HD60,HD100,HD60,HD120,HD120,,
710KTQ,Y160M0,HD85,HD62,HD70,HD50,HD100,HD100,,
710KTQ,Y160L0,HD85,HD62,HD85,HD50,HD120,HD100,,
710KTQ,Y180M0,HD85,HD62,HD100,HD60,HD120,HD120,,
710KTQ,Y180L0,HD85,HD62,HD100,HD60,HD140,HD120,,
710KTQ,Y200L0,HD100,HD62,HD120,HD70,HD160,HD140,,
710KTH,Y160M0,HD100,HD70,HD85,HD50,HD120,HD120,,
710KTH,Y160L0,HD100,HD70,HD85,HD50,HD120,HD120,,
710KTH,Y180M0,HD100,HD70,HD100,HD60,HD140,HD140,,
710KTH,Y180L0,HD100,HD70,HD100,HD60,HD150,HD140,,
710KTH,Y200L0,HD100,HD70,HD120,HD85,HD160,HD150,,
800KTQ,Y160M0,HD120,HD85,HD85,HD50,HD140,HD140,,
800KTQ,Y160L0,HD120,HD85,HD85,HD50,HD140,HD140,,
800KTQ,Y180M0,HD120,HD85,HD100,HD60,HD150,HD140,,
800KTQ,Y180L0,HD120,HD85,HD120,HD70,HD150,HD140,,
800KTQ,Y200L0,HD120,HD85,HD140,HD85,HD180,HD160,,
800KTH,Y160M0,HD140,HD100,HD85,HD50,HD140,HD150,,
800KTH,Y160L0,HD140,HD100,HD100,HD50,HD150,HD150,,
800KTH,Y180M0,HD140,HD100,HD100,HD60,HD160,HD150,,
800KTH,Y180L0,HD140,HD100,HD120,HD60,HD160,HD160,,
800KTH,Y200L0,HD140,HD100,HD140,HD85,HD180,HD180,,
800KTQ,Y200L2,HD120,HD85,HD140,HD85,HD180,HD160,,
800KTH,Y200L2,HD140,HD100,HD140,HD85,HD180,HD180,,
900KTQ,Y160L0,HD140,HD100,HD100,HD50,HD150,HD150,,
900KTQ,Y180M0,HD140,HD100,HD100,HD60,HD180,HD160,,
900KTQ,Y180L0,HD140,HD100,HD120,HD60,HD180,HD160,,
900KTQ,Y200L0,HD140,HD100,HD140,HD70,HD200,HD180,,
900KTQ,Y225S0,HD140,HD140,HD140,HD70,HD200,HD180,,
900KTH,Y160L0,HD150,HD100,HD100,HD50,HD150,HD160,,
900KTH,Y180M0,HD150,HD100,HD100,HD60,HD180,HD180,,
900KTH,Y180L0,HD150,HD100,HD120,HD60,HD180,HD180,,
900KTH,Y200L0,HD160,HD100,HD140,HD70,HD200,HD180,,
900KTH,Y225S0,HD160,HD140,HD140,HD85,HD200,HD200,,
900KTQ,Y225M0,HD140,HD140,HD160,HD70,HD200,HD180,,
900KTH,Y225M0,HD160,HD140,HD160,HD85,HD200,HD200,,
315KTQ,Y100L1,JD40A,JD20,JD40A,JD20,,,,
315KTQ,Y100L2,JD40A,JD20,JD40A,JD20,,,,
315KTQ,Y132S1,JD40A,JD40A,JD60A,JD40A,,,,
315KTQ,Y132S2,JD40A,JD40A,JD60A,JD40A,,,,
315KTQ,Y132M2,JD60,JD60,JD80,JD60,,,,
315KTH,Y100L1,JD40A,JD20,JD40A,JD20,,,,
315KTH,Y100L2,JD40A,JD20,JD40A,JD20,, ,,
315KTH,Y132S1,JD40A,JD40A,JD60A,JD40A,,,,
315KTH,Y132S2,JD40A,JD40A,JD60A,JD40A,,,,
315KTH,Y132M2,JD60,JD60,JD80,JD60,,,,
355KTH,Y100L1,JD40,JD40,JD40,JD40,,,,
355KTH,Y100L2,JD40,JD40,JD40,JD40,,,,
355KTH,Y132S1,JD40,JD40,JD60,JD40,,,,
355KTH,Y132S2,JD40,JD40,JD60,JD40,,,,
355KTH,Y132M2,JD60,JD60,JD80,JD60,,,,
355KTQ,Y100L1,JD40,JD40,JD40,JD40,,,,
355KTQ,Y100L2,JD40,JD40,JD40,JD40,,,,
355KTQ,Y132S1,JD40,JD40,JD60,JD40,,,,
355KTQ,Y132S2,JD40,JD40,JD60,JD40,,,,
355KTQ,Y132M2,JD60,JD60,JD80,JD60,,,,
355KTH,Y132M0,JD60,JD60,JD80,JD60,,,,
355KTH,Y160M0,JD40,JD40,JD80,JD40,JD80,JD60,,
400KTH,Y100L1,JD40,JD40,JD60,JD40,,,,
400KTH,Y100L2,JD40,JD40,JD60,JD40,,,,
400KTH,Y132S1,JD60,JD60,JD80,JD60,,,,
400KTH,Y132S2,JD60,JD60,JD80,JD60,,,,
400KTH,Y132M1,JD60,JD60,JD80,JD60,,,,
400KTH,Y132M2,JD60,JD60,JD80,JD60,,,,
400KTH,Y160M0,JD40,JD40,JD80,JD40,JD80,JD60,,
355KTQ,Y132M0,JD60,JD60,JD80,JD60,,,,
355KTQ,Y160M0,JD40,JD40,JD80,JD40,JD80,JD60,,
400KTQ,Y100L1,JD40,JD40,JD60,JD40,,,,
400KTQ,Y100L2,JD40,JD40,JD60,JD40,,,,
400KTQ,Y132S1,JD60,JD60,JD80,JD60,,,,
400KTQ,Y132S2,JD60,JD60,JD80,JD60,,,,
400KTQ,Y132M1,JD60,JD60,JD80,JD60,,,,
400KTQ,Y132M2,JD60,JD60,JD80,JD60,,,,
400KTQ,Y160M0,JD40,JD40,JD80,JD40,JD80,JD60,,
450KTH,Y100L1,JD60,JD40,JD60,JD40,,,,
450KTH,Y100L2,JD60,JD40,JD60,JD40,,,,
450KTH,Y132M1,JD60,JD60,JD80,JD60,,,,
450KTH,Y132M2,JD60,JD60,JD80,JD60,,,,
450KTH,Y132S1,JD60,JD60,JD80,JD60,,,,
450KTH,Y132S2,JD60,JD60,JD80,JD60,,,,
450KTH,Y160M1,JD40,JD40,JD80,JD40,JD80,JD60,,
450KTH,Y160M2,JD40,JD40,JD80,JD40,JD80,JD60,,
450KTQ,Y100L1,JD40,JD40,JD60,JD40,,,,
450KTQ,Y100L2,JD40,JD40,JD60,JD40,,,,
450KTQ,Y132S1,JD60,JD60,JD80,JD60,,,,
450KTQ,Y132S2,JD60,JD60,JD80,JD60,,,,
450KTQ,Y132M1,JD60,JD60,JD80,JD60,,,,
450KTQ,Y132M2,JD60,JD60,JD80,JD60,,,,
450KTQ,Y160M1,JD40,JD40,JD80,JD40,JD80,JD40,,
450KTQ,Y160M2,JD40,JD40,JD80,JD40,JD80,JD40,,
400KTH,Y160M2,JD40,JD40,JD80,JD40,JD80,JD60,,
400KTH,Y160L0,JD40,JD40,JD80,JD40,JD100,JD60,,
400KTH,Y180L0,HD85,HD60,HD100,HD60,HD120,HD120,,
450KTH,Y180L0,HD85,HD60,HD100,HD60,HD120,HD120,,
450KTQ,Y180L0,HD85,HD60,HD100,HD60,HD120,HD120,,
400KTQ,Y160L0,JD40,JD40,JD80,JD40,JD100,JD60,,
400KTQ,Y180L0,HD85,HD60,HD100,HD60,HD120,HD120,,
500KTH,Y100L1,JD60,JD60,JD60,JD40,,,,
500KTH,Y100L2,JD60,JD60,JD60,JD40,,,,
500KTH,Y132S1,JD60,JD60,JD80,JD60,,,,
500KTH,Y132S2,JD60,JD60,JD80,JD60,,,,
500KTH,Y132M1,JD60,JD60,JD100,JD60,,,,
500KTH,Y132M2,JD60,JD60,JD100,JD60,,,,
500KTH,Y160M1,JD40,JD40,JD80,JD40,JD100,JD60,,
500KTH,Y160M2,JD40,JD40,JD80,JD40,JD100,JD60,,
500KTH,Y180L0,HD85,HD60,HD100,HD60,HD120,HD120,,
500KTQ,Y100L1,JD60,JD40,JD60,JD40,,,,
500KTQ,Y100L2,JD60,JD40,JD60,JD40,,,,
500KTQ,Y132M1,JD60,JD60,JD100,JD60,,,,
500KTQ,Y132M2,JD60,JD60,JD100,JD60,,,,
500KTQ,Y132S1,JD60,JD60,JD80,JD60,,,,
500KTQ,Y132S2,JD60,JD60,JD80,JD60,,,,
500KTQ,Y160M1,JD40,JD40,JD80,JD40,JD100,JD60,,
500KTQ,Y160M2,JD40,JD40,JD80,JD40,JD100,JD60,,
500KTQ,Y180L0,HD85,HD60,HD100,HD60,HD120,HD120,,
500KTH,Y180M0,HD60,HD43,HD85,HD50,HD100,HD85,,
500KTH,Y200L1,,,,,,,,
500KTQ,Y180M0,HD60,HD40,HD85,HD60,HD100,HD85,,
500KTQ,Y200L1,,,,,,,,
560KTH,Y132S1,HD60,HD43,HD50,HD35,HD70,HD70,,
560KTH,Y132S2,HD60,HD43,HD50,HD35,HD70,HD70,,
560KTH,Y132M1,HD60,HD43,HD60,HD43,HD70,HD70,,
560KTH,Y132M2,HD60,HD43,HD60,HD43,HD70,HD70,,
560KTH,Y160M1,HD60,HD43,HD70,HD43,HD85,HD85,,
560KTH,Y160M2,HD60,HD43,HD70,HD43,HD85,HD85,,
630KTQ,Y132S0,HD60,HD40,HD50,HD35,HD70,HD70,,
630KTQ,Y132S1,HD60,HD40,HD50,HD35,HD70,HD70,,
630KTQ,Y132S2,HD60,HD40,HD50,HD35,HD70,HD70,,
280KTQ,Y132S1,JD40A,JD40A,JD60A,JD40A,,,,
280KTQ,Y132S0,JD40A,JD40A,JD60A,JD40A,,,,
180KTQ,Y100L1,JD40A,JD20,JD40A,JD20,,,,
280KTQ,Y100L1,JD20,JD20,JD40A,JD20,,,,
280KTQ,Y100L2,JD20,JD20,JD40A,JD20,,,,
280KTH,Y132S1,JD40A,JD40A,JD60A,JD40A,,,,
280KTQ,Y132M2,JD60,JD60,JD80,JD60,,,,
280KTQ,Y08002,JD20,JD20,JD40A,JD20,,,,
280KTH,Y100L1,JD20,JD20,JD40A,JD20,,,,
280KTH,Y100L2,JD20,JD20,JD40A,JD20,,,,
280KTH,Y132S0,JD40A,JD40A,JD60A,JD40A,,,,
280KTH,Y132M2,JD60,JD60,JD80,JD60,,,,
250KTQ,Y132M1,JD60,JD60,JD80,JD60,,,,
280KTH,Y08002,JD20,JD20,JD40A,JD20,,,,
250KTQ,Y100L1,JD20,JD20,JD40A,JD20,,,,
250KTQ,Y100L2,JD20,JD20,JD40A,JD20,,,,
800KTQ,Y225M0,,,,,,,,
800KTH,Y225S0,,,,,,,,
800KTQ,Y225S0,,,,,,,,
225KTQ,Y100L2,JD20,JD20,JD40A,JD20,,,,
225KTQ,Y132M1,JD60,JD60,JD80,JD60,,,,
225KTQ,Y100L1,JD20,JD20,JD40A,JD20,,,,
630KTQ,Y200L1,HD100,HD62,HD120,HD70,HD160,HD140,,
900KTH,Y160M1,HD140,HD100,HD85,HD50,HD140,HD150,,
900KTH,Y160M0,HD140,HD100,HD85,HD50,HD140,HD150,,
900KTQ,Y250M0,HD200,HD200,HD200,HD200,HD200,HD200,,
900KTQ,Y200L1,HD140,HD100,HD140,HD70,HD200,HD180,,
900KTQ,Y200L2,HD140,HD100,HD140,HD70,HD200,HD180,,
800KTQ,Y280S0,,,,,,,,
900KTH,Y280S0,,,,,,,,
900KTH,Y200L1,HD160,HD100,HD140,HD70,HD200,HD200,,
900KTH,Y200L2,HD160,HD100,HD140,HD70,HD200,HD200,,
800KTQ,Y200L1,HD120,HD85,HD140,HD85,HD180,HD160,,
800KTH,Y280S0,,,,,,,,
800KTQ,Y160M1,HD120,HD85,HD85,HD50,HD140,HD140,,
800KTQ,Y160M2,HD120,HD85,HD85,HD50,HD140,HD140,,
800KTH,Y225M0,,,,,,,,
800KTH,Y200L1,HD140,HD100,HD140,HD85,HD180,HD180,,
710KTQ,Y225M0,,,,,,,,
800KTH,Y160M1,HD140,HD100,HD85,HD50,HD140,HD150,,
800KTH,Y160M2,HD140,HD100,HD85,HD50,HD140,HD150,,
710KTQ,Y200L1,HD100,HD62,HD120,HD70,HD160,HD140,,
710KTQ,Y200L2,HD100,HD62,HD120,HD70,HD160,HD140,,
710KTH,Y200L1,HD100,HD70,HD120,HD85,HD160,HD150,,
710KTH,Y200L2,HD100,HD70,HD120,HD85,HD160,HD150,,
710KTH,Y225M0,,,,,,,,
630KTQ,Y200L0,HD100,HD62,HD120,HD70,HD160,HD140,,
630KTQ,Y225M0,,,,,,,,
710KTQ,Y160M1,HD85,HD62,HD70,HD50,HD100,HD100,,
710KTQ,Y160M2,HD85,HD62,HD70,HD50,HD100,HD100,,
560KTQ,Y180L0,HD85,HD60,HD100,HD60,HD120,HD120,,
560KTQ,Y200L2,,,,,,,,
630KTQ,Y200L2,,,,,,,,
630KTH,Y200L0,HD100,HD62,HD120,HD70,HD160,HD140,,
630KTH,Y225M0,,,,,,,,
710KTH,Y160M1,HD100,HD70,HD85,HD50,HD120,HD120,,
710KTH,Y160M2,HD100,HD70,HD85,HD50,HD120,HD120,,
560KTQ,Y132S1,HD60,HD40,HD50,HD35,HD70,HD70,,
560KTQ,Y132S2,HD60,HD40,HD50,HD35,HD70,HD70,,
560KTQ,Y132M1,HD60,HD40,HD60,HD35,HD70,HD70,,
560KTQ,Y132M2,HD60,HD40,HD60,HD35,HD70,HD70,,
560KTQ,Y160M1,HD60,HD40,HD70,HD43,HD85,HD85,,
560KTQ,Y160M2,HD60,HD40,HD70,HD43,HD85,HD85,,
560KTH,Y180L0,HD85,HD60,HD100,HD60,HD120,HD120,,
560KTH,Y200L2,,,,,,,,
630KTH,Y200L2,HD100,HD62,HD120,HD70,HD160,HD140,,
630KTQ,Y132M1,HD85,HD60,HD60,HD40,HD85,HD100,,
630KTQ,Y132M2,HD85,HD60,HD60,HD40,HD85,HD100,,
630KTQ,Y160M1,HD85,HD60,HD70,HD50,HD100,HD100,,
630KTQ,Y160M2,HD85,HD60,HD70,HD50,HD100,HD100,,
630KTH,Y200L1,,,,,,,,
630KTH,Y132M1,HD85,HD60,HD60,HD40,HD85,HD100,,
630KTH,Y132M2,HD85,HD60,HD60,HD40,HD85,HD100,,
630KTH,Y160M1,HD85,HD60,HD70,HD50,HD100,HD100,,
630KTH,Y160M2,HD85,HD60,HD70,HD50,HD100,HD100,,
560KTH,Y200L1,,,,,,,,
225KTQ,Y112M0,JD20,JD20,JD40A,JD20,,,,
225KTH,Y112M0,JD20,JD20,JD40A,JD20,,,,
200KTQ,Y100L1,JD20,JD20,JD40A,JD20,,,,
SYW250R,Y71,JD10,JD10,JD10,JD10,,,,
SYW250R,Y08001,JD10,JD10,JD10,JD10,,,,
SYW250R,Y090S0,JD20,JD20,JD20,JD20,,,,
SYW250R,Y090L0,JD20,JD20,JD20,JD20,,,,
SYW250R,Y100L0,JD20,JD20,JD20,JD20,,,,
SYW280R,Y08001,JD20,JD20,JD20,JD20,,,,
SYW280R,Y090S0,JD20,JD20,JD20,JD20,,,,
SYW280R,Y090L0,JD20,JD20,JD20,JD20,,,,
SYW280R,Y100L0,JD20,JD20,JD20,JD20,,,,
SYW280R,Y112M0,JD20,JD20,JD20,JD20,,,,
SYW280R,Y132S0,JD30,JD30,JD30,JD30,,,,
SYW280RH,Y08001,JD20,JD20,JD20,JD20,,,,
SYW280RH,Y090S0,JD20,JD20,JD20,JD20,,,,
SYW280RH,Y090L0,JD20,JD20,JD20,JD20,,,,
SYW280RH,Y100L0,JD20,JD20,JD20,JD20,,,,
SYW280RH,Y112M0,JD20,JD20,JD20,JD20,,,,
SYW280RH,Y132S0,JD30,JD30,JD30,JD30,,,,
SYW315R,Y08001,JD20,JD20,JD20,JD20,,,,
SYW315R,Y090S0,JD20,JD20,JD20,JD20,,,,
SYW315R,Y090L0,JD20,JD20,JD20,JD20,,,,
SYW315R,Y100L0,JD20,JD20,JD20,JD20,,,,
SYW315R,Y112M0,JD30,JD30,JD30,JD30,,,,
SYW315R,Y132S0,JD30,JD30,JD30,JD30,,,,
SYW315RH,Y08001,JD20,JD20,JD20,JD20,,,,
SYW315RH,Y090S0,JD20,JD20,JD20,JD20,,,,
SYW315RH,Y090L0,JD20,JD20,JD20,JD20,,,,
SYW315RH,Y100L0,JD20,JD20,JD20,JD20,,,,
SYW315RH,Y112M0,JD30,JD30,JD30,JD30,,,,
SYW315RH,Y132S0,JD30,JD30,JD30,JD30,,,,
SYW355R,Y08001,JD20,JD20,JD20,JD20,,,,
SYW355R,Y090S0,JD20,JD20,JD20,JD20,,,,
SYW355R,Y090L0,JD20,JD20,JD20,JD20,,,,
SYW355R,Y100L0,JD30,JD30,JD30,JD30,,,,
SYW355R,Y112M0,JD30,JD30,JD30,JD30,,,,
SYW355R,Y132S0,JD40A,JD40A,JD40A,JD40A,,,,
SYW355RH,Y08001,JD20,JD20,JD20,JD20,,,,
SYW355RH,Y090S0,JD20,JD20,JD20,JD20,,,,
SYW355RH,Y090L0,JD20,JD20,JD20,JD20,,,,
SYW355RH,Y100L0,JD30,JD30,JD30,JD30,,,,
SYW355RH,Y112M0,JD30,JD30,JD30,JD30,,,,
SYW355RH,Y132S0,JD40A,JD40A,JD40A,JD40A,,,,
SYW400R,Y08001,JD20,JD20,JD20,JD20,,,,
SYW400R,Y090S0,JD20,JD20,JD20,JD20,,,,
SYW400R,Y090L0,JD20,JD20,JD20,JD20,,,,
SYW400R,Y100L0,JD30,JD30,JD30,JD30,,,,
SYW400R,Y112M0,JD30,JD30,JD30,JD30,,,,
SYW400R,Y132S0,JD40A,JD40A,JD40A,JD40A,,,,
SYW400R,Y132M1,JD40A,JD40A,JD40A,JD40A,,,,
SYW400R,Y160M0,JD60,JD60,JD60,JD60,,,,
SYW400RH,Y08001,JD20,JD20,JD20,JD20,,,,
SYW400RH,Y090S0,JD20,JD20,JD20,JD20,,,,
SYW400RH,Y090L0,JD20,JD20,JD20,JD20,,,,
SYW400RH,Y100L0,JD30,JD30,JD30,JD30,,,,
SYW400RH,Y112M0,JD30,JD30,JD30,JD30,,,,
SYW400RH,Y132S0,JD40A,JD40A,JD40A,JD40A,,,,
SYW400RH,Y132M1,JD40A,JD40A,JD40A,JD40A,,,,
SYW400RH,Y160M0,JD60,JD60,JD60,JD60,,,,
SYW450R,Y08001,JD20,JD20,JD20,JD20,,,,
SYW450R,Y090S0,JD20,JD20,JD20,JD20,,,,
SYW450R,Y090L0,JD20,JD20,JD20,JD20,,,,
SYW450R,Y100L0,JD30,JD30,JD30,JD30,,,,
SYW450R,Y112M0,JD30,JD30,JD30,JD30,,,,
SYW450R,Y132S0,JD40A,JD40A,JD40A,JD40A,,,,
SYW450R,Y132M1,JD40A,JD40A,JD40A,JD40A,,,,
SYW450R,Y160M0,JD60,JD60,JD60,JD60,,,,
SYW450RH,Y08001,JD20,JD20,JD20,JD20,,,,
SYW450RH,Y090S0,JD20,JD20,JD20,JD20,,,,
SYW450RH,Y090L0,JD20,JD20,JD20,JD20,,,,
SYW450RH,Y100L0,JD30,JD30,JD30,JD30,,,,
SYW450RH,Y112M0,JD30,JD30,JD30,JD30,,,,
SYW450RH,Y132S0,JD40A,JD40A,JD40A,JD40A,,,,
SYW450RH,Y132M1,JD40A,JD40A,JD40A,JD40A,,,,
SYW450RH,Y160M0,JD60,JD60,JD60,JD60,,,,
SYW500R,Y08001,JTT-30,JTT-30,JTT-30,JTT-30,,,,
SYW500R,Y090S0,JTT-30,JTT-30,JTT-30,JTT-30,,,,
SYW500R,Y090L0,JTT-30,JTT-30,JTT-30,JTT-30,,,,
SYW500R,Y100L0,JTT-30,JTT-30,JTT-30,JTT-30,,,,
SYW500R,Y112M0,JTT-50,JTT-50,JTT-50,JTT-50,,,,
SYW500R,Y132S0,JTT-50,JTT-50,JTT-50,JTT-50,,,,
SYW500R,Y132M1,JTT-50,JTT-50,JTT-50,JTT-50,,,,
SYW500R,Y160M0,JTT-60,JTT-60,JTT-60,JTT-60,,,,
SYW500RH,Y08001,JTT-30,JTT-30,JTT-30,JTT-30,,,,
SYW500RH,Y090S0,JTT-30,JTT-30,JTT-30,JTT-30,,,,
SYW500RH,Y090L0,JTT-30,JTT-30,JTT-30,JTT-30,,,,
SYW500RH,Y100L0,JTT-30,JTT-30,JTT-30,JTT-30,,,,
SYW500RH,Y112M0,JTT-50,JTT-50,JTT-50,JTT-50,,,,
SYW500RH,Y132S0,JTT-50,JTT-50,JTT-50,JTT-50,,,,
SYW500RH,Y132M1,JTT-50,JTT-50,JTT-50,JTT-50,,,,
SYW500RH,Y160M0,JTT-60,JTT-60,JTT-60,JTT-60,,,,
SYW560R,Y08001,JTT-20,JTT-20,JTT-20,JTT-20,JTT-20,JTT-20,,
SYW560R,Y090S0,JTT-20,JTT-20,JTT-20,JTT-20,JTT-20,JTT-20,,
SYW560R,Y090L0,JTT-20,JTT-20,JTT-20,JTT-20,JTT-20,JTT-20,,
SYW560R,Y100L0,JTT-30,JTT-30,JTT-30,JTT-30,JTT-30,JTT-30,,
SYW560R,Y112M0,JTT-30,JTT-30,JTT-30,JTT-30,JTT-30,JTT-30,,
SYW560R,Y132S0,JTT-50,JTT-50,JTT-50,JTT-50,JTT-50,JTT-50,,
SYW560R,Y132M1,JTT-50,JTT-50,JTT-50,JTT-50,JTT-50,JTT-50,,
SYW560R,Y160M0,JTT-50,JTT-50,JTT-50,JTT-50,JTT-50,JTT-50,,
SYW560R,Y160L0,JTT-50,JTT-50,JTT-50,JTT-50,JTT-50,JTT-50,,
SYW560R,Y180M0,JTT-60,JTT-60,JTT-60,JTT-60,JTT-60,JTT-60,,
SYW560RH,Y08001,JTT-20,JTT-20,JTT-20,JTT-20,JTT-20,JTT-20,,
SYW560RH,Y090S0,JTT-20,JTT-20,JTT-20,JTT-20,JTT-20,JTT-20,,
SYW560RH,Y090L0,JTT-20,JTT-20,JTT-20,JTT-20,JTT-20,JTT-20,,
SYW560RH,Y100L0,JTT-30,JTT-30,JTT-30,JTT-30,JTT-30,JTT-30,,
SYW560RH,Y112M0,JTT-30,JTT-30,JTT-30,JTT-30,JTT-30,JTT-30,,
SYW560RH,Y132S0,JTT-50,JTT-50,JTT-50,JTT-50,JTT-50,JTT-50,,
SYW560RH,Y132M1,JTT-50,JTT-50,JTT-50,JTT-50,JTT-50,JTT-50,,
SYW560RH,Y160M0,JTT-50,JTT-50,JTT-50,JTT-50,JTT-50,JTT-50,,
SYW560RH,Y160L0,JTT-50,JTT-50,JTT-50,JTT-50,JTT-50,JTT-50,,
SYW560RH,Y180M0,JTT-60,JTT-60,JTT-60,JTT-60,JTT-60,JTT-60,,
SYW630R,Y08001,JTT-30,JTT-30,JTT-30,JTT-30,JTT-30,JTT-30,,
SYW630R,Y090S0,JTT-30,JTT-30,JTT-30,JTT-30,JTT-30,JTT-30,,
SYW630R,Y090L0,JTT-30,JTT-30,JTT-30,JTT-30,JTT-30,JTT-30,,
SYW630R,Y100L0,JTT-30,JTT-30,JTT-30,JTT-30,JTT-30,JTT-30,,
SYW630R,Y112M0,JTT-30,JTT-30,JTT-30,JTT-30,JTT-30,JTT-30,,
SYW630R,Y132S0,JTT-50,JTT-50,JTT-50,JTT-50,JTT-50,JTT-50,,
SYW630R,Y132M1,JTT-50,JTT-50,JTT-50,JTT-50,JTT-50,JTT-50,,
SYW630R,Y160M0,JTT-50,JTT-50,JTT-50,JTT-50,JTT-50,JTT-50,,
SYW630R,Y160L0,JTT-60,JTT-60,JTT-60,JTT-60,JTT-60,JTT-60,,
SYW630R,Y180M0,JTT-60,JTT-60,JTT-60,JTT-60,JTT-60,JTT-60,,
SYW630RH,Y08001,JTT-30,JTT-30,JTT-30,JTT-30,JTT-30,JTT-30,,
SYW630RH,Y090S0,JTT-30,JTT-30,JTT-30,JTT-30,JTT-30,JTT-30,,
SYW630RH,Y090L0,JTT-30,JTT-30,JTT-30,JTT-30,JTT-30,JTT-30,,
SYW630RH,Y100L0,JTT-30,JTT-30,JTT-30,JTT-30,JTT-30,JTT-30,,
SYW630RH,Y112M0,JTT-30,JTT-30,JTT-30,JTT-30,JTT-30,JTT-30,,
SYW630RH,Y132S0,JTT-50,JTT-50,JTT-50,JTT-50,JTT-50,JTT-50,,
SYW630RH,Y132M1,JTT-50,JTT-50,JTT-50,JTT-50,JTT-50,JTT-50,,
SYW630RH,Y160M0,JTT-50,JTT-50,JTT-50,JTT-50,JTT-50,JTT-50,,
SYW630RH,Y160L0,JTT-60,JTT-60,JTT-60,JTT-60,JTT-60,JTT-60,,
SYW630RH,Y180M0,JTT-60,JTT-60,JTT-60,JTT-60,JTT-60,JTT-60,,
SYW710R,Y100L0,JTT-40,JTT-40,JTT-40,JTT-40,JTT-40,JTT-40,,
SYW710R,Y112M0,JTT-40,JTT-40,JTT-40,JTT-40,JTT-40,JTT-40,,
SYW710R,Y132S0,JTT-50,JTT-50,JTT-50,JTT-50,JTT-50,JTT-50,,
SYW710R,Y132M1,JTT-50,JTT-50,JTT-50,JTT-50,JTT-50,JTT-50,,
SYW710R,Y160M0,JTT-60,JTT-60,JTT-60,JTT-60,JTT-60,JTT-60,,
SYW710R,Y160L0,JTT-60,JTT-60,JTT-60,JTT-60,JTT-60,JTT-60,,
SYW710R,Y180M0,JTT-70,JTT-70,JTT-70,JTT-70,JTT-70,JTT-70,,
SYW710R,Y180L0,JTT-70,JTT-70,JTT-70,JTT-70,JTT-70,JTT-70,,
SYW710R,Y200L0,JTT-85,JTT-85,JTT-85,JTT-85,JTT-85,JTT-85,,
SYW710RH,Y100L0,JTT-40,JTT-40,JTT-40,JTT-40,JTT-40,JTT-40,,
SYW710RH,Y112M0,JTT-40,JTT-40,JTT-40,JTT-40,JTT-40,JTT-40,,
SYW710RH,Y132S0,JTT-50,JTT-50,JTT-50,JTT-50,JTT-50,JTT-50,,
SYW710RH,Y132M1,JTT-50,JTT-50,JTT-50,JTT-50,JTT-50,JTT-50,,
SYW710RH,Y160M0,JTT-60,JTT-60,JTT-60,JTT-60,JTT-60,JTT-60,,
SYW710RH,Y160L0,JTT-60,JTT-60,JTT-60,JTT-60,JTT-60,JTT-60,,
SYW710RH,Y180M0,JTT-70,JTT-70,JTT-70,JTT-70,JTT-70,JTT-70,,
SYW710RH,Y180L0,JTT-70,JTT-70,JTT-70,JTT-70,JTT-70,JTT-70,,
SYW710RH,Y200L0,JTT-85,JTT-85,JTT-85,JTT-85,JTT-85,JTT-85,,
SYW800R,Y112M0,JTT-50,JTT-50,JTT-50,JTT-50,JTT-50,JTT-50,,
SYW800R,Y132S0,JTT-60,JTT-60,JTT-60,JTT-60,JTT-60,JTT-60,,
SYW800R,Y132M1,JTT-60,JTT-60,JTT-60,JTT-60,JTT-60,JTT-60,,
SYW800R,Y160M0,JTT-70,JTT-70,JTT-70,JTT-70,JTT-70,JTT-70,,
SYW800R,Y160L0,JTT-70,JTT-70,JTT-70,JTT-70,JTT-70,JTT-70,,
SYW800R,Y180M0,JTT-70,JTT-70,JTT-70,JTT-70,JTT-70,JTT-70,,
SYW800R,Y180L0,JTT-70,JTT-70,JTT-70,JTT-70,JTT-70,JTT-70,,
SYW800R,Y200L0,JTT-85,JTT-85,JTT-85,JTT-85,JTT-85,JTT-85,,
SYW800R,Y225S0,JTT-85,JTT-85,JTT-85,JTT-85,JTT-85,JTT-85,,
SYW800RH,Y112M0,JTT-50,JTT-50,JTT-50,JTT-50,JTT-50,JTT-50,,
SYW800RH,Y132S0,JTT-60,JTT-60,JTT-60,JTT-60,JTT-60,JTT-60,,
SYW800RH,Y132M1,JTT-60,JTT-60,JTT-60,JTT-60,JTT-60,JTT-60,,
SYW800RH,Y160M0,JTT-70,JTT-70,JTT-70,JTT-70,JTT-70,JTT-70,,
SYW800RH,Y160L0,JTT-70,JTT-70,JTT-70,JTT-70,JTT-70,JTT-70,,
SYW800RH,Y180M0,JTT-70,JTT-70,JTT-70,JTT-70,JTT-70,JTT-70,,
SYW800RH,Y180L0,JTT-70,JTT-70,JTT-70,JTT-70,JTT-70,JTT-70,,
SYW800RH,Y200L0,JTT-85,JTT-85,JTT-85,JTT-85,JTT-85,JTT-85,,
SYW800RH,Y225S0,JTT-85,JTT-85,JTT-85,JTT-85,JTT-85,JTT-85,,
SYW900R,Y132M1,JTT-70,JTT-70,JTT-70,JTT-70,JTT-70,JTT-70,,
SYW900R,Y160M0,JTT-85,JTT-85,JTT-85,JTT-85,JTT-85,JTT-85,,
SYW900R,Y160L0,JTT-85,JTT-85,JTT-85,JTT-85,JTT-85,JTT-85,,
SYW900R,Y180M0,JTT-100,JTT-100,JTT-100,JTT-100,JTT-100,JTT-100,,
SYW900R,Y180L0,JTT-100,JTT-100,JTT-100,JTT-100,JTT-100,JTT-100,,
SYW900R,Y200L0,JTT-100,JTT-100,JTT-100,JTT-100,JTT-100,JTT-100,,
SYW900R,Y225S0,JTT-120,JTT-120,JTT-120,JTT-120,JTT-120,JTT-120,,
SYW900R,Y225M0,JTT-120,JTT-120,JTT-120,JTT-120,JTT-120,JTT-120,,
SYW900RH,Y132M1,JTT-70,JTT-70,JTT-70,JTT-70,JTT-70,JTT-70,,
SYW900RH,Y160M0,JTT-85,JTT-85,JTT-85,JTT-85,JTT-85,JTT-85,,
SYW900RH,Y160L0,JTT-85,JTT-85,JTT-85,JTT-85,JTT-85,JTT-85,,
SYW900RH,Y180M0,JTT-100,JTT-100,JTT-100,JTT-100,JTT-100,JTT-100,,
SYW900RH,Y180L0,JTT-100,JTT-100,JTT-100,JTT-100,JTT-100,JTT-100,,
SYW900RH,Y200L0,JTT-100,JTT-100,JTT-100,JTT-100,JTT-100,JTT-100,,
SYW900RH,Y225S0,JTT-120,JTT-120,JTT-120,JTT-120,JTT-120,JTT-120,,
SYW900RH,Y225M0,JTT-120,JTT-120,JTT-120,JTT-120,JTT-120,JTT-120,,
SYW1000R,Y160M0,JTT-85,JTT-85,JTT-85,JTT-85,JTT-85,JTT-85,,
SYW1000R,Y160L0,JTT-85,JTT-85,JTT-85,JTT-85,JTT-85,JTT-85,,
SYW1000R,Y180M0,JTT-100,JTT-100,JTT-100,JTT-100,JTT-100,JTT-100,,
SYW1000R,Y180L0,JTT-100,JTT-100,JTT-100,JTT-100,JTT-100,JTT-100,,
SYW1000R,Y200L0,JTT-100,JTT-100,JTT-100,JTT-100,JTT-100,JTT-100,,
SYW1000R,Y225S0,JTT-120,JTT-120,JTT-120,JTT-120,JTT-120,JTT-120,,
SYW1000R,Y225M0,JTT-120,JTT-120,JTT-120,JTT-120,JTT-120,JTT-120,,
SYW1000R,Y250M0,JTT-150,JTT-150,JTT-150,JTT-150,JTT-150,JTT-150,,
SYW1000RH,Y160M0,JTT-85,JTT-85,JTT-85,JTT-85,JTT-85,JTT-85,,
SYW1000RH,Y160L0,JTT-85,JTT-85,JTT-85,JTT-85,JTT-85,JTT-85,,
SYW1000RH,Y180M0,JTT-100,JTT-100,JTT-100,JTT-100,JTT-100,JTT-100,,
SYW1000RH,Y180L0,JTT-100,JTT-100,JTT-100,JTT-100,JTT-100,JTT-100,,
SYW1000RH,Y200L0,JTT-100,JTT-100,JTT-100,JTT-100,JTT-100,JTT-100,,
SYW1000RH,Y225S0,JTT-120,JTT-120,JTT-120,JTT-120,JTT-120,JTT-120,,
SYW1000RH,Y225M0,JTT-120,JTT-120,JTT-120,JTT-120,JTT-120,JTT-120,,
SYW1000RH,Y250M0,JTT-150,JTT-150,JTT-150,JTT-150,JTT-150,JTT-150,,
SYW1120RH,Y225M0,JTT-120,JTT-120,JTT-120,JTT-120,JTT-120,JTT-120,,
SYW1120RH,Y250M0,JTT-150,JTT-150,JTT-150,JTT-150,JTT-150,JTT-150,,
SYW1120RH,Y280S0,JTT-180,JTT-180,JTT-180,JTT-180,JTT-180,JTT-180,,
SYW1250RH,Y250M0,JTT-150,JTT-150,JTT-150,JTT-150,JTT-150,JTT-150,,
SYW1250RH,Y280S0,JTT-180,JTT-180,JTT-180,JTT-180,JTT-180,JTT-180,,
SYW1250RH,Y280M0,JTT-180,JTT-180,JTT-180,JTT-180,JTT-180,JTT-180,,
SYW1250RH,Y315S0,JTT-250,JTT-250,JTT-250,JTT-250,JTT-250,JTT-250,,
SYW1250RH,Y315M0,JTT-250,JTT-250,JTT-250,JTT-250,JTT-250,JTT-250,,
SYW400R,Y132M2,JD40A,JD40A,JD40A,JD40A,,,,
SYW400RH,Y132M2,JD40A,JD40A,JD40A,JD40A,,,,
SYW450R,Y132M2,JD40A,JD40A,JD40A,JD40A,,,,
SYW450RH,Y132M2,JD40A,JD40A,JD40A,JD40A,,,,
SYW500R,Y132M2,JTT-50,JTT-50,JTT-50,JTT-50,,,,
SYW500RH,Y132M2,JTT-50,JTT-50,JTT-50,JTT-50,,,,
SYW560R,Y132M2,JTT-50,JTT-50,JTT-50,JTT-50,JTT-50,JTT-50,,
SYW560RH,Y132M2,JTT-50,JTT-50,JTT-50,JTT-50,JTT-50,JTT-50,,
SYW630R,Y132M2,JTT-50,JTT-50,JTT-50,JTT-50,JTT-50,JTT-50,,
SYW630RH,Y132M2,JTT-50,JTT-50,JTT-50,JTT-50,JTT-50,JTT-50,,
SYW710R,Y132M2,JTT-50,JTT-50,JTT-50,JTT-50,JTT-50,JTT-50,,
SYW710RH,Y132M2,JTT-50,JTT-50,JTT-50,JTT-50,JTT-50,JTT-50,,
SYW800R,Y132M2,JTT-60,JTT-60,JTT-60,JTT-60,JTT-60,JTT-60,,
SYW800RH,Y132M2,JTT-60,JTT-60,JTT-60,JTT-60,JTT-60,JTT-60,,
SYW900R,Y132M2,JTT-70,JTT-70,JTT-70,JTT-70,JTT-70,JTT-70,,
SYW900RH,Y132M2,JTT-70,JTT-70,JTT-70,JTT-70,JTT-70,JTT-70,,
SYW280R,Y132S1,JD30,JD30,JD30,JD30,,,,
SYW280RH,Y132S1,JD30,JD30,JD30,JD30,,,,
SYW315R,Y132S1,JD30,JD30,JD30,JD30,,,,
SYW315RH,Y132S1,JD30,JD30,JD30,JD30,,,,
SYW355R,Y132S1,JD40A,JD40A,JD40A,JD40A,,,,
SYW355RH,Y132S1,JD40A,JD40A,JD40A,JD40A,,,,
SYW400R,Y132S1,JD40A,JD40A,JD40A,JD40A,,,,
SYW400RH,Y132S1,JD40A,JD40A,JD40A,JD40A,,,,
SYW450R,Y132S1,JD40A,JD40A,JD40A,JD40A,,,,
SYW450RH,Y132S1,JD40A,JD40A,JD40A,JD40A,,,,
SYW500R,Y132S1,JTT-50,JTT-50,JTT-50,JTT-50,,,,
SYW500RH,Y132S1,JTT-50,JTT-50,JTT-50,JTT-50,,,,
SYW560R,Y132S1,JTT-50,JTT-50,JTT-50,JTT-50,JTT-50,JTT-50,,
SYW560RH,Y132S1,JTT-50,JTT-50,JTT-50,JTT-50,JTT-50,JTT-50,,
SYW630R,Y132S1,JTT-50,JTT-50,JTT-50,JTT-50,JTT-50,JTT-50,,
SYW630RH,Y132S1,JTT-50,JTT-50,JTT-50,JTT-50,JTT-50,JTT-50,,
SYW710R,Y132S1,JTT-50,JTT-50,JTT-50,JTT-50,JTT-50,JTT-50,,
SYW710RH,Y132S1,JTT-50,JTT-50,JTT-50,JTT-50,JTT-50,JTT-50,,
SYW800R,Y132S1,JTT-60,JTT-60,JTT-60,JTT-60,JTT-60,JTT-60,,
SYW800RH,Y132S1,JTT-60,JTT-60,JTT-60,JTT-60,JTT-60,JTT-60,,
SYW280R,Y132S2,JD30,JD30,JD30,JD30,,,,
SYW280RH,Y132S2,JD30,JD30,JD30,JD30,,,,
SYW315R,Y132S2,JD30,JD30,JD30,JD30,,,,
SYW315RH,Y132S2,JD30,JD30,JD30,JD30,,,,
SYW355R,Y132S2,JD40A,JD40A,JD40A,JD40A,,,,
SYW355RH,Y132S2,JD40A,JD40A,JD40A,JD40A,,,,
SYW400R,Y132S2,JD40A,JD40A,JD40A,JD40A,,,,
SYW400RH,Y132S2,JD40A,JD40A,JD40A,JD40A,,,,
SYW450R,Y132S2,JD40A,JD40A,JD40A,JD40A,,,,
SYW450RH,Y132S2,JD40A,JD40A,JD40A,JD40A,,,,
SYW500R,Y132S2,JTT-50,JTT-50,JTT-50,JTT-50,,,,
SYW500RH,Y132S2,JTT-50,JTT-50,JTT-50,JTT-50,,,,
SYW560R,Y132S2,JTT-50,JTT-50,JTT-50,JTT-50,JTT-50,JTT-50,,
SYW560RH,Y132S2,JTT-50,JTT-50,JTT-50,JTT-50,JTT-50,JTT-50,,
SYW630R,Y132S2,JTT-50,JTT-50,JTT-50,JTT-50,JTT-50,JTT-50,,
SYW630RH,Y132S2,JTT-50,JTT-50,JTT-50,JTT-50,JTT-50,JTT-50,,
SYW710R,Y132S2,JTT-50,JTT-50,JTT-50,JTT-50,JTT-50,JTT-50,,
SYW710RH,Y132S2,JTT-50,JTT-50,JTT-50,JTT-50,JTT-50,JTT-50,,
SYW800R,Y132S2,JTT-60,JTT-60,JTT-60,JTT-60,JTT-60,JTT-60,,
SYW800RH,Y132S2,JTT-60,JTT-60,JTT-60,JTT-60,JTT-60,JTT-60,,
SYW400R,Y160M1,JD60,JD60,JD60,JD60,,,,
SYW400RH,Y160M1,JD60,JD60,JD60,JD60,,,,
SYW450R,Y160M1,JD60,JD60,JD60,JD60,,,,
SYW450RH,Y160M1,JD60,JD60,JD60,JD60,,,,
SYW500R,Y160M1,JTT-60,JTT-60,JTT-60,JTT-60,,,,
SYW500RH,Y160M1,JTT-60,JTT-60,JTT-60,JTT-60,,,,
SYW560R,Y160M1,JTT-50,JTT-50,JTT-50,JTT-50,JTT-50,JTT-50,,
SYW560RH,Y160M1,JTT-50,JTT-50,JTT-50,JTT-50,JTT-50,JTT-50,,
SYW630R,Y160M1,JTT-50,JTT-50,JTT-50,JTT-50,JTT-50,JTT-50,,
SYW630RH,Y160M1,JTT-50,JTT-50,JTT-50,JTT-50,JTT-50,JTT-50,,
SYW710R,Y160M1,JTT-60,JTT-60,JTT-60,JTT-60,JTT-60,JTT-60,,
SYW710RH,Y160M1,JTT-60,JTT-60,JTT-60,JTT-60,JTT-60,JTT-60,,
SYW800R,Y160M1,JTT-70,JTT-70,JTT-70,JTT-70,JTT-70,JTT-70,,
SYW800RH,Y160M1,JTT-70,JTT-70,JTT-70,JTT-70,JTT-70,JTT-70,,
SYW900R,Y160M1,JTT-85,JTT-85,JTT-85,JTT-85,JTT-85,JTT-85,,
SYW900RH,Y160M1,JTT-85,JTT-85,JTT-85,JTT-85,JTT-85,JTT-85,,
SYW1000R,Y160M1,JTT-85,JTT-85,JTT-85,JTT-85,JTT-85,JTT-85,,
SYW1000RH,Y160M1,JTT-85,JTT-85,JTT-85,JTT-85,JTT-85,JTT-85,,
SYW400R,Y160M2,JD60,JD60,JD60,JD60,,,,
SYW400RH,Y160M2,JD60,JD60,JD60,JD60,,,,
SYW450R,Y160M2,JD60,JD60,JD60,JD60,,,,
SYW450RH,Y160M2,JD60,JD60,JD60,JD60,,,,
SYW500R,Y160M2,JTT-60,JTT-60,JTT-60,JTT-60,,,,
SYW500RH,Y160M2,JTT-60,JTT-60,JTT-60,JTT-60,,,,
SYW560R,Y160M2,JTT-50,JTT-50,JTT-50,JTT-50,JTT-50,JTT-50,,
SYW560RH,Y160M2,JTT-50,JTT-50,JTT-50,JTT-50,JTT-50,JTT-50,,
SYW630R,Y160M2,JTT-50,JTT-50,JTT-50,JTT-50,JTT-50,JTT-50,,
SYW630RH,Y160M2,JTT-50,JTT-50,JTT-50,JTT-50,JTT-50,JTT-50,,
SYW710R,Y160M2,JTT-60,JTT-60,JTT-60,JTT-60,JTT-60,JTT-60,,
SYW710RH,Y160M2,JTT-60,JTT-60,JTT-60,JTT-60,JTT-60,JTT-60,,
SYW800R,Y160M2,JTT-70,JTT-70,JTT-70,JTT-70,JTT-70,JTT-70,,
SYW800RH,Y160M2,JTT-70,JTT-70,JTT-70,JTT-70,JTT-70,JTT-70,,
SYW900R,Y160M2,JTT-85,JTT-85,JTT-85,JTT-85,JTT-85,JTT-85,,
SYW900RH,Y160M2,JTT-85,JTT-85,JTT-85,JTT-85,JTT-85,JTT-85,,
SYW1000R,Y160M2,JTT-85,JTT-85,JTT-85,JTT-85,JTT-85,JTT-85,,
SYW1000RH,Y160M2,JTT-85,JTT-85,JTT-85,JTT-85,JTT-85,JTT-85,,
SYW710R,Y200L1,JTT-85,JTT-85,JTT-85,JTT-85,JTT-85,JTT-85,,
SYW710RH,Y200L1,JTT-85,JTT-85,JTT-85,JTT-85,JTT-85,JTT-85,,
SYW800R,Y200L1,JTT-85,JTT-85,JTT-85,JTT-85,JTT-85,JTT-85,,
SYW800RH,Y200L1,JTT-85,JTT-85,JTT-85,JTT-85,JTT-85,JTT-85,,
SYW900R,Y200L1,JTT-100,JTT-100,JTT-100,JTT-100,JTT-100,JTT-100,,
SYW900RH,Y200L1,JTT-100,JTT-100,JTT-100,JTT-100,JTT-100,JTT-100,,
SYW1000R,Y200L1,JTT-100,JTT-100,JTT-100,JTT-100,JTT-100,JTT-100,,
SYW1000RH,Y200L1,JTT-100,JTT-100,JTT-100,JTT-100,JTT-100,JTT-100,,
SYW710R,Y200L2,JTT-85,JTT-85,JTT-85,JTT-85,JTT-85,JTT-85,,
SYW710RH,Y200L2,JTT-85,JTT-85,JTT-85,JTT-85,JTT-85,JTT-85,,
SYW800R,Y200L2,JTT-85,JTT-85,JTT-85,JTT-85,JTT-85,JTT-85,,
SYW800RH,Y200L2,JTT-85,JTT-85,JTT-85,JTT-85,JTT-85,JTT-85,,
SYW900R,Y200L2,JTT-100,JTT-100,JTT-100,JTT-100,JTT-100,JTT-100,,
SYW900RH,Y200L2,JTT-100,JTT-100,JTT-100,JTT-100,JTT-100,JTT-100,,
SYW1000R,Y200L2,JTT-100,JTT-100,JTT-100,JTT-100,JTT-100,JTT-100,,
SYW1000RH,Y200L2,JTT-100,JTT-100,JTT-100,JTT-100,JTT-100,JTT-100,,
225KTQ,Y132S1,JD60,JD60,JD80,JD60,,,,
225KTH,Y132S1,JD60,JD60,JD80,JD60,,,,
225KTH,Y132M1,JD60,JD60,JD80,JD60,,,,
250KTH,Y100L1,JD20,JD20,JD40A,JD20,,,,
250KTH,Y100L2,JD20,JD20,JD40A,JD20,,,,
250KTH,Y132M1,JD60,JD60,JD80,JD60,,,,
250KTH,Y132S1,JD60,JD60,JD80,JD60,,,,
250KTQ,Y132S1,JD60,JD60,JD80,JD60,,,,
1000KTQ,Y160L0,HD200,HD180,HD160,HD100,HD200,HD200,,
1000KTQ,Y180M0,HD200,HD180,HD160,HD100,HD230,HD200,,
1000KTQ,Y180L0,HD200,HD180,HD160,HD100,HD230,HD200,,
1000KTQ,Y200L0,HD200,HD180,HD160,HD100,HD200,HD200,HD180,HD180
1000KTQ,Y200L1,HD200,HD180,HD160,HD100,HD200,HD200,HD180,HD180
1000KTQ,Y200L2,HD200,HD180,HD160,HD100,HD200,HD200,HD180,HD180
1000KTQ,Y225S0,HD200,HD180,HD200,HD140,HD230,HD200,HD230,HD180
1000KTQ,Y225M0,HD200,HD180,HD200,HD140,HD230,HD200,HD230,HD180
1000KTQ,Y250M0,HD230,HD200,HD230,HD180,HD250,HD230,HD250,HD200
1000KTQ,Y280S0,HD230,HD230,HD300,HD230,HD300,HD250,HD300,HD250
1000KTH,Y160L0,HD200,HD180,HD160,HD100,HD200,HD200,,
1000KTH,Y180M0,HD200,HD180,HD160,HD100,HD230,HD200,,
1000KTH,Y180L0,HD200,HD180,HD160,HD100,HD230,HD200,,
1000KTH,Y200L0,HD200,HD180,HD160,HD100,HD200,HD200,HD180,HD180
1000KTH,Y200L1,HD200,HD180,HD160,HD100,HD200,HD200,HD180,HD180
1000KTH,Y200L2,HD200,HD180,HD160,HD100,HD200,HD200,HD180,HD180
1000KTH,Y225S0,HD200,HD180,HD200,HD140,HD230,HD200,HD230,HD180
1000KTH,Y225M0,HD200,HD180,HD200,HD140,HD230,HD200,HD230,HD180
1000KTH,Y250M0,HD230,HD200,HD230,HD180,HD250,HD230,HD250,HD200
1000KTH,Y280S0,HD230,HD230,HD300,HD230,HD300,HD250,HD300,HD250
900KTH,Y250M0,HD200,HD200,HD200,HD200,HD200,HD200,,
