fanType,partType,door,doorH,doorW,minSectionL
39XT0608,1,6MX6M,387,353,6
39XT0608,11,6MX6M,387,353,6
39XT0608,12,6MX6M,387,353,6
39XT0608,14,6MX6M,387,353,6
39XT0608,15,6MX6M,387,353,6
39XT0608,22,6MX6M,387,353,6
39XT0609,1,6MX6M,387,353,6
39XT0609,11,6MX6M,387,353,6
39XT0609,12,6MX6M,387,353,6
39XT0609,14,6MX6M,387,353,6
39XT0609,15,6MX6M,387,353,6
39XT0609,22,6MX6M,387,353,6
39XT0711,1,7MX6M,487,353,6
39XT0711,11,7MX6M,487,353,6
39XT0711,12,7MX6M,487,353,6
39XT0711,14,7MX6M,487,353,6
39XT0711,15,7MX6M,487,353,6
39XT0711,22,7MX6M,487,353,6
39XT0811,1,8MX6M,503,353,6
39XT0811,11,8MX6M,503,353,6
39XT0811,12,8MX6M,503,353,6
39XT0811,14,8MX6M,503,353,6
39XT0811,15,8MX6M,503,353,6
39XT0811,22,8MX6M,503,353,6
39XT0912,1,9MX6M,653,353,6
39XT0912,11,9MX6M,653,353,6
39XT0912,12,9MX6M,653,353,6
39XT0912,14,9MX6M,653,353,6
39XT0912,15,9MX6M,653,353,6
39XT0912,22,9MX6M,653,353,6
39XT0913,1,9MX6M,653,353,6
39XT0913,11,9MX6M,653,353,6
39XT0913,12,9MX6M,653,353,6
39XT0913,14,9MX6M,653,353,6
39XT0913,15,9MX6M,653,353,6
39XT0913,22,9MX6M,653,353,6
39XT0914,1,9MX6M,653,353,6
39XT0914,11,9MX6M,653,353,6
39XT0914,12,9MX6M,653,353,6
39XT0914,14,9MX6M,653,353,6
39XT0914,15,9MX6M,653,353,6
39XT0914,22,9MX6M,653,353,6
39XT1015,1,9MX6M,653,353,6
39XT1015,11,9MX6M,653,353,6
39XT1015,12,9MX6M,653,353,6
39XT1015,14,9MX6M,653,353,6
39XT1015,15,9MX6M,653,353,6
39XT1015,22,9MX6M,653,353,6
39XT1117,1,9MX6M,653,353,6
39XT1117,11,9MX6M,653,353,6
39XT1117,12,9MX6M,653,353,6
39XT1117,14,9MX6M,653,353,6
39XT1117,15,9MX6M,653,353,6
39XT1117,22,9MX6M,653,353,6
39XT1317,1,9MX6M,653,353,6
39XT1317,11,9MX6M,653,353,6
39XT1317,12,9MX6M,653,353,6
39XT1317,14,9MX6M,653,353,6
39XT1317,15,9MX6M,653,353,6
39XT1317,22,9MX6M,653,353,6
39XT1418,1,9MX6M,653,353,6
39XT1418,11,9MX6M,653,353,6
39XT1418,12,9MX6M,653,353,6
39XT1418,14,9MX6M,653,353,6
39XT1418,15,9MX6M,653,353,6
39XT1418,22,9MX6M,653,353,6
39XT1420,1,9MX6M,653,353,6
39XT1420,11,9MX6M,653,353,6
39XT1420,12,9MX6M,653,353,6
39XT1420,14,9MX6M,653,353,6
39XT1420,15,9MX6M,653,353,6
39XT1420,22,9MX6M,653,353,6
39XT1621,1,14MX6M,1183,353,6
39XT1621,11,14MX7M,1183,483,7
39XT1621,12,14MX6M,1183,353,6
39XT1621,14,14MX6M,1183,353,6
39XT1621,15,14MX6M,1183,353,6
39XT1621,22,14MX7M,1183,483,7
39XT1822,1,14MX6M,1183,353,6
39XT1822,11,14MX7M,1183,483,7
39XT1822,12,14MX6M,1183,353,6
39XT1822,14,14MX6M,1183,353,6
39XT1822,15,14MX6M,1183,353,6
39XT1822,22,14MX7M,1183,483,7
39XT1825,1,14MX6M,1183,353,6
39XT1825,11,14MX7M,1183,483,7
39XT1825,12,14MX6M,1183,353,6
39XT1825,14,14MX6M,1183,353,6
39XT1825,15,14MX6M,1183,353,6
39XT1825,22,14MX7M,1183,483,7
39XT2025,1,14MX6M,1183,353,6
39XT2025,11,14MX7M,1183,483,7
39XT2025,12,14MX6M,1183,353,6
39XT2025,14,14MX6M,1183,353,6
39XT2025,15,14MX6M,1183,353,6
39XT2025,22,14MX7M,1183,483,7
39XT2125,1,14MX6M,1183,353,6
39XT2125,11,14MX7M,1183,483,7
39XT2125,12,14MX6M,1183,353,6
39XT2125,14,14MX6M,1183,353,6
39XT2125,15,14MX6M,1183,353,6
39XT2125,22,14MX7M,1183,483,7
39XT2226,1,14MX6M,1183,353,6
39XT2226,11,14MX7M,1183,483,7
39XT2226,12,14MX6M,1183,353,6
39XT2226,14,14MX6M,1183,353,6
39XT2226,15,14MX6M,1183,353,6
39XT2226,22,14MX7M,1183,483,7
39XT2328,1,14MX6M,1183,353,6
39XT2328,11,14MX7M,1183,483,7
39XT2328,12,14MX6M,1183,353,6
39XT2328,14,14MX6M,1183,353,6
39XT2328,15,14MX6M,1183,353,6
39XT2328,22,14MX7M,1183,483,7
39XT2330,1,14MX6M,1183,353,6
39XT2330,11,14MX7M,1183,483,7
39XT2330,12,14MX6M,1183,353,6
39XT2330,15,14MX6M,1183,353,6
39XT2330,22,14MX7M,1183,483,7
39XT2333,1,14MX6M,1183,353,6
39XT2333,11,14MX7M,1183,483,7
39XT2333,12,14MX6M,1183,353,6
39XT2333,14,14MX6M,1183,353,6
39XT2333,15,14MX6M,1183,353,6
39XT2333,22,14MX7M,1183,483,7
39XT2532,1,14MX7M,1183,483,7
39XT2532,11,14MX7M,1183,483,7
39XT2532,12,14MX7M,1183,483,7
39XT2532,14,14MX7M,1183,483,7
39XT2532,15,14MX7M,1183,483,7
39XT2532,22,14MX7M,1183,483,7
39XT2832,1,14MX6M,1183,353,6
39XT2832,11,14MX7M,1183,483,7
39XT2832,12,14MX6M,1183,353,6
39XT2832,14,14MX6M,1183,353,6
39XT2832,15,14MX6M,1183,353,6
39XT2832,22,14MX7M,1183,483,7
39XT3132,1,14MX6M,1183,353,6
39XT3132,11,14MX7M,1183,483,7
39XT3132,12,14MX6M,1183,353,6
39XT3132,14,14MX6M,1183,353,6
39XT3132,15,14MX6M,1183,353,6
39XT3132,22,14MX7M,1183,483,7
39XT3438,1,14MX6M,1183,353,6
39XT3438,11,14MX7M,1183,483,7
39XT3438,12,14MX6M,1183,353,6
39XT3438,14,14MX6M,1183,353,6
39XT3438,15,14MX6M,1183,353,6
39XT3438,22,14MX7M,1183,483,7
39XT3841,1,14MX6M,1183,353,6
39XT3841,11,14MX7M,1183,483,7
39XT3841,12,14MX6M,1183,353,6
39XT3841,14,14MX6M,1183,353,6
39XT3841,15,14MX6M,1183,353,6
39XT3841,22,14MX7M,1183,483,7
39XT4444,1,14MX6M,1183,353,6
39XT4444,11,14MX7M,1183,483,7
39XT4444,12,14MX6M,1183,353,6
39XT4444,14,14MX6M,1183,353,6
39XT4444,15,14MX6M,1183,353,6
39XT4444,22,14MX7M,1183,483,7
39XT4750,1,14MX6M,1183,353,6
39XT4750,11,14MX7M,1183,483,7
39XT4750,12,14MX6M,1183,353,6
39XT4750,14,14MX6M,1183,353,6
39XT4750,15,14MX6M,1183,353,6
39XT4750,22,14MX7M,1183,483,7
39XT2435,11,14MX7M,1183,483,7
39XT2635,11,14MX7M,1183,483,7
39XT2735,11,14MX7M,1183,483,7
39XT0606,1,6MX6M,387,353,6
39XT0606,11,6MX6M,387,353,6
39XT0606,12,6MX6M,387,353,6
39XT0606,14,6MX6M,387,353,6
39XT0606,15,6MX6M,387,353,6
39XT0606,22,6MX6M,387,353,6
39XT0610,1,6MX6M,387,353,6
39XT0610,11,6MX6M,387,353,6
39XT0610,12,6MX6M,387,353,6
39XT0610,14,6MX6M,387,353,6
39XT0610,15,6MX6M,387,353,6
39XT0610,22,6MX6M,387,353,6
39XT0707,1,7MX6M,487,353,6
39XT0707,11,7MX6M,487,353,6
39XT0707,12,7MX6M,487,353,6
39XT0707,14,7MX6M,487,353,6
39XT0707,15,7MX6M,487,353,6
39XT0707,22,7MX6M,487,353,6
39XT0710,1,7MX6M,487,353,6
39XT0710,11,7MX6M,487,353,6
39XT0710,12,7MX6M,487,353,6
39XT0710,14,7MX6M,487,353,6
39XT0710,15,7MX6M,487,353,6
39XT0710,22,7MX6M,487,353,6
39XT0713,1,7MX6M,487,353,6
39XT0713,11,7MX6M,487,353,6
39XT0713,12,7MX6M,487,353,6
39XT0713,14,7MX6M,487,353,6
39XT0713,15,7MX6M,487,353,6
39XT0713,22,7MX6M,487,353,6
39XT0715,1,7MX6M,487,353,6
39XT0715,11,7MX6M,487,353,6
39XT0715,12,7MX6M,487,353,6
39XT0715,14,7MX6M,487,353,6
39XT0715,15,7MX6M,487,353,6
39XT0715,22,7MX6M,487,353,6
39XT0909,1,9MX6M,653,353,6
39XT0909,11,9MX6M,653,353,6
39XT0909,12,9MX6M,653,353,6
39XT0909,14,9MX6M,653,353,6
39XT0909,15,9MX6M,653,353,6
39XT0909,22,9MX6M,653,353,6
39XT0911,1,9MX6M,653,353,6
39XT0911,11,9MX6M,653,353,6
39XT0911,12,9MX6M,653,353,6
39XT0911,14,9MX6M,653,353,6
39XT0911,15,9MX6M,653,353,6
39XT0911,22,9MX6M,653,353,6
39XT0915,1,9MX6M,653,353,6
39XT0915,11,9MX6M,653,353,6
39XT0915,12,9MX6M,653,353,6
39XT0915,14,9MX6M,653,353,6
39XT0915,15,9MX6M,653,353,6
39XT0915,22,9MX6M,653,353,6
39XT0917,1,9MX6M,653,353,6
39XT0917,11,9MX6M,653,353,6
39XT0917,12,9MX6M,653,353,6
39XT0917,14,9MX6M,653,353,6
39XT0917,15,9MX6M,653,353,6
39XT0917,22,9MX6M,653,353,6
39XT0918,1,9MX6M,653,353,6
39XT0918,11,9MX6M,653,353,6
39XT0918,12,9MX6M,653,353,6
39XT0918,14,9MX6M,653,353,6
39XT0918,15,9MX6M,653,353,6
39XT0918,22,9MX6M,653,353,6
39XT1006,1,9MX6M,653,353,6
39XT1006,11,9MX6M,653,353,6
39XT1006,12,9MX6M,653,353,6
39XT1006,14,9MX6M,653,353,6
39XT1006,15,9MX6M,653,353,6
39XT1006,22,9MX6M,653,353,6
39XT1014,1,9MX6M,653,353,6
39XT1014,11,9MX6M,653,353,6
39XT1014,12,9MX6M,653,353,6
39XT1014,14,9MX6M,653,353,6
39XT1014,15,9MX6M,653,353,6
39XT1014,22,9MX6M,653,353,6
39XT1017,1,9MX6M,653,353,6
39XT1017,11,9MX6M,653,353,6
39XT1017,12,9MX6M,653,353,6
39XT1017,14,9MX6M,653,353,6
39XT1017,15,9MX6M,653,353,6
39XT1017,22,9MX6M,653,353,6
39XT1019,1,9MX6M,653,353,6
39XT1019,11,9MX6M,653,353,6
39XT1019,12,9MX6M,653,353,6
39XT1019,14,9MX6M,653,353,6
39XT1019,15,9MX6M,653,353,6
39XT1019,22,9MX6M,653,353,6
39XT1107,1,9MX6M,653,353,6
39XT1107,11,9MX6M,653,353,6
39XT1107,12,9MX6M,653,353,6
39XT1107,14,9MX6M,653,353,6
39XT1107,15,9MX6M,653,353,6
39XT1107,22,9MX6M,653,353,6
39XT1111,1,9MX6M,653,353,6
39XT1111,11,9MX6M,653,353,6
39XT1111,12,9MX6M,653,353,6
39XT1111,14,9MX6M,653,353,6
39XT1111,15,9MX6M,653,353,6
39XT1111,22,9MX6M,653,353,6
39XT1115,1,9MX6M,653,353,6
39XT1115,11,9MX6M,653,353,6
39XT1115,12,9MX6M,653,353,6
39XT1115,14,9MX6M,653,353,6
39XT1115,15,9MX6M,653,353,6
39XT1115,22,9MX6M,653,353,6
39XT1120,1,9MX6M,653,353,6
39XT1120,11,9MX6M,653,353,6
39XT1120,12,9MX6M,653,353,6
39XT1120,14,9MX6M,653,353,6
39XT1120,15,9MX6M,653,353,6
39XT1120,22,9MX6M,653,353,6
39XT1208,1,9MX6M,653,353,6
39XT1208,11,9MX6M,653,353,6
39XT1208,12,9MX6M,653,353,6
39XT1208,14,9MX6M,653,353,6
39XT1208,15,9MX6M,653,353,6
39XT1208,22,9MX6M,653,353,6
39XT1217,1,9MX6M,653,353,6
39XT1217,11,9MX6M,653,353,6
39XT1217,12,9MX6M,653,353,6
39XT1217,14,9MX6M,653,353,6
39XT1217,15,9MX6M,653,353,6
39XT1217,22,9MX6M,653,353,6
39XT1220,1,9MX6M,653,353,6
39XT1220,11,9MX6M,653,353,6
39XT1220,12,9MX6M,653,353,6
39XT1220,14,9MX6M,653,353,6
39XT1220,15,9MX6M,653,353,6
39XT1220,22,9MX6M,653,353,6
39XT1308,1,9MX6M,653,353,6
39XT1308,11,9MX6M,653,353,6
39XT1308,12,9MX6M,653,353,6
39XT1308,14,9MX6M,653,353,6
39XT1308,15,9MX6M,653,353,6
39XT1308,22,9MX6M,653,353,6
39XT1309,1,9MX6M,653,353,6
39XT1309,11,9MX6M,653,353,6
39XT1309,12,9MX6M,653,353,6
39XT1309,14,9MX6M,653,353,6
39XT1309,15,9MX6M,653,353,6
39XT1309,22,9MX6M,653,353,6
39XT1310,1,9MX6M,653,353,6
39XT1310,11,9MX6M,653,353,6
39XT1310,12,9MX6M,653,353,6
39XT1310,14,9MX6M,653,353,6
39XT1310,15,9MX6M,653,353,6
39XT1310,22,9MX6M,653,353,6
39XT1313,1,9MX6M,653,353,6
39XT1313,11,9MX6M,653,353,6
39XT1313,12,9MX6M,653,353,6
39XT1313,14,9MX6M,653,353,6
39XT1313,15,9MX6M,653,353,6
39XT1313,22,9MX6M,653,353,6
39XT1318,1,9MX6M,653,353,6
39XT1318,11,9MX6M,653,353,6
39XT1318,12,9MX6M,653,353,6
39XT1318,14,9MX6M,653,353,6
39XT1318,15,9MX6M,653,353,6
39XT1318,22,9MX6M,653,353,6
39XT1322,1,9MX6M,653,353,6
39XT1322,11,9MX6M,653,353,6
39XT1322,12,9MX6M,653,353,6
39XT1322,14,9MX6M,653,353,6
39XT1322,15,9MX6M,653,353,6
39XT1322,22,9MX6M,653,353,6
39XT1324,1,9MX6M,653,353,6
39XT1324,11,9MX6M,653,353,6
39XT1324,12,9MX6M,653,353,6
39XT1324,14,9MX6M,653,353,6
39XT1324,15,9MX6M,653,353,6
39XT1324,22,9MX6M,653,353,6
39XT1410,1,9MX6M,653,353,6
39XT1410,11,9MX6M,653,353,6
39XT1410,12,9MX6M,653,353,6
39XT1410,14,9MX6M,653,353,6
39XT1410,15,9MX6M,653,353,6
39XT1410,22,9MX6M,653,353,6
39XT1419,1,9MX6M,653,353,6
39XT1419,11,9MX6M,653,353,6
39XT1419,12,9MX6M,653,353,6
39XT1419,14,9MX6M,653,353,6
39XT1419,15,9MX6M,653,353,6
39XT1419,22,9MX6M,653,353,6
39XT1426,1,9MX6M,653,353,6
39XT1426,11,9MX6M,653,353,6
39XT1426,12,9MX6M,653,353,6
39XT1426,14,9MX6M,653,353,6
39XT1426,15,9MX6M,653,353,6
39XT1426,22,9MX6M,653,353,6
39XT1510,1,14MX6M,1183,353,6
39XT1510,11,14MX7M,1183,483,7
39XT1510,12,14MX6M,1183,353,6
39XT1510,14,14MX6M,1183,353,6
39XT1510,15,14MX6M,1183,353,6
39XT1510,22,14MX7M,1183,483,7
39XT1512,1,14MX6M,1183,353,6
39XT1512,11,14MX7M,1183,483,7
39XT1512,12,14MX6M,1183,353,6
39XT1512,14,14MX6M,1183,353,6
39XT1512,15,14MX6M,1183,353,6
39XT1512,22,14MX7M,1183,483,7
39XT1515,1,14MX6M,1183,353,6
39XT1515,11,14MX7M,1183,483,7
39XT1515,12,14MX6M,1183,353,6
39XT1515,14,14MX6M,1183,353,6
39XT1515,15,14MX6M,1183,353,6
39XT1515,22,14MX7M,1183,483,7
39XT1520,1,14MX6M,1183,353,6
39XT1520,11,14MX7M,1183,483,7
39XT1520,12,14MX6M,1183,353,6
39XT1520,14,14MX6M,1183,353,6
39XT1520,15,14MX6M,1183,353,6
39XT1520,22,14MX7M,1183,483,7
39XT1521,1,14MX6M,1183,353,6
39XT1521,11,14MX7M,1183,483,7
39XT1521,12,14MX6M,1183,353,6
39XT1521,14,14MX6M,1183,353,6
39XT1521,15,14MX6M,1183,353,6
39XT1521,22,14MX7M,1183,483,7
39XT1522,1,14MX6M,1183,353,6
39XT1522,11,14MX7M,1183,483,7
39XT1522,12,14MX6M,1183,353,6
39XT1522,14,14MX6M,1183,353,6
39XT1522,15,14MX6M,1183,353,6
39XT1522,22,14MX7M,1183,483,7
39XT1523,1,14MX6M,1183,353,6
39XT1523,11,14MX7M,1183,483,7
39XT1523,12,14MX6M,1183,353,6
39XT1523,14,14MX6M,1183,353,6
39XT1523,15,14MX6M,1183,353,6
39XT1523,22,14MX7M,1183,483,7
39XT1524,1,14MX6M,1183,353,6
39XT1524,11,14MX7M,1183,483,7
39XT1524,12,14MX6M,1183,353,6
39XT1524,14,14MX6M,1183,353,6
39XT1524,15,14MX6M,1183,353,6
39XT1524,22,14MX7M,1183,483,7
39XT1528,1,14MX6M,1183,353,6
39XT1528,11,14MX7M,1183,483,7
39XT1528,12,14MX6M,1183,353,6
39XT1528,14,14MX6M,1183,353,6
39XT1528,15,14MX6M,1183,353,6
39XT1528,22,14MX7M,1183,483,7
39XT1625,1,14MX6M,1183,353,6
39XT1625,11,14MX7M,1183,483,7
39XT1625,12,14MX6M,1183,353,6
39XT1625,14,14MX6M,1183,353,6
39XT1625,15,14MX6M,1183,353,6
39XT1625,22,14MX7M,1183,483,7
39XT1712,1,14MX6M,1183,353,6
39XT1712,11,14MX7M,1183,483,7
39XT1712,12,14MX6M,1183,353,6
39XT1712,14,14MX6M,1183,353,6
39XT1712,15,14MX6M,1183,353,6
39XT1712,22,14MX7M,1183,483,7
39XT1721,1,14MX6M,1183,353,6
39XT1721,11,14MX7M,1183,483,7
39XT1721,12,14MX6M,1183,353,6
39XT1721,14,14MX6M,1183,353,6
39XT1721,15,14MX6M,1183,353,6
39XT1721,22,14MX7M,1183,483,7
39XT1725,1,14MX6M,1183,353,6
39XT1725,11,14MX7M,1183,483,7
39XT1725,12,14MX6M,1183,353,6
39XT1725,14,14MX6M,1183,353,6
39XT1725,15,14MX6M,1183,353,6
39XT1725,22,14MX7M,1183,483,7
39XT1726,1,14MX6M,1183,353,6
39XT1726,11,14MX7M,1183,483,7
39XT1726,12,14MX6M,1183,353,6
39XT1726,14,14MX6M,1183,353,6
39XT1726,15,14MX6M,1183,353,6
39XT1726,22,14MX7M,1183,483,7
39XT1728,1,14MX6M,1183,353,6
39XT1728,11,14MX7M,1183,483,7
39XT1728,12,14MX6M,1183,353,6
39XT1728,14,14MX6M,1183,353,6
39XT1728,15,14MX6M,1183,353,6
39XT1728,22,14MX7M,1183,483,7
39XT1730,1,14MX6M,1183,353,6
39XT1730,11,14MX7M,1183,483,7
39XT1730,12,14MX6M,1183,353,6
39XT1730,14,14MX6M,1183,353,6
39XT1730,15,14MX6M,1183,353,6
39XT1730,22,14MX7M,1183,483,7
39XT1813,1,14MX6M,1183,353,6
39XT1813,11,14MX7M,1183,483,7
39XT1813,12,14MX6M,1183,353,6
39XT1813,14,14MX6M,1183,353,6
39XT1813,15,14MX6M,1183,353,6
39XT1813,22,14MX7M,1183,483,7
39XT1818,1,14MX6M,1183,353,6
39XT1818,11,14MX7M,1183,483,7
39XT1818,12,14MX6M,1183,353,6
39XT1818,14,14MX6M,1183,353,6
39XT1818,15,14MX6M,1183,353,6
39XT1818,22,14MX7M,1183,483,7
39XT1821,1,14MX6M,1183,353,6
39XT1821,11,14MX7M,1183,483,7
39XT1821,12,14MX6M,1183,353,6
39XT1821,14,14MX6M,1183,353,6
39XT1821,15,14MX6M,1183,353,6
39XT1821,22,14MX7M,1183,483,7
39XT1823,1,14MX6M,1183,353,6
39XT1823,11,14MX7M,1183,483,7
39XT1823,12,14MX6M,1183,353,6
39XT1823,14,14MX6M,1183,353,6
39XT1823,15,14MX6M,1183,353,6
39XT1823,22,14MX7M,1183,483,7
39XT1824,1,14MX6M,1183,353,6
39XT1824,11,14MX7M,1183,483,7
39XT1824,12,14MX6M,1183,353,6
39XT1824,14,14MX6M,1183,353,6
39XT1824,15,14MX6M,1183,353,6
39XT1824,22,14MX7M,1183,483,7
39XT2014,1,14MX6M,1183,353,6
39XT2014,11,14MX7M,1183,483,7
39XT2014,12,14MX6M,1183,353,6
39XT2014,14,14MX6M,1183,353,6
39XT2014,15,14MX6M,1183,353,6
39XT2014,22,14MX7M,1183,483,7
39XT2015,1,14MX6M,1183,353,6
39XT2015,11,14MX7M,1183,483,7
39XT2015,12,14MX6M,1183,353,6
39XT2015,14,14MX6M,1183,353,6
39XT2015,15,14MX6M,1183,353,6
39XT2015,22,14MX7M,1183,483,7
39XT2020,1,14MX6M,1183,353,6
39XT2020,11,14MX7M,1183,483,7
39XT2020,12,14MX6M,1183,353,6
39XT2020,14,14MX6M,1183,353,6
39XT2020,15,14MX6M,1183,353,6
39XT2020,22,14MX7M,1183,483,7
39XT2028,1,14MX6M,1183,353,6
39XT2028,11,14MX7M,1183,483,7
39XT2028,12,14MX6M,1183,353,6
39XT2028,14,14MX6M,1183,353,6
39XT2028,15,14MX6M,1183,353,6
39XT2028,22,14MX7M,1183,483,7
39XT2030,1,14MX6M,1183,353,6
39XT2030,11,14MX7M,1183,483,7
39XT2030,12,14MX6M,1183,353,6
39XT2030,14,14MX6M,1183,353,6
39XT2030,15,14MX6M,1183,353,6
39XT2030,22,14MX7M,1183,483,7
39XT2124,1,14MX6M,1183,353,6
39XT2124,11,14MX7M,1183,483,7
39XT2124,12,14MX6M,1183,353,6
39XT2124,14,14MX6M,1183,353,6
39XT2124,15,14MX6M,1183,353,6
39XT2124,22,14MX7M,1183,483,7
39XT2126,1,14MX6M,1183,353,6
39XT2126,11,14MX7M,1183,483,7
39XT2126,12,14MX6M,1183,353,6
39XT2126,14,14MX6M,1183,353,6
39XT2126,15,14MX6M,1183,353,6
39XT2126,22,14MX7M,1183,483,7
39XT2215,1,14MX6M,1183,353,6
39XT2215,11,14MX7M,1183,483,7
39XT2215,12,14MX6M,1183,353,6
39XT2215,14,14MX6M,1183,353,6
39XT2215,15,14MX6M,1183,353,6
39XT2215,22,14MX7M,1183,483,7
39XT2217,1,14MX6M,1183,353,6
39XT2217,11,14MX7M,1183,483,7
39XT2217,12,14MX6M,1183,353,6
39XT2217,14,14MX6M,1183,353,6
39XT2217,15,14MX6M,1183,353,6
39XT2217,22,14MX7M,1183,483,7
39XT2222,1,14MX6M,1183,353,6
39XT2222,11,14MX7M,1183,483,7
39XT2222,12,14MX6M,1183,353,6
39XT2222,14,14MX6M,1183,353,6
39XT2222,15,14MX6M,1183,353,6
39XT2222,22,14MX7M,1183,483,7
39XT2228,1,14MX6M,1183,353,6
39XT2228,11,14MX7M,1183,483,7
39XT2228,12,14MX6M,1183,353,6
39XT2228,14,14MX6M,1183,353,6
39XT2228,15,14MX6M,1183,353,6
39XT2228,22,14MX7M,1183,483,7
39XT2417,1,14MX6M,1183,353,6
39XT2417,11,14MX7M,1183,483,7
39XT2417,12,14MX6M,1183,353,6
39XT2417,14,14MX6M,1183,353,6
39XT2417,15,14MX6M,1183,353,6
39XT2417,22,14MX7M,1183,483,7
39XT2424,1,14MX6M,1183,353,6
39XT2424,11,14MX7M,1183,483,7
39XT2424,12,14MX6M,1183,353,6
39XT2424,14,14MX6M,1183,353,6
39XT2424,15,14MX6M,1183,353,6
39XT2424,22,14MX7M,1183,483,7
39XT2430,1,14MX6M,1183,353,6
39XT2430,11,14MX7M,1183,483,7
39XT2430,12,14MX6M,1183,353,6
39XT2430,14,14MX6M,1183,353,6
39XT2430,15,14MX6M,1183,353,6
39XT2430,22,14MX7M,1183,483,7
39XT2435,1,14MX6M,1183,353,6
39XT2435,11,14MX7M,1183,483,7
39XT2435,12,14MX6M,1183,353,6
39XT2435,14,14MX6M,1183,353,6
39XT2435,15,14MX6M,1183,353,6
39XT2435,22,14MX7M,1183,483,7
39XT2617,1,14MX6M,1183,353,6
39XT2617,11,14MX7M,1183,483,7
39XT2617,12,14MX6M,1183,353,6
39XT2617,14,14MX6M,1183,353,6
39XT2617,15,14MX6M,1183,353,6
39XT2617,22,14MX7M,1183,483,7
39XT2619,1,14MX6M,1183,353,6
39XT2619,11,14MX7M,1183,483,7
39XT2619,12,14MX6M,1183,353,6
39XT2619,14,14MX6M,1183,353,6
39XT2619,15,14MX6M,1183,353,6
39XT2619,22,14MX7M,1183,483,7
39XT2626,1,14MX6M,1183,353,6
39XT2626,11,14MX7M,1183,483,7
39XT2626,12,14MX6M,1183,353,6
39XT2626,14,14MX6M,1183,353,6
39XT2626,15,14MX6M,1183,353,6
39XT2626,22,14MX7M,1183,483,7
39XT2633,1,14MX6M,1183,353,6
39XT2633,11,14MX7M,1183,483,7
39XT2633,12,14MX6M,1183,353,6
39XT2633,14,14MX6M,1183,353,6
39XT2633,15,14MX6M,1183,353,6
39XT2633,22,14MX7M,1183,483,7
39XT2635,1,14MX6M,1183,353,6
39XT2635,11,14MX7M,1183,483,7
39XT2635,12,14MX6M,1183,353,6
39XT2635,14,14MX6M,1183,353,6
39XT2635,15,14MX6M,1183,353,6
39XT2635,22,14MX7M,1183,483,7
39XT2720,1,14MX6M,1183,353,6
39XT2720,11,14MX7M,1183,483,7
39XT2720,12,14MX6M,1183,353,6
39XT2720,14,14MX6M,1183,353,6
39XT2720,15,14MX6M,1183,353,6
39XT2720,22,14MX7M,1183,483,7
39XT2722,1,14MX6M,1183,353,6
39XT2722,11,14MX7M,1183,483,7
39XT2722,12,14MX6M,1183,353,6
39XT2722,14,14MX6M,1183,353,6
39XT2722,15,14MX6M,1183,353,6
39XT2722,22,14MX7M,1183,483,7
39XT2727,1,14MX6M,1183,353,6
39XT2727,11,14MX7M,1183,483,7
39XT2727,12,14MX6M,1183,353,6
39XT2727,14,14MX6M,1183,353,6
39XT2727,15,14MX6M,1183,353,6
39XT2727,22,14MX7M,1183,483,7
39XT2730,1,14MX6M,1183,353,6
39XT2730,11,14MX7M,1183,483,7
39XT2730,12,14MX6M,1183,353,6
39XT2730,14,14MX6M,1183,353,6
39XT2730,15,14MX6M,1183,353,6
39XT2730,22,14MX7M,1183,483,7
39XT2735,1,14MX6M,1183,353,6
39XT2735,11,14MX7M,1183,483,7
39XT2735,12,14MX6M,1183,353,6
39XT2735,14,14MX6M,1183,353,6
39XT2735,15,14MX6M,1183,353,6
39XT2735,22,14MX7M,1183,483,7
