type,ahucal,section,name,property,tab,file,version
Prop,1_3,ahu.electricHeatingCoil,electricHeatingCoil.Material ,meta.section.electricHeatingCoil.RowNum,A盘管数据,electricHeatingCoil,1.0.0
Prop,1_3,ahu.electricHeatingCoil,electricHeatingCoil.BaffleM,_BM;meta.section.electricHeatingCoil.BaffleM1,B挡风板,electricHeatingCoil,1.0.0
Prop,1_3,ahu.steamHumidifier,steamHumidifier.Humidifier,_HM;_SDS;meta.section.steamHumidifier.ControlM;meta.section.steamHumidifier.HTypes,A加湿器,steamHumidifier,1.0.0
Prop,1_1,ahu.steamHumidifier,meta.section.steamHumidifier.Material:GS,_DT_FT;meta.section.steamHumidifier.Material;meta.section.steamHumidifier.sectionL,B水盘,steamHumidifier,1.0.0
Prop,1_1,ahu.steamHumidifier,meta.section.steamHumidifier.Material:SS,_DT_FT;meta.section.steamHumidifier.Material;meta.section.steamHumidifier.sectionL,B水盘,steamHumidifier,1.0.0
Prop,1_3,ahu.HEPAFilter,HEPAFilter.Bracket,meta.section.HEPAFilter.fitetF;meta.section.HEPAFilter.RimM;_F,A支架材料,HEPAFilter,1.0.0
Prop,1_3,ahu.HEPAFilter,HEPAFilter.BaffleM,meta.section.HEPAFilter.RimM;_T,B挡风板材料,HEPAFilter,1.0.0
Prop,1_1,ahu.HEPAFilter,meta.section.HEPAFilter.Supplier:1,meta.section.HEPAFilter.fitetF;meta.section.HEPAFilter.filterEfficiency,C过滤器,HEPAFilter,1.0.0
Prop,1_3,ahu.sprayHumidifier,sprayHumidifier.Humidifier,meta.section.sprayHumidifier.WHumidificationQ;_SPRY,A加湿器,sprayHumidifier,1.0.0
Prop,1_3,ahu.sprayHumidifier,sprayHumidifier.Coil,_DM;_CC;meta.section.sprayHumidifier.Material,B水盘,sprayHumidifier,1.0.0
Prop,1_3,ahu.sprayHumidifier,sprayHumidifier.Baffle,_BM;meta.section.sprayHumidifier.BaffleM,C挡风板,sprayHumidifier,1.0.0
Prop,1_3,ahu.sprayHumidifier,sprayHumidifier.Eliminator,_DE;meta.section.sprayHumidifier.Eliminator,D挡水器,sprayHumidifier,1.0.0
Prop,1_3,ahu.combinedFilter,filter_plate.Bracket,_P;BracketM;rimThickness,A板式支架数据,filter_plate,1.0.0
Prop,1_3,ahu.combinedFilter,filter_plate.filter:null:&&:meta.section.combinedFilter.LMaterial:nonWoven/Al,_P;LMaterialE;rimThickness,B板式过滤器数据,filter_plate,1.0.0
Prop,1_3,ahu.combinedFilter,filter_bag.Bracket,_INS;BracketM,A袋式支架数据,filter_bag,1.0.0
Prop,1_3,ahu.combinedFilter,filter_bag.filter:null:&&:meta.section.combinedFilter.RMaterial:Non-woven Filter/PM2.5,_B;RMaterialE;rimThickness;sectionL,B袋式过滤器数据,filter_bag,1.0.0
Prop,1_1,ahu.filter,meta.section.filter.fitetF:P/X:1,fitetF;BracketM;rimThickness,A板式支架数据,filter_plate,1.0.0
Prop,1_1,ahu.filter,meta.section.filter.fitetF:P/X:&&:meta.section.filter.filterOptions:nonWoven/AlMesh:2,fitetF;filterEfficiency;rimThickness,B板式过滤器数据,filter_plate,1.0.0
Prop,1_1,ahu.filter,meta.section.filter.fitetF:B:1,_INS;BracketM,A袋式支架数据,filter_bag,1.0.0
Prop,1_1,ahu.filter,meta.section.filter.fitetF:B:2,_BRA;BaffleM,A袋式支架数据,filter_bag,1.0.0
Prop,1_1,ahu.filter,meta.section.filter.fitetF:B:&&:meta.section.filter.filterOptions:nonWoven/AlMesh:3,_B;filterEfficiency;rimThickness;sectionL,B袋式过滤器数据,filter_bag,1.0.0
Prop,1_1,ahu.discharge,meta.section.discharge.OutletDirection:T,meta.section.discharge.AInterface;meta.section.discharge.DamperMeterial;meta.section.discharge.DamperExecutor,A风阀（顶部回风）,mix,1.0.0
Prop,1_1,ahu.discharge,meta.section.discharge.OutletDirection:A,meta.section.discharge.AInterface;meta.section.discharge.DamperMeterial;meta.section.discharge.DamperExecutor,B风阀（后回风）,mix,1.0.0
Prop,1_1,ahu.discharge,meta.section.discharge.OutletDirection:L,meta.section.discharge.AInterface;meta.section.discharge.DamperMeterial;meta.section.discharge.DamperExecutor,C风阀（左右侧回风）,mix,1.0.0
Prop,1_1,ahu.discharge,meta.section.discharge.OutletDirection:R,meta.section.discharge.AInterface;meta.section.discharge.DamperMeterial;meta.section.discharge.DamperExecutor,C风阀（左右侧回风）,mix,1.0.0
Prop,1_1,ahu.discharge,meta.section.discharge.OutletDirection:F,meta.section.discharge.AInterface;meta.section.discharge.DamperMeterial;meta.section.discharge.DamperExecutor,D风阀（底部回风）,mix,1.0.0
Prop,1_1,ahu.mix,meta.section.mix.returnTop:true,meta.section.mix.damperOutlet;meta.section.mix.damperMeterial;meta.section.mix.damperExecutor,A风阀（顶部回风）,mix,1.0.0
Prop,1_1,ahu.mix,meta.section.mix.returnBack:true,meta.section.mix.damperOutlet;meta.section.mix.damperMeterial;meta.section.mix.damperExecutor,B风阀（后回风）,mix,1.0.0
Prop,1_1,ahu.mix,meta.section.mix.returnLeft:true,meta.section.mix.damperOutlet;meta.section.mix.damperMeterial;meta.section.mix.damperExecutor,C风阀（左右侧回风）,mix,1.0.0
Prop,1_1,ahu.mix,meta.section.mix.returnRight:true:&&:meta.section.mix.returnLeft:false,meta.section.mix.damperOutlet;meta.section.mix.damperMeterial;meta.section.mix.damperExecutor,C风阀（左右侧回风）,mix,1.0.0
Prop,1_1,ahu.mix,meta.section.mix.returnButtom:true,meta.section.mix.damperOutlet;meta.section.mix.damperMeterial;meta.section.mix.damperExecutor,D风阀（底部回风）,mix,1.0.0
Prop,1_1,ahu.mix,mix.damperExecutor,meta.section.mix.damperExecutor,执行器,actuator,1.0.0
Prop,1_3,ahu.electrostaticFilter,meta.section.electrostaticFilter.Filter,_E;_P;_EN;_F7;_50;_6,A过滤器,electrostaticFilter,1.0.0
Prop,1_3,ahu.electrostaticFilter,meta.section.electrostaticFilter.Braffle,_BM;meta.section.electrostaticFilter.BaffleM,B挡风板,electrostaticFilter,1.0.0
Prop,1_1,ahu.access,meta.section.access.Function:Accesssection,_N,A配件,access,1.0.0
Prop,1_1,ahu.access,meta.section.access.Function:Diffuser,_X,A配件,access,1.0.0
Prop,1_3,ahu.wetfilmHumidifier,wetfilmHumidifier.Humidifier,_SDS;meta.section.wetfilmHumidifier.thickness,A加湿器,wetfilmHumidifier,1.0.0
Prop,1_3,ahu.wetfilmHumidifier,wetfilmHumidifier.Coil,_DM;meta.section.wetfilmHumidifier.material,B水盘,wetfilmHumidifier,1.0.0
Prop,1_3,ahu.attenuator,attenuator,meta.section.attenuator.Type;meta.section.attenuator.Deadening,A消音器,attenuator,1.0.0
Prop,1_3,ahu.combinedMixingChamber,combinedMixingChamber,meta.section.combinedMixingChamber.AInterface;meta.section.combinedMixingChamber.DamperMeterial;meta.section.combinedMixingChamber.Executor1,风阀,combinedMixingChamber,1.0.0
Prop,1_1,ahu.combinedMixingChamber,combinedMixingChamber.damperExecutor,meta.section.combinedMixingChamber.Executor1,执行器,actuator,1.0.0
Prop,1_1,ahu.combinedMixingChamber,combinedMixingChamber.damperExecutor,meta.section.combinedMixingChamber.Executor1,执行器,actuator,1.0.0
Prop,1_1,ahu.combinedMixingChamber,combinedMixingChamber.damperExecutor,meta.section.combinedMixingChamber.Executor1,执行器,actuator,1.0.0
Prop,1_3,ahu.steamCoil,steamCoil.coil,meta.section.steamCoil.RowNum;meta.section.steamCoil.Material,A盘管,steamCoil,1.0.0
Prop,1_3,ahu.steamCoil,steamCoil.Baffle,_BM;meta.section.steamCoil.BaffleM,B挡风板,steamCoil,1.0.0
Prop,1_1,ahu.steamCoil,meta.section.steamCoil.ConnectionType:PF,_CS;meta.section.steamCoil.ConnectionType,C连接方式,steamCoil,1.0.0
Prop,1_1,ahu.fan,fan.fanDamper,meta.section.fan.sendPosition;meta.section.fan.supplyDamper,A风阀,fan_damper,1.0.0
Prop,1_1,ahu.fan,fan.fanModel,_X,A风机,fan,1.0.0
Prop,1_1,ahu.fan,meta.section.fan.beltGuard:true,_BELT,I风机保护罩,fan,1.0.0
Prop,1_1,ahu.fan,meta.section.fan.fanModel:>=560,_SPRING1,D减震器 ,fan,1.0.0
Prop,1_1,ahu.fan,meta.section.fan.fanModel:<560,_SPRING,D减震器 ,fan,1.0.0
Prop,1_3,ahu.fan,fan.Motor,meta.section.fan.insulation;meta.section.fan.supplier;meta.section.fan.type,B电机,fan,1.0.0
Prop,1_3,ahu.fan,fan.Start,meta.section.fan.startStyle,C启动方式,fan,1.0.0
Prop,1_3,ahu.fan,fan.ROLL,_ROLL,G转轮,fan,1.0.0
Prop,1_3,ahu.fan,fan.OUTLET,_OUTLET,F风机外壳,fan,1.0.0
Prop,1_3,ahu.fan,fan.Model:ignore,meta.section.fan.outletDirection,H接管,fan,1.0.0
Prop,1_3,ahu.ctr,ctr.ctrwgt1,_X,控制段数据1,ctr,1.0.0
Prop,1_1,ahu.ctr,meta.section.ctr.DoorO:doorWithViewport,_GI,控制段数据2,ctr,1.0.0
Prop,1_3,ahu.ctr,ctr.door,_W,开门观察窗,ctr,1.0.0
Prop,1_3,ahu.plateHeatRecycle,plateHeatRecycle.wgt1,_X,板式热回收数据1,plateHeatRecycle,1.0.0
Prop,1_3,ahu.plateHeatRecycle,plateHeatRecycle.wgt2,meta.section.plateHeatRecycle.BracketM,板式热回收数据2,plateHeatRecycle,1.0.0
Prop,1_3,ahu.wheelHeatRecycle,meta.section.wheelHeatRecycle.Brand:B/C,meta.section.wheelHeatRecycle.BracketM,转轮热回收数据1,wheelHeatRecycle,1.0.0
Prop,1_1,ahu.coolingCoil,meta.section.coolingCoil.tubeDiameter:T3,meta.section.coolingCoil.finDensity;meta.section.coolingCoil.rows;meta.section.coolingCoil.circuit,A盘管（三分）,coolingCoil,1.0.0
Prop,1_1,ahu.coolingCoil,meta.section.coolingCoil.tubeDiameter:T4,meta.section.coolingCoil.finDensity;meta.section.coolingCoil.rows;meta.section.coolingCoil.circuit,A盘管（四分）,coolingCoil,1.0.0
Prop,1_3,ahu.coolingCoil,coolingCoil.driftEliminator,_DE;meta.section.coolingCoil.eliminator,B挡水器,coolingCoil,1.0.0
Prop,1_3,ahu.coolingCoil,coolingCoil.Baffle,_BM;meta.section.coolingCoil.baffleMaterial,C挡风板,coolingCoil,1.0.0
Prop,1_3,ahu.coolingCoil,coolingCoil.drainpanMaterial,_DT;meta.section.coolingCoil.drainpanType;meta.section.coolingCoil.drainpanMaterial;meta.section.coolingCoil.sectionL,D水盘,coolingCoil,1.0.0
Prop,1_3,ahu.coolingCoil,coolingCoil.waterCollection,_HR;meta.section.coolingCoil.waterCollecting;meta.section.coolingCoil.rows;meta.section.coolingCoil.circuit,E集水管,coolingCoil,1.0.0
Prop,1_3,ahu.coolingCoil,coolingCoil.Connector:ignore,_CS;meta.section.coolingCoil.connections;meta.section.coolingCoil.rows,F连接方式,coolingCoil,1.0.0
Prop,1_3,ahu.coolingCoil,coolingCoil.fin:ignore,_FT;meta.section.coolingCoil.finType;meta.section.coolingCoil.finDensity;meta.section.coolingCoil.rows,G翅片,coolingCoil,1.0.0
Prop,1_1,ahu.directExpensionCoil,meta.section.directExpensionCoil.tubeDiameter:T3,meta.section.directExpensionCoil.finDensity;meta.section.directExpensionCoil.rows;meta.section.directExpensionCoil.circuit,A盘管（三分）,coolingCoil,1.0.0
Prop,1_1,ahu.directExpensionCoil,meta.section.directExpensionCoil.tubeDiameter:T4,meta.section.directExpensionCoil.finDensity;meta.section.directExpensionCoil.rows;meta.section.directExpensionCoil.circuit,A盘管（四分）,coolingCoil,1.0.0
Prop,1_3,ahu.directExpensionCoil,directExpensionCoil.driftEliminator,_DE;meta.section.directExpensionCoil.eliminator,B挡水器,coolingCoil,1.0.0
Prop,1_3,ahu.directExpensionCoil,directExpensionCoil.Baffle,_BM;meta.section.directExpensionCoil.baffleMaterial,C挡风板,coolingCoil,1.0.0
Prop,1_3,ahu.directExpensionCoil,directExpensionCoil.drainpanMaterial,_DT;_FT;meta.section.directExpensionCoil.drainpanMaterial;meta.section.directExpensionCoil.sectionL,D水盘,coolingCoil,1.0.0
Prop,1_3,ahu.directExpensionCoil,directExpensionCoil.waterCollection:ignore,_HR;meta.section.directExpensionCoil.waterCollecting;meta.section.directExpensionCoil.rows;meta.section.directExpensionCoil.circuit,E集水管,coolingCoil,1.0.0
Prop,1_3,ahu.directExpensionCoil,directExpensionCoil.fin:ignore,_FT;meta.section.directExpensionCoil.finType;meta.section.directExpensionCoil.finDensity;meta.section.directExpensionCoil.rows,G翅片,coolingCoil,1.0.0
Prop,1_1,ahu.heatingCoil,meta.section.heatingCoil.tubeDiameter:T3,meta.section.heatingCoil.finDensity;meta.section.heatingCoil.rows;meta.section.heatingCoil.circuit,A盘管（三分）,coolingCoil,1.0.0
Prop,1_1,ahu.heatingCoil,meta.section.heatingCoil.tubeDiameter:T4,meta.section.heatingCoil.finDensity;meta.section.heatingCoil.rows;meta.section.heatingCoil.circuit,A盘管（四分）,coolingCoil,1.0.0
Prop,1_1,ahu.heatingCoil,meta.section.heatingCoil.finType:ignore,meta.section.heatingCoil.finDensity;meta.section.heatingCoil.rows,翅片材质（亲水铝翅片）,heatingCoil,1.0.0
Prop,1_1,ahu.heatingCoil,meta.section.heatingCoil.waterCollection:copper,meta.section.heatingCoil.rows;meta.section.heatingCoil.circuit,集水管材质（铜）,heatingCoil,1.0.0
Prop,1_3,ahu.heatingCoil,heatingCoil.Baffle,_BM;meta.section.heatingCoil.baffleMaterial,H热盘管挡风板,heatingCoil,1.0.0
Prop,1_3,ahu.heatingCoil,heatingCoil.BaffleDG,_DG,H热盘管挡风板,heatingCoil,1.0.0
Prop,1_3,ahu.heatingCoil,heatingCoil.FROST,_FROST,I防冻开关,heatingCoil,1.0.0
Prop,1_3,ahu.electrodeHumidifier,electrodeHumidifier,meta.section.electrodeHumidifier.WHumidificationQ;_TP,A电极加湿段,electrodeHumidifier,1.0.0
Prop,2_1,partition,partition.top,sectionL,top,panel,1.0.0
Prop,2_1,partition,partition.facePanel,_X,facePanel,panel,1.0.0
Prop,2_1,partition,partition.sec,_X,sec,panel,1.0.0
Prop,2_1,partition,partition.panelTBFE,sectionL,panelTBFE,panel,1.0.0
Prop,2_1,partition,partition.base,sectionL,base,panel,1.0.0
Prop,2_1,partition,partition.frame,sectionL,frame,panel,1.0.0
Prop,2_1,partition,partition.parameter,_COFF,parameter,panel,1.0.0
Prop,1_1,ahu,meta.ahu.package:NR,sectionL,SEC_NR_380,package,1.0.0
Prop,1_1,ahu,meta.ahu.package:OT,sectionL,SEC_OT_380,package,1.0.0
Prop,1_1,ahu,meta.ahu.delivery:CKD,sectionL,CKD_CK_380,package,1.0.0
Prop,0_1,accessories,accessories.mlamp:true,mlamp,附件数据,accessories,1.0.0
Prop,0_1,accessories,accessories.uvc:true,uvc,附件数据,accessories,1.0.0
Prop,0_1,accessories,accessories.door:true,door,附件数据,accessories,1.0.0
Prop,0_1,accessories,accessories.door2:true,door,附件数据,accessories,1.0.0
Prop,0_1,accessories,accessories.window:true,window,附件数据,accessories,1.0.0
Prop,0_1,accessories,accessories.window2:true,window,附件数据,accessories,1.0.0
Prop,0_1,accessories,accessories.pswitch:true,pswitch,附件数据,accessories,1.0.0
Prop,0_1,accessories,accessories.pswitch2:true,pswitch,附件数据,accessories,1.0.0
Prop,0_1,accessories,accessories.pmeter:true,pmeter,附件数据,accessories,1.0.0
Prop,0_1,accessories,accessories.pmeter2:true,pmeter,附件数据,accessories,1.0.0
Prop,0_1,accessories,accessories.fac:true,fac,附件数据,accessories,1.0.0