supplier,humidificationQ,HTypes,VaporPressure
B,9,1,0.02
B,21.3,1,0.1
B,27,2,0.02
B,35,1,0.2
B,40,1,0.3
B,56,3,0.02
B,58.5,1,0.4
B,62,2,0.1
B,103,3,0.1
B,106,2,0.2
B,146,4,0.02
B,152,2,0.3
B,159,3,0.2
B,193,4,0.1
B,196,2,0.4
B,218,3,0.3
B,312,4,0.2
S,9,1,0.02
S,21.3,1,0.1
S,22.5,2,0.02
S,34,3,0.02
S,35,1,0.2
S,40,1,0.3
S,49.5,2,0.1
S,55,4,0.02
S,58.5,1,0.4
S,68.5,2,0.2
S,75,5,0.02
S,75.5,3,0.1
S,97.5,2,0.3
S,102,4,0.1
S,124,2,0.4
S,131,3,0.2
S,141,5,0.1
S,160,4,0.2
S,187,3,0.3
S,216,5,0.2
S,217,4,0.3
S,227,3,0.4
S,275,4,0.4
S,296,5,0.3
S,375,5,0.4
