fanType,filterFormat,filterSize,filterNum
39G0608,A,357*274,4
39G0608,B,490*691,1
39G0609,A,424*274,4
39G0609,B,490*691,1
39G0711,A,490*312,4
39G0711,B,595*690,1
39G0711,B,595*371,1
39G0811,A,357*235,9
39G0811,B,595*690,1
39G0811,B,595*371,1
39G0912,A,357*274,9
39G0912,B,395*691,2
39G0912,B,395*371,2
39G0913,A,424*312,8
39G0913,B,395*691,2
39G0913,B,395*371,2
39G0914,A,424*312,8
39G0914,B,395*691,4
39G1015,A,490*312,9
39G1015,B,490*691,4
39G1117,A,490*312,10
39G1117,B,490*691,4
39G1317,A,490*312,12
39G1317,B,595*691,4
39G1418,A,424*312,16
39G1418,B,595*691,4
39G1418,B,595*371,2
39G1420,A,490*312,16
39G1420,B,595*691,4
39G1420,B,595*371,2
39G1621,A,490*312,20
39G1621,B,490*691,9
39G1822,A,490*312,21
39G1822,B,490*691,3
39G1822,B,395*691,9
39G1825,A,490*312,25
39G1825,B,490*691,3
39G1825,B,490*371,1
39G1825,B,395*691,9
39G1825,B,395*371,3
39G2025,A,490*312,30
39G2025,B,595*691,9
39G2025,B,595*371,3
39G2125,A,490*312,30
39G2125,B,595*691,6
39G2125,B,595*371,2
39G2125,B,395*691,6
39G2125,B,395*371,2
39G2226,A,490*312,35
39G2226,B,595*691,6
39G2226,B,595*371,2
39G2226,B,395*691,6
39G2226,B,395*371,2
39G2328,A,490*312,35
39G2328,B,595*691,12
39G2328,B,395*691,4
39G2330,A,490*312,42
39G2330,B,595*691,12
39G2330,B,395*691,4
39G2333,A,490*312,42
39G2333,B,595*691,12
39G2333,B,595*371,3
39G2333,B,395*691,4
39G2333,B,395*371,1
39CQ0608,A,357*274,4
39CQ0608,B,490*691,1
39CQ0609,A,424*274,4
39CQ0609,B,490*691,1
39CQ0711,A,490*312,4
39CQ0711,B,595*690,1
39CQ0711,B,595*371,1
39CQ0811,A,357*235,9
39CQ0811,B,595*690,1
39CQ0811,B,595*371,1
39CQ0912,A,357*274,9
39CQ0912,B,395*691,2
39CQ0912,B,395*371,2
39CQ0913,A,424*312,8
39CQ0913,B,395*691,2
39CQ0913,B,395*371,2
39CQ0914,A,424*312,8
39CQ0914,B,395*691,4
39CQ1015,A,490*312,9
39CQ1015,B,490*691,4
39CQ1117,A,490*312,10
39CQ1117,B,490*691,4
39CQ1317,A,490*312,12
39CQ1317,B,595*691,4
39CQ1418,A,424*312,16
39CQ1418,B,595*691,4
39CQ1418,B,595*371,2
39CQ1420,A,490*312,16
39CQ1420,B,595*691,4
39CQ1420,B,595*371,2
39CQ1621,A,490*312,20
39CQ1621,B,490*691,9
39CQ1822,A,490*312,21
39CQ1822,B,490*691,3
39CQ1822,B,395*691,9
39CQ1825,A,490*312,25
39CQ1825,B,490*691,3
39CQ1825,B,490*371,1
39CQ1825,B,395*691,9
39CQ1825,B,395*371,3
39CQ2025,A,490*312,30
39CQ2025,B,595*691,9
39CQ2025,B,595*371,3
39CQ2125,A,490*312,30
39CQ2125,B,595*691,6
39CQ2125,B,595*371,2
39CQ2125,B,395*691,6
39CQ2125,B,395*371,2
39CQ2226,A,490*312,35
39CQ2226,B,595*691,6
39CQ2226,B,595*371,2
39CQ2226,B,395*691,6
39CQ2226,B,395*371,2
39CQ2328,A,490*312,35
39CQ2328,B,595*691,12
39CQ2328,B,395*691,4
39CQ2330,A,490*312,42
39CQ2330,B,595*691,12
39CQ2330,B,395*691,4
39CQ2333,A,490*312,42
39CQ2333,B,595*691,12
39CQ2333,B,595*371,3
39CQ2333,B,395*691,4
39CQ2333,B,395*371,1
39CQ2435,A,490*312,49
39CQ2435,B,595*691,15
39CQ2435,B,490*691,5
39CQ2635,A,490*312,55
39CQ2635,B,490*691,25
39CQ2735,A,490*312,55
39CQ2735,B,595*691,15
39CQ2735,B,395*691,10
39XT0608,A,357*274,4
39XT0608,B,490*691,1
39XT0609,A,424*274,4
39XT0609,B,490*691,1
39XT0711,A,490*312,4
39XT0711,B,595*690,1
39XT0711,B,595*371,1
39XT0811,A,357*235,9
39XT0811,B,595*690,1
39XT0811,B,595*371,1
39XT0912,A,357*274,9
39XT0912,B,395*691,2
39XT0912,B,395*371,2
39XT0913,A,424*312,8
39XT0913,B,395*691,2
39XT0913,B,395*371,2
39XT0914,A,424*312,8
39XT0914,B,395*691,4
39XT1015,A,490*312,9
39XT1015,B,490*691,4
39XT1117,A,490*312,10
39XT1117,B,490*691,4
39XT1317,A,490*312,12
39XT1317,B,595*691,4
39XT1418,A,424*312,16
39XT1418,B,595*691,4
39XT1418,B,595*371,2
39XT1420,A,490*312,16
39XT1420,B,595*691,4
39XT1420,B,595*371,2
39XT1621,A,490*312,20
39XT1621,B,490*691,9
39XT1822,A,490*312,21
39XT1822,B,490*691,3
39XT1822,B,395*691,9
39XT1825,A,490*312,25
39XT1825,B,490*691,3
39XT1825,B,490*371,1
39XT1825,B,395*691,9
39XT1825,B,395*371,3
39XT2025,A,490*312,30
39XT2025,B,595*691,9
39XT2025,B,595*371,3
39XT2125,A,490*312,30
39XT2125,B,595*691,6
39XT2125,B,595*371,2
39XT2125,B,395*691,6
39XT2125,B,395*371,2
39XT2226,A,490*312,35
39XT2226,B,595*691,6
39XT2226,B,595*371,2
39XT2226,B,395*691,6
39XT2226,B,395*371,2
39XT2328,A,490*312,35
39XT2328,B,595*691,12
39XT2328,B,395*691,4
39XT2330,A,490*312,42
39XT2330,B,595*691,12
39XT2330,B,395*691,4
39XT2333,A,490*312,42
39XT2333,B,595*691,12
39XT2333,B,595*371,3
39XT2333,B,395*691,4
39XT2333,B,395*371,1
