[ 
  [ "serial_number", "", "AHU.unitNo" ],
  [ "unit_model", "", "meta.ahu.serial" ],
  [ "customer_name", "", "AHU.name" ],
  [ "air_volume", "m3/h", "meta.ahu.sairvolume" ],
  [ "unit_power_colon", "", "meta.ahu.voltage" ],
  [ "quantity", "", "AHU.mount" ]
]
