[ 
  [ "unit_static_weight", "kg", "AHU.weight" ],
  [ "inlet_filter_section", "Pa", "meta.others.filterresi" ],
  [ "surface_cold_water_retaining_section", "Pa", "meta.others.coilresi" ],
  [ "silence_outlet_air_section", "Pa", "meta.others.Resistance" ],
  [ "total_pressure_loss_of_unit", "Pa", "meta.others.sysStatic" ]
]
