[
  [ "shuipan_colon", "ns.section.access.nsDrainpan", "shuipan_type_colon", "ns.section.access.nsDrainpanType", "shuipan_material_colon", "ns.section.access.nsDrainpanMaterial", "shuipan_price_colon", "ns.section.access.nsDrainpanPrice" ]
]
