[
  [ "change_motor_power_colon", "ns.section.fan.nsChangeMotor", "motor_pole_number_colon", "ns.section.fan.nsMmotorPole", "motor_power_colon", "ns.section.fan.nsMotorPower", "difference_of_prices_colon", "ns.section.fan.nsMotorPrice" ],
  [ "change_spring_colon", "ns.section.fan.nsSpringtransform", "", "", "", "", "difference_of_prices_colon", "ns.section.fan.nsSpringtransformPrice" ]
]
