[ 
  [ "air_parameter_summer", "", "", "humidification_volume_summer", "Kg/h", "meta.section.sprayHumidifier.SHumidificationQ" ],
  [ "inlet_wind_db_colon", "℃", "meta.section.sprayHumidifier.SInDryBulbT", "outlet_air_db_colon", "℃", "meta.section.sprayHumidifier.SOutDryBulbT" ],
  [ "inlet_wind_wb_rh_colon", "℃/%", "meta.section.sprayHumidifier.SInWetBulbT/meta.section.sprayHumidifier.SInRelativeT", "outlet_air_wb_rh_colon", "℃/%", "meta.section.sprayHumidifier.SOutWetBulbT/meta.section.sprayHumidifier.SOutRelativeT" ],
  [ "", "", "", "", "", "" ]
]
