[ 
  [ "air_parameter_winter", "", "", "humidification_volume_winter", "Kg/h", "meta.section.sprayHumidifier.WHumidificationQ" ],
  [ "inlet_wind_db_colon", "℃", "meta.section.sprayHumidifier.WInDryBulbT", "outlet_air_db_colon", "℃", "meta.section.sprayHumidifier.WOutDryBulbT" ],
  [ "inlet_wind_wb_rh_colon", "℃/%", "meta.section.sprayHumidifier.WInWetBulbT/meta.section.sprayHumidifier.WInRelativeT", "outlet_air_wb_rh_colon", "℃/%", "meta.section.sprayHumidifier.WOutWetBulbT/meta.section.sprayHumidifier.WOutRelativeT" ],
  [ "", "", "", "", "", "" ]
]
