[ 
  [ "air_parameter_summer", "", "", "steam_parameter_summer", "", "" ],
  [ "inlet_wind_db_colon", "dC", "meta.section.steamCoil.SInDryBulbT", "heating_volume_colon", "KW", "meta.section.steamCoil.SHeatQ" ],
  [ "inlet_wind_wb_rh_colon", "dC/%", "meta.section.steamCoil.SInWetBulbT/meta.section.steamCoil.SInRelativeT", "humidification_vapor_pressure_colon", "MPa", "meta.section.steamCoil.VaporPressure" ],
  [ "outlet_air_db_colon", "dC", "meta.section.steamCoil.SOutDryBulbT", "", "", "" ],
  [ "outlet_air_wb_rh_colon", "dC/%", "meta.section.steamCoil.SOutWetBulbT/meta.section.steamCoil.SOutRelativeT", "", "", "" ],
  [ "", "", "", "", "", "" ]
]
