[ 
  [ "filtration_form_colon", "", "meta.section.combinedFilter.fitetF", "", "", "" ],
  [ "panel_filtration_efficiency_colon", "", "meta.section.combinedFilter.LMaterialE", "bag_filtration_efficiency_colon", "", "meta.section.combinedFilter.RMaterialE" ]
]
