[ 
  [ "mix_form_colon", "", "meta.section.combinedMixingChamber.way", "section_length_colon", "M", "meta.section.combinedMixingChamber.sectionL" ],
  [ "exhaust_side_parameter_colon", "", "", "", "", "" ],
  [ "valve_size_exhaust_air_colon", "mm", "Key", "valve_torque_exhaust_air", "Nm", "Key" ],
  [ "valve_size_return_air_colon", "mm", "Key", "valve_torque_return_air", "Nm", "Key" ],
  [ "air_resistance_colon", "Pa", "meta.section.combinedMixingChamber.Resistance", "open_door_or_not_colon", "", "meta.section.combinedMixingChamber.OSDoor" ],
  [ "", "", "", "open_door_dimension_colon", "mm", "common.key.door.dimension_ahu.combinedMixingChamber" ],
  [ "fresh_air_side_parameter_colon", "", "", "", "", "" ],
  [ "valve_size_exhaust_air_colon", "mm", "Key", "valve_torque_exhaust_air", "Nm", "Key" ],
  [ "valve_size_return_air_colon", "mm", "Key", "valve_torque_return_air", "Nm", "Key" ],
  [ "air_resistance_colon", "Pa", "meta.section.combinedMixingChamber.Resistance", "open_door_or_not_colon", "", "meta.section.combinedMixingChamber.ISDoor" ],
  [ "", "", "", "open_door_dimension_colon", "mm", "common.key.door.dimension_ahu.combinedMixingChamber" ]
]
