[ 
  [ "filtration_form_colon", "", "meta.section.HEPAFilter.fitetF", "section_length_colon", "M", "meta.section.HEPAFilter.sectionL" ],
  [ "filtration_efficiency_colon", "", "meta.section.HEPAFilter.filterEfficiency", "filter_parameter_colon", "", "" ],
  [ "initial_resistance_colon", "Pa", "meta.section.HEPAFilter.dinitialPD", "supplier_colon", "", "meta.section.HEPAFilter.Supplier" ],
  [ "pressure_difference_gauge_colon", "", "meta.section.HEPAFilter.pressureGuage", "", "", "" ],
  [ "calculation_resistance_colon", "Pa", "meta.section.HEPAFilter.deveragePD", "side_frame_thickness_colon", "mm", "292" ],
  [ "final_resistance_colon", "Pa", "meta.section.HEPAFilter.dfinalPD", "", "", "" ],
  [ "", "", "", "", "", "" ]
]
