[ 
  [ "unit_overall_specification_colon", "", "", "", "", "", "" ],
  [ "unit_name_colon", "", "AHU", "", "serial_number_colon", "", "AHU.unitNo" ],
  [ "unit_model_colon", "", "AHU.series", "", "customer_name_colon", "", "AHU.name" ],
  [ "quantity_colon", "", "AHU.mount", "", "", "", "" ],
  [ "supply_fan_parameter_colon", "", "", "", "return_fan_parameter_colon", "", "" ],
  [ "air_volume_colon", "m³/h", "meta.ahu.sairvolume", "", "air_volume_colon", "m³/h", "meta.ahu.eairvolume" ],
  [ "external_static_pressure_colon", "Pa", "meta.ahu.sexternalstatic", "", "external_static_pressure_colon", "Pa", "meta.ahu.eexternalstatic" ],
  [ "sectional_wind_speed", "m/s", "meta.ahu.airVelocity", "", "", "", "" ],
  [ "unit_pipe_connection_direction_colon", "", "meta.ahu.pipeorientation", "", "unit_open_door_direction_colon", "", "meta.ahu.doororientation" ],
  [ "unit_panel_outer_colon", "", "", "", "unit_panel_inner_colon", "", "" ],
  [ "material_colon", "", "meta.ahu.exskinm", "", "material_colon", "", "meta.ahu.inskinm" ],
  [ "color_colon", "", "meta.ahu.exskincolor", "", "color_colon", "", "meta.ahu.inskincolor" ],
  [ "thickness_colon", "", "meta.ahu.exskinw", "", "thickness_colon", "", "meta.ahu.inskinw" ],
  [ "unit_thermal_material_colon", "", "meta.ahu.panelinsulation", "", "unit_power_colon", "", "meta.ahu.voltage" ],
  [ "", "", "", "", "", "", "" ],
  [ "base_type_colon", "", "meta.ahu.baseType", "", "altitude_colon", "m", "meta.ahu.altitude" ],
  [ "CAL @ -400Pa:Exteral leakage rate L2(R) of the casing", "", "", "", "", "", "" ],
  [ "CAL @ +400Pa:Exteral leakage rate L2(R) of the casing", "", "", "", "", "", "" ],
  [ "light_power_colon", "", "light_transformer_input_output_valtage", null, null, null, null ],
  [ "roof", "", "meta_ahu_roof", null, null, null, null ],
  [ "Model Box:", "", "AHU.product", "", "", "", "" ],
  [ "CAL @ -400Pa (M) :", "", "L1", "", "CAL @ +700Pa (M) :", "", "L1" ],
  [ "Thermal Bridge Class (M) :", "", "TB2", "", "Thermal Transmittance (M) :", "", "T2" ],
  [ "Filter Bypass Leakage (M) :", "", "F9", "", "Casing Strength (M) :", "", "D1" ],
  [ "", "", "", "", "", "", "" ]
]
