[ 
  [ "air_parameter_winter", "", "", "", "", "", "", "", "" ],
  [ "return_air_db_colon", "℃", "meta.section.mix.WInDryBulbT", "fresh_air_db_colon", "℃", "meta.section.mix.WNewDryBulbT", "outlet_air_db_colon", "℃", "meta.section.mix.WOutDryBulbT" ],
  [ "return_air_wb_rh_colon", "℃/%", "meta.section.mix.WInWetBulbT/meta.section.mix.WInRelativeT", "fresh_air_wb_rh_colon", "℃/%", "meta.section.mix.WNewWetBulbT/meta.section.mix.WNewRelativeT", "outlet_air_wb_rh_colon", "℃/%", "meta.section.mix.WOutWetBulbT/meta.section.mix.WOutRelativeT" ]
]
