[
  [ "fan_model_colon", "meta.section.fan.engineType", "meta.section.fan.fanModel", "", "", "section_length_colon", "M", "meta.section.fan.sectionL" ],
  [ "outlet_air_direction_colon", "", "meta.section.fan.outletDirection", "", "", "open_door_or_not_colon", "", "meta.section.fan.accessDoor" ],
  [ "", "", "", "", "", "open_door_dimension_colon", "mm", "common.key.door.dimension_ahu.fan" ],
  [ "fan_parameter_colon", "", "", "", "", "motor_brand_colon", "", "meta.section.fan.supplier" ],
  [ "air_volume_colon", "m³/h", "meta.ahu.airVolume", "", "", "shaft_power_colon", "kW", "meta.section.fan.shaftPower" ],
  [ "external_static_pressure_colon", "Pa", "meta.section.fan.externalStatic", "", "", "input_power_colon", "kW", "meta.section.fan.inputPower" ],
  [ "internal_static_pressure_colon", "Pa", "meta.section.fan.sysStatic", "", "", "motor_power_colon", "kW", "meta.section.fan.motorPower" ],
  [ "system_effect_colon", "Pa", "meta.section.fan.systemEffect", "", "", "", "", "" ],
  [ "other_static_pressure_colon", "Pa", "meta.section.fan.extraStatic", "", "", "level_number_colon", "", "meta.section.fan.pole" ],
  [ "full_static_pressure_colon", "Pa", "meta.section.fan.totalStatic", "", "", "insulation_level_colon", "", "meta.section.fan.insulation" ],
  [ "total_pressure_colon", "Pa", "meta.section.fan.totalPressure", "", "", "protection_level_colon", "", "meta.section.fan.Protection" ],
  [ "outlet_wind_speed_colon", "m/s", "meta.section.fan.outletVelocity", "", "", "motor_base_no_colon", "", "meta.section.fan.motorBaseNo" ],
  [ "UVUs(ηvu)", "%", "meta.section.fan.efficiency", "", "", "voltage_colon", "", "meta.section.fan.power" ],
  [ "SFPint", "kW/(m3/s)", "SFPint", "", "", "motor_type_colon", "", "meta.section.fan.type" ],
  [ "fan_speed_colon", "rpm", "meta.section.fan.RPM", "", "", "startup_cabinet_form_colon", "", "meta.section.fan.startStyle" ],
  [ "with_wheel_protective_cover_colon", "", "meta.section.fan.beltGuard", "", "", "motor_position_colon", "", "meta.section.fan.motorPosition" ],
  [ "air_outlet_connector_colon", "", "meta.section.fan.sendPosition/meta.section.fan.supplyDamper/meta.section.fan.returnPosition/meta.section.fan.returnDamper", "", "", "belt_protective_cover", "", "meta.section.fan.beltGuard" ],
  [ "standby_motor", "", "meta.section.fan.standbyMotor", "", "", "anti_cut_shock_absorber", "", "meta.section.fan.seismicPringIsolator" ],
  [ "ptc_thermistor_protection_relay", "", "meta.section.fan.ptc", "", "", "salt_spray_type_shock_absorber", "", "meta.section.fan.para13" ],
  [ "a_sound_power_level", "dB(A)", "meta.section.fan.LW", "", "", "Offset_distance", "", "meta.section.fan.p"],
  [ "a_sound_pressure_level", "dB(A)", "meta.section.fan.LP", "", "","a_sound_airborn_level", "dB(A)", "meta.section.fan.AB" ],
  [ "", "", "", "", "", "a_sound_airborn_pressure_level", "dB(A)", "meta.section.fan.AI" ]
]
