[ 
  [ "function_colon", "", "meta.section.access.functionS", "section_length_colon", "M", "meta.section.access.sectionL" ],
  [ "air_volume_colon", "m3/h", "meta.ahu.airVolume", "open_door_or_not_colon", "", "meta.section.access.ODoor" ],
  [ "", "", "", "open_door_dimension_colon", "mm", "common.key.door.dimension_ahu.access" ],
  [ "air_resistance_colon", "Pa", "meta.section.access.Resistance", "", "", "" ],
  [ "attachment_colon", "", "meta.section.access.uvLamp", "", "", "" ],
  [ "", "", "", "", "", "" ]
]
