[ 
  [ "coil_heat_medium_colon", "", "meta.section.electricHeatingCoil.heatMedium", "section_length_colon", "M", "meta.section.electricHeatingCoil.sectionL" ],
  [ "air_volume_colon", "m3/h", "meta.ahu.airVolume", "face_wind_speed_colon", "m/s", "meta.section.electricHeatingCoil.Wvelocity" ],
  [ "row_number_colon", "", "meta.section.electricHeatingCoil.RowNum", "group_number_colon", "", "meta.section.electricHeatingCoil.GroupC" ],
  [ "air_resistance_colon", "Pa", "meta.section.electricHeatingCoil.Resistance", "coil_bracket_material_colon", "", "meta.section.electricHeatingCoil.BaffleM1" ],
  [ "", "", "", "coil_material_colon", "", "meta.section.electricHeatingCoil.Material" ],
  [ "", "", "", "", "", "" ]
]
