[ 
  [ "humidification_method_colon", "", "meta.section.sprayHumidifier.way", "section_length_colon", "M", "meta.section.sprayHumidifier.sectionL" ],
  [ "air_volume_colon", "m3/h", "meta.ahu.airVolume", "control_method_colon", "", "meta.section.sprayHumidifier.ControlM" ],
  [ "drift_eliminator_colon", "", "meta.section.sprayHumidifier.Eliminator", "supplier_model_colon", "", "meta.section.sprayHumidifier.Supplier" ],
  [ "drift_eliminator_bracket_material_colon", "", "meta.section.sprayHumidifier.BaffleM", "water_tray_material_colon", "", "meta.section.sprayHumidifier.Material" ],
  [ "air_resistance_colon", "Pa", "meta.section.sprayHumidifier.Resistance", "installation_section_colon", "", "meta.section.sprayHumidifier.install" ],
  [ "water_supply_quality_colon", "", "meta.section.sprayHumidifier.waterQuality", "inlet_water_pressure_colon", "", "meta.section.sprayHumidifier.pressure" ],
  [ "water_supply_capacity_colon", "", "meta.section.sprayHumidifier.quantity", "power_supply_and_power_colon", "", "meta.section.sprayHumidifier.power" ],
  [ "spray_flow", "kg/h", "meta.section.sprayHumidifier.WaterQuantity", "nozzle_flow_rate", "kg/h", "meta.section.sprayHumidifier.WaterFlow" ],
  [ "model_colon", "", "meta.section.sprayHumidifier.model", "", "", "" ],
  [ "", "", "", "", "", "" ]
]
