[ 
  [ "mix_form_colon", "", "meta.section.combinedMixingChamber.way", "section_length_colon", "M", "meta.section.combinedMixingChamber.sectionL" ],
  [ "return_air_volume_colon", "m3/h", "meta.ahu.eairvolume", "outlet_air_volume_colon", "m3/h", "meta.ahu.sairvolume" ],
  [ "air_outlet_connector_colon", "", "meta.section.combinedMixingChamber.AInterface", "fresh_air_volume_slash_proportion_colon", "m3/h", "meta.section.combinedMixingChamber.SNAVolume/meta.section.combinedMixingChamber.NARatio" ],
  [ "air_valve_material_colon", "", "meta.section.combinedMixingChamber.DamperMeterial", "", "", "" ],
  [ "exhaust_side_parameter_colon", "", "", "", "", "" ],
  [ "valve_size_exhaust_air_colon", "mm", "meta.section.combinedMixingChamber.windValveP1", "valve_torque_exhaust_air", "Nm", "meta.section.combinedMixingChamber.windValveP2" ],
  [ "valve_size_return_air_colon", "mm", "meta.section.combinedMixingChamber.windValveH1", "valve_torque_return_air", "Nm", "meta.section.combinedMixingChamber.windValveH2" ],
  [ "air_resistance_colon", "Pa", "meta.section.combinedMixingChamber.Resistance", "open_door_or_not_colon", "", "meta.section.combinedMixingChamber.OSDoor" ],
  [ "", "", "", "open_door_dimension_colon", "mm", "common.key.door.dimension_ahu.combinedMixingChamber" ],
  [ "fresh_air_side_parameter_colon", "", "", "", "", "" ],
  [ "valve_size_new_air_colon", "mm", "meta.section.combinedMixingChamber.windValveN1", "valve_torque_new_air", "Nm", "meta.section.combinedMixingChamber.windValveN2" ],
  [ "air_resistance_colon", "Pa", "meta.section.combinedMixingChamber.Resistance", "open_door_or_not_colon", "", "meta.section.combinedMixingChamber.ISDoor" ],
  [ "", "", "", "open_door_dimension_colon", "mm", "common.key.door.dimension_ahu.combinedMixingChamber" ]
]
