[ 
  [ "project_code_colon", "PROJECT.no", "", "software_version_colon", "SystemVersion", "" ],
  [ "contract_no_colon", "PROJECT.contract", "", "non_standard_quotation_number_colon", "PROJECT.enquiryNo", "" ],
  [ "project_name_colon", "PROJECT.name", "", "sales_colon", "PROJECT.saler", "" ],
  [ "project_address_colon", "PROJECT.address", "", "customer_po_colon", "AHU.customerName", "" ]
]
