{
  "ahu.wheelHeatRecycle": [
    {
      "serial": "39XT0608-39XT2333"
    }
  ],
  "ahu.plateHeatRecycle": [
    {
      "serial": "39XT0608-39XT1621"
    }
  ],
  "ahu.sprayHumidifier": [
    {
      "serial": "39XT0608-39XT2333"
    }
  ],
  "ahu.wetfilmHumidifier": [
    {
      "serial": "39XT0608-39XT2333"
    }
  ],
  "ahu.ctr": [
    {
      "serial": "39XT0101-39XT0202"
    }
  ],
  "ahu.electrodeHumidifier": [
    {
      "serial": "39XT0608-39XT2333"
    }
  ],
  "ahu.electrostaticFilter": [
    {
      "serial": "39XT0608-39XT2333"
    }
  ],
  "ahu.directExpensionCoil": [
    {
      "serial": "39XT0608-39XT1825"
    }
  ]


}