{
  "meta.section.combinedFilter.sectionL": {
    "key": "meta.section.combinedFilter.sectionL",
    "option": {
      "options": [
        "3",
        "4",
        "5",
        "6",
        "7",
        "8",
        "9"
      ],
      "labels": [
        "3",
        "4",
        "5",
        "6",
        "7",
        "8",
        "9"
      ],
      "clabels": [
        "3",
        "4",
        "5",
        "6",
        "7",
        "8",
        "9" 
      ],
      "relatedKeys": [
        "assis.section.position",
        "meta.section.combinedFilter.LMaterial",
        "meta.section.combinedFilter.RMaterial",
        "meta.section.combinedFilter.mediaLoading",
        "meta.section.combinedFilter.LMaterialE",
        "meta.section.combinedFilter.RMaterialE"
      ],
      "valueOptionMap": {
        "1#!~#!~#sideLoading#!~#!~": [ 6 ],
        "\u003e1#!~#!~#sideLoading#!~#!~": [ 5 ],
        
        "!~#!~#!No Filter#frontLoading#!~#C2": [ 1, 0, 3 ],
        "!~#!~#!No Filter#frontLoading#!~#C1": [ 1, 0, 3 ],
        "!~#!~#!No Filter#frontLoading#!~#Z2": [ 1, 0, 3 ],
        "!~#!~#!No Filter#frontLoading#!~#Z1": [ 1, 0, 3 ],
        "!~#!~#!No Filter#frontLoading#!~#GZ": [ 1, 0, 3 ],
        "!~#!~#!No Filter#frontLoading#!~#G3": [ 1, 0, 3 ],
        "!~#!~#!No Filter#frontLoading#!~#G4": [ 1, 0, 3 ],
        "!~#!~#!No Filter#frontLoading#!~#M5": [ 1, 0, 3 ],
        "!~#!~#!No Filter#frontLoading#!~#M6": [ 1, 0, 3 ],
        "!~#!~#No Filter#frontLoading#!~#!~": [ 1 ],
        
        "!~#!~#!No Filter#frontLoading#!~#F7": [ 3 ],
        "!~#!~#!No Filter#frontLoading#!~#F8": [ 3 ],
        "!~#!~#!No Filter#frontLoading#!~#F9": [ 3 ],
        "!~#!~#!No Filter#frontLoading#!~#F7G": [ 3 ],
        "!~#!~#!No Filter#frontLoading#!~#F8G": [ 3 ],
        "!~#!~#!No Filter#frontLoading#!~#F9G": [ 3 ],
        "!~#!~#!No Filter#frontLoading#!~#YG": [ 3 ],
        "LDLD#LDLD#LDLD#LDLD#LDLD#LDLD": [ 4,5,6 ]
        
      }
    },
    "defaultValue": "9"
  },
  "meta.section.combinedFilter.RMaterial": {
    "key": "meta.section.combinedFilter.RMaterial",
    "option": {
      "options": [
        "Non-woven Filter",
        "No Filter"
      ],
      "labels": [
        "Non-woven Filter",
        "No Filter"
      ],
      "clabels": [
        "无纺布过滤器",
        "无过滤器"
      ],
      "relatedKeys": [
      ],
      "valueOptionMap": {
       
      }
    },
    "defaultValue": "Non-woven Filter"
  },
  "meta.section.combinedFilter.LMaterial": {
    "key": "meta.section.combinedFilter.LMaterial",
    "option": {
      "options": [
        "nonWoven",
        "Al",
        "No"
      ],
      "labels": [
        "Non-woven Filter",
        "Al Mesh Filter",
        "No Filter"
      ],
      "clabels": [
        "无纺布过滤器",
        "铝网过滤器",
        "无过滤器"
      ],
      "relatedKeys": [
      	"meta.section.combinedFilter.mediaLoading"
      ],
      "valueOptionMap": {
      	"sideLoading": [
	      0,
	      2
     	]
      }
    },
    "defaultValue": "No Filter"
  },
  "meta.section.combinedFilter.LMaterialE": {
    "key": "meta.section.combinedFilter.LMaterialE",
    "option": {
      "options": [
        "C1",
        "C2",
        "C3",
        "G1",
        "G3",
        "G4"
      ],
      "labels": [
        "C1",
        "C2",
        "C3",
        "G1",
        "G3",
        "G4"
      ],
      "clabels": [
        "C1",
        "C2",
        "C3",
        "G1",
        "G3",
        "G4"
      ],
      "relatedKeys": [
        "meta.section.combinedFilter.fitlerStandard",
        "meta.section.combinedFilter.LMaterial"
      ],
      "valueOptionMap": {
        "EN#nonWoven": [
          4,
          5
        ],
        "EN#Al": [
          3
        ],
        "GB#nonWoven": [
          0,
          1
        ],
        "GB#Al": [
          2
        ],
        "all#nonWoven": [
          0,
          1,
          4,
          5
        ],
        "all#Al": [
          2,
          3
        ]
      },
      "enableRelatedKeys": [
        "meta.section.combinedFilter.LMaterial"
      ],
      "enableValueMap": {
        "No": null
      }
    },
    "defaultValue": "C1"
  },
  "meta.section.combinedFilter.RMaterialE": {
    "key": "meta.section.combinedFilter.RMaterialE",
    "option": {
      "options": [
        "C1",
        "C2",
        "G3",
        "G4",
        "M5",
        "M6",
        "F7",
        "F8",
        "F9",
        "F7G",
        "F8G",
        "F9G",
        "Z1",
        "Z2",
        "GZ",
        "YG"
      ],
      "labels": [
        "C1",
        "C2",
        "G3",
        "G4",
        "M5",
        "M6",
        "F7",
        "F8",
        "F9",
        "F7G",
        "F8G",
        "F9G",
        "Z1",
        "Z2",
        "GZ",
        "YG"
      ],
      "clabels": [
        "C1",
        "C2",
        "G3",
        "G4",
        "M5",
        "M6",
        "F7",
        "F8",
        "F9",
        "F7(高容尘量)",
        "F8(高容尘量)",
        "F9(高容尘量)",
        "Z1",
        "Z2",
        "GZ",
        "YG"
      ],
      "relatedKeys": [
      	"assis.section.position",
        "meta.section.combinedFilter.fitlerStandard",
        "meta.section.combinedFilter.RMaterial",
        "meta.section.combinedFilter.mediaLoading"
      ],
      "valueOptionMap": {
        "1#EN#Non-woven Filter#sideLoading": [
          2,
          3,
          4,
          5,
          6,
          7,
          8
        ],
        "!~#GB#Non-woven Filter#!~": [
          0,
          1,
          12,
          13,
          14,
          15
        ],
        "!~#EN#!~#frontLoading": [
          2,
          3,
          4,
          5,
          6,
          7,
          8,
          9,
          10,
          11
        ]
      },
      "enableRelatedKeys": [
        "meta.section.combinedFilter.RMaterial"
      ],
      "enableValueMap": {
        "No Filter": null
      }
    },
    "defaultValue": "C1"
  },
  "meta.section.combinedFilter.rimThickness": {
    "key": "meta.section.combinedFilter.rimThickness",
    "option": {
      "options": [
        "50+25",
        "50+50"
      ],
      "labels": [
        "50+25",
        "50+50"
      ],
      "clabels": [
        "50+25",
        "50+50"
      ],
      "relatedKeys": [
        "meta.section.combinedFilter.mediaLoading"
      ],
      "valueOptionMap": {
        "sideLoading": [
          1
        ],
        "frontLoading": [
          0
        ]
      }
    },
    "defaultValue": "50+25"
  },
  "meta.section.combinedFilter.fitetF": {
    "key": "meta.section.combinedFilter.fitetF",
    "option": {
      "options": [
        "pab"
      ],
      "labels": [
        "Inside Panel+Inside Bag"
      ],
      "clabels": [
        "板式+袋式"
      ],
      "relatedKeys": [],
      "valueOptionMap": {
      }
    },
    "defaultValue": "pab"
  },
  "meta.section.combinedFilter.BaffleM": {
    "key": "meta.section.combinedFilter.BaffleM",
    "option": {
      "options": [
        "G.l Steel",
        "Stainless"
      ],
      "labels": [
        "G.l Steel",
        "Stainless"
      ],
      "clabels": [
        "镀锌钢板",
        "不锈钢板"
      ],
      "relatedKeys": [
      	"meta.section.combinedFilter.mediaLoading"
      ],
      "valueOptionMap": {
      	"frontLoading": [
          0,
          1
        ],
        "sideLoading": [
          0,
          1
        ]
      }
    },
    "defaultValue": "G.l Steel"
  },
  "meta.section.combinedFilter.pressureGuageB": {
    "key": "meta.section.combinedFilter.pressureGuageB",
    "option": {
      "options": [
        "pressureDifferenceSwitch",
        "Point Differential Pressure Guage",
        "w/o"
      ],
      "labels": [
        "Pressure Difference Switch",
        "Pointer Pressure Differential Gauge",
        "No Pressure Gauge"
      ],
      "clabels": [
        "压差开关",
        "指针式压差计",
        "无"
      ],
      "relatedKeys": [
      	"meta.section.combinedFilter.mediaLoading"
      ],
      "valueOptionMap": {
      	"sideLoading":[
      	  2
      	]
      },
      "enableRelatedKeys": [
        "meta.section.combinedFilter.RMaterial"
      ],
      "enableValueMap": {
        "No Filter": null
      }
    },
    "defaultValue": "w/o"
  },
  "meta.section.combinedFilter.pressureGuageP": {
    "key": "meta.section.combinedFilter.pressureGuageP",
    "option": {
      "options": [
        "pressureDifferenceSwitch",
        "Point Differential Pressure Guage",
        "w/o"
      ],
      "labels": [
        "Pressure Difference Switch",
        "Pointer Pressure Differential Gauge",
        "No Pressure Gauge"
      ],
      "clabels": [
        "压差开关",
        "指针式压差计",
        "无"
      ],
      "relatedKeys": [
      	"meta.section.combinedFilter.mediaLoading"
      ],
      "valueOptionMap": {
      	"sideLoading":[
      	  2
      	]
      },
      "enableRelatedKeys": [
        "meta.section.combinedFilter.LMaterial"
      ],
      "enableValueMap": {
        "No": null
      }
    },
    "defaultValue": "w/o"
  },
  "meta.section.combinedFilter.fitlerStandard": {
    "key": "meta.section.combinedFilter.fitlerStandard",
    "option": {
      "options": [
        "GB",
        "EN",
        "all"
      ],
      "labels": [
        "GB/T14295",
        "EN779",
        "All Types"
      ],
      "clabels": [
        "GB/T14295",
        "EN779",
        "任意选项"
      ],
      "relatedKeys": [],
      "valueOptionMap": {
      }
    },
    "defaultValue": "GB"
  },
  "meta.section.combinedFilter.mediaLoading": {
    "key": "meta.section.combinedFilter.mediaLoading",
    "option": {
      "options": [
        "frontLoading",
        "sideLoading"
      ],
      "labels": [
        "Front Loading",
        "Side loading"
      ],
      "clabels": [
        "正面抽",
        "侧抽"
      ],
      "relatedKeys": [
        "assis.section.position",
        "assis.section.ahu.height"
      ],
      "valueOptionMap": {
        "!~#!~": [
          0
        ]
      },
      "relationKeys": [
        "pre#filter",
        "pre#combinedFilter",
        "pre#coolingCoil",
        "pre#directExpensionCoil",
        "pre#heatingCoil",
        "pre#steamCoil",
        "pre#electricHeatingCoil",
        "pre#steamHumidifier",
        "pre#wetfilmHumidifier",
        "pre#sprayHumidifier",
        "pre#Fan",
        "pre#attenuator",
        "pre#discharge",
        "pre#HEPAFilter",
        "pre#electrodeHumidifier",
        "pre#electrostaticFilter",
        "pre#ctr"
      ],
      "relationMap": [
        {"true": [
          1
        ]},
        {"true": [
          1
        ]},
        {"true": [
          1
        ]},
        {"true": [
          1
        ]},
        {"true": [
          1
        ]},
        {"true": [
          1
        ]},
        {"true": [
          1
        ]},
        {"true": [
          1
        ]},
        {"true": [
          1
        ]},
        {"true": [
          1
        ]},
        {"true": [
          1
        ]},
        {"true": [
          1
        ]},
        {"true": [
          1
        ]},
        {"true": [
          1
        ]},
        {"true": [
          1
        ]},
        {"true": [
          1
        ]},
        {"true": [
          1
        ]}
      ]
    },
    "defaultValue": "frontLoading"
  },
  "meta.section.combinedFilter.BracketM": {
    "key": "meta.section.combinedFilter.BracketM",
    "option": {
      "options": [
        "GS",
        "SS"
      ],
      "labels": [
        "G.l Steel",
        "Stainless steel"
      ],
      "clabels": [
        "镀锌钢板",
        "不锈钢板"
      ],
      "relatedKeys": [
        "meta.section.combinedFilter.mediaLoading"
      ],
      "valueOptionMap": {
        "frontLoading": [
          0,
          1
        ],
        "sideLoading": [
          0,
          1
        ]
      }
    },
    "defaultValue": "GS"
  },
  "meta.section.combinedFilter.nsPressureGuage": {
    "key": "meta.section.combinedFilter.nsPressureGuage",
    "option": {
      "options": [],
      "labels": [],
      "clabels": [],
      "relatedKeys": [],
      "valueOptionMap": {},
      "enableRelatedKeys": [
        "meta.section.combinedFilter.pressureGuageB",
        "meta.section.combinedFilter.pressureGuageP"
      ],
      "enableValueMap": {
        "w/o#w/o": null
      }
    },
    "defaultValue": false
  },
    "meta.section.combinedFilter.nsPressureGuageModel": {
    "key": "meta.section.combinedFilter.nsPressureGuageModel",
    "option": {
      "options": [
        "a"
      ],
      "labels": [
        "Dwyer pointer type pressure meter"
      ],
      "clabels": [
        "Dwyer指针式压差计"
      ],
      "relatedKeys": [],
      "valueOptionMap": {}
    },
    "defaultValue": "a"
  },
  "meta.section.combinedFilter.nsPressureGuageCount": {
    "key": "meta.section.combinedFilter.nsPressureGuageCount",
    "option": {
      "options": [
        "1",
        "2"
      ],
      "labels": [
        "1",
        "2"
      ],
      "clabels": [
        "1",
        "2"
      ],
      "relatedKeys": [],
      "valueOptionMap": {}
    },
    "defaultValue": "1"
  }
}
