unit,b,c,g,d2r,e2r,coilh,coilw,dia
2532,178,947+947,0+243,130,213,1148+1148,127,48+48
2832,178,1264+947,0+243,130,213,1148+1463,127,48+48
3132,178,1264+1264,0+243,130,213,1463+1463,127,48+48
3438,178,947+947+629,0+367+198,130,213,1148+1148+833,127,48+48+48
3841,178,947+947+947,0+369+197,130,213,1148+1148+1148,127,48+48+48
4444,178,1264+1265+947,0+326+197,130,213,1148+1463+1463,127,48+48+48
4750,178,1264+1264+1264,0+340+197,130,213,1463+1463+1463,127,48+48+48
