unitType,a,b,c,d,e,f,g,h,j,k,w
39CQ2532,3190,1682,3036,968,3,2904,225.6999969,14,3159.800049,835,290
39CQ2832,3190,1896,3036,968,3,2904,225.6999969,14,3159.800049,942,290
39CQ3132,3190,2107,3036,968,3,2904,225.6999969,14,3159.800049,1047.5,290
39CQ3438,3790,2033,3636,876,4,3504,221.1999969,17,3760.399902,1010.5,290
39CQ3841,4090,2140,3936,951,4,3804,225.6000061,18,4060.800049,1064,290
39CQ4444,4390,2413,4236,820.7999878,5,4104,218,20,4360,1200.5,290
39CQ4750,4990,2744,4836,940.7999878,5,4704,215.6999969,23,4961.100098,1621,290
39G2532,3190,1682,3036,968,3,2904,225.6999969,14,3159.800049,835,290
39G2832,3190,1896,3036,968,3,2904,225.6999969,14,3159.800049,942,290
39G3132,3190,2107,3036,968,3,2904,225.6999969,14,3159.800049,1047.5,290
39G3438,3790,2033,3636,876,4,3504,221.1999969,17,3760.399902,1010.5,290
39G3841,4090,2140,3936,951,4,3804,225.6000061,18,4060.800049,1064,290
39G4444,4390,2413,4236,820.7999878,5,4104,218,20,4360,1200.5,290
39G4750,4990,2744,4836,940.7999878,5,4704,215.6999969,23,4961.100098,1621,290
39XT2532,3190,1682,3036,968,3,2904,225.6999969,14,3159.800049,835,290
39XT2832,3190,1896,3036,968,3,2904,225.6999969,14,3159.800049,942,290
39XT3132,3190,2107,3036,968,3,2904,225.6999969,14,3159.800049,1047.5,290
39XT3438,3790,2033,3636,876,4,3504,221.1999969,17,3760.399902,1010.5,290
39XT3841,4090,2140,3936,951,4,3804,225.6000061,18,4060.800049,1064,290
39XT4444,4390,2413,4236,820.7999878,5,4104,218,20,4360,1200.5,290
39XT4750,4990,2744,4836,940.7999878,5,4704,215.6999969,23,4961.100098,1621,290
