{
  "meta.section.combinedMixingChamber.AInterface": {
    "key": "meta.section.combinedMixingChamber.AInterface",
    "option": {
       "options": [
        "ED",
        "MD"
      ],
      "labels": [
        "Electric Damper",
        "Manual Damper"
      ],
      "clabels": [
        "电动风阀",
        "手动风阀"
      ]
    },
    "defaultValue": "ED"
  },
  "meta.section.combinedMixingChamber.Executor1": {
    "key": "meta.section.combinedMixingChamber.Executor1",
    "option": {
       "options": [
        "a",
        "b",
        "c",
        "d"
      ],
      "labels": [
        "No Executor",
        "Continuous-type 24V",
        "Switch-type 220V",
        "Switch-type 24V"
      ],
      "clabels": [
        "不安装执行器",
        "连续型 24V",
        "开关型 220V",
        "开关型 24V"
      ],
       "relatedKeys": [
      	"meta.section.combinedMixingChamber.AInterface"
      	],
      "valueOptionMap": {
      	"ED":[
            0,
      		1,
      		2,
      		3
      	],
      	"FL":[
      		0
      	],
      	"MD":[
      		0
      	]
      },
      "enableRelatedKeys": [
        "meta.section.combinedMixingChamber.AInterface"
      ],
      "enableValueMap": {
        "MD": null,
        "FL": null
      }
    },
    "defaultValue": "a"
  },
  "meta.section.combinedMixingChamber.DamperMeterial": {
    "key": "meta.section.combinedMixingChamber.DamperMeterial",
    "option": {
      "options": [
        "Gl",
        "Al",
        "NA"
      ],
      "labels": [
        "G.l Steel",
        "Aluminum",
        "NA"
      ],
      "clabels": [
        "镀锌板",
        "铝合金",
        "无"
      ],
    "relatedKeys": [
      	"meta.section.combinedMixingChamber.AInterface"
      	      ],
      "valueOptionMap": {
      	"MD":[
      		0,
      		1
      	],
      	"ED":[
      		0,
      		1
      	],
      	"FL":[
      		2
      	]
      },
      "enableRelatedKeys": [
        "meta.section.combinedMixingChamber.AInterface"
      ],
      "enableValueMap": {
        "FL": null
      }
    },
    "defaultValue": "Gl"
   },
  
  "meta.section.combinedMixingChamber.OSDoor": {
    "key": "meta.section.combinedMixingChamber.OSDoor",
    "option": {
      "options": [
        "DY",
        "DN",
        "ND"
      ],
      "labels": [
        "Door w/ viewport",
        "Door w/o viewport",
        "W/o door"
      ],
      "clabels": [
        "开门有观察窗",
        "开门无观察窗",
        "不开门"
      ]
    },
    "defaultValue": "DN"
  },
   "meta.section.combinedMixingChamber.ISDoor": {
    "key": "meta.section.combinedMixingChamber.ISDoor",
    "option": {
      "options": [
        "DY",
        "DN",
        "ND"
      ],
      "labels": [
        "Door w/ viewport",
        "Door w/o viewport",
        "W/o door"
      ],
      "clabels": [
        "开门有观察窗",
        "开门无观察窗",
        "不开门"
      ]
    },
    "defaultValue": "DN"
  },
  "meta.section.combinedMixingChamber.PositivePressureDoor": {
    "key": "meta.section.combinedMixingChamber.PositivePressureDoor",
    "option": {
      "options": [],
      "labels": [],
      "clabels": [],
      "relatedKeys": [],
      "valueOptionMap": {},
      "enableRelatedKeys": [
        "meta.ahu.product"
      ],
      "enableValueMap": {
        "39G": null
      }
    },
    "defaultValue": false
  },
  "meta.section.combinedMixingChamber.FixRepairLamp": {
    "key": "meta.section.combinedMixingChamber.FixRepairLamp",
    "option": {
      "options": [],
      "labels": [],
      "clabels": [],
      "relatedKeys": [],
      "valueOptionMap": {},
      "enableRelatedKeys":[
        "meta.section.combinedMixingChamber.OSDoor",
        "meta.section.combinedMixingChamber.ISDoor"
      ],
      "enableValueMap":{
        "ND#ND":false
      }
    },
    "defaultValue": false
  }
}
