{
  "meta.section.mix.damperMeterial": {
    "key": "meta.section.mix.damperMeterial",
    "option": {
      "options": [
        "GI",
        "AL",
        "NA"
      ],
      "labels": [
        "G.l Steel",
        "Aluminum",
        "NA"
      ],
      "clabels": [
        "镀锌板",
        "铝合金",
        "无"
      ],
      "relatedKeys": [
      	"meta.section.mix.damperOutlet",
      	"meta.section.mix.returnButtom"
      ],
      "valueOptionMap": {
      	"MD#false":[
      		0,
      		1
      	],
      	"MD#true":[
      		0
      	],
      	"ED#false":[
      		0,
      		1
      	],
      	"ED#true":[
      		0
      	],
      	"FD#false":[
      		2
      	],
      	"FD#true":[
      		2
      	]
      },
      "enableRelatedKeys": [
        "meta.section.mix.damperOutlet"
      ],
      "enableValueMap": {
        "FD": null
      }
    },
    "defaultValue": "GI"
  },
  "meta.section.mix.damperExecutor": {
    "key": "meta.section.mix.damperExecutor",
    "option": {
      "options": [
        "00000",
        "024DI",
        "220AI",
        "024AI"
      ],
      "labels": [
        "No Executor",
        "Continuous-type 24V",
        "Switch-type 220V",
        "Switch-type 24V"
      ],
      "clabels": [
        "不安装执行器",
        "连续型24V",
        "开关型220V",
        "开关型24V"
      ],
      "relatedKeys": [
      	"meta.section.mix.damperOutlet"
      ],
      "valueOptionMap": {
      	"ED":[
            0,
      		1,
      		2,
      		3
      	],
      	"FD":[
      		0
      	],
      	"MD":[
      		0
      	]
      },
      "enableRelatedKeys": [
        "meta.section.mix.damperOutlet"
      ],
      "enableValueMap": {
        "FD": null,
        "MD":null
      }
      
    },
    "defaultValue": "00000"
  },
  "meta.section.mix.DoorDirection": {
    "key": "meta.section.mix.DoorDirection",
    "option": {
      "options": [
        "left",
        "right",
        "both",
        "front",
        "no"
      ],
      "labels": [
        "Door at left side",
        "Door at right side",
        "Door at both sides",
        "Door at front side",
        "W/o door"
      ],
      "clabels": [
        "左侧开门",
        "右侧开门",
        "两侧开门",
        "端面开门",
        "不开门"
      ],
      "relatedKeys": [
        "meta.section.mix.DoorO",
        "meta.section.mix.returnLeft",
        "meta.section.mix.returnRight",
        "meta.ahu.doororientation"
      ],
      "valueOptionMap": {
        "!noDoor#true#false#!~": [
          1
        ],
        "!noDoor#false#true#!~": [
          0
        ],
        "!noDoor#true#true#!~": [
          3
        ],
        "!noDoor#false#false#!right": [
          0,
          1,
          2
        ],
        "!noDoor#false#false#right": [
          1,
          0,
          2
        ],
        "noDoor#!no#!no": [
          4
        ]
      },
      "enableRelatedKeys": [
        "meta.section.mix.DoorO"
      ],
      "enableValueMap": {
        "noDoor": null
      }
    },
    "defaultValue": "left",
    "defaultValueMap": {
     	"!noDoor#false#false#!right":"left",
     	"!noDoor#false#false#right":"right"
    }
  },
  "meta.section.mix.DoorO": {
    "key": "meta.section.mix.DoorO",
    "option": {
      "options": [
        "doorNoViewport",
        "doorWithViewport",
        "noDoor"
      ],
      "labels": [
        "Door w/o viewport",
        "Door w/ viewport",
        "W/o door"
      ],
      "clabels": [
        "开门无观察窗",
        "开门有观察窗",
        "不开门"
      ],
      "relatedKeys": [
        "meta.section.mix.uvLamp"
      ],
      "valueOptionMap": {
        "false": [
          0,
          1,
          2
        ],
        "true": [
          0,
          2
        ]
      }
    },
    "defaultValue": "doorNoViewport"
  },
  "meta.section.mix.PositivePressureDoor": {
    "key": "meta.section.mix.PositivePressureDoor",
    "option": {
      "options": [],
      "labels": [],
      "clabels": [],
      "relatedKeys": [],
      "valueOptionMap": {},
      "enableRelatedKeys": [
        "meta.ahu.product"
      ],
      "enableValueMap": {
        "39G": null
      }
    },
    "defaultValue": false
  },
  "meta.section.mix.damperOutlet": {
    "key": "meta.section.mix.damperOutlet",
    "option": {
      "options": [
        "ED",
        "MD",
        "FD"
      ],
      "labels": [
        "Electric damper",
        "Manual Damper",
        "Flange"
      ],
      "clabels": [
      	"电动风阀",
        "手动风阀",      
        "法兰"
      ],
      "relatedKeys": [],
      "valueOptionMap": {}
    },
    "defaultValue": "ED"
  },
  "meta.section.mix.freshAirHood": {
    "key": "meta.section.mix.freshAirHood",
    "option": {
      "options": [
      	"true",
        "false"
      ],
      "labels": [
        "true",
        "false"
      ],
      "clabels": [
        "启用",      
        "禁用"
      ],
      "relatedKeys": [
      	"meta.ahu.ISPRERAIN",
      	"meta.section.mix.returnBack",
      	"meta.section.mix.returnButtom",
      	"meta.section.mix.returnLeft",
      	"meta.section.mix.returnRight",
      	"meta.section.mix.returnTop"
      ],
      "valueOptionMap": {
      	"true#true#false#false#false#false": [
          0,
          1
        ],
        "true#false#true#false#false#false": [
          1
        ],
        "true#false#false#true#false#false": [
          1
        ],
        "true#false#false#false#true#false": [
          1
        ],
        "true#false#false#false#false#true": [
          1
        ],
        "true#true#true#false#false#false": [
          0,
          1
        ],
        "true#true#false#true#false#false": [
          0,
          1
        ],
        "true#true#false#false#true#false": [
          0,
          1
        ],
        "true#true#false#false#false#true": [
          0,
          1
        ],
        "true#false#true#true#false#false": [
          1
        ],
        "true#false#true#false#true#false": [
          1
        ],
        "true#false#true#false#false#true": [
          1
        ],
        "true#false#false#true#true#false": [
          1
        ],
        "true#false#false#true#false#true": [
          1
        ],
        "true#false#false#false#true#true": [
          1
        ],
        "false#true#true#false#false#false": [
          1
        ],
        "false#true#false#true#false#false": [
          1
        ],
        "false#true#false#false#true#false": [
          1
        ],
        "false#true#false#false#false#true": [
          1
        ],
        "false#false#true#true#false#false": [
          1
        ],
        "false#false#true#false#true#false": [
          1
        ],
        "false#false#true#false#false#true": [
          1
        ],
        "false#false#false#true#true#false": [
          1
        ],
        "false#false#false#true#false#true": [
          1
        ],
        "false#false#false#false#true#true": [
          1
        ]
      },
      "enableRelatedKeys": [
        "meta.ahu.ISPRERAIN",
      	"meta.section.mix.returnBack"
      ],
      "enableValueMap": {
        "true#true": null
      }
    },
    "defaultValue": "disable"
  },
  "meta.section.mix.uvLamp": {
    "key": "meta.section.mix.uvLamp",
    "option": {
      "options": [
      	"false",
        "true"
      ],
      "labels": [
        "false",
        "true"
      ],
      "clabels": [
        "否",      
        "是"
      ],
      "relatedKeys": [
      	"meta.ahu.ISPRERAIN"
      ],
      "valueOptionMap": {
      	"true": [
          0,
          1
        ]
      },
      "enableRelatedKeys":[
      	"meta.ahu.voltage"
      ],
      "enableValueMap":{
      	"460V-3Ph-60Hz":null,
      	"460V-3Ph-50Hz":null
      }
    },
    "defaultValue": "enable"
  },
//  "meta.section.mix.uvLampSerial": {
//    "key": "meta.section.mix.uvLampSerial",
//    "option": {
//      "options": [
//		"CUVCA25*1",
//		"CUVCA30*1",
//		"CUVCA55*1",
//		"CUVCA75*1",
//		"CUVCA55*2",
//		"CUVCA75*2",
//		"CUVCA55*3",
//		"CUVCA75*3",
//		"CUVCA75*4",
//		"CUVCA75*5",
//		"CUVCA75*6",
//		"CUVCA75*7",
//        "CUVCA75*8",
//        "CUVCA75*9",
//        "CUVCA75*11",
//        "CUVCA75*13",
//        "CUVCA75*16",
//		"None"
//      ],
//      "labels": [
//		"CUVCA25*1",
//		"CUVCA30*1",
//		"CUVCA55*1",
//		"CUVCA75*1",
//		"CUVCA55*2",
//		"CUVCA75*2",
//		"CUVCA55*3",
//		"CUVCA75*3",
//		"CUVCA75*4",
//		"CUVCA75*5",
//		"CUVCA75*6",
//		"CUVCA75*7",
//        "CUVCA75*8",
//        "CUVCA75*9",
//        "CUVCA75*11",
//        "CUVCA75*13",
//        "CUVCA75*16",
//		"None"
//      ],
//      "clabels": [
//		"CUVCA25*1",
//		"CUVCA30*1",
//		"CUVCA55*1",
//		"CUVCA75*1",
//		"CUVCA55*2",
//		"CUVCA75*2",
//		"CUVCA55*3",
//		"CUVCA75*3",
//		"CUVCA75*4",
//		"CUVCA75*5",
//		"CUVCA75*6",
//		"CUVCA75*7",
//        "CUVCA75*8",
//        "CUVCA75*9",
//        "CUVCA75*11",
//        "CUVCA75*13",
//        "CUVCA75*16",
//		"无"
//      ],
//      "relatedKeys": [
//      	"meta.section.mix.uvLamp",
//      	"meta.ahu.serial"
//      ],
//      "valueOptionMap": {
//      	"true#endw:0608": [
//          0
//        ],
//        "true#endw:0609": [
//          0
//        ],
//        "true#endw:0711": [
//          0
//        ],
//		"true#endw:0811": [
//          1
//        ],
//        "true#endw:0912": [
//          1
//        ],
//        "true#endw:0913": [
//          2
//        ],
//        "true#endw:0914": [
//          2
//        ],
//        "true#endw:1015": [
//          3
//        ],
//        "true#endw:1117": [
//          3
//        ],
//        "true#endw:1317": [
//          4
//        ],
//        "true#endw:1418": [
//          4
//        ],
//        "true#endw:1420": [
//          5
//        ],
//        "true#endw:1621": [
//          6
//        ],
//        
//        "true#endw:1822": [
//          7
//        ],
//        "true#endw:1825": [
//          7
//        ],
//        
//		"true#endw:2025": [
//          8
//        ],
//        "true#endw:2125": [
//          8
//        ],
//		
//		"true#endw:2226": [
//          9
//        ],
//        "true#endw:2330": [
//          9
//        ],
//        "true#endw:2328": [
//          9
//        ],
//        "true#endw:2333": [
//          10
//        ],
//        "true#endw:2435": [
//          10
//        ],
//        "true#endw:2635": [
//          10
//        ],
//        "true#endw:2735": [
//          10
//        ],
//        "true#endw:2532": [
//          10
//        ],
//        "true#endw:2832": [
//          11
//        ],
//        "true#endw:3132": [
//          12
//        ],
//        "true#endw:3438": [
//          13
//        ],
//        "true#endw:3841": [
//          14
//        ],
//        "true#endw:4444": [
//          15
//        ],
//        "true#endw:4750": [
//          16
//        ],
//         "false#!no": [
//          17
//        ]
//        
//      },
//      "enableRelatedKeys":[
//      	"meta.section.mix.uvLamp"
//      ],
//      "enableValueMap":{
//      	"false":null
//      }
//    },
//    "defaultValue": "None"
//  },
  "meta.section.mix.fixRepairLamp": {
    "key": "meta.section.mix.fixRepairLamp",
    "option": {
      "options": [],
      "labels": [],
      "clabels": [],
      "relatedKeys": [],
      "valueOptionMap": {},
      "enableRelatedKeys":[
      	"meta.section.mix.DoorO"
      ],
      "enableValueMap":{
      	"noDoor":false
      }
    },
    "defaultValue": false
  },
  "meta.section.mix.damperTopType": {
    "key": "meta.section.mix.damperTopType",
    "option": {
      "options": [
        "Fresh",
        "Return"
      ],
      "labels": [
        "Fresh",
        "Return"
      ],
      "clabels": [
        "新风",
        "回风"
      ],
      "relatedKeys": [],
      "valueOptionMap": {}
    },
    "defaultValue": "Fresh"
  },
  "meta.section.mix.damperBackType": {
    "key": "meta.section.mix.damperBackType",
    "option": {
      "options": [
        "Fresh",
        "Return"
      ],
      "labels": [
        "Fresh",
        "Return"
      ],
      "clabels": [
        "新风",
        "回风"
      ],
      "relatedKeys": [],
      "valueOptionMap": {}
    },
    "defaultValue": "Fresh"
  },
  "meta.section.mix.damperLeftType": {
    "key": "meta.section.mix.damperLeftType",
    "option": {
      "options": [
        "Fresh",
        "Return"
      ],
      "labels": [
        "Fresh",
        "Return"
      ],
      "clabels": [
        "新风",
        "回风"
      ],
      "relatedKeys": [],
      "valueOptionMap": {}
    },
    "defaultValue": "Fresh"
  },
  "meta.section.mix.damperRightType": {
    "key": "meta.section.mix.damperRightType",
    "option": {
      "options": [
        "Fresh",
        "Return"
      ],
      "labels": [
        "Fresh",
        "Return"
      ],
      "clabels": [
        "新风",
        "回风"
      ],
      "relatedKeys": [],
      "valueOptionMap": {}
    },
    "defaultValue": "Fresh"
  },
  "meta.section.mix.damperBottomType": {
    "key": "meta.section.mix.damperBottomType",
    "option": {
      "options": [
        "Fresh",
        "Return"
      ],
      "labels": [
        "Fresh",
        "Return"
      ],
      "clabels": [
        "新风",
        "回风"
      ],
      "relatedKeys": [],
      "valueOptionMap": {}
    },
    "defaultValue": "Fresh"
  }
}
