{
"meta.section.wheelHeatRecycle.Brand": {
    "key": "meta.section.wheelHeatRecycle.Brand",
    "option": {
      "options": [
        "B",
        "C",
        "Z"
      ],
      "labels": [
        "DRI",
        "HeateX",
        "None Wheel HeatRecycle"
      ],
      "clabels": [
        "百瑞",
        "毅科",
        "不安装转轮"
      ]
    },
    "defaultValue": "B"
  },
  "meta.section.wheelHeatRecycle.HeatRecoveryType": {
    "key": "meta.section.wheelHeatRecycle.HeatRecoveryType",
    "option": {
      "options": [
        "2"
      ],
      "labels": [
        "Heat Wheel"
      ],
      "clabels": [
        "热转轮"
      ]
    },
    "defaultValue": "2"
  },
    "meta.section.wheelHeatRecycle.EfficiencyType": {
    "key": "meta.section.wheelHeatRecycle.EfficiencyType",
    "option": {
      "options": [
        "1",
        "2"
      ],
      "labels": [
        "Total (Heating) Capacity",
        "Sensible (Heating) Capacity"
      ],
      "clabels": [
        "全热",
        "显热"
      ]
    },
    "defaultValue": "1"
  },
  "meta.section.wheelHeatRecycle.Model": {
    "key": "meta.section.wheelHeatRecycle.Model",
    "option": {
      "options": [
        "1",
        "2",
        "3"
      ],
      "labels": [
        "Molecular",
        "Silica gel",
        "Pure aluminum"
      ],
      "clabels": [
        "分子筛",
        "硅胶",
        "纯铝"
      ],
      "relatedKeys": [
        "meta.section.wheelHeatRecycle.Brand",
         "meta.section.wheelHeatRecycle.EfficiencyType"
      ],
      "valueOptionMap": {
        "C#1": [
          0,
          1
        ],
        "C#2": [
          2
        ],
        "B#1": [
          0
        ]
      }
    },
    "defaultValue": "1"
  },
  "meta.section.wheelHeatRecycle.WheelDepth": {
    "key": "meta.section.wheelHeatRecycle.WheelDepth",
    "option": {
      "options": [
        "1"
      ],
      "labels": [
        "200"
      ],
      "clabels": [
        "200"
      ]
    },
    "defaultValue": "1"
  }, 
  "meta.section.wheelHeatRecycle.Regions": {
    "key": "meta.section.wheelHeatRecycle.Regions",
    "option": {
      "options": [
        "1",
        "2",
        "3",
        "4",
        "5",
        "6",
        "7",
        "8",
        "9",
        "10",
        "11",
        "12",
        "13",
        "14",
        "15",
        "16"
      ],
      "labels": [
        "India",
        "Singapore",
        "Malaysia",
        "Thailand",
        "Indonesia",
        "Vietnam",
        "Brunei",
        "The Philippines",
        "The Republic of Korea",
        "Taiwan",
        "The United Arab Emirates",
        "New Zealand",
        "Hong Kong",
        "Macao",
        "China",
        "Others"
      ],
      "clabels": [
        "印度",
        "新加坡",
        "马来西亚",
        "泰国",
        "印度尼西亚",
        "越南",
        "文莱",
        "菲律宾",
        "韩国",
        "台湾",
        "阿联酋",
        "新西兰",
        "香港",
        "澳门",
        "中国",
        "其他"
      ],
      "relatedKeys": [
        "meta.section.wheelHeatRecycle.Brand"
      ],
      "valueOptionMap": {
        "C": [
          2,3,4,6,9,10,13,14,15
        ]
      }
    },
    "defaultValue": "15"
  }, 
  "meta.section.wheelHeatRecycle.Installation": {
    "key": "meta.section.wheelHeatRecycle.Installation",
    "option": {
      "options": [
        "1",
        "2",
        "3"
      ],
      "labels": [
        "Supplier install on field",
        "Install by user",
        "Install in factory"
      ],
      "clabels": [
        "部分区域提供现场安装",
        "客户自行安装",
        "工厂安装"
      ],
      "relatedKeys": [
        "meta.ahu.height",
        "meta.section.wheelHeatRecycle.Regions"
      ],
      "valueOptionMap": {
        "\u003e1100#16": [
          1
        ],
        "\u003e1100#!16": [
          0,
          1
        ],
        "\u003c1100#!~": [
          0,
          1,
          2
        ]
      }
    },
    "defaultValue": "1"
  },
  "meta.section.wheelHeatRecycle.BracketM": {
    "key": "meta.section.wheelHeatRecycle.BracketM",
    "option": {
      "options": [
        "2",
        "3",
        "1"
      ],
      "labels": [
        "GI Steel",
        "Stainless Steel",
        "Painted cold rolled steel"
      ],
      "clabels": [
        "镀锌钢板",
        "不锈钢板",
        "冷轧钢板"
      ]
    },
    "defaultValue": "1"
  },
  "meta.section.wheelHeatRecycle.Resistance": {
    "key": "meta.section.wheelHeatRecycle.Resistance",
    "option": {
      "options": [
      ],
      "labels": [
      ],
      "clabels": [
      ],
      "relatedKeys": [],
      "valueOptionMap": {},
      "enableRelatedKeys": [
        "meta.section.wheelHeatRecycle.Brand"
      ],
      "enableValueMap":{
        "Z":null
      }
    },
    "defaultValue": "0"
  }
 
}