{
  "meta.section.filter.filterEfficiency": {
    "key": "meta.section.filter.filterEfficiency",
    "option": {
      "options": [
        "C1",
        "C2",
        "G3",
        "G4",
        "M5",
        "M6",
        "F7",
        "F8",
        "F9",
        "F7G",
        "F8G",
        "F9G",
        "Z1",
        "Z2",
        "GZ",
        "YG",
        "C3",
        "G1"
      ],
      "labels": [
        "C1",
        "C2",
        "G3",
        "G4",
        "M5",
        "M6",
        "F7",
        "F8",
        "F9",
        "F7(Large dust load)",
        "F8(Large dust load)",
        "F9(Large dust load)",
        "Z1",
        "Z2",
        "GZ",
        "YG",
        "C3",
        "G1"
      ],
      "clabels": [
        "C1",
        "C2",
        "G3",
        "G4",
        "M5",
        "M6",
        "F7",
        "F8",
        "F9",
        "F7(高容尘量)",
        "F8(高容尘量)",
        "F9(高容尘量)",
        "Z1",
        "Z2",
        "GZ",
        "YG",
        "C3",
        "G1"
      ],
      "relatedKeys": [
        "meta.section.filter.fitetF",
        "meta.section.filter.fitlerStandard",
        "meta.section.filter.filterOptions",
        "meta.section.filter.mediaLoading"
      ],
      "valueOptionMap": {
        "X#all#nonWoven#!~": [
          1,
          2
        ],
        "X#all#AlMesh#!~": [
          1,
          2
        ],
        "X#all#No#!~": [
        ],
        "X#GB#nonWoven#!~": [
          1
        ],
        "X#GB#AlMesh#!~": [
          16
        ],
        "X#GB#No#!~": [
        ],
        "X#EN#nonWoven#!~": [
          2
        ],
        "X#EN#AlMesh#!~": [
          2
        ],
        "X#EN#No#!~": [
        ],
        "B#GB#nonWoven#!~": [
          1,
          0,
          12,
          13,
          14,
          15
        ],
        "B#all#nonWoven#sideLoading": [
          1,
          0,
          2,
          3,
          4,
          5,
          6,
          7,
          8,
          12,
          13,
          14,
          15
        ],
        "B#all#nonWoven#!sideLoading": [
          1,
          0,
          2,
          3,
          4,
          5,
          6,
          7,
          8,
          9,
          10,
          11,
          12,
          13,
          14,
          15
        ],
        "B#GB#!~#!~":[
          13,
          12,
          1,
          0,
          14,
          15
        ],
        "B#EN#!~#sideLoading":[
        	2,
        	3,
        	4,
        	5,
        	6,
        	7,
        	8
        ],
        "B#EN#!~#!sideLoading":[
        	2,
        	3,
        	4,
        	5,
        	6,
        	7,
        	8,
        	9,
        	10,
        	11
        ],
        "B#all#No": [
        ],
        "B#GB#No": [
        ],
        "B#EN#No": [
        ],
        "P#all#nonWoven": [
          0,
          1,
          2,
          3
        ],
        "P#all#AlMesh": [
          16,
          17
        ],
        "P#all#No": [
        ],
        "P#GB#nonWoven": [
          0,
          1
        ],
        "P#GB#AlMesh": [
          16
        ],
        "P#GB#No": [
        ],
        "P#EN#nonWoven": [
          2,
          3
        ],
        "P#EN#AlMesh": [
          17
        ],
        "P#EN#No": [
        ]
      },
      "enableRelatedKeys": [
        "meta.section.filter.filterOptions"
      ],
      "enableValueMap": {
        "No": null
      }    },
    "defaultValue": ""
  },
  "meta.section.filter.pressureGuage": {
    "key": "meta.section.filter.pressureGuage",
    "option": {
      "options": [
        "pressureDifferenceSwitch",
        "Point Differential Pressure Guage",
        "w/o"
      ],
      "labels": [
        "Pressure Difference Switch",
        "Pointer Pressure Differential Gauge",
        "No Pressure Gauge"
      ],
      "clabels": [
        "压差开关",
        "指针式压差计",
        "无"
      ],
      "relatedKeys": [
      	"meta.section.filter.mediaLoading",
      	"meta.ahu.voltage"
      ],
      "valueOptionMap": {
      	"sideLoading#!~":[
      	  2
      	],
      	"!~#460V-3Ph-50Hz":[
      	  2
      	],
      	"!~#460V-3Ph-60Hz":[
      	  2
      	]
      },
      "enableRelatedKeys": [
        "meta.section.filter.fitetF"
      ],
      "enableValueMap": {
        "X": null
      }
    },
    "defaultValue": "pressureDifferenceSwitch"
  },
  "meta.section.filter.fitetF": {
    "key": "meta.section.filter.fitetF",
    "option": {
      "options": [
        "B",
        "P",
        "X"
      ],
      "labels": [
        "Bag Filter",
        "Panel Filter",
        "External Filter"
      ],
      "clabels": [
        "袋式",
        "板式",
        "外抽"
      ],
      "relatedKeys": [
        "assis.section.position"
      ],
      "valueOptionMap": {
        "1": [
          1,
          2,
          0
        ],
        "\u003c1": [
          1,
          0
        ]

      }
    },
    "defaultValue": ""
  },
  "meta.section.filter.filterOptions": {
    "key": "meta.section.filter.filterOptions",
    "option": {
      "options": [
        "nonWoven",
        "AlMesh",
        "No"
      ],
      "labels": [
        "Non-woven Filter",
        "Al Mesh Filter",
        "No Filter"
      ],
      "clabels": [
        "无纺布过滤器",
        "铝网过滤器",
        "无过滤器"
      ],
      "relatedKeys": [
        "meta.section.filter.fitetF",
        "meta.section.filter.mediaLoading"
      ],
      "valueOptionMap": {
        "B#!~": [
          0,
          2
        ], 
        "!~#sideLoading": [
          0,
          2
        ],
        "P#frontLoading": [
          0,
          1,
          2
        ]
      }
    },
    "defaultValue": "nonWoven"
  },
  "meta.section.filter.fitlerStandard": {
    "key": "meta.section.filter.fitlerStandard",
    "option": {
      "options": [
        "GB",
        "EN",
        "all"
      ],
      "labels": [
        "GB/T14295",
        "EN779",
        "All Types"
      ],
      "clabels": [
        "GB/T14295",
        "EN779",
        "任意选项"
      ],
      "relatedKeys": [],
      "valueOptionMap": {}
    },
    "defaultValue": "GB"
  },
  "meta.section.filter.mediaLoading": {
    "key": "meta.section.filter.mediaLoading",
    "option": {
      "options": [
        "frontLoading",
        "sideLoading"
      ],
      "labels": [
        "Front Loading",
        "Side loading"
      ],
      "clabels": [
        "正面抽",
        "侧抽"
      ],
      "relatedKeys": [
        "assis.section.position",
        "assis.section.ahu.height"
      ],
      "valueOptionMap": {
        "1#!~": [
          1
        ],
        "\u003e1#26": [
          1,
          0
        ],
        "\u003e1#27": [
          1,
          0
        ],
        "\u003e1#\u003c25": [
          1,
          0
        ],
        "\u003e1#\u003e23": [
          0
        ]
      },
      "relationKeys": [
        "pre#filter",
        "pre#combinedFilter",
        "pre#coolingCoil",
        "pre#directExpensionCoil",
        "pre#heatingCoil",
        "pre#steamCoil",
        "pre#electricHeatingCoil",
        "pre#steamHumidifier",
        "pre#wetfilmHumidifier",
        "pre#sprayHumidifier",
        "pre#Fan",
        "pre#attenuator",
        "pre#discharge",
        "pre#HEPAFilter",
        "pre#electrodeHumidifier",
        "pre#electrostaticFilter",
        "pre#ctr"
      ],
      "relationMap": [
        {"true": [
          1
        ]},
        {"true": [
          1
        ]},
        {"true": [
          1
        ]},
        {"true": [
          1
        ]},
        {"true": [
          1
        ]},
        {"true": [
          1
        ]},
        {"true": [
          1
        ]},
        {"true": [
          1
        ]},
        {"true": [
          1
        ]},
        {"true": [
          1
        ]},
        {"true": [
          1
        ]},
        {"true": [
          1
        ]},
        {"true": [
          1
        ]},
        {"true": [
          1
        ]},
        {"true": [
          1
        ]},
        {"true": [
          1
        ]},
        {"true": [
          1
        ]}
      ]
    },
    "defaultValue": "frontLoading"
  },
  "meta.section.filter.rimThickness": {
    "key": "meta.section.filter.rimThickness",
    "option": {
      "options": [
        "1",
        "2"
      ],
      "labels": [
        "50",
        "25"
      ],
      "clabels": [
        "50",
        "25"
      ],
      "relatedKeys": [
        "meta.section.filter.fitetF",
        "meta.section.filter.mediaLoading"
      ],
      "valueOptionMap": {
      	"P#!~":[
      	  0
      	],
      	"X#!~":[
      	  0
      	],
      	"B#sideLoading":[
      	  0
      	],
      	"B#frontLoading":[
      	  0,
      	  1
      	]
      },
      "enableRelatedKeys": [],
      "enableValueMap": {}
    },
    "defaultValue": "1"
  },
  "meta.section.filter.supportMeterial": {
    "key": "meta.section.filter.supportMeterial",
    "option": {
      "options": [
        "GS",
        "SS",
        "PS"
      ],
      "labels": [
        "G.l Steel",
        "Stainless steel",
        "Painted Cold Rolled Steel"
      ],
      "clabels": [
        "镀锌钢板",
        "不锈钢板",
        "冷轧烘漆"
      ],
      "relatedKeys": [
        "meta.section.filter.mediaLoading"
      ],
      "valueOptionMap": {
        "frontLoading": [
          0,
          1,
          2
        ],
        "sideLoading": [
          0,
          1
        ]
      }
    },
    "defaultValue": "GISteel"
  },
  "meta.section.filter.BaffleM": {
    "key": "meta.section.filter.BaffleM",
    "option": {
      "options": [
        "GS",
        "SS",
        "PS"
      ],
      "labels": [
        "G.l Steel",
        "Stainless steel",
        "Painted Cold Rolled Steel"
      ],
      "clabels": [
        "镀锌钢板",
        "不锈钢板",
        "冷轧烘漆"
      ],
      "relatedKeys": [
      	"meta.section.filter.mediaLoading"
      ],
      "valueOptionMap": {
      	"sideLoading":[
      		0,
      		1
      	],
      	"!sideLoading":[
      		0,
      		1,
      		2
      	]
      }
    },
    "defaultValue": "GS"
  },
  "meta.section.filter.spareFilter": {
    "key": "meta.section.filter.spareFilter",
    "option": {
      "options": [
        "0",
        "1"
      ],
      "labels": [
        "No Spare Filter",
        "Spare Filter"
      ],
      "clabels": [
        "无备用过滤器",
        "有备用过滤器"
      ]
    },
    "defaultValue": "0"
  },
  "meta.section.filter.sectionL": {
    "key": "meta.section.filter.sectionL",
    "option": {
      "options": [
        "0",
        "3",
        "4",
        "5",
        "6",
        "8",
        "9"
       
      ],
      "labels": [
        "0",
        "3",
        "4",
        "5",
        "6",
        "8",
        "9"
        
      ],
      "clabels": [
        "0",
        "3",
        "4",
        "5",
        "6",
        "8",
        "9"
        
      ],
       "relatedKeys": [
        "assis.section.position",
        "meta.section.filter.fitetF",
        "meta.section.filter.mediaLoading",
        "meta.section.filter.filterEfficiency",
        "meta.section.filter.filterOptions"
      ],
      "valueOptionMap": {
      
       "1#P#sideLoading#!~#!~": [
          3
        ],
        "\u003e1#P#sideLoading#!~#!~": [
          2
        ],
        "!~#P#frontLoading#!~#!~": [
          0
        ],
        "!~#X#!~#!~#!~": [
          0
        ],
      	"!~#B#!~#!~#No": [
          2
        ],
        "1#B#sideLoading#!~#!No": [
          6
        ],
        "\u003e1#B#sideLoading#!~#!No": [
          5
        ],
        "!~#B#frontLoading#G3#!No": [
          2,
          1,
          4
        ],
        "!~#B#frontLoading#G4#!No": [
          2,
          1,
          4
        ],
        "!~#B#frontLoading#M5#!No": [
          2,
          1,
          4
        ],
        "!~#B#frontLoading#M6#!No": [
          2,
          1,
          4
        ],
        "!~#B#frontLoading#Z2#!No": [
          2,
          1,
          4
        ],
        "!~#B#frontLoading#Z1#!No": [
          2,
          1,
          4
        ],
        "!~#B#frontLoading#C2#!No": [
          2,
          1,
          4
        ],
        "!~#B#frontLoading#C1#!No": [
          2,
          1,
          4
        ],
        "!~#B#frontLoading#GZ#!No": [
          2,
          1,
          4
        ],
        "!~#B#frontLoading#F7#!No": [
          4
        ],
        "!~#B#frontLoading#F8#!No": [
          4
        ],
        "!~#B#frontLoading#F9#!No": [
          4
        ],
        "!~#B#frontLoading#F7G#!No": [
          4
        ],
        "!~#B#frontLoading#F8G#!No": [
          4
        ],
        "!~#B#frontLoading#F9G#!No": [
          4
        ],
        "!~#B#frontLoading#YG#!No": [
          4
        ]
      }
    },
    "defaultValue": "0",
    "defaultValueMap": {
     	"\u003e1#B#frontLoading#G3":"4",
     	"\u003e1#B#frontLoading#G4":"4",
     	"\u003e1#B#frontLoading#M5":"4",
     	"\u003e1#B#frontLoading#M6":"4",
     	"\u003e1#B#frontLoading#Z1":"4",
     	"\u003e1#B#frontLoading#Z2":"4",
     	"\u003e1#B#frontLoading#GZ":"4"
    }
  },
  "meta.section.filter.nsPressureGuage": {
    "key": "meta.section.filter.nsPressureGuage",
    "option": {
      "options": [],
      "labels": [],
      "clabels": [],
      "relatedKeys": [],
      "valueOptionMap": {},
      "enableRelatedKeys": [
        "meta.section.filter.pressureGuage"
      ],
      "enableValueMap": {
        "w/o": null
      }
    },
    "defaultValue": false
  },
  "meta.section.filter.nsPressureGuageModel": {
    "key": "meta.section.filter.nsPressureGuageModel",
    "option": {
      "options": [
        "a"
      ],
      "labels": [
        "Dwyer pointer type pressure meter"
      ],
      "clabels": [
        "Dwyer指针式压差计"
      ],
      "relatedKeys": [],
      "valueOptionMap": {}
    },
    "defaultValue": "a"
  }
}