{
    "direction":2,
    "subPanels":[
        {
            "direction":0,
            "panelType":"0",
            "panelWidth":9,
            "panelLength":2,
            "id": "ManualID_0",
            "panelConnector":"",
            "subPanelIndex":1,
            "frameLine":{
                "type":0
            }
        },
        {
            "direction":1,
            "panelType":"0",
            "panelWidth":9,
            "panelLength":10,
            "id": "ManualID_1",
            "panelConnector":"",
            "subPanelIndex":2,
            "frameLine":{
                "type":0,
                "lineConnector":"",
                "lineLength":10
            },
            "subPanels":[
                {
                    "direction":0,
                    "panelType":"4",
                    "panelWidth":5,
                    "panelLength":10,
                    "id": "ManualID_1_0",
                    "panelConnector":"",
                    "subPanelIndex":2,
                    "frameLine":{
                        "type":0
                    }
                },
                {
                    "direction":0,
                    "panelType":"0",
                    "panelWidth":4,
                    "panelLength":10,
                    "id": "ManualID_1_1",
                    "panelConnector":"",
                    "subPanelIndex":3,
                    "frameLine":{
                        "type":0
                    }
                }
            ]
        }
    ],
    "panelWidth":9,
    "panelLength":12,
    "id": "ManualID",
    "panelType":"0",
    "cutDirection":"horizontal",
    "frameLine":{
        "type":0,
        "lineConnector":"",
        "lineLength":9
    },
    "memo":"",
    "panelConnector":"",
    "subPanelIndex":1
}