{
    "direction":2,
    "subPanels":[
        {
            "direction":0,
            "panelType":"0",
            "panelWidth":18,
            "panelLength":2,
            "id": "ManualID_0",
            "panelConnector":"",
            "subPanelIndex":1,
            "frameLine":{
                "type":0
            }
        },
        {
            "direction":1,
            "panelType":"0",
            "panelWidth":18,
            "panelLength":20,
            "id": "ManualID_1",
            "panelConnector":"",
            "subPanelIndex":2,
            "frameLine":{
                "type":"1",
                "lineConnector":"",
                "lineLength":20
            },
            "subPanels":[
                {
                    "direction":0,
                    "panelType":"4",
                    "panelWidth":9,
                    "panelLength":20,
                    "id": "ManualID_1_0",
                    "panelConnector":"",
                    "subPanelIndex":2,
                    "frameLine":{
                        "type":0
                    }
                },
                {
                    "direction":2,
                    "panelType":"0",
                    "panelWidth":9,
                    "panelLength":20,
                    "id": "ManualID_1_1",
                    "panelConnector":"",
                    "subPanelIndex":3,
                    "frameLine":{
                        "type":0,
                        "lineConnector":"",
                        "lineLength":9
                    },
                    "subPanels":[
                        {
                            "direction":0,
                            "panelType":"0",
                            "panelWidth":9,
                            "panelLength":8,
                            "id": "ManualID_1_1_0",
                            "panelConnector":"",
                            "subPanelIndex":3,
                            "frameLine":{
                                "type":0
                            }
                        },
                        {
                            "direction":0,
                            "panelType":"0",
                            "panelWidth":9,
                            "panelLength":12,
                            "id": "ManualID_1_1_1",
                            "panelConnector":"",
                            "subPanelIndex":4,
                            "frameLine":{
                                "type":0
                            }
                        }
                    ]
                }
            ]
        }
    ],
    "panelWidth":18,
    "panelLength":22,
    "id": "ManualID",
    "panelType":"0",
    "cutDirection":"horizontal",
    "frameLine":{
        "type":0,
        "lineConnector":"",
        "lineLength":18
    },
    "memo":"",
    "panelConnector":"",
    "subPanelIndex":1
}