{
    "direction":1,
    "subPanels":[
        {
            "direction":2,
            "panelType":"0",
            "panelWidth":12,
            "panelLength":32,
            "id": "ManualID_0",
            "panelConnector":"",
            "subPanelIndex":1,
            "frameLine":{
                "type":0,
                "lineConnector":"",
                "lineLength":12
            },
            "subPanels":[
                {
                    "direction":0,
                    "panelType":"0",
                    "panelWidth":12,
                    "panelLength":2,
                    "id": "ManualID_0_0",
                    "panelConnector":"",
                    "subPanelIndex":1,
                    "frameLine":{
                        "type":0
                    }
                },
                {
                    "direction":2,
                    "panelType":"0",
                    "panelWidth":12,
                    "panelLength":30,
                    "id": "ManualID_0_1",
                    "panelConnector":"",
                    "subPanelIndex":2,
                    "frameLine":{
                        "type":0,
                        "lineConnector":"",
                        "lineLength":12
                    },
                    "subPanels":[
                        {
                            "direction":0,
                            "panelType":"4",
                            "panelWidth":12,
                            "panelLength":28,
                            "id": "ManualID_0_1_0",
                            "panelConnector":"",
                            "subPanelIndex":2,
                            "frameLine":{
                                "type":0
                            }
                        },
                        {
                            "direction":0,
                            "panelType":"0",
                            "panelWidth":12,
                            "panelLength":2,
                            "id": "ManualID_0_1_1",
                            "panelConnector":"",
                            "subPanelIndex":3,
                            "frameLine":{
                                "type":0
                            }
                        }
                    ]
                }
            ]
        },
        {
            "direction":2,
            "panelType":"0",
            "panelWidth":13,
            "panelLength":32,
            "id": "ManualID_1",
            "panelConnector":"",
            "subPanelIndex":4,
            "frameLine":{
                "type":0,
                "lineConnector":"",
                "lineLength":13
            },
            "subPanels":[
                {
                    "direction":0,
                    "panelType":"0",
                    "panelWidth":13,
                    "panelLength":8,
                    "id": "ManualID_1_0",
                    "panelConnector":"",
                    "subPanelIndex":4,
                    "frameLine":{
                        "type":0
                    }
                },
                {
                    "direction":2,
                    "panelType":"0",
                    "panelWidth":13,
                    "panelLength":24,
                    "id": "ManualID_1_1",
                    "panelConnector":"",
                    "subPanelIndex":5,
                    "frameLine":{
                        "type":0,
                        "lineConnector":"",
                        "lineLength":13
                    },
                    "subPanels":[
                        {
                            "direction":0,
                            "panelType":"0",
                            "panelWidth":13,
                            "panelLength":8,
                            "id": "ManualID_1_1_0",
                            "panelConnector":"",
                            "subPanelIndex":5,
                            "frameLine":{
                                "type":0
                            }
                        },
                        {
                            "direction":2,
                            "panelType":"0",
                            "panelWidth":13,
                            "panelLength":16,
                            "id": "ManualID_1_1_1",
                            "panelConnector":"",
                            "subPanelIndex":6,
                            "frameLine":{
                                "type":0,
                                "lineConnector":"",
                                "lineLength":13
                            },
                            "subPanels":[
                                {
                                    "direction":0,
                                    "panelType":"0",
                                    "panelWidth":13,
                                    "panelLength":8,
                                    "id": "ManualID_1_1_1_0",
                                    "panelConnector":"",
                                    "subPanelIndex":6,
                                    "frameLine":{
                                        "type":0
                                    }
                                },
                                {
                                    "direction":0,
                                    "panelType":"0",
                                    "panelWidth":13,
                                    "panelLength":8,
                                    "id": "ManualID_1_1_1_1",
                                    "panelConnector":"",
                                    "subPanelIndex":7,
                                    "frameLine":{
                                        "type":0
                                    }
                                }
                            ]
                        }
                    ]
                }
            ]
        }
    ],
    "panelWidth":25,
    "panelLength":32,
    "id": "ManualID",
    "panelType":"0",
    "cutDirection":"horizontal",
    "frameLine":{
        "type":0,
        "lineConnector":"",
        "lineLength":32
    },
    "memo":"",
    "panelConnector":"",
    "subPanelIndex":1
}