unitModel,tId,cirNo,tLen,tNo,row,circuit,waterFlowRate
39CQ0608,41,6,615,12,1,HF,1
39CQ0609,41,7,715,14,1,HF,1
39CQ4750,41,20,2253,20,6,FL,0.06579
39CQ4750,41,20,2253,20,6,FL,0.06579
39CQ4750,41,20,2253,20,6,FL,0.06579
39CQ4750,41,20,2253,20,6,FL,0.06579
39CQ0711,41,8,903,16,1,HF,1
39CQ0811,41,10,903,20,1,HF,1
39CQ0912,41,11,988,22,1,HF,1
39CQ0913,41,11,1088,22,1,HF,1
39CQ0914,41,11,1188,22,1,HF,1
39CQ1015,41,13,1288,26,1,HF,1
39CQ1117,41,14,1474,28,1,HF,1
39CQ1317,41,18,1474,36,1,HF,1
39CQ1418,41,19,1574,38,1,HF,1
39CQ1420,41,19,1774,38,1,HF,1
39CQ1621,41,22,1874,44,1,HF,1
39CQ1822,41,26,1974,52,1,HF,1
39CQ1825,41,26,2274,52,1,HF,1
39CQ2025,41,12,2274,24,1,HF,0.43
39CQ2025,41,16,2274,32,1,HF,0.57
39CQ2125,41,12,2274,24,1,HF,0.4
39CQ2125,41,18,2274,36,1,HF,0.6
39CQ2226,41,12,2374,24,1,HF,0.38
39CQ2226,41,20,2374,40,1,HF,0.63
39CQ2333,41,12,3074,24,1,HF,0.36
39CQ2333,41,21,3074,42,1,HF,0.64
39CQ0608,41,6,615,12,2,HF,1
39CQ0609,41,7,715,14,2,HF,1
39CQ0711,41,8,903,16,2,HF,1
39CQ0811,41,10,903,20,2,HF,1
39CQ0912,41,11,988,22,2,HF,1
39CQ0913,41,11,1088,22,2,HF,1
39CQ0914,41,11,1188,22,2,HF,1
39CQ1015,41,13,1288,26,2,HF,1
39CQ1117,41,14,1474,28,2,HF,1
39CQ1317,41,18,1474,36,2,HF,1
39CQ1418,41,19,1574,38,2,HF,1
39CQ1420,41,19,1774,38,2,HF,1
39CQ1621,41,22,1874,44,2,HF,1
39CQ1822,41,26,1974,52,2,HF,1
39CQ1825,41,26,2274,52,2,HF,1
39CQ2025,41,12,2274,24,2,HF,0.43
39CQ2025,41,16,2274,32,2,HF,0.57
39CQ2125,41,12,2274,24,2,HF,0.4
39CQ2125,41,18,2274,36,2,HF,0.6
39CQ2226,41,12,2374,24,2,HF,0.38
39CQ2226,41,20,2374,40,2,HF,0.63
39CQ2328,41,12,2574,24,2,HF,0.36
39CQ2328,41,21,2574,42,2,HF,0.64
39CQ2333,41,12,3074,24,2,HF,0.36
39CQ2333,41,21,3074,42,2,HF,0.64
39CQ0608,41,12,615,12,2,FL,1
39CQ0609,41,14,715,14,2,FL,1
39CQ0711,41,16,903,16,2,FL,1
39CQ0811,41,20,903,20,2,FL,1
39CQ0912,41,22,988,22,2,FL,1
39CQ0913,41,22,1088,22,2,FL,1
39CQ0914,41,22,1188,22,2,FL,1
39CQ1015,41,26,1288,26,2,FL,1
39CQ1117,41,28,1474,28,2,FL,1
39CQ1317,41,36,1474,36,2,FL,1
39CQ1418,41,38,1574,38,2,FL,1
39CQ1420,41,38,1774,38,2,FL,1
39CQ1621,41,44,1874,44,2,FL,1
39CQ1822,41,52,1974,52,2,FL,1
39CQ1825,41,52,2274,52,2,FL,1
39CQ2025,41,24,2274,24,2,FL,0.43
39CQ2025,41,32,2274,32,2,FL,0.57
39CQ2125,41,24,2274,24,2,FL,0.4
39CQ2125,41,36,2274,36,2,FL,0.6
39CQ2226,41,24,2374,24,2,FL,0.38
39CQ2226,41,40,2374,40,2,FL,0.63
39CQ2328,41,24,2574,24,2,FL,0.36
39CQ2328,41,42,2574,42,2,FL,0.64
39CQ2333,41,24,3074,24,2,FL,0.36
39CQ2333,41,42,3074,42,2,FL,0.64
39CQ0608,41,6,615,12,4,HF,1
39CQ0609,41,7,715,14,4,HF,1
39CQ0608,41,12,615,12,4,FL,1
39CQ0609,41,14,715,14,4,FL,1
39CQ0608,41,6,615,12,6,HF,1
39CQ0609,41,7,715,14,6,HF,1
39CQ0608,41,12,615,12,6,FL,1
39CQ0609,41,14,715,14,6,FL,1
39CQ0608,41,18,615,12,6,DB,1
39CQ0609,41,21,715,14,6,DB,1
39CQ0608,41,6,615,12,8,HF,1
39CQ0609,41,7,715,14,8,HF,1
39CQ0608,41,12,615,12,8,FL,1
39CQ0609,41,14,715,14,8,FL,1
39CQ0608,41,24,615,12,8,DB,1
39CQ0609,41,28,715,14,8,DB,1
39CQ0608,41,6,615,12,10,HF,1
39CQ0609,41,7,715,14,10,HF,1
39CQ0608,41,12,615,12,10,FL,1
39CQ0609,41,14,715,14,10,FL,1
39CQ0608,41,24,615,12,10,DB,1
39CQ0609,41,28,715,14,10,DB,1
39CQ0608,41,6,615,12,12,HF,1
39CQ0609,41,7,715,14,12,HF,1
39CQ0608,41,12,615,12,12,FL,1
39CQ0609,41,14,715,14,12,FL,1
39CQ0608,41,24,615,12,12,DB,1
39CQ0609,41,28,715,14,12,DB,1
39CQ2532,41,34,2883,34,2,FL,0.5
39CQ2532,41,34,2883,34,2,FL,0.5
39CQ2832,41,34,2883,34,2,FL,0.44
39CQ2832,41,44,2883,44,2,FL,0.56
39CQ2832,41,20,2883,20,4,FL,0.2
39CQ2832,41,20,2883,20,6,FL,0.2
39CQ2832,41,20,2883,20,8,FL,0.2
39CQ2832,41,30,2883,20,6,DB,0.2
39CQ2832,41,40,2883,20,8,DB,0.2
39CQ3132,41,44,2883,44,2,FL,0.5
39CQ3132,41,44,2883,44,2,FL,0.5
39CQ3132,41,20,2883,20,4,FL,0.185
39CQ3132,41,20,2883,20,6,FL,0.185
39CQ3132,41,20,2883,20,8,FL,0.185
39CQ3132,41,30,2883,20,6,DB,0.185
39CQ3132,41,40,2883,20,8,DB,0.185
39CQ3438,41,24,1623,24,2,FL,0.13
39CQ3438,41,24,1623,24,2,FL,0.13
39CQ3438,41,34,1623,34,2,FL,0.185
39CQ3438,41,34,1623,34,2,FL,0.185
39CQ3438,41,34,1623,34,2,FL,0.185
39CQ3438,41,34,1623,34,2,FL,0.185
39CQ3438,41,20,1623,20,4,FL,0.08475
39CQ3438,41,20,1623,20,4,FL,0.08475
39CQ3438,41,20,1623,20,4,FL,0.08475
39CQ3438,41,20,1623,20,4,FL,0.08475
39CQ3438,41,20,1623,20,8,FL,0.08475
39CQ3438,41,20,1623,20,8,FL,0.08475
39CQ3438,41,20,1623,20,8,FL,0.08475
39CQ3438,41,20,1623,20,8,FL,0.08475
39CQ3438,41,30,1623,20,6,DB,0.08475
39CQ3438,41,30,1623,20,6,DB,0.08475
39CQ3438,41,30,1623,20,6,DB,0.08475
39CQ3438,41,30,1623,20,6,DB,0.08475
39CQ3438,41,40,1623,20,8,DB,0.08475
39CQ3438,41,40,1623,20,8,DB,0.08475
39CQ3438,41,40,1623,20,8,DB,0.08475
39CQ3438,41,40,1623,20,8,DB,0.08475
39CQ3438,41,20,1623,20,6,FL,0.08475
39CQ3438,41,20,1623,20,6,FL,0.08475
39CQ3438,41,20,1623,20,6,FL,0.08475
39CQ3438,41,20,1623,20,6,FL,0.08475
39CQ3841,41,34,1623,34,2,FL,0.15192
39CQ3841,41,34,1623,34,2,FL,0.15192
39CQ3841,41,34,1623,34,2,FL,0.15192
39CQ3841,41,34,1938,34,2,FL,0.18141
39CQ3841,41,34,1938,34,2,FL,0.18141
39CQ3841,41,34,1938,34,2,FL,0.18141
39CQ3841,41,20,1623,20,4,FL,0.07121
39CQ3841,41,20,1623,20,4,FL,0.07121
39CQ3841,41,20,1938,20,4,FL,0.08504
39CQ3841,41,20,1938,20,4,FL,0.08504
39CQ3841,41,20,1623,20,6,FL,0.07121
39CQ3841,41,20,1623,20,6,FL,0.07121
39CQ3841,41,20,1938,20,6,FL,0.08504
39CQ3841,41,20,1938,20,6,FL,0.08504
39CQ3841,41,20,1623,20,8,FL,0.07121
39CQ3841,41,20,1623,20,8,FL,0.07121
39CQ3841,41,20,1938,20,8,FL,0.08504
39CQ3841,41,20,1938,20,8,FL,0.08504
39CQ3841,41,30,1623,20,6,DB,0.07121
39CQ3841,41,30,1623,20,6,DB,0.07121
39CQ3841,41,30,1938,20,6,DB,0.08504
39CQ3841,41,30,1938,20,6,DB,0.08504
39CQ3841,41,40,1623,20,8,DB,0.07121
39CQ3841,41,40,1623,20,8,DB,0.07121
39CQ3841,41,40,1938,20,8,DB,0.08504
39CQ3841,41,40,1938,20,8,DB,0.08504
39CQ4444,41,34,1938,34,2,FL,0.13934
39CQ4444,41,34,1938,34,2,FL,0.13934
39CQ4444,41,44,1938,44,2,FL,0.18033
39CQ4444,41,44,1938,44,2,FL,0.18033
39CQ4444,41,44,1938,44,2,FL,0.18033
39CQ4444,41,44,1938,44,2,FL,0.18033
39CQ4750,41,20,2253,20,8,FL,0.06579
39CQ4750,41,20,2253,20,8,FL,0.06579
39CQ4750,41,20,2253,20,8,FL,0.06579
39CQ4750,41,20,2253,20,8,FL,0.06579
39CQ4750,41,40,2253,20,8,DB,0.06579
39CQ4750,41,40,2253,20,8,DB,0.06579
39CQ4750,41,40,2253,20,8,DB,0.06579
39CQ4750,41,40,2253,20,8,DB,0.06579
39CQ4750,41,20,2253,20,4,FL,0.06579
39CQ4750,41,20,2253,20,4,FL,0.06579
39CQ4750,41,20,2253,20,4,FL,0.06579
39CQ4750,41,20,2253,20,4,FL,0.06579
39CQ4750,41,30,2253,20,6,DB,0.06579
39CQ4750,41,30,2253,20,6,DB,0.06579
39CQ4750,41,30,2253,20,6,DB,0.06579
39CQ4750,41,30,2253,20,6,DB,0.06579
39CQ2330,41,12,2774,24,1,HF,0.36
39CQ2330,41,21,2774,42,1,HF,0.64
39CQ2330,41,12,2774,24,2,HF,0.36
39CQ2330,41,21,2774,42,2,HF,0.64
39CQ2330,41,24,2774,24,2,FL,0.36
39CQ2330,41,42,2774,42,2,FL,0.64
39CQ0608,41,6,615,12,3,HF,1
39CQ0609,41,7,715,14,3,HF,1
39CQ0608,41,12,615,12,3,FL,1
39CQ0609,41,14,715,14,3,FL,1
39CQ0608,41,7,615,12,5,HF,1
39CQ0609,41,8,715,14,5,HF,1
39CQ4444,41,20,1938,20,4,FL,0.07042
39CQ4444,41,20,1938,20,4,FL,0.07042
39CQ0608,41,12,615,12,5,FL,1
39CQ0609,41,14,715,14,5,FL,1
39CQ4444,41,20,1938,20,8,FL,0.07042
39CQ4444,41,20,1938,20,8,FL,0.07042
39CQ0608,41,15,615,12,5,DB,1
39CQ0609,41,17,715,14,5,DB,1
39CQ4444,41,30,1938,20,6,DB,0.07042
39CQ4444,41,30,1938,20,6,DB,0.07042
39CQ4444,41,20,1938,20,6,FL,0.07042
39CQ4444,41,20,1938,20,6,FL,0.07042
39CQ4444,41,40,1938,20,8,DB,0.07042
39CQ4444,41,40,1938,20,8,DB,0.07042
39CQ0608,41,6,615,12,7,HF,1
39CQ0609,41,7,715,14,7,HF,1
39CQ0608,41,12,615,12,7,FL,1
39CQ0609,41,14,715,14,7,FL,1
39CQ0608,41,21,615,12,7,DB,1
39CQ0609,41,24,715,14,7,DB,1
39CQ4750,41,44,2253,44,2,FL,0.16667
39CQ4750,41,44,2253,44,2,FL,0.16667
39CQ4750,41,44,2253,44,2,FL,0.16667
39CQ4750,41,44,2253,44,2,FL,0.16667
39CQ4750,41,44,2253,44,2,FL,0.16667
39CQ4750,41,44,2253,44,2,FL,0.16667
39CQ0711,53,16,903,16,10,FL,1
39CQ0811,53,20,903,20,10,FL,1
39CQ0711,53,32,903,16,10,DB,1
39CQ0811,53,40,903,20,10,DB,1
39CQ0711,53,8,903,16,12,HF,1
39CQ0811,53,10,903,20,12,HF,1
39CQ0711,53,16,903,16,12,FL,1
39CQ0811,53,20,903,20,12,FL,1
39CQ0711,53,32,903,16,12,DB,1
39CQ0711,53,16,903,16,6,FL,1
39CQ0811,53,20,903,20,6,FL,1
39CQ0711,53,24,903,16,6,DB,1
39CQ0811,53,30,903,20,6,DB,1
39CQ0711,53,8,903,16,8,HF,1
39CQ0811,53,10,903,20,8,HF,1
39CQ0711,53,16,903,16,8,FL,1
39CQ0811,53,20,903,20,8,FL,1
39CQ0711,53,32,903,16,8,DB,1
39CQ0811,53,40,903,20,8,DB,1
39CQ0811,53,40,903,20,12,DB,1
39CQ0711,53,8,903,16,3,HF,1
39CQ0811,53,10,903,20,3,HF,1
39CQ0711,53,16,903,16,3,FL,1
39CQ0811,53,20,903,20,3,FL,1
39CQ0711,53,8,903,16,5,HF,1
39CQ0811,53,11,903,20,5,HF,1
39CQ0711,53,16,903,16,5,FL,1
39CQ0811,53,20,903,20,5,FL,1
39CQ0711,53,20,903,16,5,DB,1
39CQ0811,53,25,903,20,5,DB,1
39CQ0711,53,8,903,16,7,HF,1
39CQ0811,53,10,903,20,7,HF,1
39CQ0711,53,16,903,16,7,FL,1
39CQ0811,53,20,903,20,7,FL,1
39CQ0711,53,28,903,16,7,DB,1
39CQ0811,53,35,903,20,7,DB,1
39CQ0711,53,8,903,16,4,HF,1
39CQ0811,53,10,903,20,4,HF,1
39CQ0711,53,16,903,16,4,FL,1
39CQ0811,53,20,903,20,4,FL,1
39CQ0711,53,8,903,16,6,HF,1
39CQ0811,53,10,903,20,6,HF,1
39CQ0711,53,8,903,16,10,HF,1
39CQ0811,53,10,903,20,10,HF,1
39CQ3438,53,34,1623,34,4,FL,0.14407
39CQ3438,53,34,1623,34,4,FL,0.14407
39CQ3438,53,34,1623,34,8,FL,0.14407
39CQ3438,53,34,1623,34,8,FL,0.14407
39CQ3438,53,51,1623,34,6,DB,0.14407
39CQ3438,53,51,1623,34,6,DB,0.14407
39CQ3438,53,68,1623,34,8,DB,0.14407
39CQ3438,53,68,1623,34,8,DB,0.14407
39CQ3438,53,34,1623,34,6,FL,0.14407
39CQ3438,53,34,1623,34,6,FL,0.14407
39CQ3438,53,34,1623,34,7,FL,0.14407
39CQ3438,53,34,1623,34,7,FL,0.14407
39CQ1015,68,13,1288,26,3,HF,1
39CQ0912,68,22,988,22,3,FL,1
39CQ0913,68,22,1088,22,3,FL,1
39CQ0914,68,22,1188,22,3,FL,1
39CQ1015,68,26,1288,26,3,FL,1
39CQ0912,68,12,988,22,5,HF,1
39CQ0913,68,12,1088,22,5,HF,1
39CQ0914,68,12,1188,22,5,HF,1
39CQ1015,68,14,1288,26,5,HF,1
39CQ0912,68,22,988,22,5,FL,1
39CQ0913,68,22,1088,22,5,FL,1
39CQ0914,68,22,1188,22,5,FL,1
39CQ1015,68,26,1288,26,5,FL,1
39CQ0912,68,27,988,22,5,DB,1
39CQ0913,68,27,1088,22,5,DB,1
39CQ0914,68,27,1188,22,5,DB,1
39CQ1015,68,32,1288,26,5,DB,1
39CQ0912,68,11,988,22,7,HF,1
39CQ0913,68,11,1088,22,7,HF,1
39CQ0914,68,11,1188,22,7,HF,1
39CQ1015,68,13,1288,26,7,HF,1
39CQ0912,68,22,988,22,7,FL,1
39CQ0913,68,22,1088,22,7,FL,1
39CQ0914,68,22,1188,22,7,FL,1
39CQ1015,68,26,1288,26,7,FL,1
39CQ0912,68,38,988,22,7,DB,1
39CQ0913,68,38,1088,22,7,DB,1
39CQ0914,68,38,1188,22,7,DB,1
39CQ1015,68,45,1288,26,7,DB,1
39CQ0912,65,11,988,22,4,HF,1
39CQ0913,65,11,1088,22,4,HF,1
39CQ0914,65,11,1188,22,4,HF,1
39CQ1015,65,13,1288,26,4,HF,1
39CQ0912,65,22,988,22,4,FL,1
39CQ0913,65,22,1088,22,4,FL,1
39CQ0914,65,22,1188,22,4,FL,1
39CQ1015,65,26,1288,26,4,FL,1
39CQ0912,65,11,988,22,6,HF,1
39CQ0913,65,11,1088,22,6,HF,1
39CQ0914,65,11,1188,22,6,HF,1
39CQ1015,65,13,1288,26,6,HF,1
39CQ0912,65,22,988,22,6,FL,1
39CQ0913,65,22,1088,22,6,FL,1
39CQ0914,65,22,1188,22,6,FL,1
39CQ1015,65,26,1288,26,6,FL,1
39CQ0912,65,33,988,22,6,DB,1
39CQ0913,65,33,1088,22,6,DB,1
39CQ0914,65,33,1188,22,6,DB,1
39CQ1015,65,39,1288,26,6,DB,1
39CQ0912,65,11,988,22,8,HF,1
39CQ0913,65,11,1088,22,8,HF,1
39CQ0914,65,11,1188,22,8,HF,1
39CQ1015,65,13,1288,26,8,HF,1
39CQ0912,65,22,988,22,8,FL,1
39CQ0913,65,22,1088,22,8,FL,1
39CQ0914,65,22,1188,22,8,FL,1
39CQ1015,65,26,1288,26,8,FL,1
39CQ0912,65,44,988,22,8,DB,1
39CQ0913,65,44,1088,22,8,DB,1
39CQ0914,65,44,1188,22,8,DB,1
39CQ1015,65,52,1288,26,8,DB,1
39CQ0912,65,11,988,22,10,HF,1
39CQ0913,65,11,1088,22,10,HF,1
39CQ0914,65,11,1188,22,10,HF,1
39CQ1015,65,13,1288,26,10,HF,1
39CQ0912,65,22,988,22,10,FL,1
39CQ0913,65,22,1088,22,10,FL,1
39CQ0914,65,22,1188,22,10,FL,1
39CQ1015,65,26,1288,26,10,FL,1
39CQ0912,65,44,988,22,10,DB,1
39CQ0913,65,44,1088,22,10,DB,1
39CQ0914,65,44,1188,22,10,DB,1
39CQ1015,65,52,1288,26,10,DB,1
39CQ0912,65,11,988,22,12,HF,1
39CQ0913,65,11,1088,22,12,HF,1
39CQ0914,65,11,1188,22,12,HF,1
39CQ1015,65,13,1288,26,12,HF,1
39CQ0912,65,22,988,22,12,FL,1
39CQ0913,65,22,1088,22,12,FL,1
39CQ0914,65,22,1188,22,12,FL,1
39CQ1015,65,26,1288,26,12,FL,1
39CQ0912,65,44,988,22,12,DB,1
39CQ0913,65,44,1088,22,12,DB,1
39CQ0914,65,44,1188,22,12,DB,1
39CQ1015,65,52,1288,26,12,DB,1
39CQ0912,68,11,988,22,3,HF,1
39CQ0913,68,11,1088,22,3,HF,1
39CQ0914,68,11,1188,22,3,HF,1
39CQ2328,81,12,2574,24,1,HF,0.36
39CQ2328,81,21,2574,42,1,HF,0.64
39CQ1117,81,14,1474,28,4,HF,1
39CQ1317,81,18,1474,36,4,HF,1
39CQ1418,81,19,1574,38,4,HF,1
39CQ1420,81,19,1774,38,4,HF,1
39CQ1621,81,22,1874,44,4,HF,1
39CQ1822,81,26,1974,52,4,HF,1
39CQ1825,81,26,2274,52,4,HF,1
39CQ2025,81,12,2274,24,4,HF,0.43
39CQ2025,81,16,2274,32,4,HF,0.57
39CQ2125,81,12,2274,24,4,HF,0.4
39CQ2125,81,18,2274,36,4,HF,0.6
39CQ2226,81,12,2374,24,4,HF,0.38
39CQ2226,81,20,2374,40,4,HF,0.63
39CQ2328,81,12,2574,24,4,HF,0.36
39CQ2328,81,21,2574,42,4,HF,0.64
39CQ2333,81,12,3074,24,4,HF,0.36
39CQ2333,81,21,3074,42,4,HF,0.64
39CQ1117,81,28,1474,28,4,FL,1
39CQ1317,81,36,1474,36,4,FL,1
39CQ1418,81,38,1574,38,4,FL,1
39CQ1420,81,38,1774,38,4,FL,1
39CQ1621,81,44,1874,44,4,FL,1
39CQ1822,81,52,1974,52,4,FL,1
39CQ1825,81,52,2274,52,4,FL,1
39CQ2025,81,24,2274,24,4,FL,0.43
39CQ2025,81,32,2274,32,4,FL,0.57
39CQ2125,81,24,2274,24,4,FL,0.4
39CQ2125,81,36,2274,36,4,FL,0.6
39CQ2226,81,24,2374,24,4,FL,0.38
39CQ2226,81,40,2374,40,4,FL,0.63
39CQ2328,81,24,2574,24,4,FL,0.36
39CQ2328,81,42,2574,42,4,FL,0.64
39CQ2333,81,24,3074,24,4,FL,0.36
39CQ2333,81,42,3074,42,4,FL,0.64
39CQ1117,81,14,1474,28,6,HF,1
39CQ1317,81,18,1474,36,6,HF,1
39CQ1418,81,19,1574,38,6,HF,1
39CQ1420,81,19,1774,38,6,HF,1
39CQ1621,81,22,1874,44,6,HF,1
39CQ1822,81,26,1974,52,6,HF,1
39CQ1825,81,26,2274,52,6,HF,1
39CQ2025,81,12,2274,24,6,HF,0.43
39CQ2025,81,16,2274,32,6,HF,0.57
39CQ2125,81,12,2274,24,6,HF,0.4
39CQ2125,81,18,2274,36,6,HF,0.6
39CQ2226,81,12,2374,24,6,HF,0.38
39CQ2226,81,20,2374,40,6,HF,0.63
39CQ2328,81,12,2574,24,6,HF,0.36
39CQ2328,81,21,2574,42,6,HF,0.64
39CQ2333,81,12,3074,24,6,HF,0.36
39CQ2333,81,21,3074,42,6,HF,0.64
39CQ1117,81,28,1474,28,6,FL,1
39CQ1317,81,36,1474,36,6,FL,1
39CQ1418,81,38,1574,38,6,FL,1
39CQ1420,81,38,1774,38,6,FL,1
39CQ1621,81,44,1874,44,6,FL,1
39CQ1822,81,52,1974,52,6,FL,1
39CQ1825,81,52,2274,52,6,FL,1
39CQ2025,81,24,2274,24,6,FL,0.43
39CQ2025,81,32,2274,32,6,FL,0.57
39CQ2125,81,24,2274,24,6,FL,0.4
39CQ2125,81,36,2274,36,6,FL,0.6
39CQ2226,81,24,2374,24,6,FL,0.38
39CQ2226,81,40,2374,40,6,FL,0.63
39CQ2328,81,24,2574,24,6,FL,0.36
39CQ2328,81,42,2574,42,6,FL,0.64
39CQ2333,81,24,3074,24,6,FL,0.36
39CQ2333,81,42,3074,42,6,FL,0.64
39CQ1117,81,42,1474,28,6,DB,1
39CQ1317,81,54,1474,36,6,DB,1
39CQ1418,81,57,1574,38,6,DB,1
39CQ1420,81,57,1774,38,6,DB,1
39CQ1621,81,66,1874,44,6,DB,1
39CQ1822,81,78,1974,52,6,DB,1
39CQ1825,81,78,2274,52,6,DB,1
39CQ2025,81,36,2274,24,6,DB,0.43
39CQ2025,81,48,2274,32,6,DB,0.57
39CQ2125,81,36,2274,24,6,DB,0.4
39CQ2125,81,54,2274,36,6,DB,0.6
39CQ2226,81,36,2374,24,6,DB,0.38
39CQ2226,81,60,2374,40,6,DB,0.63
39CQ2328,81,36,2574,24,6,DB,0.36
39CQ2328,81,63,2574,42,6,DB,0.64
39CQ2333,81,36,3074,24,6,DB,0.36
39CQ2333,81,63,3074,42,6,DB,0.64
39CQ1117,81,14,1474,28,8,HF,1
39CQ1317,81,18,1474,36,8,HF,1
39CQ1418,81,19,1574,38,8,HF,1
39CQ1420,81,19,1774,38,8,HF,1
39CQ1621,81,22,1874,44,8,HF,1
39CQ1822,81,26,1974,52,8,HF,1
39CQ1825,81,26,2274,52,8,HF,1
39CQ2025,81,12,2274,24,8,HF,0.43
39CQ2025,81,16,2274,32,8,HF,0.57
39CQ2125,81,12,2274,24,8,HF,0.4
39CQ2125,81,18,2274,36,8,HF,0.6
39CQ2226,81,12,2374,24,8,HF,0.38
39CQ2226,81,20,2374,40,8,HF,0.63
39CQ2328,81,12,2574,24,8,HF,0.36
39CQ2328,81,21,2574,42,8,HF,0.64
39CQ2333,81,12,3074,24,8,HF,0.36
39CQ2333,81,21,3074,42,8,HF,0.64
39CQ1117,81,28,1474,28,8,FL,1
39CQ1317,81,36,1474,36,8,FL,1
39CQ1418,81,38,1574,38,8,FL,1
39CQ1420,81,38,1774,38,8,FL,1
39CQ1621,81,44,1874,44,8,FL,1
39CQ1822,81,52,1974,52,8,FL,1
39CQ1825,81,52,2274,52,8,FL,1
39CQ2025,81,24,2274,24,8,FL,0.43
39CQ2025,81,32,2274,32,8,FL,0.57
39CQ2125,81,24,2274,24,8,FL,0.4
39CQ2125,81,36,2274,36,8,FL,0.6
39CQ2226,81,24,2374,24,8,FL,0.38
39CQ2226,81,40,2374,40,8,FL,0.63
39CQ2328,81,24,2574,24,8,FL,0.36
39CQ2328,81,42,2574,42,8,FL,0.64
39CQ2333,81,24,3074,24,8,FL,0.36
39CQ2333,81,42,3074,42,8,FL,0.64
39CQ1117,81,56,1474,28,8,DB,1
39CQ1317,81,72,1474,36,8,DB,1
39CQ1418,81,76,1574,38,8,DB,1
39CQ1420,81,76,1774,38,8,DB,1
39CQ1621,81,88,1874,44,8,DB,1
39CQ1822,81,104,1974,52,8,DB,1
39CQ1825,81,104,2274,52,8,DB,1
39CQ2025,81,48,2274,24,8,DB,0.43
39CQ2025,81,64,2274,32,8,DB,0.57
39CQ2125,81,48,2274,24,8,DB,0.4
39CQ2125,81,72,2274,36,8,DB,0.6
39CQ2226,81,48,2374,24,8,DB,0.38
39CQ2226,81,80,2374,40,8,DB,0.63
39CQ2328,81,48,2574,24,8,DB,0.36
39CQ2328,81,84,2574,42,8,DB,0.64
39CQ2333,81,48,3074,24,8,DB,0.36
39CQ2333,81,84,3074,42,8,DB,0.64
39CQ1117,81,14,1474,28,10,HF,1
39CQ1317,81,18,1474,36,10,HF,1
39CQ1418,81,19,1574,38,10,HF,1
39CQ1420,81,19,1774,38,10,HF,1
39CQ1621,81,22,1874,44,10,HF,1
39CQ1822,81,26,1974,52,10,HF,1
39CQ1825,81,26,2274,52,10,HF,1
39CQ2025,81,12,2274,24,10,HF,0.43
39CQ2025,81,16,2274,32,10,HF,0.57
39CQ2125,81,12,2274,24,10,HF,0.4
39CQ2125,81,18,2274,36,10,HF,0.6
39CQ2226,81,12,2374,24,10,HF,0.38
39CQ2226,81,20,2374,40,10,HF,0.63
39CQ2328,81,12,2574,24,10,HF,0.36
39CQ2328,81,21,2574,42,10,HF,0.64
39CQ2333,81,12,3074,24,10,HF,0.36
39CQ2333,81,21,3074,42,10,HF,0.64
39CQ1117,81,28,1474,28,10,FL,1
39CQ1317,81,36,1474,36,10,FL,1
39CQ1418,81,38,1574,38,10,FL,1
39CQ1420,81,38,1774,38,10,FL,1
39CQ1621,81,44,1874,44,10,FL,1
39CQ1822,81,52,1974,52,10,FL,1
39CQ1825,81,52,2274,52,10,FL,1
39CQ2025,81,24,2274,24,10,FL,0.43
39CQ2025,81,32,2274,32,10,FL,0.57
39CQ2125,81,24,2274,24,10,FL,0.4
39CQ2125,81,36,2274,36,10,FL,0.6
39CQ2226,81,24,2374,24,10,FL,0.38
39CQ2226,81,40,2374,40,10,FL,0.63
39CQ2328,81,24,2574,24,10,FL,0.36
39CQ2328,81,42,2574,42,10,FL,0.64
39CQ2333,81,24,3074,24,10,FL,0.36
39CQ2333,81,42,3074,42,10,FL,0.64
39CQ1117,81,56,1474,28,10,DB,1
39CQ1317,81,72,1474,36,10,DB,1
39CQ1418,81,76,1574,38,10,DB,1
39CQ1420,81,76,1774,38,10,DB,1
39CQ1621,81,88,1874,44,10,DB,1
39CQ1822,81,104,1974,52,10,DB,1
39CQ1825,81,104,2274,52,10,DB,1
39CQ2025,81,48,2274,24,10,DB,0.43
39CQ2025,81,64,2274,32,10,DB,0.57
39CQ2125,81,48,2274,24,10,DB,0.4
39CQ2125,81,72,2274,36,10,DB,0.6
39CQ2226,81,48,2374,24,10,DB,0.38
39CQ2226,81,80,2374,40,10,DB,0.63
39CQ2328,81,48,2574,24,10,DB,0.36
39CQ2328,81,84,2574,42,10,DB,0.64
39CQ2333,81,48,3074,24,10,DB,0.36
39CQ2333,81,84,3074,42,10,DB,0.64
39CQ1117,81,14,1474,28,12,HF,1
39CQ1317,81,18,1474,36,12,HF,1
39CQ1418,81,19,1574,38,12,HF,1
39CQ1420,81,19,1774,38,12,HF,1
39CQ1621,81,22,1874,44,12,HF,1
39CQ1822,81,26,1974,52,12,HF,1
39CQ1825,81,26,2274,52,12,HF,1
39CQ2025,81,12,2274,24,12,HF,0.43
39CQ2025,81,16,2274,32,12,HF,0.57
39CQ2125,81,12,2274,24,12,HF,0.4
39CQ2125,81,18,2274,36,12,HF,0.6
39CQ2226,81,12,2374,24,12,HF,0.38
39CQ2226,81,20,2374,40,12,HF,0.63
39CQ2328,81,12,2574,24,12,HF,0.36
39CQ2328,81,21,2574,42,12,HF,0.64
39CQ2333,81,12,3074,24,12,HF,0.36
39CQ2333,81,21,3074,42,12,HF,0.64
39CQ1117,81,28,1474,28,12,FL,1
39CQ1317,81,36,1474,36,12,FL,1
39CQ1418,81,38,1574,38,12,FL,1
39CQ1420,81,38,1774,38,12,FL,1
39CQ1621,81,44,1874,44,12,FL,1
39CQ1822,81,52,1974,52,12,FL,1
39CQ1825,81,52,2274,52,12,FL,1
39CQ2025,81,24,2274,24,12,FL,0.43
39CQ2025,81,32,2274,32,12,FL,0.57
39CQ2125,81,24,2274,24,12,FL,0.4
39CQ2125,81,36,2274,36,12,FL,0.6
39CQ2226,81,24,2374,24,12,FL,0.38
39CQ2226,81,40,2374,40,12,FL,0.63
39CQ2328,81,24,2574,24,12,FL,0.36
39CQ2328,81,42,2574,42,12,FL,0.64
39CQ2333,81,24,3074,24,12,FL,0.36
39CQ2333,81,42,3074,42,12,FL,0.64
39CQ1117,81,56,1474,28,12,DB,1
39CQ1317,81,72,1474,36,12,DB,1
39CQ1418,81,76,1574,38,12,DB,1
39CQ1420,81,76,1774,38,12,DB,1
39CQ1621,81,88,1874,44,12,DB,1
39CQ1822,81,104,1974,52,12,DB,1
39CQ1825,81,104,2274,52,12,DB,1
39CQ2025,81,48,2274,24,12,DB,0.43
39CQ2025,81,64,2274,32,12,DB,0.57
39CQ2125,81,48,2274,24,12,DB,0.4
39CQ2125,81,72,2274,36,12,DB,0.6
39CQ2226,81,48,2374,24,12,DB,0.38
39CQ2226,81,80,2374,40,12,DB,0.63
39CQ2328,81,48,2574,24,12,DB,0.36
39CQ2328,81,84,2574,42,12,DB,0.64
39CQ2333,81,48,3074,24,12,DB,0.36
39CQ2333,81,84,3074,42,12,DB,0.64
39CQ2532,81,44,2883,44,4,FL,0.5
39CQ2532,81,44,2883,44,4,FL,0.5
39CQ2532,81,66,2883,44,6,DB,0.5
39CQ2532,81,66,2883,44,6,DB,0.5
39CQ2532,81,44,2883,44,6,FL,0.5
39CQ2532,81,44,2883,44,6,FL,0.5
39CQ2532,81,44,2883,44,8,FL,0.5
39CQ2532,81,44,2883,44,8,FL,0.5
39CQ2532,81,88,2883,44,8,DB,0.5
39CQ2532,81,88,2883,44,8,DB,0.5
39CQ2832,81,44,2883,44,4,FL,0.45
39CQ2832,81,34,2883,34,4,FL,0.35
39CQ2832,81,44,2883,44,6,FL,0.45
39CQ2832,81,34,2883,34,6,FL,0.35
39CQ2832,81,44,2883,44,8,FL,0.45
39CQ2832,81,34,2883,34,8,FL,0.35
39CQ2832,81,66,2883,44,6,DB,0.45
39CQ2832,81,51,2883,34,6,DB,0.35
39CQ2832,81,88,2883,44,8,DB,0.45
39CQ2832,81,68,2883,34,8,DB,0.35
39CQ3132,81,44,2883,44,4,FL,0.407
39CQ3132,81,44,2883,44,4,FL,0.407
39CQ3132,81,44,2883,44,6,FL,0.407
39CQ3132,81,44,2883,44,6,FL,0.407
39CQ3132,81,44,2883,44,8,FL,0.407
39CQ3132,81,44,2883,44,8,FL,0.407
39CQ3132,81,66,2883,44,6,DB,0.407
39CQ3132,81,66,2883,44,6,DB,0.407
39CQ3132,81,88,2883,44,8,DB,0.407
39CQ3132,81,88,2883,44,8,DB,0.407
39CQ3438,81,44,1623,44,4,FL,0.18644
39CQ3438,81,44,1623,44,4,FL,0.18644
39CQ3438,81,44,1623,44,8,FL,0.18644
39CQ3438,81,44,1623,44,8,FL,0.18644
39CQ3438,81,66,1623,44,6,DB,0.18644
39CQ3438,81,66,1623,44,6,DB,0.18644
39CQ3438,81,44,1623,44,6,FL,0.18644
39CQ3438,81,44,1623,44,6,FL,0.18644
39CQ3438,81,88,1623,44,8,DB,0.18644
39CQ3438,81,88,1623,44,8,DB,0.18644
39CQ3841,81,44,1623,44,4,FL,0.15667
39CQ3841,81,44,1623,44,4,FL,0.15667
39CQ3841,81,44,1938,44,4,FL,0.18708
39CQ3841,81,44,1938,44,4,FL,0.18708
39CQ3841,81,44,1623,44,6,FL,0.15667
39CQ3841,81,44,1623,44,6,FL,0.15667
39CQ3841,81,44,1938,44,6,FL,0.18708
39CQ3841,81,44,1938,44,6,FL,0.18708
39CQ3841,81,44,1623,44,8,FL,0.15667
39CQ3841,81,44,1623,44,8,FL,0.15667
39CQ3841,81,44,1938,44,8,FL,0.18708
39CQ3841,81,44,1938,44,8,FL,0.18708
39CQ3841,81,66,1623,44,6,DB,0.15667
39CQ3841,81,66,1623,44,6,DB,0.15667
39CQ3841,81,66,1938,44,6,DB,0.18708
39CQ3841,81,66,1938,44,6,DB,0.18708
39CQ3841,81,88,1623,44,8,DB,0.15667
39CQ3841,81,88,1623,44,8,DB,0.15667
39CQ3841,81,88,1938,44,8,DB,0.18708
39CQ3841,81,88,1938,44,8,DB,0.18708
39CQ4444,81,34,1938,34,4,FL,0.11972
39CQ4444,81,34,1938,34,4,FL,0.11972
39CQ4444,81,44,1938,44,4,FL,0.15493
39CQ4444,81,44,1938,44,4,FL,0.15493
39CQ4444,81,44,1938,44,4,FL,0.15493
39CQ4444,81,44,1938,44,4,FL,0.15493
39CQ4444,81,34,1938,34,8,FL,0.11972
39CQ4444,81,34,1938,34,8,FL,0.11972
39CQ4444,81,44,1938,44,8,FL,0.15493
39CQ4444,81,44,1938,44,8,FL,0.15493
39CQ4444,81,44,1938,44,8,FL,0.15493
39CQ4444,81,44,1938,44,8,FL,0.15493
39CQ4444,81,66,1938,34,6,DB,0.11972
39CQ4444,81,66,1938,34,6,DB,0.11972
39CQ4444,81,30,1938,44,6,DB,0.15493
39CQ4444,81,34,1938,34,6,FL,0.11972
39CQ4444,81,34,1938,34,6,FL,0.11972
39CQ4444,81,44,1938,44,6,FL,0.15493
39CQ4444,81,44,1938,44,6,FL,0.15493
39CQ4444,81,44,1938,44,6,FL,0.15493
39CQ4444,81,44,1938,44,6,FL,0.15493
39CQ4444,81,30,1938,44,6,DB,0.15493
39CQ4444,81,66,1938,44,6,DB,0.15493
39CQ4444,81,66,1938,44,6,DB,0.15493
39CQ4444,81,88,1938,34,8,DB,0.11972
39CQ4444,81,88,1938,34,8,DB,0.11972
39CQ4444,81,40,1938,44,8,DB,0.15493
39CQ4444,81,40,1938,44,8,DB,0.15493
39CQ4444,81,88,1938,44,8,DB,0.15493
39CQ4444,81,88,1938,44,8,DB,0.15493
39CQ4750,81,34,2253,34,6,FL,0.11184
39CQ4750,81,34,2253,34,6,FL,0.11184
39CQ4750,81,34,2253,34,6,FL,0.11184
39CQ4750,81,34,2253,34,6,FL,0.11184
39CQ4750,81,44,2253,44,6,FL,0.14474
39CQ4750,81,44,2253,44,6,FL,0.14474
39CQ4750,81,34,2253,34,8,FL,0.11184
39CQ4750,81,34,2253,34,8,FL,0.11184
39CQ4750,81,34,2253,34,8,FL,0.11184
39CQ4750,81,34,2253,34,8,FL,0.11184
39CQ4750,81,44,2253,44,8,FL,0.14474
39CQ4750,81,44,2253,44,8,FL,0.14474
39CQ4750,81,68,2253,34,8,DB,0.11184
39CQ4750,81,68,2253,34,8,DB,0.11184
39CQ4750,81,68,2253,34,8,DB,0.11184
39CQ4750,81,68,2253,34,8,DB,0.11184
39CQ4750,81,88,2253,44,8,DB,0.14474
39CQ4750,81,88,2253,44,8,DB,0.14474
39CQ4750,81,34,2253,34,4,FL,0.11184
39CQ4750,81,34,2253,34,4,FL,0.11184
39CQ4750,81,34,2253,34,4,FL,0.11184
39CQ4750,81,34,2253,34,4,FL,0.11184
39CQ4750,81,44,2253,44,4,FL,0.14474
39CQ4750,81,44,2253,44,4,FL,0.14474
39CQ4750,81,51,2253,34,6,DB,0.11184
39CQ4750,81,51,2253,34,6,DB,0.11184
39CQ4750,81,51,2253,34,6,DB,0.11184
39CQ4750,81,51,2253,34,6,DB,0.11184
39CQ4750,81,66,2253,44,6,DB,0.14474
39CQ4750,81,66,2253,44,6,DB,0.14474
39CQ2330,81,12,2774,24,4,HF,0.36
39CQ2330,81,21,2774,42,4,HF,0.64
39CQ2330,81,24,2774,24,4,FL,0.36
39CQ2330,81,42,2774,42,4,FL,0.64
39CQ2330,81,12,2774,24,6,HF,0.36
39CQ2330,81,21,2774,42,6,HF,0.64
39CQ2330,81,24,2774,24,6,FL,0.36
39CQ2330,81,42,2774,42,6,FL,0.64
39CQ2330,81,36,2774,24,6,DB,0.36
39CQ2330,81,63,2774,42,6,DB,0.64
39CQ2330,81,12,2774,24,8,HF,0.36
39CQ2330,81,21,2774,42,8,HF,0.64
39CQ2330,81,24,2774,24,8,FL,0.36
39CQ2330,81,42,2774,42,8,FL,0.64
39CQ2330,81,48,2774,24,8,DB,0.36
39CQ2330,81,84,2774,42,8,DB,0.64
39CQ2330,81,12,2774,24,10,HF,0.36
39CQ2330,81,21,2774,42,10,HF,0.64
39CQ2330,81,24,2774,24,10,FL,0.36
39CQ2330,81,42,2774,42,10,FL,0.64
39CQ2330,81,48,2774,24,10,DB,0.36
39CQ2330,81,84,2774,42,10,DB,0.64
39CQ2330,81,12,2774,24,12,HF,0.36
39CQ2330,81,21,2774,42,12,HF,0.64
39CQ2330,81,24,2774,24,12,FL,0.36
39CQ2330,81,42,2774,42,12,FL,0.64
39CQ2330,81,48,2774,24,12,DB,0.36
39CQ2330,81,84,2774,42,12,DB,0.64
39CQ1117,81,14,1474,28,3,HF,1
39CQ1317,81,18,1474,36,3,HF,1
39CQ1418,81,19,1574,38,3,HF,1
39CQ1420,81,19,1774,38,3,HF,1
39CQ1621,81,22,1874,44,3,HF,1
39CQ1822,81,26,1974,52,3,HF,1
39CQ1825,81,26,2274,52,3,HF,1
39CQ2025,81,12,2274,24,3,HF,0.43
39CQ2025,81,16,2274,32,3,HF,0.57
39CQ2125,81,12,2274,24,3,HF,0.4
39CQ2125,81,18,2274,36,3,HF,0.6
39CQ2226,81,12,2374,24,3,HF,0.38
39CQ2226,81,20,2374,40,3,HF,0.63
39CQ2328,81,12,2574,24,3,HF,0.36
39CQ2328,81,21,2574,42,3,HF,0.64
39CQ2333,81,12,3074,24,3,HF,0.36
39CQ2333,81,21,3074,42,3,HF,0.64
39CQ1117,81,28,1474,28,3,FL,1
39CQ1317,81,36,1474,36,3,FL,1
39CQ1418,81,38,1574,38,3,FL,1
39CQ1420,81,38,1774,38,3,FL,1
39CQ1621,81,44,1874,44,3,FL,1
39CQ1822,81,52,1974,52,3,FL,1
39CQ1825,81,52,2274,52,3,FL,1
39CQ2025,81,24,2274,24,3,FL,0.43
39CQ2025,81,32,2274,32,3,FL,0.57
39CQ2125,81,24,2274,24,3,FL,0.4
39CQ2125,81,36,2274,36,3,FL,0.6
39CQ2226,81,24,2374,24,3,FL,0.38
39CQ2226,81,40,2374,40,3,FL,0.63
39CQ2328,81,24,2574,24,3,FL,0.36
39CQ2328,81,42,2574,42,3,FL,0.64
39CQ2333,81,24,3074,24,3,FL,0.36
39CQ2333,81,42,3074,42,3,FL,0.64
39CQ1117,81,15,1474,28,5,HF,1
39CQ1317,81,19,1474,36,5,HF,1
39CQ1418,81,20,1574,38,5,HF,1
39CQ1420,81,20,1774,38,5,HF,1
39CQ1621,81,23,1874,44,5,HF,1
39CQ1822,81,27,1974,52,5,HF,1
39CQ1825,81,27,2274,52,5,HF,1
39CQ2025,81,13,2274,24,5,HF,0.43
39CQ2025,81,17,2274,32,5,HF,0.57
39CQ2125,81,13,2274,24,5,HF,0.4
39CQ2125,81,19,2274,36,5,HF,0.6
39CQ2226,81,13,2374,24,5,HF,0.38
39CQ2226,81,21,2374,40,5,HF,0.63
39CQ2328,81,13,2574,24,5,HF,0.36
39CQ2328,81,22,2574,42,5,HF,0.64
39CQ2333,81,13,3074,24,5,HF,0.36
39CQ2333,81,22,3074,42,5,HF,0.64
39CQ1117,81,28,1474,28,5,FL,1
39CQ1317,81,36,1474,36,5,FL,1
39CQ1418,81,38,1574,38,5,FL,1
39CQ1420,81,38,1774,38,5,FL,1
39CQ1621,81,44,1874,44,5,FL,1
39CQ1822,81,52,1974,52,5,FL,1
39CQ1825,81,52,2274,52,5,FL,1
39CQ2025,81,24,2274,24,5,FL,0.43
39CQ2025,81,32,2274,32,5,FL,0.57
39CQ2125,81,24,2274,24,5,FL,0.4
39CQ2125,81,36,2274,36,5,FL,0.6
39CQ2226,81,24,2374,24,5,FL,0.38
39CQ2226,81,40,2374,40,5,FL,0.63
39CQ2328,81,24,2574,24,5,FL,0.36
39CQ2328,81,42,2574,42,5,FL,0.64
39CQ2333,81,24,3074,24,5,FL,0.36
39CQ2333,81,42,3074,42,5,FL,0.64
39CQ1117,81,35,1474,28,5,DB,1
39CQ1317,81,45,1474,36,5,DB,1
39CQ1418,81,47,1574,38,5,DB,1
39CQ1420,81,47,1774,38,5,DB,1
39CQ1621,81,55,1874,44,5,DB,1
39CQ1822,81,65,1974,52,5,DB,1
39CQ1825,81,65,2274,52,5,DB,1
39CQ2025,81,30,2274,24,5,DB,0.43
39CQ2025,81,40,2274,32,5,DB,0.57
39CQ2125,81,30,2274,24,5,DB,0.4
39CQ2125,81,45,2274,36,5,DB,0.6
39CQ2226,81,30,2374,24,5,DB,0.38
39CQ2226,81,50,2374,40,5,DB,0.63
39CQ2328,81,30,2574,24,5,DB,0.36
39CQ2328,81,52,2574,42,5,DB,0.64
39CQ2333,81,30,3074,24,5,DB,0.36
39CQ2333,81,52,3074,42,5,DB,0.64
39CQ2330,81,13,2774,24,5,HF,0.36
39CQ2330,81,22,2774,42,5,HF,0.64
39CQ2330,81,24,2774,24,5,FL,0.36
39CQ2330,81,42,2774,42,5,FL,0.64
39CQ2330,81,30,2774,24,5,DB,0.36
39CQ2330,81,52,2774,42,5,DB,0.64
39CQ1117,81,14,1474,28,7,HF,1
39CQ1317,81,18,1474,36,7,HF,1
39CQ1418,81,19,1574,38,7,HF,1
39CQ1420,81,19,1774,38,7,HF,1
39CQ1621,81,22,1874,44,7,HF,1
39CQ1822,81,26,1974,52,7,HF,1
39CQ1825,81,26,2274,52,7,HF,1
39CQ2025,81,12,2274,24,7,HF,0.43
39CQ2025,81,16,2274,32,7,HF,0.57
39CQ2125,81,12,2274,24,7,HF,0.4
39CQ2125,81,18,2274,36,7,HF,0.6
39CQ2226,81,12,2374,24,7,HF,0.38
39CQ2226,81,20,2374,40,7,HF,0.63
39CQ2328,81,12,2574,24,7,HF,0.36
39CQ2328,81,21,2574,42,7,HF,0.64
39CQ2333,81,12,3074,24,7,HF,0.36
39CQ2333,81,21,3074,42,7,HF,0.64
39CQ1117,81,28,1474,28,7,FL,1
39CQ1317,81,36,1474,36,7,FL,1
39CQ1418,81,38,1574,38,7,FL,1
39CQ1420,81,38,1774,38,7,FL,1
39CQ1621,81,44,1874,44,7,FL,1
39CQ1822,81,52,1974,52,7,FL,1
39CQ1825,81,52,2274,52,7,FL,1
39CQ2025,81,24,2274,24,7,FL,0.43
39CQ2025,81,32,2274,32,7,FL,0.57
39CQ2125,81,24,2274,24,7,FL,0.4
39CQ2125,81,36,2274,36,7,FL,0.6
39CQ2226,81,24,2374,24,7,FL,0.38
39CQ2226,81,40,2374,40,7,FL,0.63
39CQ2328,81,24,2574,24,7,FL,0.36
39CQ2328,81,42,2574,42,7,FL,0.64
39CQ2333,81,24,3074,24,7,FL,0.36
39CQ2333,81,42,3074,42,7,FL,0.64
39CQ1117,81,49,1474,28,7,DB,1
39CQ1317,81,63,1474,36,7,DB,1
39CQ1418,81,66,1574,38,7,DB,1
39CQ1420,81,66,1774,38,7,DB,1
39CQ1621,81,77,1874,44,7,DB,1
39CQ1822,81,91,1974,52,7,DB,1
39CQ1825,81,91,2274,52,7,DB,1
39CQ2025,81,42,2274,24,7,DB,0.43
39CQ2025,81,56,2274,32,7,DB,0.57
39CQ2125,81,42,2274,24,7,DB,0.4
39CQ2125,81,63,2274,36,7,DB,0.6
39CQ2226,81,42,2374,24,7,DB,0.38
39CQ2226,81,70,2374,40,7,DB,0.63
39CQ2328,81,42,2574,24,7,DB,0.36
39CQ2328,81,73,2574,42,7,DB,0.64
39CQ2333,81,42,3074,24,7,DB,0.36
39CQ2333,81,73,3074,42,7,DB,0.64
39CQ2330,81,12,2774,24,7,HF,0.36
39CQ2330,81,21,2774,42,7,HF,0.64
39CQ2330,81,24,2774,24,7,FL,0.36
39CQ2330,81,42,2774,42,7,FL,0.64
39CQ2330,81,42,2774,24,7,DB,0.36
39CQ2330,81,73,2774,42,7,DB,0.64
39CQ2330,81,12,2774,24,3,HF,0.36
39CQ2330,81,21,2774,42,3,HF,0.64
39CQ2330,81,24,2774,24,3,FL,0.36
39CQ2330,81,42,2774,42,3,FL,0.64
39G0608,41,6,615,12,1,HF,1
39G0609,41,7,715,14,1,HF,1
39G4750,41,20,2253,20,6,FL,0.06579
39G4750,41,20,2253,20,6,FL,0.06579
39G4750,41,20,2253,20,6,FL,0.06579
39G4750,41,20,2253,20,6,FL,0.06579
39G0711,41,8,903,16,1,HF,1
39G0811,41,10,903,20,1,HF,1
39G0912,41,11,988,22,1,HF,1
39G0913,41,11,1088,22,1,HF,1
39G0914,41,11,1188,22,1,HF,1
39G1015,41,13,1288,26,1,HF,1
39G1117,41,14,1474,28,1,HF,1
39G1317,41,18,1474,36,1,HF,1
39G1418,41,19,1574,38,1,HF,1
39G1420,41,19,1774,38,1,HF,1
39G1621,41,22,1874,44,1,HF,1
39G1822,41,26,1974,52,1,HF,1
39G1825,41,26,2274,52,1,HF,1
39G2025,41,12,2274,24,1,HF,0.43
39G2025,41,16,2274,32,1,HF,0.57
39G2125,41,12,2274,24,1,HF,0.4
39G2125,41,18,2274,36,1,HF,0.6
39G2226,41,12,2374,24,1,HF,0.38
39G2226,41,20,2374,40,1,HF,0.63
39G2333,41,12,3074,24,1,HF,0.36
39G2333,41,21,3074,42,1,HF,0.64
39G0608,41,6,615,12,2,HF,1
39G0609,41,7,715,14,2,HF,1
39G0711,41,8,903,16,2,HF,1
39G0811,41,10,903,20,2,HF,1
39G0912,41,11,988,22,2,HF,1
39G0913,41,11,1088,22,2,HF,1
39G0914,41,11,1188,22,2,HF,1
39G1015,41,13,1288,26,2,HF,1
39G1117,41,14,1474,28,2,HF,1
39G1317,41,18,1474,36,2,HF,1
39G1418,41,19,1574,38,2,HF,1
39G1420,41,19,1774,38,2,HF,1
39G1621,41,22,1874,44,2,HF,1
39G1822,41,26,1974,52,2,HF,1
39G1825,41,26,2274,52,2,HF,1
39G2025,41,12,2274,24,2,HF,0.43
39G2025,41,16,2274,32,2,HF,0.57
39G2125,41,12,2274,24,2,HF,0.4
39G2125,41,18,2274,36,2,HF,0.6
39G2226,41,12,2374,24,2,HF,0.38
39G2226,41,20,2374,40,2,HF,0.63
39G2328,41,12,2574,24,2,HF,0.36
39G2328,41,21,2574,42,2,HF,0.64
39G2333,41,12,3074,24,2,HF,0.36
39G2333,41,21,3074,42,2,HF,0.64
39G0608,41,12,615,12,2,FL,1
39G0609,41,14,715,14,2,FL,1
39G0711,41,16,903,16,2,FL,1
39G0811,41,20,903,20,2,FL,1
39G0912,41,22,988,22,2,FL,1
39G0913,41,22,1088,22,2,FL,1
39G0914,41,22,1188,22,2,FL,1
39G1015,41,26,1288,26,2,FL,1
39G1117,41,28,1474,28,2,FL,1
39G1317,41,36,1474,36,2,FL,1
39G1418,41,38,1574,38,2,FL,1
39G1420,41,38,1774,38,2,FL,1
39G1621,41,44,1874,44,2,FL,1
39G1822,41,52,1974,52,2,FL,1
39G1825,41,52,2274,52,2,FL,1
39G2025,41,24,2274,24,2,FL,0.43
39G2025,41,32,2274,32,2,FL,0.57
39G2125,41,24,2274,24,2,FL,0.4
39G2125,41,36,2274,36,2,FL,0.6
39G2226,41,24,2374,24,2,FL,0.38
39G2226,41,40,2374,40,2,FL,0.63
39G2328,41,24,2574,24,2,FL,0.36
39G2328,41,42,2574,42,2,FL,0.64
39G2333,41,24,3074,24,2,FL,0.36
39G2333,41,42,3074,42,2,FL,0.64
39G0608,41,6,615,12,4,HF,1
39G0609,41,7,715,14,4,HF,1
39G0608,41,12,615,12,4,FL,1
39G0609,41,14,715,14,4,FL,1
39G0608,41,6,615,12,6,HF,1
39G0609,41,7,715,14,6,HF,1
39G0608,41,12,615,12,6,FL,1
39G0609,41,14,715,14,6,FL,1
39G0608,41,18,615,12,6,DB,1
39G0609,41,21,715,14,6,DB,1
39G0608,41,6,615,12,8,HF,1
39G0609,41,7,715,14,8,HF,1
39G0608,41,12,615,12,8,FL,1
39G0609,41,14,715,14,8,FL,1
39G0608,41,24,615,12,8,DB,1
39G0609,41,28,715,14,8,DB,1
39G0608,41,6,615,12,10,HF,1
39G0609,41,7,715,14,10,HF,1
39G0608,41,12,615,12,10,FL,1
39G0609,41,14,715,14,10,FL,1
39G0608,41,24,615,12,10,DB,1
39G0609,41,28,715,14,10,DB,1
39G0608,41,6,615,12,12,HF,1
39G0609,41,7,715,14,12,HF,1
39G0608,41,12,615,12,12,FL,1
39G0609,41,14,715,14,12,FL,1
39G0608,41,24,615,12,12,DB,1
39G0609,41,28,715,14,12,DB,1
39G2532,41,34,2883,34,2,FL,0.5
39G2532,41,34,2883,34,2,FL,0.5
39G2832,41,34,2883,34,2,FL,0.44
39G2832,41,44,2883,44,2,FL,0.56
39G2832,41,20,2883,20,4,FL,0.2
39G2832,41,20,2883,20,6,FL,0.2
39G2832,41,20,2883,20,8,FL,0.2
39G2832,41,30,2883,20,6,DB,0.2
39G2832,41,40,2883,20,8,DB,0.2
39G3132,41,44,2883,44,2,FL,0.5
39G3132,41,44,2883,44,2,FL,0.5
39G3132,41,20,2883,20,4,FL,0.185
39G3132,41,20,2883,20,6,FL,0.185
39G3132,41,20,2883,20,8,FL,0.185
39G3132,41,30,2883,20,6,DB,0.185
39G3132,41,40,2883,20,8,DB,0.185
39G3438,41,24,1623,24,2,FL,0.13
39G3438,41,24,1623,24,2,FL,0.13
39G3438,41,34,1623,34,2,FL,0.185
39G3438,41,34,1623,34,2,FL,0.185
39G3438,41,34,1623,34,2,FL,0.185
39G3438,41,34,1623,34,2,FL,0.185
39G3438,41,20,1623,20,4,FL,0.08475
39G3438,41,20,1623,20,4,FL,0.08475
39G3438,41,20,1623,20,4,FL,0.08475
39G3438,41,20,1623,20,4,FL,0.08475
39G3438,41,20,1623,20,8,FL,0.08475
39G3438,41,20,1623,20,8,FL,0.08475
39G3438,41,20,1623,20,8,FL,0.08475
39G3438,41,20,1623,20,8,FL,0.08475
39G3438,41,30,1623,20,6,DB,0.08475
39G3438,41,30,1623,20,6,DB,0.08475
39G3438,41,30,1623,20,6,DB,0.08475
39G3438,41,30,1623,20,6,DB,0.08475
39G3438,41,40,1623,20,8,DB,0.08475
39G3438,41,40,1623,20,8,DB,0.08475
39G3438,41,40,1623,20,8,DB,0.08475
39G3438,41,40,1623,20,8,DB,0.08475
39G3438,41,20,1623,20,6,FL,0.08475
39G3438,41,20,1623,20,6,FL,0.08475
39G3438,41,20,1623,20,6,FL,0.08475
39G3438,41,20,1623,20,6,FL,0.08475
39G3841,41,34,1623,34,2,FL,0.15192
39G3841,41,34,1623,34,2,FL,0.15192
39G3841,41,34,1623,34,2,FL,0.15192
39G3841,41,34,1938,34,2,FL,0.18141
39G3841,41,34,1938,34,2,FL,0.18141
39G3841,41,34,1938,34,2,FL,0.18141
39G3841,41,20,1623,20,4,FL,0.07121
39G3841,41,20,1623,20,4,FL,0.07121
39G3841,41,20,1938,20,4,FL,0.08504
39G3841,41,20,1938,20,4,FL,0.08504
39G3841,41,20,1623,20,6,FL,0.07121
39G3841,41,20,1623,20,6,FL,0.07121
39G3841,41,20,1938,20,6,FL,0.08504
39G3841,41,20,1938,20,6,FL,0.08504
39G3841,41,20,1623,20,8,FL,0.07121
39G3841,41,20,1623,20,8,FL,0.07121
39G3841,41,20,1938,20,8,FL,0.08504
39G3841,41,20,1938,20,8,FL,0.08504
39G3841,41,30,1623,20,6,DB,0.07121
39G3841,41,30,1623,20,6,DB,0.07121
39G3841,41,30,1938,20,6,DB,0.08504
39G3841,41,30,1938,20,6,DB,0.08504
39G3841,41,40,1623,20,8,DB,0.07121
39G3841,41,40,1623,20,8,DB,0.07121
39G3841,41,40,1938,20,8,DB,0.08504
39G3841,41,40,1938,20,8,DB,0.08504
39G4444,41,34,1938,34,2,FL,0.13934
39G4444,41,34,1938,34,2,FL,0.13934
39G4444,41,44,1938,44,2,FL,0.18033
39G4444,41,44,1938,44,2,FL,0.18033
39G4444,41,44,1938,44,2,FL,0.18033
39G4444,41,44,1938,44,2,FL,0.18033
39G4750,41,20,2253,20,8,FL,0.06579
39G4750,41,20,2253,20,8,FL,0.06579
39G4750,41,20,2253,20,8,FL,0.06579
39G4750,41,20,2253,20,8,FL,0.06579
39G4750,41,40,2253,20,8,DB,0.06579
39G4750,41,40,2253,20,8,DB,0.06579
39G4750,41,40,2253,20,8,DB,0.06579
39G4750,41,40,2253,20,8,DB,0.06579
39G4750,41,20,2253,20,4,FL,0.06579
39G4750,41,20,2253,20,4,FL,0.06579
39G4750,41,20,2253,20,4,FL,0.06579
39G4750,41,20,2253,20,4,FL,0.06579
39G4750,41,30,2253,20,6,DB,0.06579
39G4750,41,30,2253,20,6,DB,0.06579
39G4750,41,30,2253,20,6,DB,0.06579
39G4750,41,30,2253,20,6,DB,0.06579
39G2330,41,12,2774,24,1,HF,0.36
39G2330,41,21,2774,42,1,HF,0.64
39G2330,41,12,2774,24,2,HF,0.36
39G2330,41,21,2774,42,2,HF,0.64
39G2330,41,24,2774,24,2,FL,0.36
39G2330,41,42,2774,42,2,FL,0.64
39G0608,41,6,615,12,3,HF,1
39G0609,41,7,715,14,3,HF,1
39G0608,41,12,615,12,3,FL,1
39G0609,41,14,715,14,3,FL,1
39G0608,41,7,615,12,5,HF,1
39G0609,41,8,715,14,5,HF,1
39G4444,41,20,1938,20,4,FL,0.07042
39G4444,41,20,1938,20,4,FL,0.07042
39G0608,41,12,615,12,5,FL,1
39G0609,41,14,715,14,5,FL,1
39G4444,41,20,1938,20,8,FL,0.07042
39G4444,41,20,1938,20,8,FL,0.07042
39G0608,41,15,615,12,5,DB,1
39G0609,41,17,715,14,5,DB,1
39G4444,41,30,1938,20,6,DB,0.07042
39G4444,41,30,1938,20,6,DB,0.07042
39G4444,41,20,1938,20,6,FL,0.07042
39G4444,41,20,1938,20,6,FL,0.07042
39G4444,41,40,1938,20,8,DB,0.07042
39G4444,41,40,1938,20,8,DB,0.07042
39G0608,41,6,615,12,7,HF,1
39G0609,41,7,715,14,7,HF,1
39G0608,41,12,615,12,7,FL,1
39G0609,41,14,715,14,7,FL,1
39G0608,41,21,615,12,7,DB,1
39G0609,41,24,715,14,7,DB,1
39G4750,41,44,2253,44,2,FL,0.16667
39G4750,41,44,2253,44,2,FL,0.16667
39G4750,41,44,2253,44,2,FL,0.16667
39G4750,41,44,2253,44,2,FL,0.16667
39G4750,41,44,2253,44,2,FL,0.16667
39G4750,41,44,2253,44,2,FL,0.16667
39G0711,53,16,903,16,10,FL,1
39G0811,53,20,903,20,10,FL,1
39G0711,53,32,903,16,10,DB,1
39G0811,53,40,903,20,10,DB,1
39G0711,53,8,903,16,12,HF,1
39G0811,53,10,903,20,12,HF,1
39G0711,53,16,903,16,12,FL,1
39G0811,53,20,903,20,12,FL,1
39G0711,53,32,903,16,12,DB,1
39G0711,53,16,903,16,6,FL,1
39G0811,53,20,903,20,6,FL,1
39G0711,53,24,903,16,6,DB,1
39G0811,53,30,903,20,6,DB,1
39G0711,53,8,903,16,8,HF,1
39G0811,53,10,903,20,8,HF,1
39G0711,53,16,903,16,8,FL,1
39G0811,53,20,903,20,8,FL,1
39G0711,53,32,903,16,8,DB,1
39G0811,53,40,903,20,8,DB,1
39G0811,53,40,903,20,12,DB,1
39G0711,53,8,903,16,3,HF,1
39G0811,53,10,903,20,3,HF,1
39G0711,53,16,903,16,3,FL,1
39G0811,53,20,903,20,3,FL,1
39G0711,53,8,903,16,5,HF,1
39G0811,53,11,903,20,5,HF,1
39G0711,53,16,903,16,5,FL,1
39G0811,53,20,903,20,5,FL,1
39G0711,53,20,903,16,5,DB,1
39G0811,53,25,903,20,5,DB,1
39G0711,53,8,903,16,7,HF,1
39G0811,53,10,903,20,7,HF,1
39G0711,53,16,903,16,7,FL,1
39G0811,53,20,903,20,7,FL,1
39G0711,53,28,903,16,7,DB,1
39G0811,53,35,903,20,7,DB,1
39G0711,53,8,903,16,4,HF,1
39G0811,53,10,903,20,4,HF,1
39G0711,53,16,903,16,4,FL,1
39G0811,53,20,903,20,4,FL,1
39G0711,53,8,903,16,6,HF,1
39G0811,53,10,903,20,6,HF,1
39G0711,53,8,903,16,10,HF,1
39G0811,53,10,903,20,10,HF,1
39G3438,53,34,1623,34,4,FL,0.14407
39G3438,53,34,1623,34,4,FL,0.14407
39G3438,53,34,1623,34,8,FL,0.14407
39G3438,53,34,1623,34,8,FL,0.14407
39G3438,53,51,1623,34,6,DB,0.14407
39G3438,53,51,1623,34,6,DB,0.14407
39G3438,53,68,1623,34,8,DB,0.14407
39G3438,53,68,1623,34,8,DB,0.14407
39G3438,53,34,1623,34,6,FL,0.14407
39G3438,53,34,1623,34,6,FL,0.14407
39G3438,53,34,1623,34,7,FL,0.14407
39G3438,53,34,1623,34,7,FL,0.14407
39G1015,68,13,1288,26,3,HF,1
39G0912,68,22,988,22,3,FL,1
39G0913,68,22,1088,22,3,FL,1
39G0914,68,22,1188,22,3,FL,1
39G1015,68,26,1288,26,3,FL,1
39G0912,68,12,988,22,5,HF,1
39G0913,68,12,1088,22,5,HF,1
39G0914,68,12,1188,22,5,HF,1
39G1015,68,14,1288,26,5,HF,1
39G0912,68,22,988,22,5,FL,1
39G0913,68,22,1088,22,5,FL,1
39G0914,68,22,1188,22,5,FL,1
39G1015,68,26,1288,26,5,FL,1
39G0912,68,27,988,22,5,DB,1
39G0913,68,27,1088,22,5,DB,1
39G0914,68,27,1188,22,5,DB,1
39G1015,68,32,1288,26,5,DB,1
39G0912,68,11,988,22,7,HF,1
39G0913,68,11,1088,22,7,HF,1
39G0914,68,11,1188,22,7,HF,1
39G1015,68,13,1288,26,7,HF,1
39G0912,68,22,988,22,7,FL,1
39G0913,68,22,1088,22,7,FL,1
39G0914,68,22,1188,22,7,FL,1
39G1015,68,26,1288,26,7,FL,1
39G0912,68,38,988,22,7,DB,1
39G0913,68,38,1088,22,7,DB,1
39G0914,68,38,1188,22,7,DB,1
39G1015,68,45,1288,26,7,DB,1
39G0912,65,11,988,22,4,HF,1
39G0913,65,11,1088,22,4,HF,1
39G0914,65,11,1188,22,4,HF,1
39G1015,65,13,1288,26,4,HF,1
39G0912,65,22,988,22,4,FL,1
39G0913,65,22,1088,22,4,FL,1
39G0914,65,22,1188,22,4,FL,1
39G1015,65,26,1288,26,4,FL,1
39G0912,65,11,988,22,6,HF,1
39G0913,65,11,1088,22,6,HF,1
39G0914,65,11,1188,22,6,HF,1
39G1015,65,13,1288,26,6,HF,1
39G0912,65,22,988,22,6,FL,1
39G0913,65,22,1088,22,6,FL,1
39G0914,65,22,1188,22,6,FL,1
39G1015,65,26,1288,26,6,FL,1
39G0912,65,33,988,22,6,DB,1
39G0913,65,33,1088,22,6,DB,1
39G0914,65,33,1188,22,6,DB,1
39G1015,65,39,1288,26,6,DB,1
39G0912,65,11,988,22,8,HF,1
39G0913,65,11,1088,22,8,HF,1
39G0914,65,11,1188,22,8,HF,1
39G1015,65,13,1288,26,8,HF,1
39G0912,65,22,988,22,8,FL,1
39G0913,65,22,1088,22,8,FL,1
39G0914,65,22,1188,22,8,FL,1
39G1015,65,26,1288,26,8,FL,1
39G0912,65,44,988,22,8,DB,1
39G0913,65,44,1088,22,8,DB,1
39G0914,65,44,1188,22,8,DB,1
39G1015,65,52,1288,26,8,DB,1
39G0912,65,11,988,22,10,HF,1
39G0913,65,11,1088,22,10,HF,1
39G0914,65,11,1188,22,10,HF,1
39G1015,65,13,1288,26,10,HF,1
39G0912,65,22,988,22,10,FL,1
39G0913,65,22,1088,22,10,FL,1
39G0914,65,22,1188,22,10,FL,1
39G1015,65,26,1288,26,10,FL,1
39G0912,65,44,988,22,10,DB,1
39G0913,65,44,1088,22,10,DB,1
39G0914,65,44,1188,22,10,DB,1
39G1015,65,52,1288,26,10,DB,1
39G0912,65,11,988,22,12,HF,1
39G0913,65,11,1088,22,12,HF,1
39G0914,65,11,1188,22,12,HF,1
39G1015,65,13,1288,26,12,HF,1
39G0912,65,22,988,22,12,FL,1
39G0913,65,22,1088,22,12,FL,1
39G0914,65,22,1188,22,12,FL,1
39G1015,65,26,1288,26,12,FL,1
39G0912,65,44,988,22,12,DB,1
39G0913,65,44,1088,22,12,DB,1
39G0914,65,44,1188,22,12,DB,1
39G1015,65,52,1288,26,12,DB,1
39G0912,68,11,988,22,3,HF,1
39G0913,68,11,1088,22,3,HF,1
39G0914,68,11,1188,22,3,HF,1
39G2328,81,12,2574,24,1,HF,0.36
39G2328,81,21,2574,42,1,HF,0.64
39G1117,81,14,1474,28,4,HF,1
39G1317,81,18,1474,36,4,HF,1
39G1418,81,19,1574,38,4,HF,1
39G1420,81,19,1774,38,4,HF,1
39G1621,81,22,1874,44,4,HF,1
39G1822,81,26,1974,52,4,HF,1
39G1825,81,26,2274,52,4,HF,1
39G2025,81,12,2274,24,4,HF,0.43
39G2025,81,16,2274,32,4,HF,0.57
39G2125,81,12,2274,24,4,HF,0.4
39G2125,81,18,2274,36,4,HF,0.6
39G2226,81,12,2374,24,4,HF,0.38
39G2226,81,20,2374,40,4,HF,0.63
39G2328,81,12,2574,24,4,HF,0.36
39G2328,81,21,2574,42,4,HF,0.64
39G2333,81,12,3074,24,4,HF,0.36
39G2333,81,21,3074,42,4,HF,0.64
39G1117,81,28,1474,28,4,FL,1
39G1317,81,36,1474,36,4,FL,1
39G1418,81,38,1574,38,4,FL,1
39G1420,81,38,1774,38,4,FL,1
39G1621,81,44,1874,44,4,FL,1
39G1822,81,52,1974,52,4,FL,1
39G1825,81,52,2274,52,4,FL,1
39G2025,81,24,2274,24,4,FL,0.43
39G2025,81,32,2274,32,4,FL,0.57
39G2125,81,24,2274,24,4,FL,0.4
39G2125,81,36,2274,36,4,FL,0.6
39G2226,81,24,2374,24,4,FL,0.38
39G2226,81,40,2374,40,4,FL,0.63
39G2328,81,24,2574,24,4,FL,0.36
39G2328,81,42,2574,42,4,FL,0.64
39G2333,81,24,3074,24,4,FL,0.36
39G2333,81,42,3074,42,4,FL,0.64
39G1117,81,14,1474,28,6,HF,1
39G1317,81,18,1474,36,6,HF,1
39G1418,81,19,1574,38,6,HF,1
39G1420,81,19,1774,38,6,HF,1
39G1621,81,22,1874,44,6,HF,1
39G1822,81,26,1974,52,6,HF,1
39G1825,81,26,2274,52,6,HF,1
39G2025,81,12,2274,24,6,HF,0.43
39G2025,81,16,2274,32,6,HF,0.57
39G2125,81,12,2274,24,6,HF,0.4
39G2125,81,18,2274,36,6,HF,0.6
39G2226,81,12,2374,24,6,HF,0.38
39G2226,81,20,2374,40,6,HF,0.63
39G2328,81,12,2574,24,6,HF,0.36
39G2328,81,21,2574,42,6,HF,0.64
39G2333,81,12,3074,24,6,HF,0.36
39G2333,81,21,3074,42,6,HF,0.64
39G1117,81,28,1474,28,6,FL,1
39G1317,81,36,1474,36,6,FL,1
39G1418,81,38,1574,38,6,FL,1
39G1420,81,38,1774,38,6,FL,1
39G1621,81,44,1874,44,6,FL,1
39G1822,81,52,1974,52,6,FL,1
39G1825,81,52,2274,52,6,FL,1
39G2025,81,24,2274,24,6,FL,0.43
39G2025,81,32,2274,32,6,FL,0.57
39G2125,81,24,2274,24,6,FL,0.4
39G2125,81,36,2274,36,6,FL,0.6
39G2226,81,24,2374,24,6,FL,0.38
39G2226,81,40,2374,40,6,FL,0.63
39G2328,81,24,2574,24,6,FL,0.36
39G2328,81,42,2574,42,6,FL,0.64
39G2333,81,24,3074,24,6,FL,0.36
39G2333,81,42,3074,42,6,FL,0.64
39G1117,81,42,1474,28,6,DB,1
39G1317,81,54,1474,36,6,DB,1
39G1418,81,57,1574,38,6,DB,1
39G1420,81,57,1774,38,6,DB,1
39G1621,81,66,1874,44,6,DB,1
39G1822,81,78,1974,52,6,DB,1
39G1825,81,78,2274,52,6,DB,1
39G2025,81,36,2274,24,6,DB,0.43
39G2025,81,48,2274,32,6,DB,0.57
39G2125,81,36,2274,24,6,DB,0.4
39G2125,81,54,2274,36,6,DB,0.6
39G2226,81,36,2374,24,6,DB,0.38
39G2226,81,60,2374,40,6,DB,0.63
39G2328,81,36,2574,24,6,DB,0.36
39G2328,81,63,2574,42,6,DB,0.64
39G2333,81,36,3074,24,6,DB,0.36
39G2333,81,63,3074,42,6,DB,0.64
39G1117,81,14,1474,28,8,HF,1
39G1317,81,18,1474,36,8,HF,1
39G1418,81,19,1574,38,8,HF,1
39G1420,81,19,1774,38,8,HF,1
39G1621,81,22,1874,44,8,HF,1
39G1822,81,26,1974,52,8,HF,1
39G1825,81,26,2274,52,8,HF,1
39G2025,81,12,2274,24,8,HF,0.43
39G2025,81,16,2274,32,8,HF,0.57
39G2125,81,12,2274,24,8,HF,0.4
39G2125,81,18,2274,36,8,HF,0.6
39G2226,81,12,2374,24,8,HF,0.38
39G2226,81,20,2374,40,8,HF,0.63
39G2328,81,12,2574,24,8,HF,0.36
39G2328,81,21,2574,42,8,HF,0.64
39G2333,81,12,3074,24,8,HF,0.36
39G2333,81,21,3074,42,8,HF,0.64
39G1117,81,28,1474,28,8,FL,1
39G1317,81,36,1474,36,8,FL,1
39G1418,81,38,1574,38,8,FL,1
39G1420,81,38,1774,38,8,FL,1
39G1621,81,44,1874,44,8,FL,1
39G1822,81,52,1974,52,8,FL,1
39G1825,81,52,2274,52,8,FL,1
39G2025,81,24,2274,24,8,FL,0.43
39G2025,81,32,2274,32,8,FL,0.57
39G2125,81,24,2274,24,8,FL,0.4
39G2125,81,36,2274,36,8,FL,0.6
39G2226,81,24,2374,24,8,FL,0.38
39G2226,81,40,2374,40,8,FL,0.63
39G2328,81,24,2574,24,8,FL,0.36
39G2328,81,42,2574,42,8,FL,0.64
39G2333,81,24,3074,24,8,FL,0.36
39G2333,81,42,3074,42,8,FL,0.64
39G1117,81,56,1474,28,8,DB,1
39G1317,81,72,1474,36,8,DB,1
39G1418,81,76,1574,38,8,DB,1
39G1420,81,76,1774,38,8,DB,1
39G1621,81,88,1874,44,8,DB,1
39G1822,81,104,1974,52,8,DB,1
39G1825,81,104,2274,52,8,DB,1
39G2025,81,48,2274,24,8,DB,0.43
39G2025,81,64,2274,32,8,DB,0.57
39G2125,81,48,2274,24,8,DB,0.4
39G2125,81,72,2274,36,8,DB,0.6
39G2226,81,48,2374,24,8,DB,0.38
39G2226,81,80,2374,40,8,DB,0.63
39G2328,81,48,2574,24,8,DB,0.36
39G2328,81,84,2574,42,8,DB,0.64
39G2333,81,48,3074,24,8,DB,0.36
39G2333,81,84,3074,42,8,DB,0.64
39G1117,81,14,1474,28,10,HF,1
39G1317,81,18,1474,36,10,HF,1
39G1418,81,19,1574,38,10,HF,1
39G1420,81,19,1774,38,10,HF,1
39G1621,81,22,1874,44,10,HF,1
39G1822,81,26,1974,52,10,HF,1
39G1825,81,26,2274,52,10,HF,1
39G2025,81,12,2274,24,10,HF,0.43
39G2025,81,16,2274,32,10,HF,0.57
39G2125,81,12,2274,24,10,HF,0.4
39G2125,81,18,2274,36,10,HF,0.6
39G2226,81,12,2374,24,10,HF,0.38
39G2226,81,20,2374,40,10,HF,0.63
39G2328,81,12,2574,24,10,HF,0.36
39G2328,81,21,2574,42,10,HF,0.64
39G2333,81,12,3074,24,10,HF,0.36
39G2333,81,21,3074,42,10,HF,0.64
39G1117,81,28,1474,28,10,FL,1
39G1317,81,36,1474,36,10,FL,1
39G1418,81,38,1574,38,10,FL,1
39G1420,81,38,1774,38,10,FL,1
39G1621,81,44,1874,44,10,FL,1
39G1822,81,52,1974,52,10,FL,1
39G1825,81,52,2274,52,10,FL,1
39G2025,81,24,2274,24,10,FL,0.43
39G2025,81,32,2274,32,10,FL,0.57
39G2125,81,24,2274,24,10,FL,0.4
39G2125,81,36,2274,36,10,FL,0.6
39G2226,81,24,2374,24,10,FL,0.38
39G2226,81,40,2374,40,10,FL,0.63
39G2328,81,24,2574,24,10,FL,0.36
39G2328,81,42,2574,42,10,FL,0.64
39G2333,81,24,3074,24,10,FL,0.36
39G2333,81,42,3074,42,10,FL,0.64
39G1117,81,56,1474,28,10,DB,1
39G1317,81,72,1474,36,10,DB,1
39G1418,81,76,1574,38,10,DB,1
39G1420,81,76,1774,38,10,DB,1
39G1621,81,88,1874,44,10,DB,1
39G1822,81,104,1974,52,10,DB,1
39G1825,81,104,2274,52,10,DB,1
39G2025,81,48,2274,24,10,DB,0.43
39G2025,81,64,2274,32,10,DB,0.57
39G2125,81,48,2274,24,10,DB,0.4
39G2125,81,72,2274,36,10,DB,0.6
39G2226,81,48,2374,24,10,DB,0.38
39G2226,81,80,2374,40,10,DB,0.63
39G2328,81,48,2574,24,10,DB,0.36
39G2328,81,84,2574,42,10,DB,0.64
39G2333,81,48,3074,24,10,DB,0.36
39G2333,81,84,3074,42,10,DB,0.64
39G1117,81,14,1474,28,12,HF,1
39G1317,81,18,1474,36,12,HF,1
39G1418,81,19,1574,38,12,HF,1
39G1420,81,19,1774,38,12,HF,1
39G1621,81,22,1874,44,12,HF,1
39G1822,81,26,1974,52,12,HF,1
39G1825,81,26,2274,52,12,HF,1
39G2025,81,12,2274,24,12,HF,0.43
39G2025,81,16,2274,32,12,HF,0.57
39G2125,81,12,2274,24,12,HF,0.4
39G2125,81,18,2274,36,12,HF,0.6
39G2226,81,12,2374,24,12,HF,0.38
39G2226,81,20,2374,40,12,HF,0.63
39G2328,81,12,2574,24,12,HF,0.36
39G2328,81,21,2574,42,12,HF,0.64
39G2333,81,12,3074,24,12,HF,0.36
39G2333,81,21,3074,42,12,HF,0.64
39G1117,81,28,1474,28,12,FL,1
39G1317,81,36,1474,36,12,FL,1
39G1418,81,38,1574,38,12,FL,1
39G1420,81,38,1774,38,12,FL,1
39G1621,81,44,1874,44,12,FL,1
39G1822,81,52,1974,52,12,FL,1
39G1825,81,52,2274,52,12,FL,1
39G2025,81,24,2274,24,12,FL,0.43
39G2025,81,32,2274,32,12,FL,0.57
39G2125,81,24,2274,24,12,FL,0.4
39G2125,81,36,2274,36,12,FL,0.6
39G2226,81,24,2374,24,12,FL,0.38
39G2226,81,40,2374,40,12,FL,0.63
39G2328,81,24,2574,24,12,FL,0.36
39G2328,81,42,2574,42,12,FL,0.64
39G2333,81,24,3074,24,12,FL,0.36
39G2333,81,42,3074,42,12,FL,0.64
39G1117,81,56,1474,28,12,DB,1
39G1317,81,72,1474,36,12,DB,1
39G1418,81,76,1574,38,12,DB,1
39G1420,81,76,1774,38,12,DB,1
39G1621,81,88,1874,44,12,DB,1
39G1822,81,104,1974,52,12,DB,1
39G1825,81,104,2274,52,12,DB,1
39G2025,81,48,2274,24,12,DB,0.43
39G2025,81,64,2274,32,12,DB,0.57
39G2125,81,48,2274,24,12,DB,0.4
39G2125,81,72,2274,36,12,DB,0.6
39G2226,81,48,2374,24,12,DB,0.38
39G2226,81,80,2374,40,12,DB,0.63
39G2328,81,48,2574,24,12,DB,0.36
39G2328,81,84,2574,42,12,DB,0.64
39G2333,81,48,3074,24,12,DB,0.36
39G2333,81,84,3074,42,12,DB,0.64
39G2532,81,44,2883,44,4,FL,0.5
39G2532,81,44,2883,44,4,FL,0.5
39G2532,81,66,2883,44,6,DB,0.5
39G2532,81,66,2883,44,6,DB,0.5
39G2532,81,44,2883,44,6,FL,0.5
39G2532,81,44,2883,44,6,FL,0.5
39G2532,81,44,2883,44,8,FL,0.5
39G2532,81,44,2883,44,8,FL,0.5
39G2532,81,88,2883,44,8,DB,0.5
39G2532,81,88,2883,44,8,DB,0.5
39G2832,81,44,2883,44,4,FL,0.45
39G2832,81,34,2883,34,4,FL,0.35
39G2832,81,44,2883,44,6,FL,0.45
39G2832,81,34,2883,34,6,FL,0.35
39G2832,81,44,2883,44,8,FL,0.45
39G2832,81,34,2883,34,8,FL,0.35
39G2832,81,66,2883,44,6,DB,0.45
39G2832,81,51,2883,34,6,DB,0.35
39G2832,81,88,2883,44,8,DB,0.45
39G2832,81,68,2883,34,8,DB,0.35
39G3132,81,44,2883,44,4,FL,0.407
39G3132,81,44,2883,44,4,FL,0.407
39G3132,81,44,2883,44,6,FL,0.407
39G3132,81,44,2883,44,6,FL,0.407
39G3132,81,44,2883,44,8,FL,0.407
39G3132,81,44,2883,44,8,FL,0.407
39G3132,81,66,2883,44,6,DB,0.407
39G3132,81,66,2883,44,6,DB,0.407
39G3132,81,88,2883,44,8,DB,0.407
39G3132,81,88,2883,44,8,DB,0.407
39G3438,81,44,1623,44,4,FL,0.18644
39G3438,81,44,1623,44,4,FL,0.18644
39G3438,81,44,1623,44,8,FL,0.18644
39G3438,81,44,1623,44,8,FL,0.18644
39G3438,81,66,1623,44,6,DB,0.18644
39G3438,81,66,1623,44,6,DB,0.18644
39G3438,81,44,1623,44,6,FL,0.18644
39G3438,81,44,1623,44,6,FL,0.18644
39G3438,81,88,1623,44,8,DB,0.18644
39G3438,81,88,1623,44,8,DB,0.18644
39G3841,81,44,1623,44,4,FL,0.15667
39G3841,81,44,1623,44,4,FL,0.15667
39G3841,81,44,1938,44,4,FL,0.18708
39G3841,81,44,1938,44,4,FL,0.18708
39G3841,81,44,1623,44,6,FL,0.15667
39G3841,81,44,1623,44,6,FL,0.15667
39G3841,81,44,1938,44,6,FL,0.18708
39G3841,81,44,1938,44,6,FL,0.18708
39G3841,81,44,1623,44,8,FL,0.15667
39G3841,81,44,1623,44,8,FL,0.15667
39G3841,81,44,1938,44,8,FL,0.18708
39G3841,81,44,1938,44,8,FL,0.18708
39G3841,81,66,1623,44,6,DB,0.15667
39G3841,81,66,1623,44,6,DB,0.15667
39G3841,81,66,1938,44,6,DB,0.18708
39G3841,81,66,1938,44,6,DB,0.18708
39G3841,81,88,1623,44,8,DB,0.15667
39G3841,81,88,1623,44,8,DB,0.15667
39G3841,81,88,1938,44,8,DB,0.18708
39G3841,81,88,1938,44,8,DB,0.18708
39G4444,81,34,1938,34,4,FL,0.11972
39G4444,81,34,1938,34,4,FL,0.11972
39G4444,81,44,1938,44,4,FL,0.15493
39G4444,81,44,1938,44,4,FL,0.15493
39G4444,81,44,1938,44,4,FL,0.15493
39G4444,81,44,1938,44,4,FL,0.15493
39G4444,81,34,1938,34,8,FL,0.11972
39G4444,81,34,1938,34,8,FL,0.11972
39G4444,81,44,1938,44,8,FL,0.15493
39G4444,81,44,1938,44,8,FL,0.15493
39G4444,81,44,1938,44,8,FL,0.15493
39G4444,81,44,1938,44,8,FL,0.15493
39G4444,81,66,1938,34,6,DB,0.11972
39G4444,81,66,1938,34,6,DB,0.11972
39G4444,81,30,1938,44,6,DB,0.15493
39G4444,81,34,1938,34,6,FL,0.11972
39G4444,81,34,1938,34,6,FL,0.11972
39G4444,81,44,1938,44,6,FL,0.15493
39G4444,81,44,1938,44,6,FL,0.15493
39G4444,81,44,1938,44,6,FL,0.15493
39G4444,81,44,1938,44,6,FL,0.15493
39G4444,81,30,1938,44,6,DB,0.15493
39G4444,81,66,1938,44,6,DB,0.15493
39G4444,81,66,1938,44,6,DB,0.15493
39G4444,81,88,1938,34,8,DB,0.11972
39G4444,81,88,1938,34,8,DB,0.11972
39G4444,81,40,1938,44,8,DB,0.15493
39G4444,81,40,1938,44,8,DB,0.15493
39G4444,81,88,1938,44,8,DB,0.15493
39G4444,81,88,1938,44,8,DB,0.15493
39G4750,81,34,2253,34,6,FL,0.11184
39G4750,81,34,2253,34,6,FL,0.11184
39G4750,81,34,2253,34,6,FL,0.11184
39G4750,81,34,2253,34,6,FL,0.11184
39G4750,81,44,2253,44,6,FL,0.14474
39G4750,81,44,2253,44,6,FL,0.14474
39G4750,81,34,2253,34,8,FL,0.11184
39G4750,81,34,2253,34,8,FL,0.11184
39G4750,81,34,2253,34,8,FL,0.11184
39G4750,81,34,2253,34,8,FL,0.11184
39G4750,81,44,2253,44,8,FL,0.14474
39G4750,81,44,2253,44,8,FL,0.14474
39G4750,81,68,2253,34,8,DB,0.11184
39G4750,81,68,2253,34,8,DB,0.11184
39G4750,81,68,2253,34,8,DB,0.11184
39G4750,81,68,2253,34,8,DB,0.11184
39G4750,81,88,2253,44,8,DB,0.14474
39G4750,81,88,2253,44,8,DB,0.14474
39G4750,81,34,2253,34,4,FL,0.11184
39G4750,81,34,2253,34,4,FL,0.11184
39G4750,81,34,2253,34,4,FL,0.11184
39G4750,81,34,2253,34,4,FL,0.11184
39G4750,81,44,2253,44,4,FL,0.14474
39G4750,81,44,2253,44,4,FL,0.14474
39G4750,81,51,2253,34,6,DB,0.11184
39G4750,81,51,2253,34,6,DB,0.11184
39G4750,81,51,2253,34,6,DB,0.11184
39G4750,81,51,2253,34,6,DB,0.11184
39G4750,81,66,2253,44,6,DB,0.14474
39G4750,81,66,2253,44,6,DB,0.14474
39G2330,81,12,2774,24,4,HF,0.36
39G2330,81,21,2774,42,4,HF,0.64
39G2330,81,24,2774,24,4,FL,0.36
39G2330,81,42,2774,42,4,FL,0.64
39G2330,81,12,2774,24,6,HF,0.36
39G2330,81,21,2774,42,6,HF,0.64
39G2330,81,24,2774,24,6,FL,0.36
39G2330,81,42,2774,42,6,FL,0.64
39G2330,81,36,2774,24,6,DB,0.36
39G2330,81,63,2774,42,6,DB,0.64
39G2330,81,12,2774,24,8,HF,0.36
39G2330,81,21,2774,42,8,HF,0.64
39G2330,81,24,2774,24,8,FL,0.36
39G2330,81,42,2774,42,8,FL,0.64
39G2330,81,48,2774,24,8,DB,0.36
39G2330,81,84,2774,42,8,DB,0.64
39G2330,81,12,2774,24,10,HF,0.36
39G2330,81,21,2774,42,10,HF,0.64
39G2330,81,24,2774,24,10,FL,0.36
39G2330,81,42,2774,42,10,FL,0.64
39G2330,81,48,2774,24,10,DB,0.36
39G2330,81,84,2774,42,10,DB,0.64
39G2330,81,12,2774,24,12,HF,0.36
39G2330,81,21,2774,42,12,HF,0.64
39G2330,81,24,2774,24,12,FL,0.36
39G2330,81,42,2774,42,12,FL,0.64
39G2330,81,48,2774,24,12,DB,0.36
39G2330,81,84,2774,42,12,DB,0.64
39G1117,81,14,1474,28,3,HF,1
39G1317,81,18,1474,36,3,HF,1
39G1418,81,19,1574,38,3,HF,1
39G1420,81,19,1774,38,3,HF,1
39G1621,81,22,1874,44,3,HF,1
39G1822,81,26,1974,52,3,HF,1
39G1825,81,26,2274,52,3,HF,1
39G2025,81,12,2274,24,3,HF,0.43
39G2025,81,16,2274,32,3,HF,0.57
39G2125,81,12,2274,24,3,HF,0.4
39G2125,81,18,2274,36,3,HF,0.6
39G2226,81,12,2374,24,3,HF,0.38
39G2226,81,20,2374,40,3,HF,0.63
39G2328,81,12,2574,24,3,HF,0.36
39G2328,81,21,2574,42,3,HF,0.64
39G2333,81,12,3074,24,3,HF,0.36
39G2333,81,21,3074,42,3,HF,0.64
39G1117,81,28,1474,28,3,FL,1
39G1317,81,36,1474,36,3,FL,1
39G1418,81,38,1574,38,3,FL,1
39G1420,81,38,1774,38,3,FL,1
39G1621,81,44,1874,44,3,FL,1
39G1822,81,52,1974,52,3,FL,1
39G1825,81,52,2274,52,3,FL,1
39G2025,81,24,2274,24,3,FL,0.43
39G2025,81,32,2274,32,3,FL,0.57
39G2125,81,24,2274,24,3,FL,0.4
39G2125,81,36,2274,36,3,FL,0.6
39G2226,81,24,2374,24,3,FL,0.38
39G2226,81,40,2374,40,3,FL,0.63
39G2328,81,24,2574,24,3,FL,0.36
39G2328,81,42,2574,42,3,FL,0.64
39G2333,81,24,3074,24,3,FL,0.36
39G2333,81,42,3074,42,3,FL,0.64
39G1117,81,15,1474,28,5,HF,1
39G1317,81,19,1474,36,5,HF,1
39G1418,81,20,1574,38,5,HF,1
39G1420,81,20,1774,38,5,HF,1
39G1621,81,23,1874,44,5,HF,1
39G1822,81,27,1974,52,5,HF,1
39G1825,81,27,2274,52,5,HF,1
39G2025,81,13,2274,24,5,HF,0.43
39G2025,81,17,2274,32,5,HF,0.57
39G2125,81,13,2274,24,5,HF,0.4
39G2125,81,19,2274,36,5,HF,0.6
39G2226,81,13,2374,24,5,HF,0.38
39G2226,81,21,2374,40,5,HF,0.63
39G2328,81,13,2574,24,5,HF,0.36
39G2328,81,22,2574,42,5,HF,0.64
39G2333,81,13,3074,24,5,HF,0.36
39G2333,81,22,3074,42,5,HF,0.64
39G1117,81,28,1474,28,5,FL,1
39G1317,81,36,1474,36,5,FL,1
39G1418,81,38,1574,38,5,FL,1
39G1420,81,38,1774,38,5,FL,1
39G1621,81,44,1874,44,5,FL,1
39G1822,81,52,1974,52,5,FL,1
39G1825,81,52,2274,52,5,FL,1
39G2025,81,24,2274,24,5,FL,0.43
39G2025,81,32,2274,32,5,FL,0.57
39G2125,81,24,2274,24,5,FL,0.4
39G2125,81,36,2274,36,5,FL,0.6
39G2226,81,24,2374,24,5,FL,0.38
39G2226,81,40,2374,40,5,FL,0.63
39G2328,81,24,2574,24,5,FL,0.36
39G2328,81,42,2574,42,5,FL,0.64
39G2333,81,24,3074,24,5,FL,0.36
39G2333,81,42,3074,42,5,FL,0.64
39G1117,81,35,1474,28,5,DB,1
39G1317,81,45,1474,36,5,DB,1
39G1418,81,47,1574,38,5,DB,1
39G1420,81,47,1774,38,5,DB,1
39G1621,81,55,1874,44,5,DB,1
39G1822,81,65,1974,52,5,DB,1
39G1825,81,65,2274,52,5,DB,1
39G2025,81,30,2274,24,5,DB,0.43
39G2025,81,40,2274,32,5,DB,0.57
39G2125,81,30,2274,24,5,DB,0.4
39G2125,81,45,2274,36,5,DB,0.6
39G2226,81,30,2374,24,5,DB,0.38
39G2226,81,50,2374,40,5,DB,0.63
39G2328,81,30,2574,24,5,DB,0.36
39G2328,81,52,2574,42,5,DB,0.64
39G2333,81,30,3074,24,5,DB,0.36
39G2333,81,52,3074,42,5,DB,0.64
39G2330,81,13,2774,24,5,HF,0.36
39G2330,81,22,2774,42,5,HF,0.64
39G2330,81,24,2774,24,5,FL,0.36
39G2330,81,42,2774,42,5,FL,0.64
39G2330,81,30,2774,24,5,DB,0.36
39G2330,81,52,2774,42,5,DB,0.64
39G1117,81,14,1474,28,7,HF,1
39G1317,81,18,1474,36,7,HF,1
39G1418,81,19,1574,38,7,HF,1
39G1420,81,19,1774,38,7,HF,1
39G1621,81,22,1874,44,7,HF,1
39G1822,81,26,1974,52,7,HF,1
39G1825,81,26,2274,52,7,HF,1
39G2025,81,12,2274,24,7,HF,0.43
39G2025,81,16,2274,32,7,HF,0.57
39G2125,81,12,2274,24,7,HF,0.4
39G2125,81,18,2274,36,7,HF,0.6
39G2226,81,12,2374,24,7,HF,0.38
39G2226,81,20,2374,40,7,HF,0.63
39G2328,81,12,2574,24,7,HF,0.36
39G2328,81,21,2574,42,7,HF,0.64
39G2333,81,12,3074,24,7,HF,0.36
39G2333,81,21,3074,42,7,HF,0.64
39G1117,81,28,1474,28,7,FL,1
39G1317,81,36,1474,36,7,FL,1
39G1418,81,38,1574,38,7,FL,1
39G1420,81,38,1774,38,7,FL,1
39G1621,81,44,1874,44,7,FL,1
39G1822,81,52,1974,52,7,FL,1
39G1825,81,52,2274,52,7,FL,1
39G2025,81,24,2274,24,7,FL,0.43
39G2025,81,32,2274,32,7,FL,0.57
39G2125,81,24,2274,24,7,FL,0.4
39G2125,81,36,2274,36,7,FL,0.6
39G2226,81,24,2374,24,7,FL,0.38
39G2226,81,40,2374,40,7,FL,0.63
39G2328,81,24,2574,24,7,FL,0.36
39G2328,81,42,2574,42,7,FL,0.64
39G2333,81,24,3074,24,7,FL,0.36
39G2333,81,42,3074,42,7,FL,0.64
39G1117,81,49,1474,28,7,DB,1
39G1317,81,63,1474,36,7,DB,1
39G1418,81,66,1574,38,7,DB,1
39G1420,81,66,1774,38,7,DB,1
39G1621,81,77,1874,44,7,DB,1
39G1822,81,91,1974,52,7,DB,1
39G1825,81,91,2274,52,7,DB,1
39G2025,81,42,2274,24,7,DB,0.43
39G2025,81,56,2274,32,7,DB,0.57
39G2125,81,42,2274,24,7,DB,0.4
39G2125,81,63,2274,36,7,DB,0.6
39G2226,81,42,2374,24,7,DB,0.38
39G2226,81,70,2374,40,7,DB,0.63
39G2328,81,42,2574,24,7,DB,0.36
39G2328,81,73,2574,42,7,DB,0.64
39G2333,81,42,3074,24,7,DB,0.36
39G2333,81,73,3074,42,7,DB,0.64
39G2330,81,12,2774,24,7,HF,0.36
39G2330,81,21,2774,42,7,HF,0.64
39G2330,81,24,2774,24,7,FL,0.36
39G2330,81,42,2774,42,7,FL,0.64
39G2330,81,42,2774,24,7,DB,0.36
39G2330,81,73,2774,42,7,DB,0.64
39G2330,81,12,2774,24,3,HF,0.36
39G2330,81,21,2774,42,3,HF,0.64
39G2330,81,24,2774,24,3,FL,0.36
39G2330,81,42,2774,42,3,FL,0.64
39XT0608,41,6,615,12,1,HF,1
39XT0609,41,7,715,14,1,HF,1
39XT4750,41,20,2253,20,6,FL,0.06579
39XT4750,41,20,2253,20,6,FL,0.06579
39XT4750,41,20,2253,20,6,FL,0.06579
39XT4750,41,20,2253,20,6,FL,0.06579
39XT0711,41,8,903,16,1,HF,1
39XT0811,41,10,903,20,1,HF,1
39XT0912,41,11,988,22,1,HF,1
39XT0913,41,11,1088,22,1,HF,1
39XT0914,41,11,1188,22,1,HF,1
39XT1015,41,13,1288,26,1,HF,1
39XT1117,41,14,1474,28,1,HF,1
39XT1317,41,18,1474,36,1,HF,1
39XT1418,41,19,1574,38,1,HF,1
39XT1420,41,19,1774,38,1,HF,1
39XT1621,41,22,1874,44,1,HF,1
39XT1822,41,26,1974,52,1,HF,1
39XT1825,41,26,2274,52,1,HF,1
39XT2025,41,12,2274,24,1,HF,0.43
39XT2025,41,16,2274,32,1,HF,0.57
39XT2125,41,12,2274,24,1,HF,0.4
39XT2125,41,18,2274,36,1,HF,0.6
39XT2226,41,12,2374,24,1,HF,0.38
39XT2226,41,20,2374,40,1,HF,0.63
39XT2333,41,12,3074,24,1,HF,0.36
39XT2333,41,21,3074,42,1,HF,0.64
39XT0608,41,6,615,12,2,HF,1
39XT0609,41,7,715,14,2,HF,1
39XT0711,41,8,903,16,2,HF,1
39XT0811,41,10,903,20,2,HF,1
39XT0912,41,11,988,22,2,HF,1
39XT0913,41,11,1088,22,2,HF,1
39XT0914,41,11,1188,22,2,HF,1
39XT1015,41,13,1288,26,2,HF,1
39XT1117,41,14,1474,28,2,HF,1
39XT1317,41,18,1474,36,2,HF,1
39XT1418,41,19,1574,38,2,HF,1
39XT1420,41,19,1774,38,2,HF,1
39XT1621,41,22,1874,44,2,HF,1
39XT1822,41,26,1974,52,2,HF,1
39XT1825,41,26,2274,52,2,HF,1
39XT2025,41,12,2274,24,2,HF,0.43
39XT2025,41,16,2274,32,2,HF,0.57
39XT2125,41,12,2274,24,2,HF,0.4
39XT2125,41,18,2274,36,2,HF,0.6
39XT2226,41,12,2374,24,2,HF,0.38
39XT2226,41,20,2374,40,2,HF,0.63
39XT2328,41,12,2574,24,2,HF,0.36
39XT2328,41,21,2574,42,2,HF,0.64
39XT2333,41,12,3074,24,2,HF,0.36
39XT2333,41,21,3074,42,2,HF,0.64
39XT0608,41,12,615,12,2,FL,1
39XT0609,41,14,715,14,2,FL,1
39XT0711,41,16,903,16,2,FL,1
39XT0811,41,20,903,20,2,FL,1
39XT0912,41,22,988,22,2,FL,1
39XT0913,41,22,1088,22,2,FL,1
39XT0914,41,22,1188,22,2,FL,1
39XT1015,41,26,1288,26,2,FL,1
39XT1117,41,28,1474,28,2,FL,1
39XT1317,41,36,1474,36,2,FL,1
39XT1418,41,38,1574,38,2,FL,1
39XT1420,41,38,1774,38,2,FL,1
39XT1621,41,44,1874,44,2,FL,1
39XT1822,41,52,1974,52,2,FL,1
39XT1825,41,52,2274,52,2,FL,1
39XT2025,41,24,2274,24,2,FL,0.43
39XT2025,41,32,2274,32,2,FL,0.57
39XT2125,41,24,2274,24,2,FL,0.4
39XT2125,41,36,2274,36,2,FL,0.6
39XT2226,41,24,2374,24,2,FL,0.38
39XT2226,41,40,2374,40,2,FL,0.63
39XT2328,41,24,2574,24,2,FL,0.36
39XT2328,41,42,2574,42,2,FL,0.64
39XT2333,41,24,3074,24,2,FL,0.36
39XT2333,41,42,3074,42,2,FL,0.64
39XT0608,41,6,615,12,4,HF,1
39XT0609,41,7,715,14,4,HF,1
39XT0608,41,12,615,12,4,FL,1
39XT0609,41,14,715,14,4,FL,1
39XT0608,41,6,615,12,6,HF,1
39XT0609,41,7,715,14,6,HF,1
39XT0608,41,12,615,12,6,FL,1
39XT0609,41,14,715,14,6,FL,1
39XT0608,41,18,615,12,6,DB,1
39XT0609,41,21,715,14,6,DB,1
39XT0608,41,6,615,12,8,HF,1
39XT0609,41,7,715,14,8,HF,1
39XT0608,41,12,615,12,8,FL,1
39XT0609,41,14,715,14,8,FL,1
39XT0608,41,24,615,12,8,DB,1
39XT0609,41,28,715,14,8,DB,1
39XT0608,41,6,615,12,10,HF,1
39XT0609,41,7,715,14,10,HF,1
39XT0608,41,12,615,12,10,FL,1
39XT0609,41,14,715,14,10,FL,1
39XT0608,41,24,615,12,10,DB,1
39XT0609,41,28,715,14,10,DB,1
39XT0608,41,6,615,12,12,HF,1
39XT0609,41,7,715,14,12,HF,1
39XT0608,41,12,615,12,12,FL,1
39XT0609,41,14,715,14,12,FL,1
39XT0608,41,24,615,12,12,DB,1
39XT0609,41,28,715,14,12,DB,1
39XT2532,41,34,2883,34,2,FL,0.5
39XT2532,41,34,2883,34,2,FL,0.5
39XT2832,41,34,2883,34,2,FL,0.44
39XT2832,41,44,2883,44,2,FL,0.56
39XT2832,41,20,2883,20,4,FL,0.2
39XT2832,41,20,2883,20,6,FL,0.2
39XT2832,41,20,2883,20,8,FL,0.2
39XT2832,41,30,2883,20,6,DB,0.2
39XT2832,41,40,2883,20,8,DB,0.2
39XT3132,41,44,2883,44,2,FL,0.5
39XT3132,41,44,2883,44,2,FL,0.5
39XT3132,41,20,2883,20,4,FL,0.185
39XT3132,41,20,2883,20,6,FL,0.185
39XT3132,41,20,2883,20,8,FL,0.185
39XT3132,41,30,2883,20,6,DB,0.185
39XT3132,41,40,2883,20,8,DB,0.185
39XT3438,41,24,1623,24,2,FL,0.13
39XT3438,41,24,1623,24,2,FL,0.13
39XT3438,41,34,1623,34,2,FL,0.185
39XT3438,41,34,1623,34,2,FL,0.185
39XT3438,41,34,1623,34,2,FL,0.185
39XT3438,41,34,1623,34,2,FL,0.185
39XT3438,41,20,1623,20,4,FL,0.08475
39XT3438,41,20,1623,20,4,FL,0.08475
39XT3438,41,20,1623,20,4,FL,0.08475
39XT3438,41,20,1623,20,4,FL,0.08475
39XT3438,41,20,1623,20,8,FL,0.08475
39XT3438,41,20,1623,20,8,FL,0.08475
39XT3438,41,20,1623,20,8,FL,0.08475
39XT3438,41,20,1623,20,8,FL,0.08475
39XT3438,41,30,1623,20,6,DB,0.08475
39XT3438,41,30,1623,20,6,DB,0.08475
39XT3438,41,30,1623,20,6,DB,0.08475
39XT3438,41,30,1623,20,6,DB,0.08475
39XT3438,41,40,1623,20,8,DB,0.08475
39XT3438,41,40,1623,20,8,DB,0.08475
39XT3438,41,40,1623,20,8,DB,0.08475
39XT3438,41,40,1623,20,8,DB,0.08475
39XT3438,41,20,1623,20,6,FL,0.08475
39XT3438,41,20,1623,20,6,FL,0.08475
39XT3438,41,20,1623,20,6,FL,0.08475
39XT3438,41,20,1623,20,6,FL,0.08475
39XT3841,41,34,1623,34,2,FL,0.15192
39XT3841,41,34,1623,34,2,FL,0.15192
39XT3841,41,34,1623,34,2,FL,0.15192
39XT3841,41,34,1938,34,2,FL,0.18141
39XT3841,41,34,1938,34,2,FL,0.18141
39XT3841,41,34,1938,34,2,FL,0.18141
39XT3841,41,20,1623,20,4,FL,0.07121
39XT3841,41,20,1623,20,4,FL,0.07121
39XT3841,41,20,1938,20,4,FL,0.08504
39XT3841,41,20,1938,20,4,FL,0.08504
39XT3841,41,20,1623,20,6,FL,0.07121
39XT3841,41,20,1623,20,6,FL,0.07121
39XT3841,41,20,1938,20,6,FL,0.08504
39XT3841,41,20,1938,20,6,FL,0.08504
39XT3841,41,20,1623,20,8,FL,0.07121
39XT3841,41,20,1623,20,8,FL,0.07121
39XT3841,41,20,1938,20,8,FL,0.08504
39XT3841,41,20,1938,20,8,FL,0.08504
39XT3841,41,30,1623,20,6,DB,0.07121
39XT3841,41,30,1623,20,6,DB,0.07121
39XT3841,41,30,1938,20,6,DB,0.08504
39XT3841,41,30,1938,20,6,DB,0.08504
39XT3841,41,40,1623,20,8,DB,0.07121
39XT3841,41,40,1623,20,8,DB,0.07121
39XT3841,41,40,1938,20,8,DB,0.08504
39XT3841,41,40,1938,20,8,DB,0.08504
39XT4444,41,34,1938,34,2,FL,0.13934
39XT4444,41,34,1938,34,2,FL,0.13934
39XT4444,41,44,1938,44,2,FL,0.18033
39XT4444,41,44,1938,44,2,FL,0.18033
39XT4444,41,44,1938,44,2,FL,0.18033
39XT4444,41,44,1938,44,2,FL,0.18033
39XT4750,41,20,2253,20,8,FL,0.06579
39XT4750,41,20,2253,20,8,FL,0.06579
39XT4750,41,20,2253,20,8,FL,0.06579
39XT4750,41,20,2253,20,8,FL,0.06579
39XT4750,41,40,2253,20,8,DB,0.06579
39XT4750,41,40,2253,20,8,DB,0.06579
39XT4750,41,40,2253,20,8,DB,0.06579
39XT4750,41,40,2253,20,8,DB,0.06579
39XT4750,41,20,2253,20,4,FL,0.06579
39XT4750,41,20,2253,20,4,FL,0.06579
39XT4750,41,20,2253,20,4,FL,0.06579
39XT4750,41,20,2253,20,4,FL,0.06579
39XT4750,41,30,2253,20,6,DB,0.06579
39XT4750,41,30,2253,20,6,DB,0.06579
39XT4750,41,30,2253,20,6,DB,0.06579
39XT4750,41,30,2253,20,6,DB,0.06579
39XT2330,41,12,2774,24,1,HF,0.36
39XT2330,41,21,2774,42,1,HF,0.64
39XT2330,41,12,2774,24,2,HF,0.36
39XT2330,41,21,2774,42,2,HF,0.64
39XT2330,41,24,2774,24,2,FL,0.36
39XT2330,41,42,2774,42,2,FL,0.64
39XT0608,41,6,615,12,3,HF,1
39XT0609,41,7,715,14,3,HF,1
39XT0608,41,12,615,12,3,FL,1
39XT0609,41,14,715,14,3,FL,1
39XT0608,41,7,615,12,5,HF,1
39XT0609,41,8,715,14,5,HF,1
39XT4444,41,20,1938,20,4,FL,0.07042
39XT4444,41,20,1938,20,4,FL,0.07042
39XT0608,41,12,615,12,5,FL,1
39XT0609,41,14,715,14,5,FL,1
39XT4444,41,20,1938,20,8,FL,0.07042
39XT4444,41,20,1938,20,8,FL,0.07042
39XT0608,41,15,615,12,5,DB,1
39XT0609,41,17,715,14,5,DB,1
39XT4444,41,30,1938,20,6,DB,0.07042
39XT4444,41,30,1938,20,6,DB,0.07042
39XT4444,41,20,1938,20,6,FL,0.07042
39XT4444,41,20,1938,20,6,FL,0.07042
39XT4444,41,40,1938,20,8,DB,0.07042
39XT4444,41,40,1938,20,8,DB,0.07042
39XT0608,41,6,615,12,7,HF,1
39XT0609,41,7,715,14,7,HF,1
39XT0608,41,12,615,12,7,FL,1
39XT0609,41,14,715,14,7,FL,1
39XT0608,41,21,615,12,7,DB,1
39XT0609,41,24,715,14,7,DB,1
39XT4750,41,44,2253,44,2,FL,0.16667
39XT4750,41,44,2253,44,2,FL,0.16667
39XT4750,41,44,2253,44,2,FL,0.16667
39XT4750,41,44,2253,44,2,FL,0.16667
39XT4750,41,44,2253,44,2,FL,0.16667
39XT4750,41,44,2253,44,2,FL,0.16667
39XT0711,53,16,903,16,10,FL,1
39XT0811,53,20,903,20,10,FL,1
39XT0711,53,32,903,16,10,DB,1
39XT0811,53,40,903,20,10,DB,1
39XT0711,53,8,903,16,12,HF,1
39XT0811,53,10,903,20,12,HF,1
39XT0711,53,16,903,16,12,FL,1
39XT0811,53,20,903,20,12,FL,1
39XT0711,53,32,903,16,12,DB,1
39XT0711,53,16,903,16,6,FL,1
39XT0811,53,20,903,20,6,FL,1
39XT0711,53,24,903,16,6,DB,1
39XT0811,53,30,903,20,6,DB,1
39XT0711,53,8,903,16,8,HF,1
39XT0811,53,10,903,20,8,HF,1
39XT0711,53,16,903,16,8,FL,1
39XT0811,53,20,903,20,8,FL,1
39XT0711,53,32,903,16,8,DB,1
39XT0811,53,40,903,20,8,DB,1
39XT0811,53,40,903,20,12,DB,1
39XT0711,53,8,903,16,3,HF,1
39XT0811,53,10,903,20,3,HF,1
39XT0711,53,16,903,16,3,FL,1
39XT0811,53,20,903,20,3,FL,1
39XT0711,53,8,903,16,5,HF,1
39XT0811,53,11,903,20,5,HF,1
39XT0711,53,16,903,16,5,FL,1
39XT0811,53,20,903,20,5,FL,1
39XT0711,53,20,903,16,5,DB,1
39XT0811,53,25,903,20,5,DB,1
39XT0711,53,8,903,16,7,HF,1
39XT0811,53,10,903,20,7,HF,1
39XT0711,53,16,903,16,7,FL,1
39XT0811,53,20,903,20,7,FL,1
39XT0711,53,28,903,16,7,DB,1
39XT0811,53,35,903,20,7,DB,1
39XT0711,53,8,903,16,4,HF,1
39XT0811,53,10,903,20,4,HF,1
39XT0711,53,16,903,16,4,FL,1
39XT0811,53,20,903,20,4,FL,1
39XT0711,53,8,903,16,6,HF,1
39XT0811,53,10,903,20,6,HF,1
39XT0711,53,8,903,16,10,HF,1
39XT0811,53,10,903,20,10,HF,1
39XT3438,53,34,1623,34,4,FL,0.14407
39XT3438,53,34,1623,34,4,FL,0.14407
39XT3438,53,34,1623,34,8,FL,0.14407
39XT3438,53,34,1623,34,8,FL,0.14407
39XT3438,53,51,1623,34,6,DB,0.14407
39XT3438,53,51,1623,34,6,DB,0.14407
39XT3438,53,68,1623,34,8,DB,0.14407
39XT3438,53,68,1623,34,8,DB,0.14407
39XT3438,53,34,1623,34,6,FL,0.14407
39XT3438,53,34,1623,34,6,FL,0.14407
39XT3438,53,34,1623,34,7,FL,0.14407
39XT3438,53,34,1623,34,7,FL,0.14407
39XT1015,68,13,1288,26,3,HF,1
39XT0912,68,22,988,22,3,FL,1
39XT0913,68,22,1088,22,3,FL,1
39XT0914,68,22,1188,22,3,FL,1
39XT1015,68,26,1288,26,3,FL,1
39XT0912,68,12,988,22,5,HF,1
39XT0913,68,12,1088,22,5,HF,1
39XT0914,68,12,1188,22,5,HF,1
39XT1015,68,14,1288,26,5,HF,1
39XT0912,68,22,988,22,5,FL,1
39XT0913,68,22,1088,22,5,FL,1
39XT0914,68,22,1188,22,5,FL,1
39XT1015,68,26,1288,26,5,FL,1
39XT0912,68,27,988,22,5,DB,1
39XT0913,68,27,1088,22,5,DB,1
39XT0914,68,27,1188,22,5,DB,1
39XT1015,68,32,1288,26,5,DB,1
39XT0912,68,11,988,22,7,HF,1
39XT0913,68,11,1088,22,7,HF,1
39XT0914,68,11,1188,22,7,HF,1
39XT1015,68,13,1288,26,7,HF,1
39XT0912,68,22,988,22,7,FL,1
39XT0913,68,22,1088,22,7,FL,1
39XT0914,68,22,1188,22,7,FL,1
39XT1015,68,26,1288,26,7,FL,1
39XT0912,68,38,988,22,7,DB,1
39XT0913,68,38,1088,22,7,DB,1
39XT0914,68,38,1188,22,7,DB,1
39XT1015,68,45,1288,26,7,DB,1
39XT0912,65,11,988,22,4,HF,1
39XT0913,65,11,1088,22,4,HF,1
39XT0914,65,11,1188,22,4,HF,1
39XT1015,65,13,1288,26,4,HF,1
39XT0912,65,22,988,22,4,FL,1
39XT0913,65,22,1088,22,4,FL,1
39XT0914,65,22,1188,22,4,FL,1
39XT1015,65,26,1288,26,4,FL,1
39XT0912,65,11,988,22,6,HF,1
39XT0913,65,11,1088,22,6,HF,1
39XT0914,65,11,1188,22,6,HF,1
39XT1015,65,13,1288,26,6,HF,1
39XT0912,65,22,988,22,6,FL,1
39XT0913,65,22,1088,22,6,FL,1
39XT0914,65,22,1188,22,6,FL,1
39XT1015,65,26,1288,26,6,FL,1
39XT0912,65,33,988,22,6,DB,1
39XT0913,65,33,1088,22,6,DB,1
39XT0914,65,33,1188,22,6,DB,1
39XT1015,65,39,1288,26,6,DB,1
39XT0912,65,11,988,22,8,HF,1
39XT0913,65,11,1088,22,8,HF,1
39XT0914,65,11,1188,22,8,HF,1
39XT1015,65,13,1288,26,8,HF,1
39XT0912,65,22,988,22,8,FL,1
39XT0913,65,22,1088,22,8,FL,1
39XT0914,65,22,1188,22,8,FL,1
39XT1015,65,26,1288,26,8,FL,1
39XT0912,65,44,988,22,8,DB,1
39XT0913,65,44,1088,22,8,DB,1
39XT0914,65,44,1188,22,8,DB,1
39XT1015,65,52,1288,26,8,DB,1
39XT0912,65,11,988,22,10,HF,1
39XT0913,65,11,1088,22,10,HF,1
39XT0914,65,11,1188,22,10,HF,1
39XT1015,65,13,1288,26,10,HF,1
39XT0912,65,22,988,22,10,FL,1
39XT0913,65,22,1088,22,10,FL,1
39XT0914,65,22,1188,22,10,FL,1
39XT1015,65,26,1288,26,10,FL,1
39XT0912,65,44,988,22,10,DB,1
39XT0913,65,44,1088,22,10,DB,1
39XT0914,65,44,1188,22,10,DB,1
39XT1015,65,52,1288,26,10,DB,1
39XT0912,65,11,988,22,12,HF,1
39XT0913,65,11,1088,22,12,HF,1
39XT0914,65,11,1188,22,12,HF,1
39XT1015,65,13,1288,26,12,HF,1
39XT0912,65,22,988,22,12,FL,1
39XT0913,65,22,1088,22,12,FL,1
39XT0914,65,22,1188,22,12,FL,1
39XT1015,65,26,1288,26,12,FL,1
39XT0912,65,44,988,22,12,DB,1
39XT0913,65,44,1088,22,12,DB,1
39XT0914,65,44,1188,22,12,DB,1
39XT1015,65,52,1288,26,12,DB,1
39XT0912,68,11,988,22,3,HF,1
39XT0913,68,11,1088,22,3,HF,1
39XT0914,68,11,1188,22,3,HF,1
39XT2328,81,12,2574,24,1,HF,0.36
39XT2328,81,21,2574,42,1,HF,0.64
39XT1117,81,14,1474,28,4,HF,1
39XT1317,81,18,1474,36,4,HF,1
39XT1418,81,19,1574,38,4,HF,1
39XT1420,81,19,1774,38,4,HF,1
39XT1621,81,22,1874,44,4,HF,1
39XT1822,81,26,1974,52,4,HF,1
39XT1825,81,26,2274,52,4,HF,1
39XT2025,81,12,2274,24,4,HF,0.43
39XT2025,81,16,2274,32,4,HF,0.57
39XT2125,81,12,2274,24,4,HF,0.4
39XT2125,81,18,2274,36,4,HF,0.6
39XT2226,81,12,2374,24,4,HF,0.38
39XT2226,81,20,2374,40,4,HF,0.63
39XT2328,81,12,2574,24,4,HF,0.36
39XT2328,81,21,2574,42,4,HF,0.64
39XT2333,81,12,3074,24,4,HF,0.36
39XT2333,81,21,3074,42,4,HF,0.64
39XT1117,81,28,1474,28,4,FL,1
39XT1317,81,36,1474,36,4,FL,1
39XT1418,81,38,1574,38,4,FL,1
39XT1420,81,38,1774,38,4,FL,1
39XT1621,81,44,1874,44,4,FL,1
39XT1822,81,52,1974,52,4,FL,1
39XT1825,81,52,2274,52,4,FL,1
39XT2025,81,24,2274,24,4,FL,0.43
39XT2025,81,32,2274,32,4,FL,0.57
39XT2125,81,24,2274,24,4,FL,0.4
39XT2125,81,36,2274,36,4,FL,0.6
39XT2226,81,24,2374,24,4,FL,0.38
39XT2226,81,40,2374,40,4,FL,0.63
39XT2328,81,24,2574,24,4,FL,0.36
39XT2328,81,42,2574,42,4,FL,0.64
39XT2333,81,24,3074,24,4,FL,0.36
39XT2333,81,42,3074,42,4,FL,0.64
39XT1117,81,14,1474,28,6,HF,1
39XT1317,81,18,1474,36,6,HF,1
39XT1418,81,19,1574,38,6,HF,1
39XT1420,81,19,1774,38,6,HF,1
39XT1621,81,22,1874,44,6,HF,1
39XT1822,81,26,1974,52,6,HF,1
39XT1825,81,26,2274,52,6,HF,1
39XT2025,81,12,2274,24,6,HF,0.43
39XT2025,81,16,2274,32,6,HF,0.57
39XT2125,81,12,2274,24,6,HF,0.4
39XT2125,81,18,2274,36,6,HF,0.6
39XT2226,81,12,2374,24,6,HF,0.38
39XT2226,81,20,2374,40,6,HF,0.63
39XT2328,81,12,2574,24,6,HF,0.36
39XT2328,81,21,2574,42,6,HF,0.64
39XT2333,81,12,3074,24,6,HF,0.36
39XT2333,81,21,3074,42,6,HF,0.64
39XT1117,81,28,1474,28,6,FL,1
39XT1317,81,36,1474,36,6,FL,1
39XT1418,81,38,1574,38,6,FL,1
39XT1420,81,38,1774,38,6,FL,1
39XT1621,81,44,1874,44,6,FL,1
39XT1822,81,52,1974,52,6,FL,1
39XT1825,81,52,2274,52,6,FL,1
39XT2025,81,24,2274,24,6,FL,0.43
39XT2025,81,32,2274,32,6,FL,0.57
39XT2125,81,24,2274,24,6,FL,0.4
39XT2125,81,36,2274,36,6,FL,0.6
39XT2226,81,24,2374,24,6,FL,0.38
39XT2226,81,40,2374,40,6,FL,0.63
39XT2328,81,24,2574,24,6,FL,0.36
39XT2328,81,42,2574,42,6,FL,0.64
39XT2333,81,24,3074,24,6,FL,0.36
39XT2333,81,42,3074,42,6,FL,0.64
39XT1117,81,42,1474,28,6,DB,1
39XT1317,81,54,1474,36,6,DB,1
39XT1418,81,57,1574,38,6,DB,1
39XT1420,81,57,1774,38,6,DB,1
39XT1621,81,66,1874,44,6,DB,1
39XT1822,81,78,1974,52,6,DB,1
39XT1825,81,78,2274,52,6,DB,1
39XT2025,81,36,2274,24,6,DB,0.43
39XT2025,81,48,2274,32,6,DB,0.57
39XT2125,81,36,2274,24,6,DB,0.4
39XT2125,81,54,2274,36,6,DB,0.6
39XT2226,81,36,2374,24,6,DB,0.38
39XT2226,81,60,2374,40,6,DB,0.63
39XT2328,81,36,2574,24,6,DB,0.36
39XT2328,81,63,2574,42,6,DB,0.64
39XT2333,81,36,3074,24,6,DB,0.36
39XT2333,81,63,3074,42,6,DB,0.64
39XT1117,81,14,1474,28,8,HF,1
39XT1317,81,18,1474,36,8,HF,1
39XT1418,81,19,1574,38,8,HF,1
39XT1420,81,19,1774,38,8,HF,1
39XT1621,81,22,1874,44,8,HF,1
39XT1822,81,26,1974,52,8,HF,1
39XT1825,81,26,2274,52,8,HF,1
39XT2025,81,12,2274,24,8,HF,0.43
39XT2025,81,16,2274,32,8,HF,0.57
39XT2125,81,12,2274,24,8,HF,0.4
39XT2125,81,18,2274,36,8,HF,0.6
39XT2226,81,12,2374,24,8,HF,0.38
39XT2226,81,20,2374,40,8,HF,0.63
39XT2328,81,12,2574,24,8,HF,0.36
39XT2328,81,21,2574,42,8,HF,0.64
39XT2333,81,12,3074,24,8,HF,0.36
39XT2333,81,21,3074,42,8,HF,0.64
39XT1117,81,28,1474,28,8,FL,1
39XT1317,81,36,1474,36,8,FL,1
39XT1418,81,38,1574,38,8,FL,1
39XT1420,81,38,1774,38,8,FL,1
39XT1621,81,44,1874,44,8,FL,1
39XT1822,81,52,1974,52,8,FL,1
39XT1825,81,52,2274,52,8,FL,1
39XT2025,81,24,2274,24,8,FL,0.43
39XT2025,81,32,2274,32,8,FL,0.57
39XT2125,81,24,2274,24,8,FL,0.4
39XT2125,81,36,2274,36,8,FL,0.6
39XT2226,81,24,2374,24,8,FL,0.38
39XT2226,81,40,2374,40,8,FL,0.63
39XT2328,81,24,2574,24,8,FL,0.36
39XT2328,81,42,2574,42,8,FL,0.64
39XT2333,81,24,3074,24,8,FL,0.36
39XT2333,81,42,3074,42,8,FL,0.64
39XT1117,81,56,1474,28,8,DB,1
39XT1317,81,72,1474,36,8,DB,1
39XT1418,81,76,1574,38,8,DB,1
39XT1420,81,76,1774,38,8,DB,1
39XT1621,81,88,1874,44,8,DB,1
39XT1822,81,104,1974,52,8,DB,1
39XT1825,81,104,2274,52,8,DB,1
39XT2025,81,48,2274,24,8,DB,0.43
39XT2025,81,64,2274,32,8,DB,0.57
39XT2125,81,48,2274,24,8,DB,0.4
39XT2125,81,72,2274,36,8,DB,0.6
39XT2226,81,48,2374,24,8,DB,0.38
39XT2226,81,80,2374,40,8,DB,0.63
39XT2328,81,48,2574,24,8,DB,0.36
39XT2328,81,84,2574,42,8,DB,0.64
39XT2333,81,48,3074,24,8,DB,0.36
39XT2333,81,84,3074,42,8,DB,0.64
39XT1117,81,14,1474,28,10,HF,1
39XT1317,81,18,1474,36,10,HF,1
39XT1418,81,19,1574,38,10,HF,1
39XT1420,81,19,1774,38,10,HF,1
39XT1621,81,22,1874,44,10,HF,1
39XT1822,81,26,1974,52,10,HF,1
39XT1825,81,26,2274,52,10,HF,1
39XT2025,81,12,2274,24,10,HF,0.43
39XT2025,81,16,2274,32,10,HF,0.57
39XT2125,81,12,2274,24,10,HF,0.4
39XT2125,81,18,2274,36,10,HF,0.6
39XT2226,81,12,2374,24,10,HF,0.38
39XT2226,81,20,2374,40,10,HF,0.63
39XT2328,81,12,2574,24,10,HF,0.36
39XT2328,81,21,2574,42,10,HF,0.64
39XT2333,81,12,3074,24,10,HF,0.36
39XT2333,81,21,3074,42,10,HF,0.64
39XT1117,81,28,1474,28,10,FL,1
39XT1317,81,36,1474,36,10,FL,1
39XT1418,81,38,1574,38,10,FL,1
39XT1420,81,38,1774,38,10,FL,1
39XT1621,81,44,1874,44,10,FL,1
39XT1822,81,52,1974,52,10,FL,1
39XT1825,81,52,2274,52,10,FL,1
39XT2025,81,24,2274,24,10,FL,0.43
39XT2025,81,32,2274,32,10,FL,0.57
39XT2125,81,24,2274,24,10,FL,0.4
39XT2125,81,36,2274,36,10,FL,0.6
39XT2226,81,24,2374,24,10,FL,0.38
39XT2226,81,40,2374,40,10,FL,0.63
39XT2328,81,24,2574,24,10,FL,0.36
39XT2328,81,42,2574,42,10,FL,0.64
39XT2333,81,24,3074,24,10,FL,0.36
39XT2333,81,42,3074,42,10,FL,0.64
39XT1117,81,56,1474,28,10,DB,1
39XT1317,81,72,1474,36,10,DB,1
39XT1418,81,76,1574,38,10,DB,1
39XT1420,81,76,1774,38,10,DB,1
39XT1621,81,88,1874,44,10,DB,1
39XT1822,81,104,1974,52,10,DB,1
39XT1825,81,104,2274,52,10,DB,1
39XT2025,81,48,2274,24,10,DB,0.43
39XT2025,81,64,2274,32,10,DB,0.57
39XT2125,81,48,2274,24,10,DB,0.4
39XT2125,81,72,2274,36,10,DB,0.6
39XT2226,81,48,2374,24,10,DB,0.38
39XT2226,81,80,2374,40,10,DB,0.63
39XT2328,81,48,2574,24,10,DB,0.36
39XT2328,81,84,2574,42,10,DB,0.64
39XT2333,81,48,3074,24,10,DB,0.36
39XT2333,81,84,3074,42,10,DB,0.64
39XT1117,81,14,1474,28,12,HF,1
39XT1317,81,18,1474,36,12,HF,1
39XT1418,81,19,1574,38,12,HF,1
39XT1420,81,19,1774,38,12,HF,1
39XT1621,81,22,1874,44,12,HF,1
39XT1822,81,26,1974,52,12,HF,1
39XT1825,81,26,2274,52,12,HF,1
39XT2025,81,12,2274,24,12,HF,0.43
39XT2025,81,16,2274,32,12,HF,0.57
39XT2125,81,12,2274,24,12,HF,0.4
39XT2125,81,18,2274,36,12,HF,0.6
39XT2226,81,12,2374,24,12,HF,0.38
39XT2226,81,20,2374,40,12,HF,0.63
39XT2328,81,12,2574,24,12,HF,0.36
39XT2328,81,21,2574,42,12,HF,0.64
39XT2333,81,12,3074,24,12,HF,0.36
39XT2333,81,21,3074,42,12,HF,0.64
39XT1117,81,28,1474,28,12,FL,1
39XT1317,81,36,1474,36,12,FL,1
39XT1418,81,38,1574,38,12,FL,1
39XT1420,81,38,1774,38,12,FL,1
39XT1621,81,44,1874,44,12,FL,1
39XT1822,81,52,1974,52,12,FL,1
39XT1825,81,52,2274,52,12,FL,1
39XT2025,81,24,2274,24,12,FL,0.43
39XT2025,81,32,2274,32,12,FL,0.57
39XT2125,81,24,2274,24,12,FL,0.4
39XT2125,81,36,2274,36,12,FL,0.6
39XT2226,81,24,2374,24,12,FL,0.38
39XT2226,81,40,2374,40,12,FL,0.63
39XT2328,81,24,2574,24,12,FL,0.36
39XT2328,81,42,2574,42,12,FL,0.64
39XT2333,81,24,3074,24,12,FL,0.36
39XT2333,81,42,3074,42,12,FL,0.64
39XT1117,81,56,1474,28,12,DB,1
39XT1317,81,72,1474,36,12,DB,1
39XT1418,81,76,1574,38,12,DB,1
39XT1420,81,76,1774,38,12,DB,1
39XT1621,81,88,1874,44,12,DB,1
39XT1822,81,104,1974,52,12,DB,1
39XT1825,81,104,2274,52,12,DB,1
39XT2025,81,48,2274,24,12,DB,0.43
39XT2025,81,64,2274,32,12,DB,0.57
39XT2125,81,48,2274,24,12,DB,0.4
39XT2125,81,72,2274,36,12,DB,0.6
39XT2226,81,48,2374,24,12,DB,0.38
39XT2226,81,80,2374,40,12,DB,0.63
39XT2328,81,48,2574,24,12,DB,0.36
39XT2328,81,84,2574,42,12,DB,0.64
39XT2333,81,48,3074,24,12,DB,0.36
39XT2333,81,84,3074,42,12,DB,0.64
39XT2532,81,44,2883,44,4,FL,0.5
39XT2532,81,44,2883,44,4,FL,0.5
39XT2532,81,66,2883,44,6,DB,0.5
39XT2532,81,66,2883,44,6,DB,0.5
39XT2532,81,44,2883,44,6,FL,0.5
39XT2532,81,44,2883,44,6,FL,0.5
39XT2532,81,44,2883,44,8,FL,0.5
39XT2532,81,44,2883,44,8,FL,0.5
39XT2532,81,88,2883,44,8,DB,0.5
39XT2532,81,88,2883,44,8,DB,0.5
39XT2832,81,44,2883,44,4,FL,0.45
39XT2832,81,34,2883,34,4,FL,0.35
39XT2832,81,44,2883,44,6,FL,0.45
39XT2832,81,34,2883,34,6,FL,0.35
39XT2832,81,44,2883,44,8,FL,0.45
39XT2832,81,34,2883,34,8,FL,0.35
39XT2832,81,66,2883,44,6,DB,0.45
39XT2832,81,51,2883,34,6,DB,0.35
39XT2832,81,88,2883,44,8,DB,0.45
39XT2832,81,68,2883,34,8,DB,0.35
39XT3132,81,44,2883,44,4,FL,0.407
39XT3132,81,44,2883,44,4,FL,0.407
39XT3132,81,44,2883,44,6,FL,0.407
39XT3132,81,44,2883,44,6,FL,0.407
39XT3132,81,44,2883,44,8,FL,0.407
39XT3132,81,44,2883,44,8,FL,0.407
39XT3132,81,66,2883,44,6,DB,0.407
39XT3132,81,66,2883,44,6,DB,0.407
39XT3132,81,88,2883,44,8,DB,0.407
39XT3132,81,88,2883,44,8,DB,0.407
39XT3438,81,44,1623,44,4,FL,0.18644
39XT3438,81,44,1623,44,4,FL,0.18644
39XT3438,81,44,1623,44,8,FL,0.18644
39XT3438,81,44,1623,44,8,FL,0.18644
39XT3438,81,66,1623,44,6,DB,0.18644
39XT3438,81,66,1623,44,6,DB,0.18644
39XT3438,81,44,1623,44,6,FL,0.18644
39XT3438,81,44,1623,44,6,FL,0.18644
39XT3438,81,88,1623,44,8,DB,0.18644
39XT3438,81,88,1623,44,8,DB,0.18644
39XT3841,81,44,1623,44,4,FL,0.15667
39XT3841,81,44,1623,44,4,FL,0.15667
39XT3841,81,44,1938,44,4,FL,0.18708
39XT3841,81,44,1938,44,4,FL,0.18708
39XT3841,81,44,1623,44,6,FL,0.15667
39XT3841,81,44,1623,44,6,FL,0.15667
39XT3841,81,44,1938,44,6,FL,0.18708
39XT3841,81,44,1938,44,6,FL,0.18708
39XT3841,81,44,1623,44,8,FL,0.15667
39XT3841,81,44,1623,44,8,FL,0.15667
39XT3841,81,44,1938,44,8,FL,0.18708
39XT3841,81,44,1938,44,8,FL,0.18708
39XT3841,81,66,1623,44,6,DB,0.15667
39XT3841,81,66,1623,44,6,DB,0.15667
39XT3841,81,66,1938,44,6,DB,0.18708
39XT3841,81,66,1938,44,6,DB,0.18708
39XT3841,81,88,1623,44,8,DB,0.15667
39XT3841,81,88,1623,44,8,DB,0.15667
39XT3841,81,88,1938,44,8,DB,0.18708
39XT3841,81,88,1938,44,8,DB,0.18708
39XT4444,81,34,1938,34,4,FL,0.11972
39XT4444,81,34,1938,34,4,FL,0.11972
39XT4444,81,44,1938,44,4,FL,0.15493
39XT4444,81,44,1938,44,4,FL,0.15493
39XT4444,81,44,1938,44,4,FL,0.15493
39XT4444,81,44,1938,44,4,FL,0.15493
39XT4444,81,34,1938,34,8,FL,0.11972
39XT4444,81,34,1938,34,8,FL,0.11972
39XT4444,81,44,1938,44,8,FL,0.15493
39XT4444,81,44,1938,44,8,FL,0.15493
39XT4444,81,44,1938,44,8,FL,0.15493
39XT4444,81,44,1938,44,8,FL,0.15493
39XT4444,81,66,1938,34,6,DB,0.11972
39XT4444,81,66,1938,34,6,DB,0.11972
39XT4444,81,30,1938,44,6,DB,0.15493
39XT4444,81,34,1938,34,6,FL,0.11972
39XT4444,81,34,1938,34,6,FL,0.11972
39XT4444,81,44,1938,44,6,FL,0.15493
39XT4444,81,44,1938,44,6,FL,0.15493
39XT4444,81,44,1938,44,6,FL,0.15493
39XT4444,81,44,1938,44,6,FL,0.15493
39XT4444,81,30,1938,44,6,DB,0.15493
39XT4444,81,66,1938,44,6,DB,0.15493
39XT4444,81,66,1938,44,6,DB,0.15493
39XT4444,81,88,1938,34,8,DB,0.11972
39XT4444,81,88,1938,34,8,DB,0.11972
39XT4444,81,40,1938,44,8,DB,0.15493
39XT4444,81,40,1938,44,8,DB,0.15493
39XT4444,81,88,1938,44,8,DB,0.15493
39XT4444,81,88,1938,44,8,DB,0.15493
39XT4750,81,34,2253,34,6,FL,0.11184
39XT4750,81,34,2253,34,6,FL,0.11184
39XT4750,81,34,2253,34,6,FL,0.11184
39XT4750,81,34,2253,34,6,FL,0.11184
39XT4750,81,44,2253,44,6,FL,0.14474
39XT4750,81,44,2253,44,6,FL,0.14474
39XT4750,81,34,2253,34,8,FL,0.11184
39XT4750,81,34,2253,34,8,FL,0.11184
39XT4750,81,34,2253,34,8,FL,0.11184
39XT4750,81,34,2253,34,8,FL,0.11184
39XT4750,81,44,2253,44,8,FL,0.14474
39XT4750,81,44,2253,44,8,FL,0.14474
39XT4750,81,68,2253,34,8,DB,0.11184
39XT4750,81,68,2253,34,8,DB,0.11184
39XT4750,81,68,2253,34,8,DB,0.11184
39XT4750,81,68,2253,34,8,DB,0.11184
39XT4750,81,88,2253,44,8,DB,0.14474
39XT4750,81,88,2253,44,8,DB,0.14474
39XT4750,81,34,2253,34,4,FL,0.11184
39XT4750,81,34,2253,34,4,FL,0.11184
39XT4750,81,34,2253,34,4,FL,0.11184
39XT4750,81,34,2253,34,4,FL,0.11184
39XT4750,81,44,2253,44,4,FL,0.14474
39XT4750,81,44,2253,44,4,FL,0.14474
39XT4750,81,51,2253,34,6,DB,0.11184
39XT4750,81,51,2253,34,6,DB,0.11184
39XT4750,81,51,2253,34,6,DB,0.11184
39XT4750,81,51,2253,34,6,DB,0.11184
39XT4750,81,66,2253,44,6,DB,0.14474
39XT4750,81,66,2253,44,6,DB,0.14474
39XT2330,81,12,2774,24,4,HF,0.36
39XT2330,81,21,2774,42,4,HF,0.64
39XT2330,81,24,2774,24,4,FL,0.36
39XT2330,81,42,2774,42,4,FL,0.64
39XT2330,81,12,2774,24,6,HF,0.36
39XT2330,81,21,2774,42,6,HF,0.64
39XT2330,81,24,2774,24,6,FL,0.36
39XT2330,81,42,2774,42,6,FL,0.64
39XT2330,81,36,2774,24,6,DB,0.36
39XT2330,81,63,2774,42,6,DB,0.64
39XT2330,81,12,2774,24,8,HF,0.36
39XT2330,81,21,2774,42,8,HF,0.64
39XT2330,81,24,2774,24,8,FL,0.36
39XT2330,81,42,2774,42,8,FL,0.64
39XT2330,81,48,2774,24,8,DB,0.36
39XT2330,81,84,2774,42,8,DB,0.64
39XT2330,81,12,2774,24,10,HF,0.36
39XT2330,81,21,2774,42,10,HF,0.64
39XT2330,81,24,2774,24,10,FL,0.36
39XT2330,81,42,2774,42,10,FL,0.64
39XT2330,81,48,2774,24,10,DB,0.36
39XT2330,81,84,2774,42,10,DB,0.64
39XT2330,81,12,2774,24,12,HF,0.36
39XT2330,81,21,2774,42,12,HF,0.64
39XT2330,81,24,2774,24,12,FL,0.36
39XT2330,81,42,2774,42,12,FL,0.64
39XT2330,81,48,2774,24,12,DB,0.36
39XT2330,81,84,2774,42,12,DB,0.64
39XT1117,81,14,1474,28,3,HF,1
39XT1317,81,18,1474,36,3,HF,1
39XT1418,81,19,1574,38,3,HF,1
39XT1420,81,19,1774,38,3,HF,1
39XT1621,81,22,1874,44,3,HF,1
39XT1822,81,26,1974,52,3,HF,1
39XT1825,81,26,2274,52,3,HF,1
39XT2025,81,12,2274,24,3,HF,0.43
39XT2025,81,16,2274,32,3,HF,0.57
39XT2125,81,12,2274,24,3,HF,0.4
39XT2125,81,18,2274,36,3,HF,0.6
39XT2226,81,12,2374,24,3,HF,0.38
39XT2226,81,20,2374,40,3,HF,0.63
39XT2328,81,12,2574,24,3,HF,0.36
39XT2328,81,21,2574,42,3,HF,0.64
39XT2333,81,12,3074,24,3,HF,0.36
39XT2333,81,21,3074,42,3,HF,0.64
39XT1117,81,28,1474,28,3,FL,1
39XT1317,81,36,1474,36,3,FL,1
39XT1418,81,38,1574,38,3,FL,1
39XT1420,81,38,1774,38,3,FL,1
39XT1621,81,44,1874,44,3,FL,1
39XT1822,81,52,1974,52,3,FL,1
39XT1825,81,52,2274,52,3,FL,1
39XT2025,81,24,2274,24,3,FL,0.43
39XT2025,81,32,2274,32,3,FL,0.57
39XT2125,81,24,2274,24,3,FL,0.4
39XT2125,81,36,2274,36,3,FL,0.6
39XT2226,81,24,2374,24,3,FL,0.38
39XT2226,81,40,2374,40,3,FL,0.63
39XT2328,81,24,2574,24,3,FL,0.36
39XT2328,81,42,2574,42,3,FL,0.64
39XT2333,81,24,3074,24,3,FL,0.36
39XT2333,81,42,3074,42,3,FL,0.64
39XT1117,81,15,1474,28,5,HF,1
39XT1317,81,19,1474,36,5,HF,1
39XT1418,81,20,1574,38,5,HF,1
39XT1420,81,20,1774,38,5,HF,1
39XT1621,81,23,1874,44,5,HF,1
39XT1822,81,27,1974,52,5,HF,1
39XT1825,81,27,2274,52,5,HF,1
39XT2025,81,13,2274,24,5,HF,0.43
39XT2025,81,17,2274,32,5,HF,0.57
39XT2125,81,13,2274,24,5,HF,0.4
39XT2125,81,19,2274,36,5,HF,0.6
39XT2226,81,13,2374,24,5,HF,0.38
39XT2226,81,21,2374,40,5,HF,0.63
39XT2328,81,13,2574,24,5,HF,0.36
39XT2328,81,22,2574,42,5,HF,0.64
39XT2333,81,13,3074,24,5,HF,0.36
39XT2333,81,22,3074,42,5,HF,0.64
39XT1117,81,28,1474,28,5,FL,1
39XT1317,81,36,1474,36,5,FL,1
39XT1418,81,38,1574,38,5,FL,1
39XT1420,81,38,1774,38,5,FL,1
39XT1621,81,44,1874,44,5,FL,1
39XT1822,81,52,1974,52,5,FL,1
39XT1825,81,52,2274,52,5,FL,1
39XT2025,81,24,2274,24,5,FL,0.43
39XT2025,81,32,2274,32,5,FL,0.57
39XT2125,81,24,2274,24,5,FL,0.4
39XT2125,81,36,2274,36,5,FL,0.6
39XT2226,81,24,2374,24,5,FL,0.38
39XT2226,81,40,2374,40,5,FL,0.63
39XT2328,81,24,2574,24,5,FL,0.36
39XT2328,81,42,2574,42,5,FL,0.64
39XT2333,81,24,3074,24,5,FL,0.36
39XT2333,81,42,3074,42,5,FL,0.64
39XT1117,81,35,1474,28,5,DB,1
39XT1317,81,45,1474,36,5,DB,1
39XT1418,81,47,1574,38,5,DB,1
39XT1420,81,47,1774,38,5,DB,1
39XT1621,81,55,1874,44,5,DB,1
39XT1822,81,65,1974,52,5,DB,1
39XT1825,81,65,2274,52,5,DB,1
39XT2025,81,30,2274,24,5,DB,0.43
39XT2025,81,40,2274,32,5,DB,0.57
39XT2125,81,30,2274,24,5,DB,0.4
39XT2125,81,45,2274,36,5,DB,0.6
39XT2226,81,30,2374,24,5,DB,0.38
39XT2226,81,50,2374,40,5,DB,0.63
39XT2328,81,30,2574,24,5,DB,0.36
39XT2328,81,52,2574,42,5,DB,0.64
39XT2333,81,30,3074,24,5,DB,0.36
39XT2333,81,52,3074,42,5,DB,0.64
39XT2330,81,13,2774,24,5,HF,0.36
39XT2330,81,22,2774,42,5,HF,0.64
39XT2330,81,24,2774,24,5,FL,0.36
39XT2330,81,42,2774,42,5,FL,0.64
39XT2330,81,30,2774,24,5,DB,0.36
39XT2330,81,52,2774,42,5,DB,0.64
39XT1117,81,14,1474,28,7,HF,1
39XT1317,81,18,1474,36,7,HF,1
39XT1418,81,19,1574,38,7,HF,1
39XT1420,81,19,1774,38,7,HF,1
39XT1621,81,22,1874,44,7,HF,1
39XT1822,81,26,1974,52,7,HF,1
39XT1825,81,26,2274,52,7,HF,1
39XT2025,81,12,2274,24,7,HF,0.43
39XT2025,81,16,2274,32,7,HF,0.57
39XT2125,81,12,2274,24,7,HF,0.4
39XT2125,81,18,2274,36,7,HF,0.6
39XT2226,81,12,2374,24,7,HF,0.38
39XT2226,81,20,2374,40,7,HF,0.63
39XT2328,81,12,2574,24,7,HF,0.36
39XT2328,81,21,2574,42,7,HF,0.64
39XT2333,81,12,3074,24,7,HF,0.36
39XT2333,81,21,3074,42,7,HF,0.64
39XT1117,81,28,1474,28,7,FL,1
39XT1317,81,36,1474,36,7,FL,1
39XT1418,81,38,1574,38,7,FL,1
39XT1420,81,38,1774,38,7,FL,1
39XT1621,81,44,1874,44,7,FL,1
39XT1822,81,52,1974,52,7,FL,1
39XT1825,81,52,2274,52,7,FL,1
39XT2025,81,24,2274,24,7,FL,0.43
39XT2025,81,32,2274,32,7,FL,0.57
39XT2125,81,24,2274,24,7,FL,0.4
39XT2125,81,36,2274,36,7,FL,0.6
39XT2226,81,24,2374,24,7,FL,0.38
39XT2226,81,40,2374,40,7,FL,0.63
39XT2328,81,24,2574,24,7,FL,0.36
39XT2328,81,42,2574,42,7,FL,0.64
39XT2333,81,24,3074,24,7,FL,0.36
39XT2333,81,42,3074,42,7,FL,0.64
39XT1117,81,49,1474,28,7,DB,1
39XT1317,81,63,1474,36,7,DB,1
39XT1418,81,66,1574,38,7,DB,1
39XT1420,81,66,1774,38,7,DB,1
39XT1621,81,77,1874,44,7,DB,1
39XT1822,81,91,1974,52,7,DB,1
39XT1825,81,91,2274,52,7,DB,1
39XT2025,81,42,2274,24,7,DB,0.43
39XT2025,81,56,2274,32,7,DB,0.57
39XT2125,81,42,2274,24,7,DB,0.4
39XT2125,81,63,2274,36,7,DB,0.6
39XT2226,81,42,2374,24,7,DB,0.38
39XT2226,81,70,2374,40,7,DB,0.63
39XT2328,81,42,2574,24,7,DB,0.36
39XT2328,81,73,2574,42,7,DB,0.64
39XT2333,81,42,3074,24,7,DB,0.36
39XT2333,81,73,3074,42,7,DB,0.64
39XT2330,81,12,2774,24,7,HF,0.36
39XT2330,81,21,2774,42,7,HF,0.64
39XT2330,81,24,2774,24,7,FL,0.36
39XT2330,81,42,2774,42,7,FL,0.64
39XT2330,81,42,2774,24,7,DB,0.36
39XT2330,81,73,2774,42,7,DB,0.64
39XT2330,81,12,2774,24,3,HF,0.36
39XT2330,81,21,2774,42,3,HF,0.64
39XT2330,81,24,2774,24,3,FL,0.36
39XT2330,81,42,2774,42,3,FL,0.64
39CQ2435,41,12,3250,24,1,HF,0.34
39CQ2435,41,23,3250,46,1,HF,0.66
39CQ2435,41,12,3250,24,2,HF,0.34
39CQ2435,41,23,3250,46,2,HF,0.66
39CQ2435,41,24,3250,24,2,FL,0.34
39CQ2435,41,46,3250,46,2,FL,0.66
39CQ2435,106,12,3250,24,4,HF,0.34
39CQ2435,106,23,3250,46,4,HF,0.66
39CQ2435,106,24,3250,24,4,FL,0.34
39CQ2435,106,46,3250,46,4,FL,0.66
39CQ2435,106,12,3250,24,6,HF,0.34
39CQ2435,106,23,3250,46,6,HF,0.66
39CQ2435,106,24,3250,24,6,FL,0.34
39CQ2435,106,46,3250,46,6,FL,0.66
39CQ2435,106,36,3250,24,6,DB,0.34
39CQ2435,106,69,3250,46,6,DB,0.66
39CQ2435,106,12,3250,24,8,HF,0.34
39CQ2435,106,23,3250,46,8,HF,0.66
39CQ2435,106,24,3250,24,8,FL,0.34
39CQ2435,106,46,3250,46,8,FL,0.66
39CQ2435,106,48,3250,24,8,DB,0.34
39CQ2435,106,92,3250,46,8,DB,0.66
39CQ2435,106,12,3250,24,10,HF,0.34
39CQ2435,106,23,3250,46,10,HF,0.66
39CQ2435,106,24,3250,24,10,FL,0.34
39CQ2435,106,46,3250,46,10,FL,0.66
39CQ2435,106,48,3250,24,10,DB,0.34
39CQ2435,106,92,3250,46,10,DB,0.66
39CQ2435,106,12,3250,24,12,HF,0.34
39CQ2435,106,23,3250,46,12,HF,0.66
39CQ2435,106,24,3250,24,12,FL,0.34
39CQ2435,106,46,3250,46,12,FL,0.66
39CQ2435,106,48,3250,24,12,DB,0.34
39CQ2435,106,92,3250,46,12,DB,0.66
39CQ2435,106,12,3250,24,3,HF,0.34
39CQ2435,106,23,3250,46,3,HF,0.66
39CQ2435,106,24,3250,24,3,FL,0.34
39CQ2435,106,46,3250,46,3,FL,0.66
39CQ2435,106,12,3250,24,5,HF,0.34
39CQ2435,106,23,3250,46,5,HF,0.66
39CQ2435,106,24,3250,24,5,FL,0.34
39CQ2435,106,46,3250,46,5,FL,0.66
39CQ2435,106,30,3250,24,5,DB,0.34
39CQ2435,106,57,3250,46,5,DB,0.66
39CQ2435,106,12,3250,24,7,HF,0.34
39CQ2435,106,23,3250,46,7,HF,0.66
39CQ2435,106,24,3250,24,7,FL,0.34
39CQ2435,106,46,3250,46,7,FL,0.66
39CQ2435,106,42,3250,24,7,DB,0.34
39CQ2435,106,80,3250,46,7,DB,0.66
39CQ2635,41,12,3250,24,1,HF,0.32
39CQ2635,41,26,3250,52,1,HF,0.68
39CQ2635,41,12,3250,24,2,HF,0.32
39CQ2635,41,26,3250,52,2,HF,0.68
39CQ2635,41,24,3250,24,2,FL,0.32
39CQ2635,41,52,3250,52,2,FL,0.68
39CQ2635,106,12,3250,24,4,HF,0.32
39CQ2635,106,26,3250,52,4,HF,0.68
39CQ2635,106,24,3250,24,4,FL,0.32
39CQ2635,106,52,3250,52,4,FL,0.68
39CQ2635,106,12,3250,24,6,HF,0.32
39CQ2635,106,26,3250,52,6,HF,0.68
39CQ2635,106,24,3250,24,6,FL,0.32
39CQ2635,106,52,3250,52,6,FL,0.68
39CQ2635,106,36,3250,24,6,DB,0.32
39CQ2635,106,78,3250,52,6,DB,0.68
39CQ2635,106,12,3250,24,8,HF,0.32
39CQ2635,106,26,3250,52,8,HF,0.68
39CQ2635,106,24,3250,24,8,FL,0.32
39CQ2635,106,52,3250,52,8,FL,0.68
39CQ2635,106,48,3250,24,8,DB,0.32
39CQ2635,106,104,3250,52,8,DB,0.68
39CQ2635,106,12,3250,24,10,HF,0.32
39CQ2635,106,26,3250,52,10,HF,0.68
39CQ2635,106,24,3250,24,10,FL,0.32
39CQ2635,106,52,3250,52,10,FL,0.68
39CQ2635,106,48,3250,24,10,DB,0.32
39CQ2635,106,104,3250,52,10,DB,0.68
39CQ2635,106,12,3250,24,12,HF,0.32
39CQ2635,106,26,3250,52,12,HF,0.68
39CQ2635,106,24,3250,24,12,FL,0.32
39CQ2635,106,52,3250,52,12,FL,0.68
39CQ2635,106,48,3250,24,12,DB,0.32
39CQ2635,106,104,3250,52,12,DB,0.68
39CQ2635,106,12,3250,24,3,HF,0.32
39CQ2635,106,26,3250,52,3,HF,0.68
39CQ2635,106,24,3250,24,3,FL,0.32
39CQ2635,106,52,3250,52,3,FL,0.68
39CQ2635,106,12,3250,24,5,HF,0.32
39CQ2635,106,26,3250,52,5,HF,0.68
39CQ2635,106,24,3250,24,5,FL,0.32
39CQ2635,106,52,3250,52,5,FL,0.68
39CQ2635,106,30,3250,24,5,DB,0.32
39CQ2635,106,65,3250,52,5,DB,0.68
39CQ2635,106,12,3250,24,7,HF,0.32
39CQ2635,106,26,3250,52,7,HF,0.68
39CQ2635,106,24,3250,24,7,FL,0.32
39CQ2635,106,52,3250,52,7,FL,0.68
39CQ2635,106,42,3250,24,7,DB,0.32
39CQ2635,106,91,3250,52,7,DB,0.68
39CQ2735,41,12,3250,24,1,HF,0.3
39CQ2735,41,28,3250,56,1,HF,0.7
39CQ2735,41,12,3250,24,2,HF,0.3
39CQ2735,41,28,3250,56,2,HF,0.7
39CQ2735,41,24,3250,24,2,FL,0.3
39CQ2735,41,56,3250,56,2,FL,0.7
39CQ2735,106,12,3250,24,4,HF,0.3
39CQ2735,106,28,3250,56,4,HF,0.7
39CQ2735,106,24,3250,24,4,FL,0.3
39CQ2735,106,56,3250,56,4,FL,0.7
39CQ2735,106,12,3250,24,6,HF,0.3
39CQ2735,106,28,3250,56,6,HF,0.7
39CQ2735,106,24,3250,24,6,FL,0.3
39CQ2735,106,56,3250,56,6,FL,0.7
39CQ2735,106,36,3250,24,6,DB,0.3
39CQ2735,106,84,3250,56,6,DB,0.7
39CQ2735,106,12,3250,24,8,HF,0.3
39CQ2735,106,28,3250,56,8,HF,0.7
39CQ2735,106,24,3250,24,8,FL,0.3
39CQ2735,106,56,3250,56,8,FL,0.7
39CQ2735,106,48,3250,24,8,DB,0.3
39CQ2735,106,12,3250,24,10,HF,0.3
39CQ2735,106,28,3250,56,10,HF,0.7
39CQ2735,106,24,3250,24,10,FL,0.3
39CQ2735,106,56,3250,56,10,FL,0.7
39CQ2735,106,48,3250,24,10,DB,0.3
39CQ2735,106,12,3250,24,12,HF,0.3
39CQ2735,106,28,3250,56,12,HF,0.7
39CQ2735,106,24,3250,24,12,FL,0.3
39CQ2735,106,56,3250,56,12,FL,0.7
39CQ2735,106,48,3250,24,12,DB,0.3
39CQ2735,106,12,3250,24,3,HF,0.3
39CQ2735,106,28,3250,56,3,HF,0.7
39CQ2735,106,24,3250,24,3,FL,0.3
39CQ2735,106,56,3250,56,3,FL,0.7
39CQ2735,106,12,3250,24,5,HF,0.3
39CQ2735,106,28,3250,56,5,HF,0.7
39CQ2735,106,24,3250,24,5,FL,0.3
39CQ2735,106,56,3250,56,5,FL,0.7
39CQ2735,106,30,3250,24,5,DB,0.3
39CQ2735,106,70,3250,56,5,DB,0.7
39CQ2735,106,12,3250,24,7,HF,0.3
39CQ2735,106,28,3250,56,7,HF,0.7
39CQ2735,106,24,3250,24,7,FL,0.3
39CQ2735,106,56,3250,56,7,FL,0.7
39CQ2735,106,42,3250,24,7,DB,0.3
39CQ2735,106,56,3250,28,8,DB,0.35
39CQ2735,106,56,3250,28,8,DB,0.35
39CQ2735,106,56,3250,28,10,DB,0.35
39CQ2735,106,56,3250,28,10,DB,0.35
39CQ2735,106,56,3250,28,12,DB,0.35
39CQ2735,106,56,3250,28,12,DB,0.35
39CQ2735,106,49,3250,28,7,DB,0.35
39CQ2735,106,49,3250,28,7,DB,0.35
