unitModel,tId,cirNo,tLen,tNo,row,circuit,waterFlowRate
39CQ0608,41,8,615,16,1,HF,1
39CQ0609,41,9,715,18,1,HF,1
39CQ0711,41,10,903,20,1,HF,1
39CQ0811,41,12,903,24,1,HF,1
39CQ0912,41,14,988,28,1,HF,1
39CQ0913,41,14,1088,28,1,HF,1
39CQ0914,41,14,1188,28,1,HF,1
39CQ1015,41,16,1288,32,1,HF,1
39CQ1117,41,18,1474,36,1,HF,1
39CQ1317,41,22,1474,44,1,HF,1
39CQ0608,41,8,615,16,2,HF,1
39CQ0609,41,9,715,18,2,HF,1
39CQ0711,41,10,903,20,2,HF,1
39CQ0811,41,12,903,24,2,HF,1
39CQ0912,41,14,988,28,2,HF,1
39CQ0913,41,14,1088,28,2,HF,1
39CQ0914,41,14,1188,28,2,HF,1
39CQ1015,41,16,1288,32,2,HF,1
39CQ1117,41,18,1474,36,2,HF,1
39CQ1317,41,22,1474,44,2,HF,1
39CQ0608,41,16,615,16,2,FL,1
39CQ0609,41,18,715,18,2,FL,1
39CQ0711,41,20,903,20,2,FL,1
39CQ0811,41,24,903,24,2,FL,1
39CQ0912,41,28,988,28,2,FL,1
39CQ0913,41,28,1088,28,2,FL,1
39CQ0914,41,28,1188,28,2,FL,1
39CQ1015,41,32,1288,32,2,FL,1
39CQ1117,41,36,1474,36,2,FL,1
39CQ1317,41,44,1474,44,2,FL,1
39CQ0608,41,16,615,16,4,FL,1
39CQ0609,41,18,715,18,4,FL,1
39CQ0608,41,16,615,16,6,FL,1
39CQ0609,41,18,715,18,6,FL,1
39CQ0608,41,24,615,16,6,DB,1
39CQ0609,41,27,715,18,6,DB,1
39CQ0608,41,24,615,16,8,DB,1
39CQ0609,41,28,715,18,8,DB,1
39CQ0608,41,32,615,16,10,DB,1
39CQ0609,41,36,715,18,10,DB,1
39CQ0608,41,32,615,16,12,DB,1
39CQ0609,41,36,715,18,12,DB,1
39CQ0608,41,16,615,16,3,FL,1
39CQ0609,41,18,715,18,3,FL,1
39CQ0711,41,20,903,20,3,FL,1
39CQ0811,41,24,903,24,3,FL,1
39CQ0912,41,28,988,28,3,FL,1
39CQ0913,41,28,1088,28,3,FL,1
39CQ0914,41,28,1188,28,3,FL,1
39CQ1015,41,32,1288,32,3,FL,1
39CQ1117,41,36,1474,36,3,FL,1
39CQ1317,41,44,1474,44,3,FL,1
39CQ0608,41,16,615,16,5,FL,1
39CQ0609,41,18,715,18,5,FL,1
39CQ0608,41,20,615,16,5,DB,1
39CQ0609,41,22,715,18,5,DB,1
39CQ0608,41,28,615,16,7,DB,1
39CQ0609,41,31,715,18,7,DB,1
39CQ0711,53,20,903,20,4,FL,1
39CQ0811,53,24,903,24,4,FL,1
39CQ0711,53,20,903,20,6,FL,1
39CQ0811,53,24,903,24,6,FL,1
39CQ0711,53,30,903,20,6,DB,1
39CQ0811,53,36,903,24,6,DB,1
39CQ0711,53,32,903,20,8,DB,1
39CQ0811,53,40,903,24,8,DB,1
39CQ0711,53,40,903,20,10,DB,1
39CQ0811,53,48,903,24,10,DB,1
39CQ0711,53,40,903,20,12,DB,1
39CQ0811,53,48,903,24,12,DB,1
39CQ0711,53,20,903,20,5,FL,1
39CQ0811,53,24,903,24,5,FL,1
39CQ0711,53,25,903,20,5,DB,1
39CQ0811,53,30,903,24,5,DB,1
39CQ0711,53,35,903,20,7,DB,1
39CQ0811,53,42,903,24,7,DB,1
39CQ0912,68,28,988,28,4,FL,1
39CQ0913,68,28,1088,28,4,FL,1
39CQ0914,68,28,1188,28,4,FL,1
39CQ1015,68,32,1288,32,4,FL,1
39CQ0912,68,28,988,28,6,FL,1
39CQ0913,68,28,1088,28,6,FL,1
39CQ0914,68,28,1188,28,6,FL,1
39CQ1015,68,32,1288,32,6,FL,1
39CQ0912,68,42,988,28,6,DB,1
39CQ0913,68,42,1088,28,6,DB,1
39CQ0914,68,42,1188,28,6,DB,1
39CQ1015,68,48,1288,32,6,DB,1
39CQ0912,68,44,988,28,8,DB,1
39CQ0913,68,44,1088,28,8,DB,1
39CQ0914,68,44,1188,28,8,DB,1
39CQ1015,68,52,1288,32,8,DB,1
39CQ0912,68,56,988,28,10,DB,1
39CQ0913,68,56,1088,28,10,DB,1
39CQ0914,68,56,1188,28,10,DB,1
39CQ1015,68,64,1288,32,10,DB,1
39CQ0912,68,56,988,28,12,DB,1
39CQ0913,68,56,1088,28,12,DB,1
39CQ0914,68,56,1188,28,12,DB,1
39CQ1015,68,64,1288,32,12,DB,1
39CQ0912,68,28,988,28,5,FL,1
39CQ0913,68,28,1088,28,5,FL,1
39CQ0914,68,28,1188,28,5,FL,1
39CQ1015,68,32,1288,32,5,FL,1
39CQ0912,68,35,988,28,5,DB,1
39CQ0913,68,35,1088,28,5,DB,1
39CQ0914,68,35,1188,28,5,DB,1
39CQ1015,68,40,1288,32,5,DB,1
39CQ0912,68,49,988,28,7,DB,1
39CQ0913,68,49,1088,28,7,DB,1
39CQ0914,68,49,1188,28,7,DB,1
39CQ1015,68,56,1288,32,7,DB,1
39CQ1117,81,36,1474,36,4,FL,1
39CQ1317,81,44,1474,44,4,FL,1
39CQ1117,81,36,1474,36,6,FL,1
39CQ1317,81,44,1474,44,6,FL,1
39CQ1117,81,54,1474,36,6,DB,1
39CQ1317,81,66,1474,44,6,DB,1
39CQ1117,81,56,1474,36,8,DB,1
39CQ1317,81,72,1474,44,8,DB,1
39CQ1117,81,72,1474,36,10,DB,1
39CQ1317,81,88,1474,44,10,DB,1
39CQ1117,81,72,1474,36,12,DB,1
39CQ1317,81,88,1474,44,12,DB,1
39CQ1117,81,36,1474,36,5,FL,1
39CQ1317,81,44,1474,44,5,FL,1
39CQ1117,81,45,1474,36,5,DB,1
39CQ1317,81,55,1474,44,5,DB,1
39CQ1117,81,63,1474,36,7,DB,1
39CQ1317,81,77,1474,44,7,DB,1
39XT0608,41,8,615,16,1,HF,1
39XT0609,41,9,715,18,1,HF,1
39XT0711,41,10,903,20,1,HF,1
39XT0811,41,12,903,24,1,HF,1
39XT0912,41,14,988,28,1,HF,1
39XT0913,41,14,1088,28,1,HF,1
39XT0914,41,14,1188,28,1,HF,1
39XT1015,41,16,1288,32,1,HF,1
39XT1117,41,18,1474,36,1,HF,1
39XT1317,41,22,1474,44,1,HF,1
39XT0608,41,8,615,16,2,HF,1
39XT0609,41,9,715,18,2,HF,1
39XT0711,41,10,903,20,2,HF,1
39XT0811,41,12,903,24,2,HF,1
39XT0912,41,14,988,28,2,HF,1
39XT0913,41,14,1088,28,2,HF,1
39XT0914,41,14,1188,28,2,HF,1
39XT1015,41,16,1288,32,2,HF,1
39XT1117,41,18,1474,36,2,HF,1
39XT1317,41,22,1474,44,2,HF,1
39XT0608,41,16,615,16,2,FL,1
39XT0609,41,18,715,18,2,FL,1
39XT0711,41,20,903,20,2,FL,1
39XT0811,41,24,903,24,2,FL,1
39XT0912,41,28,988,28,2,FL,1
39XT0913,41,28,1088,28,2,FL,1
39XT0914,41,28,1188,28,2,FL,1
39XT1015,41,32,1288,32,2,FL,1
39XT1117,41,36,1474,36,2,FL,1
39XT1317,41,44,1474,44,2,FL,1
39XT0608,41,16,615,16,4,FL,1
39XT0609,41,18,715,18,4,FL,1
39XT0608,41,16,615,16,6,FL,1
39XT0609,41,18,715,18,6,FL,1
39XT0608,41,24,615,16,6,DB,1
39XT0609,41,27,715,18,6,DB,1
39XT0608,41,24,615,16,8,DB,1
39XT0609,41,28,715,18,8,DB,1
39XT0608,41,32,615,16,10,DB,1
39XT0609,41,36,715,18,10,DB,1
39XT0608,41,32,615,16,12,DB,1
39XT0609,41,36,715,18,12,DB,1
39XT0608,41,16,615,16,3,FL,1
39XT0609,41,18,715,18,3,FL,1
39XT0711,41,20,903,20,3,FL,1
39XT0811,41,24,903,24,3,FL,1
39XT0912,41,28,988,28,3,FL,1
39XT0913,41,28,1088,28,3,FL,1
39XT0914,41,28,1188,28,3,FL,1
39XT1015,41,32,1288,32,3,FL,1
39XT1117,41,36,1474,36,3,FL,1
39XT1317,41,44,1474,44,3,FL,1
39XT0608,41,16,615,16,5,FL,1
39XT0609,41,18,715,18,5,FL,1
39XT0608,41,20,615,16,5,DB,1
39XT0609,41,22,715,18,5,DB,1
39XT0608,41,28,615,16,7,DB,1
39XT0609,41,31,715,18,7,DB,1
39XT0711,53,20,903,20,4,FL,1
39XT0811,53,24,903,24,4,FL,1
39XT0711,53,20,903,20,6,FL,1
39XT0811,53,24,903,24,6,FL,1
39XT0711,53,30,903,20,6,DB,1
39XT0811,53,36,903,24,6,DB,1
39XT0711,53,32,903,20,8,DB,1
39XT0811,53,40,903,24,8,DB,1
39XT0711,53,40,903,20,10,DB,1
39XT0811,53,48,903,24,10,DB,1
39XT0711,53,40,903,20,12,DB,1
39XT0811,53,48,903,24,12,DB,1
39XT0711,53,20,903,20,5,FL,1
39XT0811,53,24,903,24,5,FL,1
39XT0711,53,25,903,20,5,DB,1
39XT0811,53,30,903,24,5,DB,1
39XT0711,53,35,903,20,7,DB,1
39XT0811,53,42,903,24,7,DB,1
39XT0912,68,28,988,28,4,FL,1
39XT0913,68,28,1088,28,4,FL,1
39XT0914,68,28,1188,28,4,FL,1
39XT1015,68,32,1288,32,4,FL,1
39XT0912,68,28,988,28,6,FL,1
39XT0913,68,28,1088,28,6,FL,1
39XT0914,68,28,1188,28,6,FL,1
39XT1015,68,32,1288,32,6,FL,1
39XT0912,68,42,988,28,6,DB,1
39XT0913,68,42,1088,28,6,DB,1
39XT0914,68,42,1188,28,6,DB,1
39XT1015,68,48,1288,32,6,DB,1
39XT0912,68,44,988,28,8,DB,1
39XT0913,68,44,1088,28,8,DB,1
39XT0914,68,44,1188,28,8,DB,1
39XT1015,68,52,1288,32,8,DB,1
39XT0912,68,56,988,28,10,DB,1
39XT0913,68,56,1088,28,10,DB,1
39XT0914,68,56,1188,28,10,DB,1
39XT1015,68,64,1288,32,10,DB,1
39XT0912,68,56,988,28,12,DB,1
39XT0913,68,56,1088,28,12,DB,1
39XT0914,68,56,1188,28,12,DB,1
39XT1015,68,64,1288,32,12,DB,1
39XT0912,68,28,988,28,5,FL,1
39XT0913,68,28,1088,28,5,FL,1
39XT0914,68,28,1188,28,5,FL,1
39XT1015,68,32,1288,32,5,FL,1
39XT0912,68,35,988,28,5,DB,1
39XT0913,68,35,1088,28,5,DB,1
39XT0914,68,35,1188,28,5,DB,1
39XT1015,68,40,1288,32,5,DB,1
39XT0912,68,49,988,28,7,DB,1
39XT0913,68,49,1088,28,7,DB,1
39XT0914,68,49,1188,28,7,DB,1
39XT1015,68,56,1288,32,7,DB,1
39XT1117,81,36,1474,36,4,FL,1
39XT1317,81,44,1474,44,4,FL,1
39XT1117,81,36,1474,36,6,FL,1
39XT1317,81,44,1474,44,6,FL,1
39XT1117,81,54,1474,36,6,DB,1
39XT1317,81,66,1474,44,6,DB,1
39XT1117,81,56,1474,36,8,DB,1
39XT1317,81,72,1474,44,8,DB,1
39XT1117,81,72,1474,36,10,DB,1
39XT1317,81,88,1474,44,10,DB,1
39XT1117,81,72,1474,36,12,DB,1
39XT1317,81,88,1474,44,12,DB,1
39XT1117,81,36,1474,36,5,FL,1
39XT1317,81,44,1474,44,5,FL,1
39XT1117,81,45,1474,36,5,DB,1
39XT1317,81,55,1474,44,5,DB,1
39XT1117,81,63,1474,36,7,DB,1
39XT1317,81,77,1474,44,7,DB,1
39G0608,41,8,615,16,1,HF,1
39G0609,41,9,715,18,1,HF,1
39G0711,41,10,903,20,1,HF,1
39G0811,41,12,903,24,1,HF,1
39G0912,41,14,988,28,1,HF,1
39G0913,41,14,1088,28,1,HF,1
39G0914,41,14,1188,28,1,HF,1
39G1015,41,16,1288,32,1,HF,1
39G1117,41,18,1474,36,1,HF,1
39G1317,41,22,1474,44,1,HF,1
39G0608,41,8,615,16,2,HF,1
39G0609,41,9,715,18,2,HF,1
39G0711,41,10,903,20,2,HF,1
39G0811,41,12,903,24,2,HF,1
39G0912,41,14,988,28,2,HF,1
39G0913,41,14,1088,28,2,HF,1
39G0914,41,14,1188,28,2,HF,1
39G1015,41,16,1288,32,2,HF,1
39G1117,41,18,1474,36,2,HF,1
39G1317,41,22,1474,44,2,HF,1
39G0608,41,16,615,16,2,FL,1
39G0609,41,18,715,18,2,FL,1
39G0711,41,20,903,20,2,FL,1
39G0811,41,24,903,24,2,FL,1
39G0912,41,28,988,28,2,FL,1
39G0913,41,28,1088,28,2,FL,1
39G0914,41,28,1188,28,2,FL,1
39G1015,41,32,1288,32,2,FL,1
39G1117,41,36,1474,36,2,FL,1
39G1317,41,44,1474,44,2,FL,1
39G0608,41,16,615,16,4,FL,1
39G0609,41,18,715,18,4,FL,1
39G0608,41,16,615,16,6,FL,1
39G0609,41,18,715,18,6,FL,1
39G0608,41,24,615,16,6,DB,1
39G0609,41,27,715,18,6,DB,1
39G0608,41,24,615,16,8,DB,1
39G0609,41,28,715,18,8,DB,1
39G0608,41,32,615,16,10,DB,1
39G0609,41,36,715,18,10,DB,1
39G0608,41,32,615,16,12,DB,1
39G0609,41,36,715,18,12,DB,1
39G0608,41,16,615,16,3,FL,1
39G0609,41,18,715,18,3,FL,1
39G0711,41,20,903,20,3,FL,1
39G0811,41,24,903,24,3,FL,1
39G0912,41,28,988,28,3,FL,1
39G0913,41,28,1088,28,3,FL,1
39G0914,41,28,1188,28,3,FL,1
39G1015,41,32,1288,32,3,FL,1
39G1117,41,36,1474,36,3,FL,1
39G1317,41,44,1474,44,3,FL,1
39G0608,41,16,615,16,5,FL,1
39G0609,41,18,715,18,5,FL,1
39G0608,41,20,615,16,5,DB,1
39G0609,41,22,715,18,5,DB,1
39G0608,41,28,615,16,7,DB,1
39G0609,41,31,715,18,7,DB,1
39G0711,53,20,903,20,4,FL,1
39G0811,53,24,903,24,4,FL,1
39G0711,53,20,903,20,6,FL,1
39G0811,53,24,903,24,6,FL,1
39G0711,53,30,903,20,6,DB,1
39G0811,53,36,903,24,6,DB,1
39G0711,53,32,903,20,8,DB,1
39G0811,53,40,903,24,8,DB,1
39G0711,53,40,903,20,10,DB,1
39G0811,53,48,903,24,10,DB,1
39G0711,53,40,903,20,12,DB,1
39G0811,53,48,903,24,12,DB,1
39G0711,53,20,903,20,5,FL,1
39G0811,53,24,903,24,5,FL,1
39G0711,53,25,903,20,5,DB,1
39G0811,53,30,903,24,5,DB,1
39G0711,53,35,903,20,7,DB,1
39G0811,53,42,903,24,7,DB,1
39G0912,68,28,988,28,4,FL,1
39G0913,68,28,1088,28,4,FL,1
39G0914,68,28,1188,28,4,FL,1
39G1015,68,32,1288,32,4,FL,1
39G0912,68,28,988,28,6,FL,1
39G0913,68,28,1088,28,6,FL,1
39G0914,68,28,1188,28,6,FL,1
39G1015,68,32,1288,32,6,FL,1
39G0912,68,42,988,28,6,DB,1
39G0913,68,42,1088,28,6,DB,1
39G0914,68,42,1188,28,6,DB,1
39G1015,68,48,1288,32,6,DB,1
39G0912,68,44,988,28,8,DB,1
39G0913,68,44,1088,28,8,DB,1
39G0914,68,44,1188,28,8,DB,1
39G1015,68,52,1288,32,8,DB,1
39G0912,68,56,988,28,10,DB,1
39G0913,68,56,1088,28,10,DB,1
39G0914,68,56,1188,28,10,DB,1
39G1015,68,64,1288,32,10,DB,1
39G0912,68,56,988,28,12,DB,1
39G0913,68,56,1088,28,12,DB,1
39G0914,68,56,1188,28,12,DB,1
39G1015,68,64,1288,32,12,DB,1
39G0912,68,28,988,28,5,FL,1
39G0913,68,28,1088,28,5,FL,1
39G0914,68,28,1188,28,5,FL,1
39G1015,68,32,1288,32,5,FL,1
39G0912,68,35,988,28,5,DB,1
39G0913,68,35,1088,28,5,DB,1
39G0914,68,35,1188,28,5,DB,1
39G1015,68,40,1288,32,5,DB,1
39G0912,68,49,988,28,7,DB,1
39G0913,68,49,1088,28,7,DB,1
39G0914,68,49,1188,28,7,DB,1
39G1015,68,56,1288,32,7,DB,1
39G1117,81,36,1474,36,4,FL,1
39G1317,81,44,1474,44,4,FL,1
39G1117,81,36,1474,36,6,FL,1
39G1317,81,44,1474,44,6,FL,1
39G1117,81,54,1474,36,6,DB,1
39G1317,81,66,1474,44,6,DB,1
39G1117,81,56,1474,36,8,DB,1
39G1317,81,72,1474,44,8,DB,1
39G1117,81,72,1474,36,10,DB,1
39G1317,81,88,1474,44,10,DB,1
39G1117,81,72,1474,36,12,DB,1
39G1317,81,88,1474,44,12,DB,1
39G1117,81,36,1474,36,5,FL,1
39G1317,81,44,1474,44,5,FL,1
39G1117,81,45,1474,36,5,DB,1
39G1317,81,55,1474,44,5,DB,1
39G1117,81,63,1474,36,7,DB,1
39G1317,81,77,1474,44,7,DB,1
