id,name,parentId,band,width,filtering,sorting,interfaceName
15,盘管信息,,1,190,0,0,HEATCOILVIEW
16,进风,,0,150,0,0,HEATCOILVIEW
17,出风,,1,150,0,0,HEATCOILVIEW
18,风侧,,1,150,0,0,HEATCOILVIEW
19,水侧,,1,200,1,1,HEATCOILVIEW
20,性能,,1,100,1,0,HEATCOILVIEW
21,盘数,15,1,30,1,1,HEATCOILVIEW
22,片距,15,1,30,1,1,HEATCOILVIEW
23,回路,15,1,30,1,1,HEATCOILVIEW
24,迎风面积,15,1,50,1,1,HEATCOILVIEW
25,面风速,15,1,50,1,1,HEATCOILVIEW
26,干球温度,16,1,50,0,0,HEATCOILVIEW
27,湿球温度,16,1,50,0,0,HEATCOILVIEW
28,相对湿度,16,1,50,0,0,HEATCOILVIEW
29,干球温度,17,1,50,0,0,HEATCOILVIEW
30,湿球温度,17,1,50,0,1,HEATCOILVIEW
31,相对湿度,17,1,50,0,1,HEATCOILVIEW
32,空气阻力,18,1,50,1,0,HEATCOILVIEW
33,水阻力,19,1,50,0,0,HEATCOILVIEW
34,水流量,19,1,50,0,0,HEATCOILVIEW
35,热量,20,1,50,0,0,HEATCOILVIEW
37,DegC,26,0,50,1,1,HEATCOILVIEW
38,DegC,27,0,50,1,1,HEATCOILVIEW
39,%,28,0,50,0,0,HEATCOILVIEW
40,DegC,29,0,50,0,0,HEATCOILVIEW
41,DegC,30,0,50,0,1,HEATCOILVIEW
42,%,31,0,50,0,0,HEATCOILVIEW
43,Pa,32,0,50,1,1,HEATCOILVIEW
44,kPa,33,0,50,1,1,HEATCOILVIEW
45,L/s,34,0,50,1,1,HEATCOILVIEW
46,Kw,35,0,50,1,1,HEATCOILVIEW
47,Kw,36,0,50,1,1,HEATCOILVIEW
48,进水温度,19,1,50,1,0,HEATCOILVIEW
49,水温降,19,1,50,0,0,HEATCOILVIEW
50,DegC,48,0,50,0,0,HEATCOILVIEW
51,DegC,49,0,50,0,0,HEATCOILVIEW
52,m2,24,0,50,0,0,HEATCOILVIEW
53,m/s,25,0,50,0,0,HEATCOILVIEW
55,,54,0,50,0,0,HEATCOILVIEW
56,系统信息,,1,100,0,0,HEATCOILVIEW
57,系统水流量,56,0,50,0,0,HEATCOILVIEW
58,系统水温降,56,0,50,0,0,HEATCOILVIEW
59,L/s,57,0,50,0,0,HEATCOILVIEW
60,DegC,58,0,50,0,0,HEATCOILVIEW
61,,21,0,30,0,0,HEATCOILVIEW
62,,22,0,30,0,0,HEATCOILVIEW
63,,23,0,30,0,0,HEATCOILVIEW
